# Format: McStas with text headers file. Use mcplot/PGPLOT to view.
# URL:    http://www.mccode.org/
# Editor: erkn on localhost
# Creator:Test_src_gaussian (Test_src_gaussian.instr) simulation (McXtrace x.y.z - Jan. 22, 2013)
# Date:   Simulation started (1359026924) Thu Jan 24 12:28:44 2013
# File:   emon00.dat
# Ncount: 1e+06
# Trace: no
# Gravitation: no
# Seed: 1359026911
# Param: XW=0
# Param: YH=0
# Param: DIST=10
# Param: SRC=2
# Param: E0=9.9
# type: array_1d(100)
# Source: Test_src_gaussian.instr
# component: emon00
# position: 0 0 0.09
# title: Energy monitor
# Ncount: 1e+06
# filename: emon00.dat
# format: McStas with text headers
# statistics: X0=6.90252; dX=2.94241;
# signal: Min=0; Max=9.36735e+14; Mean=4.3035e+14;
# values: 4.3035e+16 4.56619e+13 999998
# xvar: E
# yvar: (I,I_err)
# xlabel: Energy [keV]
# ylabel: Intensity
# xlimits: 0 20
# variables: E I I_err N
# Data [emon00_dat/emon00.dat] I: 
0.1 1.6162457108e+13 147482873227 16604 
0.3 5.57050549138e+13 441003881944 16730 
0.5 1.00838291221e+14 783283630212 16857 
0.7 1.46382093012e+14 1.13572378834e+12 16756 
0.9 1.91791440319e+14 1.49343249542e+12 16575 
1.1 2.3778677599e+14 1.85279150314e+12 16524 
1.3 2.88742551157e+14 2.23131733471e+12 16782 
1.5 3.36345095243e+14 2.59319227399e+12 16849 
1.7 3.78798900272e+14 2.93088497104e+12 16723 
1.9 4.18925936823e+14 3.25448610056e+12 16584 
2.1 4.62324281264e+14 3.58431662509e+12 16648 
2.3 5.10933908571e+14 3.92903194949e+12 16919 
2.5 5.46378152778e+14 4.21473856216e+12 16812 
2.7 5.73937240219e+14 4.46298610321e+12 16543 
2.9 6.18718838066e+14 4.77057665891e+12 16825 
3.1 6.49453024132e+14 5.01666378028e+12 16763 
3.3 6.83362565488e+14 5.26687823649e+12 16837 
3.5 7.05978186858e+14 5.46599801996e+12 16684 
3.7 7.27617283444e+14 5.6534937081e+12 16566 
3.9 7.52539050506e+14 5.84654202853e+12 16569 
4.1 7.8432924986e+14 6.05828978726e+12 16762 
4.3 7.90623593002e+14 6.16488011044e+12 16448 
4.5 8.14118960808e+14 6.33075475245e+12 16538 
4.7 8.37394017064e+14 6.48880394465e+12 16655 
4.9 8.55150248573e+14 6.61842708874e+12 16695 
5.1 8.65233754888e+14 6.71255109521e+12 16615 
5.3 8.89663227419e+14 6.85579371808e+12 16840 
5.5 8.91064981594e+14 6.90357957339e+12 16660 
5.7 8.98829346259e+14 6.97042048084e+12 16628 
5.9 9.20986713175e+14 7.08747054089e+12 16886 
6.1 9.07256850011e+14 7.06085456098e+12 16510 
6.3 9.16435498798e+14 7.11635753901e+12 16584 
6.5 9.2515948348e+14 7.16597191808e+12 16668 
6.7 9.33971420147e+14 7.21133031073e+12 16774 
6.9 9.36734561564e+14 7.2287858566e+12 16792 
7.1 9.27869065814e+14 7.19689321452e+12 16622 
7.3 9.36501165383e+14 7.22892202707e+12 16783 
7.5 9.23346469961e+14 7.17282784207e+12 16571 
7.7 9.17640788085e+14 7.14187881095e+12 16509 
7.9 9.29369047062e+14 7.1753689731e+12 16776 
8.1 9.25734152737e+14 7.14624312661e+12 16781 
8.3 9.05828502065e+14 7.05080580856e+12 16505 
8.5 9.09637978473e+14 7.04469899831e+12 16673 
8.7 9.03862554342e+14 6.99871478288e+12 16679 
8.9 8.80569079547e+14 6.88240472321e+12 16370 
9.1 8.78347020787e+14 6.84562287901e+12 16463 
9.3 8.82416350331e+14 6.83123056632e+12 16686 
9.5 8.69919531011e+14 6.75048966292e+12 16607 
9.7 8.67373813783e+14 6.70635026252e+12 16728 
9.9 8.51215897998e+14 6.60814330346e+12 16593 
10.1 8.32782367268e+14 6.48853584776e+12 16474 
10.3 8.3109129552e+14 6.44802612533e+12 16613 
10.5 8.19227326682e+14 6.36884709602e+12 16546 
10.7 8.12728579697e+14 6.30272843205e+12 16628 
10.9 8.01667698867e+14 6.21788978167e+12 16623 
11.1 7.90571515518e+14 6.13201459628e+12 16622 
11.3 7.82190195125e+14 6.05590652617e+12 16683 
11.5 7.75070791432e+14 5.98395387702e+12 16777 
11.7 7.49629096166e+14 5.84051758914e+12 16474 
11.9 7.60731612195e+14 5.83346656965e+12 17007 
12.1 0 0 0 
12.3 0 0 0 
12.5 0 0 0 
12.7 0 0 0 
12.9 0 0 0 
13.1 0 0 0 
13.3 0 0 0 
13.5 0 0 0 
13.7 0 0 0 
13.9 0 0 0 
14.1 0 0 0 
14.3 0 0 0 
14.5 0 0 0 
14.7 0 0 0 
14.9 0 0 0 
15.1 0 0 0 
15.3 0 0 0 
15.5 0 0 0 
15.7 0 0 0 
15.9 0 0 0 
16.1 0 0 0 
16.3 0 0 0 
16.5 0 0 0 
16.7 0 0 0 
16.9 0 0 0 
17.1 0 0 0 
17.3 0 0 0 
17.5 0 0 0 
17.7 0 0 0 
17.9 0 0 0 
18.1 0 0 0 
18.3 0 0 0 
18.5 0 0 0 
18.7 0 0 0 
18.9 0 0 0 
19.1 0 0 0 
19.3 0 0 0 
19.5 0 0 0 
19.7 0 0 0 
19.9 0 0 0 
# EndDate:Thu Jan 24 12:28:44 2013
