# Format: McStas with text headers file. Use mcplot/PGPLOT to view.
# URL:    http://www.mccode.org/
# Editor: erkn on localhost
# Creator:Test_src_gaussian (Test_src_gaussian.instr) simulation (McXtrace x.y.z - Jan. 22, 2013)
# Date:   Simulation started (1358950984) Wed Jan 23 15:23:04 2013
# File:   emon2.dat
# Ncount: 250000
# Trace: no
# Gravitation: no
# Seed: 1358950979
# Param: XW=0.01
# Param: YH=0.01
# Param: DIST=10
# Param: SRC=2
# Param: E0=10.7
# type: array_1d(100)
# Source: Test_src_gaussian.instr
# component: emon2
# position: 0 0 10.001
# title: Energy monitor
# Ncount: 250000
# filename: emon2.dat
# format: McStas with text headers
# statistics: X0=6.91698; dX=2.92388;
# signal: Min=0; Max=1.28065e+11; Mean=5.369e+10;
# values: 5.369e+12 5.10571e+10 12441
# xvar: E
# yvar: (I,I_err)
# xlabel: Energy [keV]
# ylabel: Intensity
# xlimits: 0 20
# variables: E I I_err N
# Data [emon2_dat/emon2.dat] I: 
0.1 2460258709.42 182445200.888 248 
0.3 6231875517.25 467390461.719 187 
0.5 10938030688.1 815330479.328 183 
0.7 18728028225.4 1282685218.5 215 
0.9 22349829772.7 1617283337.5 192 
1.1 29939873196.4 2084191421.03 207 
1.3 32139323194.5 2352932486.97 187 
1.5 44312402429.7 2982696964.83 221 
1.7 44092036035.2 3159205964.24 195 
1.9 54017909016.8 3694301030 214 
2.1 61912521740.7 4147379013.07 223 
2.3 61787073871.3 4316475679.31 205 
2.5 69533437803.6 4754128559.81 214 
2.7 71769351441.8 4989128573.48 207 
2.9 76101985288.3 5290140637.61 207 
3.1 79596415470.5 5559768369.31 205 
3.3 71342443998.4 5378064467.24 176 
3.5 91352634709.5 6216160128.81 216 
3.7 84821015774.8 6105894755.97 193 
3.9 86820793114 6282366068.51 191 
4.1 103426626836 6957477464.58 221 
4.3 87493115841.5 6485587182.86 182 
4.5 107194809313 7260296957.82 218 
4.7 107056204573 7335487560.42 213 
4.9 107015227111 7402498707.74 209 
5.1 108771101706 7523934767.12 209 
5.3 97708819532 7183750061.19 185 
5.5 106977715803 7564506372.26 200 
5.7 120018289383 8055132656.01 222 
5.9 114533749956 7903601552.01 210 
6.1 118141288868 8057179934.59 215 
6.3 127605182894 8395812935.52 231 
6.5 121556556119 8214035351.77 219 
6.7 128065279006 8444376675.33 230 
6.9 117153003257 8084325750.54 210 
7.1 113877361162 7973010077.89 204 
7.3 118300304097 8124898513.24 212 
7.5 105317921977 7660752615.58 189 
7.7 124504850479 8318833034.16 224 
7.9 119117347426 8123740722.23 215 
8.1 119711163937 8126531386.2 217 
8.3 108671312690 7722943967.16 198 
8.5 110752162693 7773290943.02 203 
8.7 113812324496 7853812748.86 210 
8.9 105431324189 7530827318.42 196 
9.1 100819699969 7333578882.66 189 
9.3 113178702548 7736763228.17 214 
9.5 117323079607 7839008992.79 224 
9.7 112008635447 7621258582.49 216 
9.9 107209768498 7415894257.65 209 
10.1 102569542692 7199224436.87 203 
10.3 112024296926 7484971702.02 224 
10.5 99556876014.6 7022238708.14 201 
10.7 98235358081.2 6929037433.23 201 
10.9 104671354371 7105607652.15 217 
11.1 92772691256.6 6643645936.54 195 
11.3 104118234693 6988013733.97 222 
11.5 92855732471 6549602707.73 201 
11.7 93294118433.4 6516020232.2 205 
11.9 85903481296.2 6199673346.04 192 
12.1 0 0 0 
12.3 0 0 0 
12.5 0 0 0 
12.7 0 0 0 
12.9 0 0 0 
13.1 0 0 0 
13.3 0 0 0 
13.5 0 0 0 
13.7 0 0 0 
13.9 0 0 0 
14.1 0 0 0 
14.3 0 0 0 
14.5 0 0 0 
14.7 0 0 0 
14.9 0 0 0 
15.1 0 0 0 
15.3 0 0 0 
15.5 0 0 0 
15.7 0 0 0 
15.9 0 0 0 
16.1 0 0 0 
16.3 0 0 0 
16.5 0 0 0 
16.7 0 0 0 
16.9 0 0 0 
17.1 0 0 0 
17.3 0 0 0 
17.5 0 0 0 
17.7 0 0 0 
17.9 0 0 0 
18.1 0 0 0 
18.3 0 0 0 
18.5 0 0 0 
18.7 0 0 0 
18.9 0 0 0 
19.1 0 0 0 
19.3 0 0 0 
19.5 0 0 0 
19.7 0 0 0 
19.9 0 0 0 
# EndDate:Wed Jan 23 15:23:04 2013
