# Format: McStas with text headers file. Use mcplot/PGPLOT to view.
# URL:    http://www.mccode.org/
# Editor: erkn on localhost
# Creator:Test_src_gaussian (Test_src_gaussian.instr) simulation (McXtrace x.y.z - Jan. 22, 2013)
# Date:   Simulation started (1358940225) Wed Jan 23 12:23:45 2013
# File:   emon0.dat
# Ncount: 1e+06
# Trace: no
# Gravitation: no
# Seed: 1358940214
# Param: XW=0.01
# Param: YH=0.01
# Param: DIST=10
# Param: SRC=2
# Param: E0=9.8
# type: array_1d(100)
# Source: Test_src_gaussian.instr
# component: emon00
# position: 0 0 0.09
# title: Energy monitor
# Ncount: 1e+06
# filename: emon0.dat
# format: McStas with text headers
# statistics: X0=6.89998; dX=2.93751;
# signal: Min=0; Max=9.38474e+12; Mean=4.30634e+12;
# values: 4.30634e+14 4.56866e+11 1e+06
# xvar: E
# yvar: (I,I_err)
# xlabel: Energy [keV]
# ylabel: Intensity
# xlimits: 0 20
# variables: E I I_err N
# Data [emon0_dat/emon0.dat] I: 
0.1 162681200684 1481401755.46 16738 
0.3 550939877710 4381043315.88 16595 
0.5 998388464765 7791423854.86 16706 
0.7 1.44063171269e+12 11275086104.5 16466 
0.9 1.92977209256e+12 14974203001 16692 
1.1 2.4092610226e+12 18660936473.5 16722 
1.3 2.86042457838e+12 22204622677 16631 
1.5 3.33553182456e+12 25827300579.4 16705 
1.7 3.83759945617e+12 29498319372.6 16944 
1.9 4.17718453963e+12 32492182405 16542 
2.1 4.69442663077e+12 36116452690.9 16906 
2.3 5.0138614384e+12 38912074914.5 16611 
2.5 5.37282867356e+12 41795316444.8 16532 
2.7 5.82573861924e+12 44965698867 16791 
2.9 6.09108666845e+12 47336157895.1 16562 
3.1 6.38106649948e+12 49722200366.6 16473 
3.3 6.71832701824e+12 52219366372.7 16555 
3.5 7.03609986935e+12 54563385659 16631 
3.7 7.24789226686e+12 56424333433.9 16502 
3.9 7.52843497172e+12 58474940235.7 16577 
4.1 7.78085077257e+12 60342261747.9 16628 
4.3 8.1081665084e+12 62429449592.8 16869 
4.5 8.33097862572e+12 64038454733.1 16925 
4.7 8.46821503332e+12 65249392655.5 16844 
4.9 8.66117439774e+12 66607545552.2 16909 
5.1 8.72904679682e+12 67423022594.8 16762 
5.3 8.80504564964e+12 68203403913.4 16667 
5.5 9.00489943298e+12 69400377922.6 16836 
5.7 8.97212299718e+12 69641650395.3 16598 
5.9 9.11125304421e+12 70494649886.7 16705 
6.1 9.21273074923e+12 71152006262.4 16765 
6.3 9.33127019238e+12 71808831871.6 16886 
6.5 9.2639217569e+12 71707891665.5 16690 
6.7 9.38474425531e+12 72286664038.5 16855 
6.9 9.34830845842e+12 72214094388.9 16758 
7.1 9.31607867431e+12 72113735378.6 16689 
7.3 9.37735167924e+12 72337077813.7 16805 
7.5 9.27636517333e+12 71894700128.8 16648 
7.7 9.22588421682e+12 71611087534.5 16598 
7.9 9.23438330701e+12 71524259137.6 16669 
8.1 9.25756268393e+12 71462007958.6 16782 
8.3 9.12250509714e+12 70757587495.6 16622 
8.5 9.06312339931e+12 70318188355.7 16612 
8.7 9.03250874935e+12 69962858918.8 16668 
8.9 8.7744132736e+12 68701398003.8 16312 
9.1 8.79463390734e+12 68499563870.1 16484 
9.3 8.80591111538e+12 68240567632.6 16652 
9.5 8.76098935434e+12 67744162393.1 16725 
9.7 8.69301059166e+12 67138301774.4 16765 
9.9 8.46201650515e+12 65887028076.7 16495 
10.1 8.40281074022e+12 65175554871.3 16623 
10.3 8.25250747993e+12 64253774869.1 16496 
10.5 8.24880481093e+12 63908175738.4 16660 
10.7 8.177395961e+12 63218499757.5 16732 
10.9 7.99638420795e+12 62100013058 16581 
11.1 7.81040412599e+12 60950512867.4 16421 
11.3 7.75303046052e+12 60292056524.4 16536 
11.5 7.73708459878e+12 59787842371.9 16747 
11.7 7.59443076058e+12 58783909632.7 16691 
11.9 7.33994891954e+12 57300849603 16409 
12.1 0 0 0 
12.3 0 0 0 
12.5 0 0 0 
12.7 0 0 0 
12.9 0 0 0 
13.1 0 0 0 
13.3 0 0 0 
13.5 0 0 0 
13.7 0 0 0 
13.9 0 0 0 
14.1 0 0 0 
14.3 0 0 0 
14.5 0 0 0 
14.7 0 0 0 
14.9 0 0 0 
15.1 0 0 0 
15.3 0 0 0 
15.5 0 0 0 
15.7 0 0 0 
15.9 0 0 0 
16.1 0 0 0 
16.3 0 0 0 
16.5 0 0 0 
16.7 0 0 0 
16.9 0 0 0 
17.1 0 0 0 
17.3 0 0 0 
17.5 0 0 0 
17.7 0 0 0 
17.9 0 0 0 
18.1 0 0 0 
18.3 0 0 0 
18.5 0 0 0 
18.7 0 0 0 
18.9 0 0 0 
19.1 0 0 0 
19.3 0 0 0 
19.5 0 0 0 
19.7 0 0 0 
19.9 0 0 0 
# EndDate:Wed Jan 23 12:23:45 2013
# Format: McStas with text headers file. Use mcplot/PGPLOT to view.
# URL:    http://www.mccode.org/
# Editor: erkn on localhost
# Creator:Test_src_gaussian (Test_src_gaussian.instr) simulation (McXtrace x.y.z - Jan. 22, 2013)
# Date:   Simulation started (1358940225) Wed Jan 23 12:23:45 2013
# File:   emon0.dat
# Ncount: 1e+06
# Trace: no
# Gravitation: no
# Seed: 1358940214
# Param: XW=0.01
# Param: YH=0.01
# Param: DIST=10
# Param: SRC=2
# Param: E0=9.8
# type: array_1d(100)
# Source: Test_src_gaussian.instr
# component: emon0
# position: 0 0 0.1
# title: Energy monitor
# Ncount: 1e+06
# filename: emon0.dat
# format: McStas with text headers
# statistics: X0=9.79996; dX=0.00562139;
# signal: Min=4.12447e+09; Max=1.49637e+10; Mean=8.45957e+09;
# values: 8.45957e+11 2.08894e+10 1640
# xvar: E
# yvar: (I,I_err)
# xlabel: Energy [keV]
# ylabel: Intensity
# xlimits: 9.7902 9.8098
# variables: E I I_err N
# Data [emon0_dat/emon0.dat] I: 
9.790298 8773694220.23 2127933411.59 17 
9.790494 5677034587.76 1711690331.78 11 
9.79069 11870038334.8 2475074088.22 23 
9.790886 5160831177.84 1631998114.17 10 
9.791082 8773314546.63 2127841327.22 17 
9.791278 10837508592.8 2364938260.55 21 
9.791474 6708863894.05 1860704059.25 13 
9.79167 4644544611.87 1548181537.3 9 
9.791866 6708718731.88 1860663798.51 13 
9.792062 7224696111.35 1930881255.17 14 
9.792258 6192522816.06 1787627357.41 12 
9.792454 7224542871.19 1930840300.01 14 
9.79265 9288613047.44 2189347091.23 18 
9.792846 7224391765.6 1930799915.35 14 
9.793042 12384532536.5 2527982118.12 24 
9.793238 12900421269.3 2580084253.87 25 
9.793434 5676132657.75 1711418389.65 11 
9.79363 11352130294.1 2420282310.87 22 
9.793826 9804016485.4 2249195636.89 19 
9.794022 9287912928.48 2189182071.61 18 
9.794218 14963686232.2 2778686775.27 29 
9.794414 8255746039.18 2063936509.81 16 
9.79461 5675762196.78 1711306691.46 11 
9.794806 5675692292.86 1711285614.63 11 
9.795002 6707581715.61 1860348446.93 13 
9.795198 9287316084.69 2189041394.18 18 
9.795394 10835059803.2 2364403890.84 21 
9.79559 4643555961.09 1547851987.04 9 
9.795786 6191338467.05 1787285465.31 12 
9.795982 12898488956.8 2579697791.37 25 
9.796178 7223078220.43 1930448855.64 14 
9.796374 10834511452.9 2364284231 21 
9.79657 11866240201.9 2474282122.77 23 
9.796766 11350178628.5 2419866214.38 22 
9.796962 10318228830.6 2307226107.28 20 
9.797158 7222696186.49 1930346752.77 14 
9.797354 9286223751.98 2188783928.89 18 
9.79755 8770222518.3 2127091400.2 17 
9.797746 12381358208 2527334161.03 24 
9.797942 6706490338.99 1860045753.52 13 
9.798138 6190544878.49 1787056376.02 12 
9.798334 5158734974.31 1631335236.41 10 
9.79853 9801490397.82 2248616112.65 19 
9.798726 9801378476.36 2248590436.11 19 
9.798922 9801273121.97 2248566266.15 19 
9.799118 10832879583.3 2363928127.86 21 
9.799314 6705997023.45 1859908932.41 13 
9.79951 10316807779.6 2306908350.61 20 
9.799706 8769190061.88 2126840992.73 17 
9.799902 5674124454.95 1710812893.72 11 
9.800098 8769003080.63 2126795643.12 17 
9.800294 11348001258.5 2419401997.53 22 
9.80049 5158130228.32 1631143998.93 10 
9.800686 8768720135.84 2126727018.93 17 
9.800882 6189628792.45 1786791924.76 12 
9.801078 5673764505.99 1710704365.03 11 
9.801274 6705288083.76 1859712307.91 13 
9.80147 7220991900 1929891263.04 14 
9.801666 11862929300.6 2473591752.13 23 
9.801862 7736608450.71 1997583712.39 15 
9.802058 9283830382.85 2188219806.37 18 
9.802254 8767982697.22 2126548163.79 17 
9.80245 8252121083.55 2063030270.9 16 
9.802646 8252022061.15 2063005515.3 16 
9.802842 10830672262.3 2363446450.94 21 
9.803038 6704630339.42 1859529882.46 13 
9.803234 4641607957.8 1547202652.61 9 
9.80343 7735937940.75 1997410587.46 15 
9.803626 9798760106 2247989740.75 19 
9.803822 8767216221.67 2126362266.16 17 
9.804018 8251407110.08 2062851777.53 16 
9.804214 7735618637.42 1997328143.7 15 
9.80441 10314047620.5 2306291160.27 20 
9.804606 7735444490.83 1997283179.25 15 
9.804802 9798132663.35 2247845795.54 19 
9.804998 7735288099.79 1997242799.25 15 
9.805194 6703840642.6 1859310859.96 13 
9.80539 6188091034.54 1786348012.29 12 
9.805586 7219372072.03 1929458345.81 14 
9.805782 9281946206 2187775701.63 18 
9.805978 10313159710.8 2306092617.62 20 
9.806174 7219134867.97 1929394950.35 14 
9.80637 9281638037.46 2187703065.61 18 
9.806566 12891043979 2578208795.82 25 
9.806762 9281452151.88 2187659251.96 18 
9.806958 7218822414 1929311443.52 14 
9.807154 9281261353.52 2187614280.36 18 
9.80735 6703042474.74 1859089488.03 13 
9.807546 7734207616.13 1996963819.57 15 
9.807742 5156093494.23 1630499927.06 10 
9.807938 8249646070.33 2062411517.59 16 
9.808134 8249543056.6 2062385764.16 16 
9.80833 10827425927.7 2362738042.64 21 
9.808526 8764962819.87 2125815735.95 17 
9.808722 6186962105.16 1786022118.44 12 
9.808918 9795927550.06 2247339907.85 19 
9.809114 10311407889.5 2305700898.49 20 
9.80931 9280144933.51 2187351137.64 18 
9.809506 4124467920.46 1458219617.68 8 
9.809702 9795501608.77 2247242190.22 19 
# EndDate:Wed Jan 23 12:23:45 2013
