# Format: McStas with text headers file. Use mcplot/PGPLOT to view.
# URL:    http://www.mccode.org/
# Editor: erkn on localhost
# Creator:Test_src_gaussian (Test_src_gaussian.instr) simulation (McXtrace x.y.z - Jan. 22, 2013)
# Date:   Simulation started (1359622710) Thu Jan 31 09:58:30 2013
# File:   emon0.dat
# Ncount: 1e+06
# Trace: no
# Gravitation: no
# Seed: 1359622697
# Param: XW=0
# Param: YH=0
# Param: DIST=10
# Param: SRC=2
# Param: E0=10.9
# type: array_1d(100)
# Source: Test_src_gaussian.instr
# component: emon0
# position: 0 0 0.1
# title: Energy monitor
# Ncount: 1e+06
# filename: emon0.dat
# format: McStas with text headers
# statistics: X0=10.9003; dX=0.00635747;
# signal: Min=2.06212e+11; Max=9.11008e+11; Mean=5.29859e+11;
# values: 5.29859e+13 1.24854e+12 1801
# xvar: E
# yvar: (I,I_err)
# xlabel: Energy [keV]
# ylabel: Intensity
# xlimits: 10.8891 10.9109
# variables: E I I_err N
# Data [emon0_dat/emon0.dat] I: 
10.889209 206211663693 77940682799.5 7 
10.889427 530244456368 124979816931 18 
10.889645 589143639937 131736522745 20 
10.889863 324021983624 97696303958.6 11 
10.890081 559660453591 128394913683 19 
10.890299 559646267846 128391659250 19 
10.890517 441812837320 114075584076 15 
10.890735 765790913509 150183954285 26 
10.890953 471243533078 117810883275 16 
10.891171 795202579912 153036807861 27 
10.891389 618474119893 134962117613 21 
10.891607 589009851888 131706606827 20 
10.891825 618442198252 134955151739 21 
10.892043 500629952683 121420598489 17 
10.892261 530067181438 124938032830 18 
10.892479 441710796746 114049237313 15 
10.892697 500591846612 121411356409 17 
10.892915 588918342414 131686144688 20 
10.893133 323896750649 97658544795.7 11 
10.893351 588886239271 131678966207 20 
10.893569 353323844943 101995808498 12 
10.893787 471084672262 117771168068 16 
10.894005 500515380152 121392810569 17 
10.894223 559385350101 128331800614 19 
10.894441 441607747258 114022630049 15 
10.894659 618235952432 134910145211 21 
10.894877 382707173014 106143871988 13 
10.895095 382697303417 106141134654 13 
10.895313 441564478112 114011458003 15 
10.895531 412115334392 110142456084 14 
10.895749 412104713635 110139617567 14 
10.895967 412094587191 110136911162 14 
10.896185 559254525275 128301787339 19 
10.896403 618108115094 134882248817 21 
10.896621 500360445295 121355233347 17 
10.896839 559210821525 128291761013 19 
10.897057 441470804755 113987271647 15 
10.897275 559181793853 128285101607 19 
10.897493 706317722742 144176501421 24 
10.897711 323721637588 97605746221.3 11 
10.897929 588568998429 131608028998 20 
10.898147 529696334947 124850623473 18 
10.898365 411978181869 110105800529 14 
10.898583 588522271007 131597580429 20 
10.898801 676784691569 141119363409 23 
10.899019 500219510011 121321051520 17 
10.899237 588478658500 131587828374 20 
10.899455 588463203045 131584372430 20 
10.899673 559025213352 128249179577 19 
10.899891 529588172774 124825129405 18 
10.900109 558995943291 128242464564 19 
10.900327 353040900489 101914129469 12 
10.900545 441288148393 113940109977 15 
10.900763 617788386020 134812478214 21 
10.900981 706027358707 144117231110 24 
10.901199 264753570965 88251190323.4 9 
10.901417 411828081009 110065684389 14 
10.901635 558895153424 128219341782 19 
10.901853 588296517865 131547100491 20 
10.902071 676521395368 141064462357 23 
10.902289 794157473848 152835677106 27 
10.902507 558837204590 128206047408 19 
10.902725 617645830990 134781370156 21 
10.902943 647039765516 137949341523 22 
10.903161 529383392760 124776862294 18 
10.903379 441142579898 113902524353 15 
10.903597 264678580906 88226193638.4 9 
10.903815 470527269057 117631817268 16 
10.904033 499922529295 121249023116 17 
10.904251 441094479090 113890104779 15 
10.904469 411680218268 110026166407 14 
10.904687 499881817304 121239149007 17 
10.904905 558678733681 128169691689 19 
10.905123 470454556433 117613639112 16 
10.905341 441038169829 113875565791 15 
10.905559 617438597896 134736148187 21 
10.905777 617422759988 134732692071 21 
10.905995 588007228581 131482413441 20 
10.906213 470392516064 117598129020 16 
10.906431 352784659435 101840159048 12 
10.906649 646757280943 137889115610 22 
10.906867 558547541219 128139594073 19 
10.907085 529137614310 124718931757 18 
10.907303 881872692703 161007188884 30 
10.907521 323345984936 97492482685.6 11 
10.907739 587885703412 131455239586 20 
10.907957 646656138219 137867551907 22 
10.908175 646640926254 137864308706 22 
10.908393 470270819404 117567704854 16 
10.908611 323303276535 97479605616.4 11 
10.908829 411465469280 109968772327 14 
10.909047 499627089759 121177368502 17 
10.909265 617166100773 134676684439 21 
10.909483 646541512808 137843113687 22 
10.909701 911007620118 163621798764 31 
10.909919 646505058258 137835341551 22 
10.910137 558330854908 128089882825 19 
10.910355 734628054175 146925610838 25 
10.910573 587687896340 131411008580 20 
10.910791 528905155687 124664140733 18 
# EndDate:Thu Jan 31 09:58:30 2013
