# Format: McStas with text headers file. Use mcplot/PGPLOT to view.
# URL:    http://www.mccode.org/
# Editor: erkn on localhost
# Creator:Test_src_gaussian (Test_src_gaussian.instr) simulation (McXtrace x.y.z - Jan. 22, 2013)
# Date:   Simulation started (1360080746) Tue Feb  5 17:12:26 2013
# File:   emon2.dat
# Ncount: 1e+06
# Trace: no
# Gravitation: no
# Seed: 1360080740
# Param: XW=0
# Param: YH=0
# Param: DIST=10
# Param: SRC=3
# Param: E0=9.9
# type: array_1d(100)
# Source: Test_src_gaussian.instr
# component: emon2
# position: 0 0 10.001
# title: Energy monitor
# Ncount: 1e+06
# filename: emon2.dat
# format: McStas with text headers
# statistics: X0=8.92994; dX=0.107814;
# signal: Min=0; Max=1.44014e+17; Mean=1.87486e+15;
# values: 1.87486e+17 6.08334e+15 12543
# xvar: E
# yvar: (I,I_err)
# xlabel: Energy [keV]
# ylabel: Intensity
# xlimits: 0 20
# variables: E I I_err N
# Data [emon2_dat/emon2.dat] I: 
0.1 0 0 0 
0.3 0 0 0 
0.5 0 0 0 
0.7 0 0 0 
0.9 0 0 0 
1.1 0 0 0 
1.3 0 0 0 
1.5 0 0 0 
1.7 0 0 0 
1.9 0 0 0 
2.1 0 0 0 
2.3 0 0 0 
2.5 0 0 0 
2.7 0 0 0 
2.9 0 0 0 
3.1 0 0 0 
3.3 0 0 0 
3.5 0 0 0 
3.7 0 0 0 
3.9 0 0 0 
4.1 0 0 0 
4.3 0 0 0 
4.5 0 0 0 
4.7 0 0 0 
4.9 0 0 0 
5.1 0 0 0 
5.3 0 0 0 
5.5 0 0 0 
5.7 0 0 0 
5.9 0 0 0 
6.1 0 0 0 
6.3 0 0 0 
6.5 0 0 0 
6.7 0 0 0 
6.9 0 0 0 
7.1 0 0 0 
7.3 0 0 0 
7.5 0 0 0 
7.7 0 0 0 
7.9 0 0 0 
8.1 4.06828943825e+14 1.15498177725e+13 1268 
8.3 5.37365247883e+14 1.4901179758e+13 1302 
8.5 3.57165437923e+14 1.00766710977e+13 1283 
8.7 5.51672830026e+15 2.09351009236e+14 1221 
8.9 1.44014083748e+17 5.48552973551e+15 1316 
9.1 3.61309263515e+16 2.62387340995e+15 1181 
9.3 3.06594088608e+14 9.41018857086e+12 1216 
9.5 1.13859171359e+14 3.25981929562e+12 1272 
9.7 6.09673418468e+13 1.7398684782e+12 1249 
9.9 4.14110767824e+13 1.18252229953e+12 1235 
10.1 0 0 0 
10.3 0 0 0 
10.5 0 0 0 
10.7 0 0 0 
10.9 0 0 0 
11.1 0 0 0 
11.3 0 0 0 
11.5 0 0 0 
11.7 0 0 0 
11.9 0 0 0 
12.1 0 0 0 
12.3 0 0 0 
12.5 0 0 0 
12.7 0 0 0 
12.9 0 0 0 
13.1 0 0 0 
13.3 0 0 0 
13.5 0 0 0 
13.7 0 0 0 
13.9 0 0 0 
14.1 0 0 0 
14.3 0 0 0 
14.5 0 0 0 
14.7 0 0 0 
14.9 0 0 0 
15.1 0 0 0 
15.3 0 0 0 
15.5 0 0 0 
15.7 0 0 0 
15.9 0 0 0 
16.1 0 0 0 
16.3 0 0 0 
16.5 0 0 0 
16.7 0 0 0 
16.9 0 0 0 
17.1 0 0 0 
17.3 0 0 0 
17.5 0 0 0 
17.7 0 0 0 
17.9 0 0 0 
18.1 0 0 0 
18.3 0 0 0 
18.5 0 0 0 
18.7 0 0 0 
18.9 0 0 0 
19.1 0 0 0 
19.3 0 0 0 
19.5 0 0 0 
19.7 0 0 0 
19.9 0 0 0 
# EndDate:Tue Feb  5 17:12:26 2013
