# Format: McStas with text headers file. Use mcplot/PGPLOT to view.
# URL:    http://www.mccode.org/
# Editor: erkn on localhost
# Creator:Test_src_gaussian (Test_src_gaussian.instr) simulation (McXtrace x.y.z - Jan. 22, 2013)
# Date:   Simulation started (1358947082) Wed Jan 23 14:18:02 2013
# File:   emon2.dat
# Ncount: 250000
# Trace: no
# Gravitation: no
# Seed: 1358947077
# Param: XW=0.01
# Param: YH=0.01
# Param: DIST=10
# Param: SRC=2
# Param: E0=7.63667
# type: array_1d(100)
# Source: Test_src_gaussian.instr
# component: emon2
# position: 0 0 10.001
# title: Energy monitor
# Ncount: 250000
# filename: emon2.dat
# format: McStas with text headers
# statistics: X0=6.86895; dX=2.92453;
# signal: Min=0; Max=1.34625e+11; Mean=5.43309e+10;
# values: 5.43309e+12 5.13319e+10 12587
# xvar: E
# yvar: (I,I_err)
# xlabel: Energy [keV]
# ylabel: Intensity
# xlimits: 0 20
# variables: E I I_err N
# Data [emon2_dat/emon2.dat] I: 
0.1 2192179885.24 172392375.544 212 
0.3 6045663592.36 459152966.316 182 
0.5 12496539169.3 871540435.435 209 
0.7 18849002928.2 1291105115.11 215 
0.9 24471367925.2 1692698691.81 210 
1.1 28009349726.8 2014370812.1 194 
1.3 38089908820.4 2553401770.04 223 
1.5 41541936334.2 2882653124.46 208 
1.7 46344113561.7 3238624480.62 205 
1.9 59305162443.5 3870338702.27 235 
2.1 53336587754.8 3850539891.76 192 
2.3 64042702563.2 4399662286.9 212 
2.5 73959338449.7 4909786516.37 227 
2.7 72902821318.3 5031517262.57 210 
2.9 79383952177.7 5402047939.54 216 
3.1 75126313632 5394344060.53 194 
3.3 84548808377.2 5862854590.54 208 
3.5 84332640123.7 5978557299.27 199 
3.7 88669861185.7 6239110389.8 202 
3.9 97232984888.7 6646977002.34 214 
4.1 99207936038.2 6813867707.38 212 
4.3 109117582523 7242566368.35 227 
4.5 109304935852 7336201973.33 222 
4.7 96072773465.8 6951700026.31 191 
4.9 113206005235 7615161687.64 221 
5.1 127019681908 8131685221.63 244 
5.3 120989184762 7995249672.39 229 
5.5 117144457917 7915933552.92 219 
5.7 105963450327 7568846283.18 196 
5.9 110719715615 7771023165.79 203 
6.1 134625424676 8600914042.67 245 
6.3 112730062258 7892692325.86 204 
6.5 111575962522 7869965847.58 201 
6.7 111919287893 7894179914.12 201 
6.9 117705767531 8103199714.14 211 
7.1 130066150427 8520916857.14 233 
7.3 124995362728 8351604280.96 224 
7.5 116457871488 8055560769.86 209 
7.7 106721235866 7701944471.24 192 
7.9 106923417054 7696519931.5 193 
8.1 108676767145 7742906838.37 197 
8.3 120713737402 8138528931.14 220 
8.5 123836020418 8219299242.26 227 
8.7 115983315631 7928474624.54 214 
8.9 110808512267 7720416524.17 206 
9.1 114173955942 7804793415.1 214 
9.3 118452245231 7914451779.45 224 
9.5 108462908456 7538725326.8 207 
9.7 98525920818.1 7147853355.73 190 
9.9 104649342007 7326963713.62 204 
10.1 111254750333 7501022268.49 220 
10.3 109022243768 7383956466.92 218 
10.5 89620584027.2 6661490913.47 181 
10.7 96728540416.7 6874245348.36 198 
10.9 95506845260.3 6787431190.86 198 
11.1 98004301983.1 6828340121.55 206 
11.3 95184025376.4 6680673186.68 203 
11.5 91885845451.4 6513672647.29 199 
11.7 97409784154.5 6658866503.22 214 
11.9 90843551003.1 6376095068.47 203 
12.1 0 0 0 
12.3 0 0 0 
12.5 0 0 0 
12.7 0 0 0 
12.9 0 0 0 
13.1 0 0 0 
13.3 0 0 0 
13.5 0 0 0 
13.7 0 0 0 
13.9 0 0 0 
14.1 0 0 0 
14.3 0 0 0 
14.5 0 0 0 
14.7 0 0 0 
14.9 0 0 0 
15.1 0 0 0 
15.3 0 0 0 
15.5 0 0 0 
15.7 0 0 0 
15.9 0 0 0 
16.1 0 0 0 
16.3 0 0 0 
16.5 0 0 0 
16.7 0 0 0 
16.9 0 0 0 
17.1 0 0 0 
17.3 0 0 0 
17.5 0 0 0 
17.7 0 0 0 
17.9 0 0 0 
18.1 0 0 0 
18.3 0 0 0 
18.5 0 0 0 
18.7 0 0 0 
18.9 0 0 0 
19.1 0 0 0 
19.3 0 0 0 
19.5 0 0 0 
19.7 0 0 0 
19.9 0 0 0 
# EndDate:Wed Jan 23 14:18:02 2013
