# Format: McStas with text headers file. Use mcplot/PGPLOT to view.
# URL:    http://www.mccode.org/
# Editor: erkn on localhost
# Creator:Test_src_gaussian (Test_src_gaussian.instr) simulation (McXtrace x.y.z - Jan. 22, 2013)
# Date:   Simulation started (1360083148) Tue Feb  5 17:52:28 2013
# File:   lmon0.dat
# Ncount: 1e+06
# Trace: no
# Gravitation: no
# Seed: 1360083142
# Param: XW=0
# Param: YH=0
# Param: DIST=10
# Param: SRC=3
# Param: E0=9.5
# type: array_1d(100)
# Source: Test_src_gaussian.instr
# component: lmon0
# position: 0 0 0.101
# title: Wavelength monitor
# Ncount: 1e+06
# filename: lmon0.dat
# format: McStas with text headers
# statistics: X0=1.38452; dX=0.0164202;
# signal: Min=0; Max=8.97729e+19; Mean=1.67704e+18;
# values: 1.67704e+20 6.06852e+17 1e+06
# xvar: L
# yvar: (I,I_err)
# xlabel: Wavelength [AA]
# ylabel: Intensity
# xlimits: 0 2
# variables: L I I_err N
# Data [lmon0_dat/lmon0.dat] I: 
0.01 0 0 0 
0.03 0 0 0 
0.05 0 0 0 
0.07 0 0 0 
0.09 0 0 0 
0.11 0 0 0 
0.13 0 0 0 
0.15 0 0 0 
0.17 0 0 0 
0.19 0 0 0 
0.21 0 0 0 
0.23 0 0 0 
0.25 0 0 0 
0.27 0 0 0 
0.29 0 0 0 
0.31 0 0 0 
0.33 0 0 0 
0.35 0 0 0 
0.37 0 0 0 
0.39 0 0 0 
0.41 0 0 0 
0.43 0 0 0 
0.45 0 0 0 
0.47 0 0 0 
0.49 0 0 0 
0.51 0 0 0 
0.53 0 0 0 
0.55 0 0 0 
0.57 0 0 0 
0.59 0 0 0 
0.61 0 0 0 
0.63 0 0 0 
0.65 0 0 0 
0.67 0 0 0 
0.69 0 0 0 
0.71 0 0 0 
0.73 0 0 0 
0.75 0 0 0 
0.77 0 0 0 
0.79 0 0 0 
0.81 0 0 0 
0.83 0 0 0 
0.85 0 0 0 
0.87 0 0 0 
0.89 0 0 0 
0.91 0 0 0 
0.93 0 0 0 
0.95 0 0 0 
0.97 0 0 0 
0.99 0 0 0 
1.01 0 0 0 
1.03 0 0 0 
1.05 0 0 0 
1.07 0 0 0 
1.09 0 0 0 
1.11 0 0 0 
1.13 0 0 0 
1.15 0 0 0 
1.17 0 0 0 
1.19 0 0 0 
1.21 0 0 0 
1.23 1.84280618566e+14 7.33609658286e+12 631 
1.25 2.60832452478e+16 9.26542926578e+13 79613 
1.27 3.33254218421e+16 1.20642935569e+14 76965 
1.29 4.74363394141e+16 1.75045261113e+14 74628 
1.31 7.58852998893e+16 2.86641021537e+14 72020 
1.33 1.52714406456e+17 5.96992579055e+14 69860 
1.35 4.67223919332e+17 1.9598729081e+15 68280 
1.37 6.3762135717e+19 4.26406988394e+17 66199 
1.39 8.97729100775e+19 4.29085290126e+17 64076 
1.41 1.06932587775e+19 4.77217333546e+16 62194 
1.43 1.43114178548e+18 6.88296179891e+15 60762 
1.45 1.83878399878e+17 7.63456641141e+14 59496 
1.47 2.19104443785e+17 9.25934926042e+14 57249 
1.49 2.79589304792e+17 1.18397613075e+15 55832 
1.51 2.65419083486e+17 1.14179767985e+15 54100 
1.53 2.12494515502e+17 9.2647532517e+14 52894 
1.55 8.14094587418e+16 5.13380767877e+14 25201 
1.57 0 0 0 
1.59 0 0 0 
1.61 0 0 0 
1.63 0 0 0 
1.65 0 0 0 
1.67 0 0 0 
1.69 0 0 0 
1.71 0 0 0 
1.73 0 0 0 
1.75 0 0 0 
1.77 0 0 0 
1.79 0 0 0 
1.81 0 0 0 
1.83 0 0 0 
1.85 0 0 0 
1.87 0 0 0 
1.89 0 0 0 
1.91 0 0 0 
1.93 0 0 0 
1.95 0 0 0 
1.97 0 0 0 
1.99 0 0 0 
# EndDate:Tue Feb  5 17:52:28 2013
