# Format: McStas with text headers file. Use mcplot/PGPLOT to view.
# URL:    http://www.mccode.org/
# Editor: erkn on localhost
# Creator:Test_src_gaussian (Test_src_gaussian.instr) simulation (McXtrace x.y.z - Jan. 22, 2013)
# Date:   Simulation started (1358950253) Wed Jan 23 15:10:53 2013
# File:   emon2.dat
# Ncount: 250000
# Trace: no
# Gravitation: no
# Seed: 1358950248
# Param: XW=0.01
# Param: YH=0.01
# Param: DIST=10
# Param: SRC=2
# Param: E0=8.1678
# type: array_1d(100)
# Source: Test_src_gaussian.instr
# component: emon2
# position: 0 0 10.001
# title: Energy monitor
# Ncount: 250000
# filename: emon2.dat
# format: McStas with text headers
# statistics: X0=6.91957; dX=2.94195;
# signal: Min=0; Max=1.32535e+11; Mean=5.45561e+10;
# values: 5.45561e+12 5.14347e+10 12642
# xvar: E
# yvar: (I,I_err)
# xlabel: Energy [keV]
# ylabel: Intensity
# xlimits: 0 20
# variables: E I I_err N
# Data [emon2_dat/emon2.dat] I: 
0.1 1916922059.13 158505717.9 199 
0.3 7279829652.03 503372049.815 220 
0.5 13012906164.6 886451170.528 219 
0.7 18078013251.8 1262490567.33 207 
0.9 22532174155.7 1617613748.83 195 
1.1 29425504506.7 2058361413.47 205 
1.3 29416537944.9 2251928011.53 171 
1.5 45883507805.1 3027818313.16 230 
1.7 48209926789.3 3305250069.81 213 
1.9 52810816419.2 3654561637.25 209 
2.1 58836992232.7 4042373131.47 212 
2.3 64987711721.8 4433172927.34 215 
2.5 73208204956.8 4881541927.13 225 
2.7 76255322848.5 5141856330.29 220 
2.9 70952457173.3 5107866484.09 193 
3.1 86268874332.2 5777608729.55 223 
3.3 74176857190 5483746111.2 183 
3.5 81732801835.4 5883588952.26 193 
3.7 81269316822.7 5975355308.57 185 
3.9 107714929864 6997123432.87 237 
4.1 98298087986.9 6783442921.31 210 
4.3 104303589515 7080774711.72 217 
4.5 107322066192 7268919312.08 218 
4.7 105589966959 7286525508.32 210 
4.9 103929029233 7294486186.42 203 
5.1 131149574879 8261722861.77 252 
5.3 104642026204 7436638622.41 198 
5.5 113399626538 7788361451.97 212 
5.7 111880777805 7776280572.84 207 
5.9 132534551234 8502120058.94 243 
6.1 112660715533 7868576652.88 205 
6.3 125439762760 8325738874.16 227 
6.5 112689812108 7909278826.42 203 
6.7 112468133739 7913232403.64 202 
6.9 115469853876 8025710147.59 207 
7.1 120573791940 8204007437.22 216 
7.3 123874068672 8313883400.46 222 
7.5 116460408810 8055736266.28 209 
7.7 106731896652 7702713910.06 192 
7.9 106376876727 7677094340.58 192 
8.1 114739616240 7955768994.59 208 
8.3 114164457196 7915890382.56 208 
8.5 113462922550 7867252144.52 208 
8.7 114895215788 7891053418.5 212 
8.9 112997099589 7797562338.67 210 
9.1 119525324466 7986147636.33 224 
9.3 102613569554 7367251526.34 194 
9.5 108982359845 7556600088.13 208 
9.7 102672946782 7296682735.5 198 
9.9 109805964755 7506217170.16 214 
10.1 112714452930 7548200469.76 223 
10.3 98082118941.4 7005896181.46 196 
10.5 106967400048 7278261587.43 216 
10.7 111886004185 7393687290.27 229 
10.9 101771309161 7006276376.33 211 
11.1 107449292798 7147481987.93 226 
11.3 97036028560.3 6744532917.48 207 
11.5 98813713658.9 6754827200.41 214 
11.7 106448546787 6958832954.75 234 
11.9 90817121309.2 6374252177.08 203 
12.1 0 0 0 
12.3 0 0 0 
12.5 0 0 0 
12.7 0 0 0 
12.9 0 0 0 
13.1 0 0 0 
13.3 0 0 0 
13.5 0 0 0 
13.7 0 0 0 
13.9 0 0 0 
14.1 0 0 0 
14.3 0 0 0 
14.5 0 0 0 
14.7 0 0 0 
14.9 0 0 0 
15.1 0 0 0 
15.3 0 0 0 
15.5 0 0 0 
15.7 0 0 0 
15.9 0 0 0 
16.1 0 0 0 
16.3 0 0 0 
16.5 0 0 0 
16.7 0 0 0 
16.9 0 0 0 
17.1 0 0 0 
17.3 0 0 0 
17.5 0 0 0 
17.7 0 0 0 
17.9 0 0 0 
18.1 0 0 0 
18.3 0 0 0 
18.5 0 0 0 
18.7 0 0 0 
18.9 0 0 0 
19.1 0 0 0 
19.3 0 0 0 
19.5 0 0 0 
19.7 0 0 0 
19.9 0 0 0 
# EndDate:Wed Jan 23 15:10:53 2013
