# Format: McStas with text headers file. Use mcplot/PGPLOT to view.
# URL:    http://www.mccode.org/
# Editor: erkn on localhost
# Creator:Test_src_gaussian (Test_src_gaussian.instr) simulation (McXtrace x.y.z - Jan. 22, 2013)
# Date:   Simulation started (1358946322) Wed Jan 23 14:05:22 2013
# File:   emon00.dat
# Ncount: 250000
# Trace: no
# Gravitation: no
# Seed: 1358946318
# Param: XW=0.01
# Param: YH=0.01
# Param: DIST=10
# Param: SRC=2
# Param: E0=4.4
# type: array_1d(100)
# Source: Test_src_gaussian.instr
# component: emon00
# position: 0 0 0.09
# title: Energy monitor
# Ncount: 250000
# filename: emon00.dat
# format: McStas with text headers
# statistics: X0=6.90837; dX=2.94224;
# signal: Min=0; Max=9.42641e+12; Mean=4.30659e+12;
# values: 4.30659e+14 4.56817e+11 999999
# xvar: E
# yvar: (I,I_err)
# xlabel: Energy [keV]
# ylabel: Intensity
# xlimits: 0 20
# variables: E I I_err N
# Data [emon00_dat/emon00.dat] I: 
0.1 161108229598 1474790703.58 16538 
0.3 549496264577 4382288574.01 16496 
0.5 987542803035 7745807266.99 16533 
0.7 1.46951687135e+12 11381892941.3 16814 
0.9 1.92865545811e+12 14973901378.4 16673 
1.1 2.40587002182e+12 18639362412 16714 
1.3 2.86396045503e+12 22220076626.7 16649 
1.5 3.33890763596e+12 25847262985.7 16713 
1.7 3.75950591113e+12 29197937913.6 16598 
1.9 4.1812967793e+12 32512216736.1 16554 
2.1 4.64622202847e+12 35928827599.2 16734 
2.3 5.04188049901e+12 39027436392.9 16698 
2.5 5.38298567189e+12 41835109183.8 16563 
2.7 5.79352232114e+12 44840092048.9 16699 
2.9 6.1695842391e+12 47635162760.1 16779 
3.1 6.47831732729e+12 50101302261.7 16723 
3.3 6.82037026906e+12 52611999638.3 16808 
3.5 7.05898363958e+12 54653792492.8 16684 
3.7 7.33575352044e+12 56767040271.6 16701 
3.9 7.57282008661e+12 58644832709.1 16676 
4.1 7.83387206803e+12 60544470407.6 16743 
4.3 8.03933721233e+12 62161668856 16727 
4.5 8.14365609878e+12 63315236997.5 16544 
4.7 8.32037186012e+12 64677167926.2 16550 
4.9 8.47183712082e+12 65878203485.4 16538 
5.1 8.7110329349e+12 67352234068 16728 
5.3 8.77820512832e+12 68095668773.9 16618 
5.5 8.82841933441e+12 68717045812.2 16506 
5.7 9.0415010277e+12 69909021273.3 16727 
5.9 9.12541444696e+12 70549335107.3 16731 
6.1 9.21982077597e+12 71179172904.3 16778 
6.3 9.19627474462e+12 71286891487.6 16642 
6.5 8.96923267382e+12 70558330136.2 16159 
6.7 9.42427154727e+12 72438716068 16926 
6.9 9.26352085262e+12 71885880303.7 16606 
7.1 9.29264290234e+12 72023008811.6 16647 
7.3 9.42641315675e+12 72525894725.7 16893 
7.5 9.31142557086e+12 72030267800.8 16711 
7.7 9.21077929473e+12 71552064177.8 16571 
7.9 9.24009517979e+12 71547041857.5 16679 
8.1 9.08018130901e+12 70775022347.6 16460 
8.3 9.16796720211e+12 70933331014.3 16705 
8.5 9.07707809043e+12 70371409750.3 16638 
8.7 8.9578269337e+12 69673424095.4 16530 
8.9 9.00066502542e+12 69582783554 16732 
9.1 8.80318415745e+12 68532905049.2 16500 
9.3 8.87058892528e+12 68491337828.8 16774 
9.5 8.75739732401e+12 67728536963.4 16719 
9.7 8.71392753827e+12 67219704077.2 16805 
9.9 8.68882109031e+12 66764377668.6 16937 
10.1 8.38596588064e+12 65113473406.2 16588 
10.3 8.25299179264e+12 64253651585.5 16498 
10.5 8.24389018177e+12 63889278275.5 16650 
10.7 8.20921244968e+12 63343441119.8 16796 
10.9 7.99786939306e+12 62105920298.1 16584 
11.1 7.94947025279e+12 61491440791.8 16713 
11.3 7.8912589998e+12 60826836714.9 16831 
11.5 7.76669399873e+12 59904079684 16810 
11.7 7.60101083586e+12 58810179498.5 16705 
11.9 7.44874381329e+12 57722604260.4 16653 
12.1 0 0 0 
12.3 0 0 0 
12.5 0 0 0 
12.7 0 0 0 
12.9 0 0 0 
13.1 0 0 0 
13.3 0 0 0 
13.5 0 0 0 
13.7 0 0 0 
13.9 0 0 0 
14.1 0 0 0 
14.3 0 0 0 
14.5 0 0 0 
14.7 0 0 0 
14.9 0 0 0 
15.1 0 0 0 
15.3 0 0 0 
15.5 0 0 0 
15.7 0 0 0 
15.9 0 0 0 
16.1 0 0 0 
16.3 0 0 0 
16.5 0 0 0 
16.7 0 0 0 
16.9 0 0 0 
17.1 0 0 0 
17.3 0 0 0 
17.5 0 0 0 
17.7 0 0 0 
17.9 0 0 0 
18.1 0 0 0 
18.3 0 0 0 
18.5 0 0 0 
18.7 0 0 0 
18.9 0 0 0 
19.1 0 0 0 
19.3 0 0 0 
19.5 0 0 0 
19.7 0 0 0 
19.9 0 0 0 
# EndDate:Wed Jan 23 14:05:22 2013
