# Format: McStas with text headers file. Use mcplot/PGPLOT to view.
# URL:    http://www.mccode.org/
# Editor: erkn on localhost
# Creator:Test_src_gaussian (Test_src_gaussian.instr) simulation (McXtrace x.y.z - Jan. 22, 2013)
# Date:   Simulation started (1359026531) Thu Jan 24 12:22:11 2013
# File:   psd0.dat
# Ncount: 1e+06
# Trace: no
# Gravitation: no
# Seed: 1359026518
# Param: XW=0
# Param: YH=0
# Param: DIST=10
# Param: SRC=2
# Param: E0=3.7
# type: array_2d(90, 90)
# Source: Test_src_gaussian.instr
# component: psd0
# position: 0 0 0.102
# title: PSD monitor
# Ncount: 1e+06
# filename: psd0.dat
# format: McStas with text headers
# statistics: X0=2.45173e-07; dX=0.000995974; Y0=3.17725e-07; dY=0.000498572;
# signal: Min=0; Max=1.72517e+14; Mean=5.31645e+12;
# values: 4.30632e+16 4.56853e+13 1e+06
# xvar: X 
# yvar: Y 
# xlabel: X position [m]
# ylabel: Y position [m]
# zvar: I
# zlabel: Signal per bin
# xylimits: -0.005 0.005 -0.005 0.005
# variables: I I_err N
# Data [psd0_dat/psd0.dat] I: 
0 0 0 0 0 0 0 0 0 0 0 0 0 0 0 0 0 0 0 0 0 0 0 0 0 0 0 0 0 0 0 0 0 0 0 0 0 0 0 0 0 0 0 0 0 0 0 0 0 0 0 0 0 0 0 0 0 0 0 0 0 0 0 0 0 0 0 0 0 0 0 0 0 0 0 0 0 0 0 0 0 0 0 0 0 0 0 0 0 0 
0 0 0 0 0 0 0 0 0 0 0 0 0 0 0 0 0 0 0 0 0 0 0 0 0 0 0 0 0 0 0 0 0 0 0 0 0 0 0 0 0 0 0 0 0 0 0 0 0 0 0 0 0 0 0 0 0 0 0 0 0 0 0 0 0 0 0 0 0 0 0 0 0 0 0 0 0 0 0 0 0 0 0 0 0 0 0 0 0 0 
0 0 0 0 0 0 0 0 0 0 0 0 0 0 0 0 0 0 0 0 0 0 0 0 0 0 0 0 0 0 0 0 0 0 0 0 0 0 0 0 0 0 0 0 0 0 0 0 0 0 0 0 0 0 0 0 0 0 0 0 0 0 0 0 0 0 0 0 0 0 0 0 0 0 0 0 0 0 0 0 0 0 0 0 0 0 0 0 0 0 
0 0 0 0 0 0 0 0 0 0 0 0 0 0 0 0 0 0 0 0 0 0 0 0 0 0 0 0 0 0 0 0 0 0 0 0 0 0 0 0 0 0 0 0 0 0 0 0 0 0 0 0 0 0 0 0 0 0 0 0 0 0 0 0 0 0 0 0 0 0 0 0 0 0 0 0 0 0 0 0 0 0 0 0 0 0 0 0 0 0 
0 0 0 0 0 0 0 0 0 0 0 0 0 0 0 0 0 0 0 0 0 0 0 0 0 0 0 0 0 0 0 0 0 0 0 0 0 0 0 0 0 0 0 0 0 0 0 0 0 0 0 0 0 0 0 0 0 0 0 0 0 0 0 0 0 0 0 0 0 0 0 0 0 0 0 0 0 0 0 0 0 0 0 0 0 0 0 0 0 0 
0 0 0 0 0 0 0 0 0 0 0 0 0 0 0 0 0 0 0 0 0 0 0 0 0 0 0 0 0 0 0 0 0 0 0 0 0 0 0 0 0 0 0 0 0 0 0 0 0 0 0 0 0 0 0 0 0 0 0 0 0 0 0 0 0 0 0 0 0 0 0 0 0 0 0 0 0 0 0 0 0 0 0 0 0 0 0 0 0 0 
0 0 0 0 0 0 0 0 0 0 0 0 0 0 0 0 0 0 0 0 0 0 0 0 0 0 0 0 0 0 0 0 0 0 0 0 0 0 0 0 0 0 0 0 0 0 0 0 0 0 0 0 0 0 0 0 0 0 0 0 0 0 0 0 0 0 0 0 0 0 0 0 0 0 0 0 0 0 0 0 0 0 0 0 0 0 0 0 0 0 
0 0 0 0 0 0 0 0 0 0 0 0 0 0 0 0 0 0 0 0 0 0 0 0 0 0 0 0 0 0 0 0 0 0 0 0 0 0 0 0 0 0 0 0 0 0 0 0 0 0 0 0 0 0 0 0 0 0 0 0 0 0 0 0 0 0 0 0 0 0 0 0 0 0 0 0 0 0 0 0 0 0 0 0 0 0 0 0 0 0 
0 0 0 0 0 0 0 0 0 0 0 0 0 0 0 0 0 0 0 0 0 0 0 0 0 0 0 0 0 0 0 0 0 0 0 0 0 0 0 0 0 0 0 0 0 0 0 0 0 0 0 0 0 0 0 0 0 0 0 0 0 0 0 0 0 0 0 0 0 0 0 0 0 0 0 0 0 0 0 0 0 0 0 0 0 0 0 0 0 0 
0 0 0 0 0 0 0 0 0 0 0 0 0 0 0 0 0 0 0 0 0 0 0 0 0 0 0 0 0 0 0 0 0 0 0 0 0 0 0 0 0 0 0 0 0 0 0 0 0 0 0 0 0 0 0 0 0 0 0 0 0 0 0 0 0 0 0 0 0 0 0 0 0 0 0 0 0 0 0 0 0 0 0 0 0 0 0 0 0 0 
0 0 0 0 0 0 0 0 0 0 0 0 0 0 0 0 0 0 0 0 0 0 0 0 0 0 0 0 0 0 0 0 0 0 0 0 0 0 0 0 0 0 0 0 0 0 0 0 0 0 0 0 0 0 0 0 0 0 0 0 0 0 0 0 0 0 0 0 0 0 0 0 0 0 0 0 0 0 0 0 0 0 0 0 0 0 0 0 0 0 
0 0 0 0 0 0 0 0 0 0 0 0 0 0 0 0 0 0 0 0 0 0 0 0 0 0 0 0 0 0 0 0 0 0 0 0 0 0 0 0 0 0 0 0 0 0 0 0 0 0 0 0 0 0 0 0 0 0 0 0 0 0 0 0 0 0 0 0 0 0 0 0 0 0 0 0 0 0 0 0 0 0 0 0 0 0 0 0 0 0 
0 0 0 0 0 0 0 0 0 0 0 0 0 0 0 0 0 0 0 0 0 0 0 0 0 0 0 0 0 0 0 0 0 0 0 0 0 0 0 0 0 0 0 0 0 0 0 0 0 0 0 0 0 0 0 0 0 0 0 0 0 0 0 0 0 0 0 0 0 0 0 0 0 0 0 0 0 0 0 0 0 0 0 0 0 0 0 0 0 0 
0 0 0 0 0 0 0 0 0 0 0 0 0 0 0 0 0 0 0 0 0 0 0 0 0 0 0 0 0 0 0 0 0 0 0 0 0 0 0 0 0 0 0 0 0 0 0 0 0 0 0 0 0 0 0 0 0 0 0 0 0 0 0 0 0 0 0 0 0 0 0 0 0 0 0 0 0 0 0 0 0 0 0 0 0 0 0 0 0 0 
0 0 0 0 0 0 0 0 0 0 0 0 0 0 0 0 0 0 0 0 0 0 0 0 0 0 0 0 0 0 0 0 0 0 0 0 0 0 0 0 0 0 0 0 0 0 0 0 0 0 0 0 0 0 0 0 0 0 0 0 0 0 0 0 0 0 0 0 0 0 0 0 0 0 0 0 0 0 0 0 0 0 0 0 0 0 0 0 0 0 
0 0 0 0 0 0 0 0 0 0 0 0 0 0 0 0 0 0 0 0 0 0 0 0 0 0 0 0 0 0 0 0 0 0 0 0 0 0 0 0 0 0 0 0 0 0 0 0 0 0 0 0 0 0 0 0 0 0 0 0 0 0 0 0 0 0 0 0 0 0 0 0 0 0 0 0 0 0 0 0 0 0 0 0 0 0 0 0 0 0 
0 0 0 0 0 0 0 0 0 0 0 0 0 0 0 0 0 0 0 0 0 0 0 0 0 0 0 0 0 0 0 0 0 0 0 0 0 0 0 0 0 0 0 0 0 0 0 0 0 0 0 0 0 0 0 0 0 0 0 0 0 0 0 0 0 0 0 0 0 0 0 0 0 0 0 0 0 0 0 0 0 0 0 0 0 0 0 0 0 0 
0 0 0 0 0 0 0 0 0 0 0 0 0 0 0 0 0 0 0 0 0 0 0 0 0 0 0 0 0 0 0 0 0 0 0 0 0 0 0 0 0 0 0 0 0 0 0 0 0 0 0 0 0 0 0 0 0 0 0 0 0 0 0 0 0 0 0 0 0 0 0 0 0 0 0 0 0 0 0 0 0 0 0 0 0 0 0 0 0 0 
0 0 0 0 0 0 0 0 0 0 0 0 0 0 0 0 0 0 0 0 0 0 0 0 0 0 0 0 0 0 0 0 0 0 0 0 0 0 0 0 0 0 0 0 0 0 0 0 0 0 0 0 0 0 0 0 0 0 0 0 0 0 0 0 0 0 0 0 0 0 0 0 0 0 0 0 0 0 0 0 0 0 0 0 0 0 0 0 0 0 
0 0 0 0 0 0 0 0 0 0 0 0 0 0 0 0 0 0 0 0 0 0 0 0 0 0 0 0 0 0 0 0 0 0 0 0 0 0 0 0 0 0 0 0 0 0 0 0 0 0 0 0 0 0 0 0 0 0 0 0 0 0 0 0 0 0 0 0 0 0 0 0 0 0 0 0 0 0 0 0 0 0 0 0 0 0 0 0 0 0 
0 0 0 0 0 0 0 0 0 0 0 0 0 0 0 0 0 0 0 0 0 0 0 0 0 0 0 0 0 0 0 0 0 0 0 0 0 0 0 0 0 0 0 0 0 0 0 0 0 0 0 0 0 0 0 0 0 0 0 0 0 0 0 0 0 0 0 0 0 0 0 0 0 0 0 0 0 0 0 0 0 0 0 0 0 0 0 0 0 0 
0 0 0 0 0 0 0 0 0 0 0 0 0 0 0 0 0 0 0 0 0 0 0 0 0 0 0 0 0 0 0 0 0 0 0 0 0 0 0 0 0 0 0 0 0 0 0 0 0 0 0 0 0 0 0 0 0 0 0 0 0 0 0 0 0 0 0 0 0 0 0 0 0 0 0 0 0 0 0 0 0 0 0 0 0 0 0 0 0 0 
0 0 0 0 0 0 0 0 0 0 0 0 0 0 0 0 0 0 0 0 0 0 0 0 0 0 0 0 0 0 0 0 0 0 0 0 0 0 0 0 0 0 0 0 0 0 0 0 55063278400.7 0 0 0 0 0 0 0 0 0 0 0 0 0 0 0 0 0 0 0 0 0 0 0 0 0 0 0 0 0 0 0 0 0 0 0 0 0 0 0 0 0 
0 0 0 0 0 0 0 0 0 0 0 0 0 0 0 0 0 0 0 0 0 0 0 0 0 0 0 0 0 0 0 0 0 0 0 0 0 0 0 0 0 0 0 0 0 0 0 55469667644.5 0 0 0 0 0 0 0 0 0 0 0 0 0 0 0 0 0 0 0 0 0 0 0 0 0 0 0 0 0 0 0 0 0 0 0 0 0 0 0 0 0 0 
0 0 0 0 0 0 0 0 0 0 0 0 0 0 0 0 0 0 0 0 0 0 0 0 0 0 0 0 0 0 0 0 0 0 0 0 0 54021826132.5 0 15357812671 0 0 0 0 10170554892.5 0 0 0 0 0 0 0 0 0 0 0 0 0 0 0 0 0 0 0 0 0 0 0 0 0 0 0 0 0 0 0 0 0 0 0 0 0 0 0 0 0 0 0 0 0 
0 0 0 0 0 0 0 0 0 0 0 0 0 0 0 0 0 0 0 0 0 0 0 0 0 0 0 0 0 0 0 0 0 37560391292.9 0 0 0 34281573144.8 0 0 0 0 0 48690053203.7 0 0 0 0 0 20472120863.1 55752500958.8 0 0 46163970854.9 0 0 0 35073613399.6 0 45393396169.6 0 0 0 0 0 0 0 0 0 0 0 0 0 0 0 0 0 0 0 0 0 0 0 0 0 0 0 0 0 0 
0 0 0 0 0 0 0 0 0 0 0 0 0 0 0 0 0 0 0 0 0 0 0 0 0 0 0 52551567848.7 0 43876774576.6 0 0 0 0 0 33659896355 0 11103472124.2 18340189940 0 51315665993.8 49485281155 0 15568526486.5 0 47519320664.4 0 81505683249.5 157469550276 22528360857.2 53564449084.4 49557124964.9 53183254646.4 20597801233.2 132704070029 0 0 93995323149.1 0 0 15547748443.2 0 0 0 54540617552.3 0 51588243050.6 0 0 0 0 0 0 0 0 0 0 0 0 0 0 0 0 0 0 0 0 0 0 0 
0 0 0 0 0 0 0 0 0 0 0 0 0 0 0 0 0 0 0 0 0 0 0 0 0 0 0 0 0 54494813626.3 0 0 40770938223.9 84034738219.3 46101025347.5 107474456669 70172926710.1 0 50179987219.6 47623334992.7 0 82590749654 0 63580782897.8 82128152856.2 61093650537.1 29076061460.5 47248640140.9 50167638013.5 0 158144301501 56445060138.7 142953315637 97305768045.8 52252497738.7 36667662984.3 53355854588.5 0 36971496889.3 0 0 52156263906.8 55783764264.8 0 0 0 49804121761.7 0 0 0 45403661259.7 0 0 0 0 0 0 0 0 0 0 0 0 0 0 0 0 0 0 0 
0 0 0 0 0 0 0 0 0 0 0 0 0 0 0 0 0 0 0 0 0 0 0 49680286783.6 0 24728159809.9 46056932945.7 40475303847.5 44904404884.7 0 0 53856737431.2 99917603774.8 120569421680 52546338434.5 112132730722 102068065559 250812390481 63791042541.4 107395082083 232647492605 382669493695 312324857522 182715321070 159648706831 184266438892 168861058077 165456267980 249745178565 97804067485.4 149940276553 44098158700.7 108722693134 125239608924 245250019595 111422523022 45620491333.1 1564101219.08 45626184535.3 79857309460.2 55335386258.7 55210317535.3 92182870131.1 0 46161765515.3 0 0 0 0 52177525058 0 0 0 0 0 0 0 0 0 0 0 0 0 0 0 0 0 0 0 0 
0 0 0 0 0 0 0 0 0 0 0 0 0 0 0 0 0 0 0 0 0 0 0 0 31014320893.6 0 42689967825.2 2256061514.41 0 0 61315087098 51187261131 168531842350 270328024010 214038635307 357820187731 313486284197 234312823136 351272779415 391061531432 368959829715 383015158124 510048944135 443967425538 525914813596 478056890119 255897961321 430996802443 158330486155 284939937381 351089976311 453185283977 318167109631 325429252477 183185812297 197957860972 295435754325 283971561606 55743501698.8 294529831182 55704137559 0 0 110361563281 104878160976 0 10419694429 0 0 0 0 0 4651602163.13 0 0 0 0 0 0 0 0 0 0 0 0 0 0 0 0 0 
0 0 0 0 0 0 0 0 0 0 0 0 0 0 0 0 0 0 54463898288.8 0 0 54379983990.4 0 55502681795 43068317966.3 53098204900.5 100286141697 156899862474 148215405379 126623135238 252093512156 522209223202 271193896834 330420484494 587422554020 385171175074 477570566274 392449665684 532295467687 830186351011 663133702035 878918671245 790648343042 873236823394 855424818638 1.11720077442e+12 808885368707 1.08211068752e+12 1.15128576781e+12 1.16325482112e+12 1.2604119366e+12 1.01637701905e+12 808278410701 487767103027 601914612290 520784911693 437453635540 66876347410.3 171206868419 153498402195 247071490458 45980358907.3 51633838197.1 347648888666 46640768459.1 98133685131.9 72039390808.8 55753417073.1 0 0 39216912200.6 0 45563216566.9 0 0 0 0 0 0 0 0 0 0 0 0 0 0 0 0 0 
0 0 0 0 0 0 0 0 0 0 0 0 0 0 0 0 0 0 0 110624417318 99365948967.5 1925011546.09 192544930601 109942000012 52270331393 112379705035 292459878535 303135327711 271958197516 110865150758 623417813416 745100603304 906388830323 606934345865 852180120708 1.12759545128e+12 1.21628104084e+12 1.59135445338e+12 1.54020235008e+12 1.96160758228e+12 1.19969673774e+12 1.80377747673e+12 1.79835427035e+12 1.80414710697e+12 1.5551915738e+12 1.85582858757e+12 1.78459902637e+12 1.73234454038e+12 1.73574693786e+12 1.35760134181e+12 1.41535203511e+12 1.28826264118e+12 1.58512086703e+12 1.38337405923e+12 1.29777276765e+12 834328042598 1.03783104433e+12 972739331091 637548511999 726415711625 698299194032 239246975365 309206454939 160638060821 250150225904 154690015974 55840142869.7 101796339021 55825948662.1 0 53549678463 40484691872.5 0 36440520154.4 0 0 0 0 0 0 0 0 0 0 0 0 0 0 0 0 
0 0 0 0 0 0 0 0 522034122.963 0 0 0 0 53454719498.5 0 0 0 93490712884.7 48373059058.6 81804276423.8 71195139179 54027384325.1 54679947090.9 220349795125 88275626885.7 309462563975 273957735998 364464293886 749753663767 939158684715 1.00029642755e+12 1.51924129027e+12 1.54041808959e+12 1.61606115185e+12 1.75105952273e+12 2.46052461303e+12 2.31496109647e+12 2.86354000913e+12 2.54511238495e+12 3.44050190984e+12 2.80651575032e+12 3.61701101406e+12 3.29506064581e+12 3.74293020144e+12 3.5065826122e+12 4.00645424855e+12 3.4919231022e+12 3.61781077961e+12 3.34239327168e+12 3.17254224809e+12 2.44684514813e+12 2.58470911483e+12 2.53231799657e+12 2.24001762124e+12 1.86517140222e+12 1.47711240217e+12 1.75934837623e+12 1.33375143388e+12 877306679710 454530663978 849140707653 704415760049 449728418636 339518723400 342544666996 225574065186 284384988429 68614271601.8 114762658592 96629892863.8 55712635305.8 52482673927.9 48407309399.4 0 0 0 0 0 0 0 0 0 0 0 0 0 0 0 0 0 
0 0 0 0 0 0 0 0 0 0 0 0 103073084753 0 0 29929204394 90641800920.5 16941005038.2 0 0 140668865318 156223374319 326953014545 337266606049 722119651252 561299719324 479981928497 1.08105873795e+12 948900673291 1.48116714925e+12 1.84432918843e+12 2.41787631477e+12 2.7412041454e+12 3.59591134511e+12 3.4925386408e+12 3.94135629823e+12 5.20034909494e+12 4.39734250535e+12 5.05786182411e+12 4.33627151181e+12 5.64983425072e+12 5.88150880126e+12 6.50179492163e+12 5.98592884488e+12 6.1133815511e+12 5.96409061967e+12 5.8074260126e+12 6.25250981189e+12 5.37095987366e+12 5.08168941051e+12 5.61817463299e+12 4.93207563297e+12 3.8357191712e+12 3.96549516938e+12 3.60768278432e+12 3.24415484007e+12 2.96256394866e+12 2.50639246658e+12 2.26781238903e+12 2.14432592491e+12 1.65720175785e+12 1.40373467939e+12 778525214819 594240656306 609271247760 469659705382 194473703724 141294093892 147028753530 55802404554.6 67766280266.4 197249362945 74193012263.1 0 55172184115.3 73256184878.2 0 51437478220.8 0 0 0 30281871460.8 17156867347.8 0 0 0 0 0 0 0 
0 0 0 0 0 0 0 0 0 0 0 0 52249272506.3 53443448242.2 54493834891 0 47917349076.2 115656002975 170564579129 365688671493 199380770308 232676232282 448825644217 471798026909 640722579136 1.13916606021e+12 1.20432155569e+12 1.62620287376e+12 2.50453578974e+12 3.57694677599e+12 3.30916351329e+12 2.5203817572e+12 3.3995384499e+12 5.04184495042e+12 5.08295146475e+12 6.40035467316e+12 6.80999792203e+12 7.51877312742e+12 9.63801238924e+12 7.50293918002e+12 8.301121817e+12 1.00479647033e+13 9.5412992406e+12 9.16094072505e+12 1.10405138018e+13 1.19840311602e+13 1.15741584061e+13 1.1401132153e+13 9.86804988984e+12 1.02756100828e+13 9.32752284884e+12 7.08021747047e+12 7.11241281186e+12 7.74869186559e+12 6.71592552075e+12 5.16206108603e+12 4.35887860229e+12 4.11952214513e+12 3.29635279443e+12 2.88429347933e+12 2.60078927758e+12 1.83598758558e+12 2.00364424705e+12 1.08707329875e+12 993440745076 1.01799943403e+12 465434687356 350633432635 276880829232 373128823019 291176751747 123869026247 144653738132 173261724935 102124910626 0 0 48324954442.1 0 0 0 0 0 0 0 0 0 0 0 0 
0 0 0 0 0 0 0 0 0 0 0 0 53422957071.5 0 72761325374.2 52557687080.2 53595822092 2470942524.43 119522734241 223745881834 287929996773 630086867291 625603610586 977947597382 1.33005338367e+12 1.41986826747e+12 2.18282543958e+12 2.96384002227e+12 3.20443037322e+12 3.85594968066e+12 4.35907229845e+12 5.79672940544e+12 6.886036943e+12 8.07500949764e+12 9.49411493876e+12 1.02055988826e+13 1.11170629643e+13 1.18897183982e+13 1.42919848743e+13 1.68486906662e+13 1.39957189933e+13 1.62719470576e+13 1.76815104953e+13 1.82413966682e+13 1.84390335307e+13 1.73186731151e+13 1.80316463615e+13 1.72133968368e+13 1.66838734547e+13 1.56176561131e+13 1.38783170058e+13 1.38290700091e+13 1.0894207307e+13 1.18801765909e+13 9.60713430739e+12 9.01431568736e+12 7.39947267934e+12 7.15381370775e+12 5.31413050351e+12 4.80029089287e+12 3.88347200092e+12 3.29275885675e+12 2.61205107954e+12 2.41431121975e+12 1.65070793183e+12 1.660822033e+12 1.34995989808e+12 870134721044 463491151558 683177549767 269878594247 301435927881 197485512353 212310606329 90960685950.1 54367721503.1 100317212244 0 48139248724.4 0 0 0 0 0 0 0 0 0 0 0 
0 0 0 0 0 0 0 0 0 0 55798978084.2 44980782554.1 0 28078402235.8 0 74763957520.3 36017915144.4 405713205634 315418283265 668997293094 447301037153 767373395422 1.21622919941e+12 1.71774724051e+12 1.69369151375e+12 2.52540904307e+12 3.50126230199e+12 4.49664502972e+12 5.83029495702e+12 6.07620641583e+12 7.88271150946e+12 8.5588774341e+12 1.12480897314e+13 1.18210772522e+13 1.52202432026e+13 1.7743884494e+13 1.72053896248e+13 1.94525521525e+13 2.10730077086e+13 2.23235653319e+13 2.61629506172e+13 2.50515192146e+13 2.51887137425e+13 2.69401777655e+13 2.72861956753e+13 2.82665176429e+13 2.69618146077e+13 2.66779751209e+13 2.65982635648e+13 2.51552608693e+13 2.52642323128e+13 2.37707723146e+13 1.95047311516e+13 1.75858771793e+13 1.45799581866e+13 1.52625210423e+13 1.30520842431e+13 1.08133271207e+13 8.773259541e+12 6.73858132094e+12 6.27003107391e+12 5.44697355758e+12 4.49229362813e+12 4.15115793281e+12 2.66913562681e+12 1.76474923018e+12 1.36392811866e+12 1.12338261067e+12 1.07407892853e+12 637992930240 640469512868 493631342198 394797069167 219243181447 206266502049 46113500377.3 92852804209.9 0 0 0 22633947542.5 0 0 54554224269.2 0 0 0 0 0 0 
0 0 0 49654914735 0 0 0 0 0 55716626519.8 98802167577 0 0 0 49604512194.3 97726625073.5 394972210778 435708189772 372911919855 818168328389 968552090699 1.6066151322e+12 2.64572984971e+12 2.27070971257e+12 3.1503588858e+12 4.29205053267e+12 5.14043189953e+12 5.99261912102e+12 8.1825739198e+12 9.94273496412e+12 1.19359384697e+13 1.35845344503e+13 1.59034437293e+13 1.90757908051e+13 2.12104900712e+13 2.35344427124e+13 2.64836167298e+13 3.08945517816e+13 3.27055633754e+13 3.50604039939e+13 3.61934543211e+13 3.99306396927e+13 4.31683541457e+13 4.38175448908e+13 4.23863649566e+13 4.13278717293e+13 4.14199032535e+13 4.13409475726e+13 3.96474453714e+13 3.8416738199e+13 3.50134562548e+13 3.16203090958e+13 2.91558368008e+13 2.66787487852e+13 2.28962413303e+13 2.03790071261e+13 2.04945876796e+13 1.64020505509e+13 1.46286907762e+13 1.09629137337e+13 8.66482945395e+12 8.26637116377e+12 5.93609105721e+12 4.53052608815e+12 3.63437505838e+12 3.53124213125e+12 2.9217906777e+12 1.81003920603e+12 1.58089522985e+12 780028659528 623342489197 926302125966 531188495756 310905103913 246818616429 215693137176 0 55820000000 0 52839026595.6 0 54051770746.7 0 0 0 0 0 0 0 0 
0 0 0 0 0 0 0 0 0 0 0 0 87346883774.6 108706223705 215929694759 191615021664 248464134675 715317052553 1.08696026856e+12 900618345153 1.27743602618e+12 1.57713437854e+12 1.98738874724e+12 2.03784262131e+12 4.91893925809e+12 5.1004869551e+12 6.9524433283e+12 8.52005145211e+12 1.12135889272e+13 1.40362827277e+13 1.81655670818e+13 2.02576578826e+13 2.21879663862e+13 2.65409187115e+13 3.14177816924e+13 3.51842916414e+13 4.13574330609e+13 4.40430558236e+13 4.43991753924e+13 4.93523454819e+13 5.35290210768e+13 5.47401309245e+13 5.96220554234e+13 5.78418924621e+13 5.94545298217e+13 5.99763286391e+13 5.87836890277e+13 5.57980290578e+13 5.63129747659e+13 5.59316259927e+13 5.09910969936e+13 4.93500613652e+13 4.47916365271e+13 3.88546666761e+13 3.20967344713e+13 3.00594398589e+13 2.60330607715e+13 2.20260529494e+13 2.07620777927e+13 1.69046120275e+13 1.38603702207e+13 1.13840477263e+13 8.98763015303e+12 7.73923802604e+12 5.3123159563e+12 4.56105648971e+12 2.92199531397e+12 2.27438997727e+12 1.8624120391e+12 1.60916290222e+12 858652865012 561059244331 542519240104 312580209105 210005312492 119422357909 59282987522.1 55824421125.3 55221428416.7 0 0 0 0 0 0 0 0 0 0 0 
0 0 0 0 0 0 0 30056268460.6 0 0 55624606068.5 122499348795 394931661.755 53661403151 402114420911 12222311157.9 620101035596 509733159314 850959585542 1.64298692521e+12 1.84719861538e+12 1.74456559482e+12 3.65221537462e+12 4.45179770337e+12 6.5236859922e+12 6.95648542286e+12 9.20425017341e+12 1.28054596342e+13 1.5034174112e+13 1.78044597331e+13 2.05318284635e+13 2.59760916386e+13 2.96688631144e+13 3.35701211333e+13 3.99608227839e+13 4.49317266847e+13 5.01408034623e+13 5.68778447521e+13 5.97543107382e+13 6.34644222339e+13 6.95109376333e+13 7.61499852577e+13 7.74089548894e+13 8.18854704353e+13 8.06165935609e+13 8.19120413301e+13 7.69569637377e+13 7.3332886925e+13 7.37864508297e+13 7.41051806739e+13 6.38211682427e+13 6.19327066765e+13 5.64217919105e+13 5.18585156607e+13 4.72496198495e+13 4.27969440868e+13 3.70289681151e+13 3.02545603653e+13 2.62484516311e+13 2.11177223756e+13 1.7251469838e+13 1.44916521456e+13 1.08099173203e+13 9.49447295923e+12 8.32400243877e+12 6.11963287545e+12 4.32691433011e+12 3.41014983978e+12 2.5657549387e+12 1.8868713499e+12 1.59044403471e+12 840565289436 729220345604 646220311213 544679823128 21862522968.4 307658231954 211575003056 105895091138 213759717849 0 0 50085398324.2 0 0 0 0 0 0 0 
0 0 0 0 0 0 0 53277947339.9 0 66632901208 0 52209089080.4 53883210469.7 203074618394 387183082926 76386572247 699192785203 1.02265182569e+12 1.1455036651e+12 1.91770737448e+12 2.16657896354e+12 3.1423763213e+12 5.19011096865e+12 5.25631660609e+12 7.60574149614e+12 8.33591490207e+12 1.32802050452e+13 1.35552809024e+13 1.82084157024e+13 2.32830943349e+13 2.74073716658e+13 3.37691430486e+13 3.87823853073e+13 4.58162745177e+13 5.18208111438e+13 5.44692333057e+13 6.49522115355e+13 7.37396768575e+13 7.87188600873e+13 8.40119614288e+13 8.72729552819e+13 9.55069016974e+13 1.01221747071e+14 1.01515864674e+14 1.01124367592e+14 9.95877101252e+13 1.0873114421e+14 9.88606345231e+13 9.87019591267e+13 9.21666549126e+13 8.51661292471e+13 8.10286040623e+13 7.1875527126e+13 6.43693810564e+13 6.05151436699e+13 4.79640141372e+13 4.48788394987e+13 3.63958823402e+13 3.0847229107e+13 2.66762302237e+13 2.22597689007e+13 1.85360747742e+13 1.42421037517e+13 1.24731282998e+13 1.00302790638e+13 7.84581080693e+12 6.87573955361e+12 4.55724285619e+12 3.81585807254e+12 2.71131719976e+12 1.32764307201e+12 1.13495445421e+12 724384854467 383506021228 441411657934 325833332964 157130880719 94528188806.9 157895123208 0 80035207461.3 0 0 0 0 0 52391452988 0 0 0 
0 0 0 0 0 0 48763348801.2 53763699514.1 47888750704.5 112153475322 117140079033 128691954306 256919719696 179158233832 342498288775 542021794263 872542515788 755709249288 1.54218379685e+12 2.488140285e+12 2.99765408865e+12 4.10538411249e+12 5.08415339952e+12 7.21992142133e+12 8.98680459772e+12 1.23639543992e+13 1.36109002653e+13 1.90057108961e+13 2.30488509406e+13 2.70532091593e+13 3.35052268836e+13 4.13977016402e+13 4.83391291636e+13 5.32231742702e+13 6.21888269458e+13 7.04948649899e+13 8.01475462589e+13 8.54785164554e+13 9.83103133287e+13 1.04937203874e+14 1.08322607842e+14 1.15958623256e+14 1.2259170673e+14 1.21552251124e+14 1.22485093039e+14 1.23005345786e+14 1.23155116224e+14 1.19362161558e+14 1.14693235237e+14 1.05757460821e+14 1.04778775168e+14 9.51583079324e+13 8.64635521736e+13 7.71697285496e+13 7.48143525582e+13 6.23015843713e+13 5.22387548253e+13 4.65796799284e+13 3.98179415053e+13 3.43230072371e+13 2.78840694193e+13 2.4199920008e+13 1.85927056613e+13 1.40725725847e+13 1.21336765341e+13 8.81906733985e+12 7.18194800453e+12 6.2745110753e+12 4.24520731767e+12 3.39280108278e+12 2.05603348322e+12 1.6891855579e+12 1.36670020703e+12 867729323220 566910308776 209263636563 274669631917 111551439274 67384275668.2 31509233967.8 0 0 154237261570 53795904065.8 0 0 0 0 0 0 
0 0 0 0 55458177500.1 48593013312.7 0 53068849463.9 0 55675645759.2 137955419088 155598916519 168948678607 363284136551 435150874115 836525144705 943357221230 813511738180 1.73956256477e+12 1.98001245756e+12 3.0168468022e+12 4.96410692052e+12 7.16716172681e+12 8.0124735365e+12 1.12801065875e+13 1.38370943889e+13 1.76189923165e+13 2.20232517605e+13 2.83113836038e+13 3.12859368776e+13 4.14388713914e+13 4.69285560682e+13 5.47796459967e+13 6.5290869995e+13 7.48481171302e+13 8.22698215775e+13 9.36850874396e+13 1.04634948983e+14 1.11493314901e+14 1.17825408617e+14 1.27803976598e+14 1.36617026547e+14 1.40701618063e+14 1.40790586478e+14 1.45809683177e+14 1.48187704677e+14 1.38629594373e+14 1.42029014645e+14 1.31381936741e+14 1.31542212785e+14 1.22930512129e+14 1.12036170138e+14 9.77690586076e+13 9.14657621423e+13 8.2135271513e+13 7.46198035669e+13 6.63839059534e+13 5.58816347998e+13 4.48311709005e+13 3.87575150903e+13 3.32250970942e+13 2.71159718134e+13 2.16972620959e+13 1.5577897799e+13 1.24835979966e+13 1.00304421653e+13 1.01663465429e+13 6.45046082653e+12 4.34279027691e+12 3.05012506278e+12 2.79563801891e+12 2.23578263723e+12 1.44630039632e+12 856362419251 855245154764 444616457295 354245990605 52919707527.8 79836204871.6 45516054225.7 49712403169.8 86709522564 0 0 0 0 0 0 0 0 
0 0 0 0 0 0 0 0 103689344863 145911791102 89231327759.1 66070130711.8 161530689511 491891573173 485642246389 830128231190 1.24033962592e+12 1.83669459507e+12 1.56688362946e+12 3.03411014787e+12 3.7607115034e+12 5.48172373779e+12 6.43056653495e+12 8.4377877573e+12 1.10145976736e+13 1.44900824175e+13 1.83679846256e+13 2.23996262873e+13 3.03810801872e+13 3.72401921666e+13 4.3149531686e+13 5.02189458395e+13 6.27390097056e+13 7.19662916568e+13 7.98152400642e+13 9.16761505141e+13 1.04648535938e+14 1.12116510288e+14 1.25674490899e+14 1.32116409916e+14 1.40260638887e+14 1.49746408349e+14 1.57323800043e+14 1.61951889669e+14 1.60406795857e+14 1.61500101667e+14 1.59507321919e+14 1.58331264498e+14 1.47046528062e+14 1.40536614537e+14 1.37651690286e+14 1.25654169644e+14 1.13911858485e+14 1.03944041324e+14 9.29008361489e+13 8.09905516078e+13 7.12927520369e+13 6.38860747543e+13 5.26717008298e+13 4.27553426202e+13 3.51600690339e+13 2.91564484048e+13 2.5659034582e+13 1.95402197792e+13 1.4651908093e+13 1.35503616419e+13 9.24782249678e+12 6.77472811045e+12 4.14324722238e+12 4.35795732587e+12 2.58058235577e+12 1.97714302942e+12 1.72165723557e+12 895960357210 523563145489 697726206329 313377469883 176383067013 195256260859 48731781585.4 52406616143.6 50453940427.2 0 0 53580375577.4 55790861486.1 0 0 0 45455915263.2 
0 0 0 0 0 0 0 0 53274800163.7 0 72618681422.9 67634026467.7 144411844898 381765064924 338074305211 630537651503 1.37354780008e+12 1.62747356775e+12 2.3795655011e+12 2.78195060545e+12 4.10083611899e+12 5.22914646941e+12 7.8822182169e+12 9.72653776906e+12 1.31460680736e+13 1.60278367645e+13 2.14022715702e+13 2.52970188152e+13 3.08078310214e+13 3.38598789721e+13 4.90765780406e+13 5.80500224669e+13 6.47239707845e+13 7.19368587817e+13 8.5804247303e+13 9.64166066848e+13 1.07430860518e+14 1.19060395908e+14 1.27955931545e+14 1.44969928627e+14 1.52426989422e+14 1.58965655412e+14 1.64237857424e+14 1.60308487791e+14 1.68056239118e+14 1.67480554511e+14 1.70051419609e+14 1.64545541978e+14 1.57629080177e+14 1.54368702887e+14 1.39829981016e+14 1.28167814312e+14 1.23655973329e+14 1.03541436818e+14 1.02668839366e+14 8.52741990291e+13 7.58721740409e+13 6.1735180642e+13 5.29774941277e+13 4.49502734035e+13 3.99493016316e+13 3.25304743807e+13 2.56530076114e+13 1.9911060052e+13 1.47441970703e+13 1.27660647318e+13 9.2260780014e+12 7.52350476395e+12 5.44041785309e+12 3.23860750633e+12 3.10059990815e+12 2.07388801989e+12 1.0246311564e+12 815326638942 444576097129 515613420474 382983802117 291814040911 134532070420 13758984853.3 0 0 0 0 0 0 0 0 0 0 
0 0 87382343966.8 0 0 0 102283187875 0 52188809197 0 156667089152 178487796273 214694754538 543748350053 544218889544 737501873484 734170958541 1.80630716553e+12 2.08717644063e+12 3.02355629972e+12 4.21532249751e+12 5.24167093171e+12 7.45332518366e+12 1.01276170076e+13 1.14376140465e+13 1.78819510363e+13 1.89037065041e+13 2.44037043515e+13 3.20593329567e+13 3.89850496769e+13 4.79822103605e+13 5.44019717534e+13 6.42192269383e+13 7.50091447431e+13 8.82891324641e+13 9.5429272348e+13 1.07920457196e+14 1.1765579032e+14 1.2972315793e+14 1.375164584e+14 1.52153095177e+14 1.55356946547e+14 1.60591243258e+14 1.72517001155e+14 1.67905681266e+14 1.69655764697e+14 1.60361104464e+14 1.65743907642e+14 1.58899905473e+14 1.5000919347e+14 1.39213999415e+14 1.26558655207e+14 1.19581267129e+14 1.10647944822e+14 1.00928903721e+14 8.29498471772e+13 7.30077139433e+13 6.76612328486e+13 5.29940525298e+13 4.73224938804e+13 3.83922706932e+13 3.11188216504e+13 2.51812983874e+13 2.1231906881e+13 1.79921881473e+13 1.2307231593e+13 9.04944181772e+12 7.52771943439e+12 5.34977497415e+12 3.04287979817e+12 2.21086114244e+12 2.360814043e+12 1.58125367454e+12 720627011280 764394455948 238013848878 316232857722 273063421938 161659491705 184391904030 106039292132 0 0 8230030125.89 0 0 0 19962650424.4 0 0 
0 0 0 0 0 0 77969169162.9 0 0 248794966400 107678935178 161654174234 183283725570 405253757089 407593812085 460064434685 650381949646 1.26956929812e+12 1.5924207952e+12 3.35951903238e+12 4.03524678921e+12 5.10740336227e+12 6.83946401589e+12 8.57209292133e+12 1.24543540251e+13 1.69350106348e+13 1.81969941603e+13 2.29431016405e+13 3.07211817902e+13 3.45545892541e+13 4.47059296523e+13 5.20458920681e+13 5.93420306775e+13 7.14055486169e+13 8.26231467553e+13 9.24108221267e+13 1.00086636548e+14 1.1353769503e+14 1.21921719466e+14 1.33612977258e+14 1.41614701978e+14 1.50188142293e+14 1.55650336009e+14 1.563437229e+14 1.59652000919e+14 1.59672046516e+14 1.616337895e+14 1.50827183853e+14 1.53438190847e+14 1.45326030465e+14 1.30500670872e+14 1.21686964031e+14 1.1377444469e+14 1.01945277202e+14 9.15793099747e+13 7.93882489925e+13 6.98014286903e+13 6.39979388297e+13 5.3507414924e+13 4.12887489197e+13 3.6849383518e+13 2.89536838034e+13 2.05566716348e+13 1.93225206844e+13 1.63039454376e+13 1.16517246882e+13 8.11667047463e+12 7.11955630652e+12 5.53612195849e+12 3.95476296019e+12 2.58147475131e+12 1.69125249418e+12 1.10736414758e+12 1.1767266674e+12 468342219842 530298781364 337210740276 126487295974 219538008630 64313349720.3 55267076155.1 0 0 0 0 0 53794602992.1 0 0 0 
0 0 0 0 0 0 0 51469055486.6 0 33641808406 16901598651.7 173439366910 105504188963 146102372819 371536970494 679959214500 1.29921176057e+12 1.50016824757e+12 1.52987302094e+12 2.59631843665e+12 3.47452104835e+12 4.71920148159e+12 8.2106529499e+12 8.83510795817e+12 1.10309689634e+13 1.37705246167e+13 1.92947699215e+13 2.18461559573e+13 2.47308868852e+13 3.35564656562e+13 3.77626623589e+13 4.82395641879e+13 5.48465608959e+13 6.47850245994e+13 7.47243372955e+13 7.96083411366e+13 9.25237411983e+13 1.03247643003e+14 1.13260116385e+14 1.23574364733e+14 1.29774022017e+14 1.35646731259e+14 1.40044773431e+14 1.40837525845e+14 1.43781597181e+14 1.44386880431e+14 1.4407480536e+14 1.43286142522e+14 1.32506695479e+14 1.29926294998e+14 1.22973755814e+14 1.14205082759e+14 1.04051381433e+14 9.40413337028e+13 8.34539289316e+13 7.37895408698e+13 6.64560223939e+13 5.4950545868e+13 4.64995247838e+13 4.1476716511e+13 3.32695065922e+13 2.78324419922e+13 2.09069270746e+13 1.78352634912e+13 1.3819775248e+13 1.04440562704e+13 8.79118348443e+12 6.22780218684e+12 4.52130531338e+12 3.19110076682e+12 2.55815933074e+12 1.97394512939e+12 1.10279524611e+12 1.04750205979e+12 646065771693 464565263833 160053270820 66564068446 54991377157.7 74163654036.5 54855098576.2 0 0 55138094783.2 0 0 0 0 0 0 
0 0 0 0 0 55823090595.7 0 52568937679.9 0 0 28549351794.7 164739304051 168976707074 144063878744 538363062895 897833852423 756989493623 1.4943007833e+12 1.23801412038e+12 2.51989522738e+12 3.39132713672e+12 4.4243171847e+12 6.09645312013e+12 6.94775744126e+12 9.39515403075e+12 1.07408021295e+13 1.46561363644e+13 1.87641107837e+13 2.51902043828e+13 2.74851756889e+13 3.6868814653e+13 4.06575605406e+13 4.7158096839e+13 5.29413585139e+13 6.36134627079e+13 7.3742555713e+13 7.87485096669e+13 8.71947097231e+13 9.47080416358e+13 1.02590158733e+14 1.10058986127e+14 1.15714693041e+14 1.1986949885e+14 1.2509598476e+14 1.23138391698e+14 1.25976208105e+14 1.27740121663e+14 1.21274488836e+14 1.11223036978e+14 1.09638134211e+14 1.02357689657e+14 9.57881324795e+13 8.88466391347e+13 8.25928504738e+13 7.00407115916e+13 6.42984003912e+13 5.41933066483e+13 4.64803898306e+13 4.13215320929e+13 3.35419659168e+13 2.87039099137e+13 2.26160692197e+13 1.85012513894e+13 1.47694733249e+13 1.27521486626e+13 9.07084918379e+12 6.62803631252e+12 4.85920612625e+12 4.58842897562e+12 2.94049755819e+12 1.73988152641e+12 1.75460200709e+12 1.0097917202e+12 654579363347 736102436601 246453515103 205597724234 371544014110 152359678977 54534214800 79505274443.2 18789234360.8 0 0 108159693417 2109243165.06 0 0 0 0 
0 0 54896847144.9 0 0 0 0 0 53499139807.1 55333542408.5 0 151907284748 152072164225 321913967318 155319083796 379091872506 486382356630 747272913296 1.54062581381e+12 1.57239240476e+12 2.99053947745e+12 3.34788180759e+12 5.14959153381e+12 6.27588144158e+12 7.11732070003e+12 9.26485605006e+12 1.12702245648e+13 1.52108926296e+13 1.83292198425e+13 2.29793715457e+13 2.69885551936e+13 3.33097847396e+13 4.02188182467e+13 4.53444588269e+13 5.37739440696e+13 5.89885278656e+13 6.43670618278e+13 7.39780588975e+13 7.77233203858e+13 8.81983715547e+13 9.34583079449e+13 9.70046372791e+13 9.83824170025e+13 1.00847762312e+14 1.0358167775e+14 1.02557626528e+14 1.00350143648e+14 9.63033435354e+13 9.34046942303e+13 8.65578192273e+13 8.74485087252e+13 8.10239501422e+13 7.21030897592e+13 6.66484525048e+13 5.97147435468e+13 5.25847269944e+13 4.3543080373e+13 4.0237799586e+13 3.4262548031e+13 2.88287700266e+13 2.29505127823e+13 1.8758790931e+13 1.50835139825e+13 1.33504858193e+13 9.53276059888e+12 7.23881805943e+12 6.59273212177e+12 4.40051214795e+12 3.75670637371e+12 2.77493025702e+12 1.9819534564e+12 986477957934 557544790596 620794612884 411164760678 251204496366 174906968054 179949335303 153544259356 0 100743117129 0 0 0 0 0 0 0 0 0 
0 0 0 0 0 0 0 0 0 0 0 0 207528974430 55766989205.4 163598417658 461155481354 345756848854 769614747460 1.05778151461e+12 1.58420720311e+12 2.35720166177e+12 2.80223748219e+12 2.7231247349e+12 4.65656212031e+12 5.95715532963e+12 7.47910782212e+12 9.25852599889e+12 1.23489494539e+13 1.57823144769e+13 1.84667042374e+13 2.06223498726e+13 2.62003077586e+13 2.95932735519e+13 3.54921952323e+13 4.09230429759e+13 4.37805674947e+13 5.17566613533e+13 5.66178942459e+13 6.38151612901e+13 6.44437474637e+13 7.11949586478e+13 7.65433619203e+13 7.86070070105e+13 7.61935197948e+13 8.20680620849e+13 7.87666626861e+13 8.02651457124e+13 7.8167874461e+13 7.49265083768e+13 7.02916073541e+13 6.80153181535e+13 6.23103635706e+13 5.72715845655e+13 5.09411686098e+13 4.9384963759e+13 4.29033705445e+13 3.36002447386e+13 2.93806991712e+13 2.55482453276e+13 2.19534267223e+13 1.84202420949e+13 1.46141442769e+13 1.29567365492e+13 8.7047949465e+12 6.66146616707e+12 5.17967877596e+12 4.28820031453e+12 3.12025759289e+12 2.88980911108e+12 2.1551770641e+12 1.73697607495e+12 621767224915 1.00270873293e+12 390800280029 565312352561 104056826705 100624376536 117357489253 94077793971 50269552641.4 0 0 0 0 0 0 0 0 0 0 
0 0 0 0 0 0 16271167456.6 98309266391.1 0 0 0 0 55756917246.5 158809962931 233985147636 218470194851 646501146171 517525679021 458006045779 977391182993 1.26752279929e+12 1.88206117777e+12 2.81510270052e+12 3.14989976676e+12 4.72033424432e+12 4.9009037032e+12 5.96345160093e+12 9.23966192273e+12 1.04633540209e+13 1.39935213757e+13 1.56460400738e+13 1.93467888201e+13 2.17181178553e+13 2.61703365672e+13 2.93838350784e+13 3.3248142396e+13 3.98128813003e+13 4.00580994349e+13 4.49144357358e+13 4.84028422339e+13 5.07178513307e+13 5.73476283189e+13 5.7910770873e+13 6.15687530807e+13 5.81619571634e+13 6.01829730146e+13 5.64604137432e+13 5.77690639951e+13 5.29363497578e+13 5.42453297941e+13 4.86623689696e+13 4.58268658242e+13 4.30011815267e+13 3.90147659328e+13 3.33704225288e+13 3.18583405199e+13 2.59833284151e+13 2.14101423807e+13 1.84095306482e+13 1.75716472315e+13 1.25006830444e+13 1.15234701009e+13 9.20427922137e+12 7.1910403907e+12 5.3005427852e+12 4.36080155958e+12 3.78084715877e+12 2.87872956696e+12 2.22006063348e+12 1.53885535416e+12 1.35860701446e+12 840738924496 439562614241 543156908012 160717540768 152991290992 162666029622 0 0 51663913717.7 48935243735.4 0 0 0 0 0 0 0 0 0 
0 0 0 53503907627.8 0 0 0 0 0 52930542200.3 0 0 151119919022 97316813106.9 72244809585.6 207035771804 324209369928 372712521154 479378754279 943783272657 1.22209789417e+12 1.84991305334e+12 1.57025021869e+12 2.08174371203e+12 3.12474701664e+12 3.6839202296e+12 4.70264037647e+12 6.7226699351e+12 8.60812988676e+12 9.27229316788e+12 1.07927864607e+13 1.50957928251e+13 1.50630636128e+13 1.91462135906e+13 2.08314364819e+13 2.32602366981e+13 2.90746033689e+13 2.92972203905e+13 3.35701926678e+13 3.54335150165e+13 3.91103176008e+13 3.79167544961e+13 3.99024389874e+13 4.4138703329e+13 4.1724944246e+13 4.11540653056e+13 4.06884536408e+13 4.25494892024e+13 3.98097224572e+13 3.57987911388e+13 3.6037092711e+13 3.22265717144e+13 3.00675559134e+13 2.76165018089e+13 2.35966382089e+13 2.22670142317e+13 1.89541762176e+13 1.48438956993e+13 1.26351964377e+13 1.17304057916e+13 9.02619662555e+12 7.69478180468e+12 6.06149741987e+12 4.79020335836e+12 4.05552055046e+12 3.01166816877e+12 2.40619234666e+12 1.70540579377e+12 1.72932018619e+12 1.15083237468e+12 781762053589 478359267635 360033518822 219255785541 357812263065 228093985732 54558666617.4 34115890200.7 55696256932.3 0 0 0 0 0 0 0 0 0 0 0 
0 0 0 0 0 0 0 30852202362.4 0 0 5244194258.21 54408063914.4 85180150603.3 0 0 82063055449.4 159155057304 106824111039 442708417653 288265934793 386982412705 781226635690 1.43776692478e+12 1.62675255096e+12 1.78997346719e+12 2.64562665732e+12 3.45463908302e+12 4.14550522597e+12 4.67792186809e+12 6.93873380466e+12 7.97707270778e+12 8.39682485275e+12 1.01417726762e+13 1.33234940699e+13 1.4397558026e+13 1.57498659832e+13 1.70212034496e+13 1.86743404858e+13 2.07343085667e+13 2.51099437922e+13 2.36640060409e+13 2.60731408786e+13 2.77578338827e+13 2.73396119741e+13 2.76757511879e+13 2.90379353028e+13 2.70579073169e+13 2.73693389584e+13 2.51417340617e+13 2.4697775631e+13 2.28585090112e+13 2.44099744334e+13 1.77691618884e+13 1.78060292299e+13 1.44093712562e+13 1.46729323714e+13 1.22901819968e+13 1.00593365746e+13 9.11772747057e+12 7.55823797894e+12 6.37540022264e+12 4.85980558162e+12 3.96178575758e+12 3.74604428241e+12 2.90633196054e+12 1.95184257857e+12 1.18138440421e+12 1.3689280528e+12 1.18383742524e+12 733630643537 567840409165 466686819704 111037693899 158939742565 148674528764 126264420420 0 0 0 0 0 0 0 0 0 0 0 0 0 0 
0 0 0 0 0 0 0 0 0 0 0 0 537662727.22 55654948099.3 0 53661607709.1 212887125105 97434690958.9 185116334422 177420010303 682050589149 672173802155 832814449007 1.55579573516e+12 1.35541658352e+12 1.77699414794e+12 1.75457757208e+12 2.07826998603e+12 3.46563924974e+12 4.75290213176e+12 4.97164795515e+12 5.20261548907e+12 6.22803321442e+12 9.28197304714e+12 8.8332853858e+12 1.11451253086e+13 1.15716879943e+13 1.29990139265e+13 1.48891976866e+13 1.58692109138e+13 1.62983475497e+13 1.57834554524e+13 1.90198926523e+13 1.72259508423e+13 1.7888889733e+13 1.83061544349e+13 1.8976891369e+13 1.59929159812e+13 1.62191747833e+13 1.59294811132e+13 1.42607346678e+13 1.37649068548e+13 1.32083494247e+13 1.21123776105e+13 9.98502775725e+12 9.6290583413e+12 7.06258431888e+12 5.72908615258e+12 5.84229432491e+12 4.99795237649e+12 4.53804135909e+12 3.52029654648e+12 2.70720185306e+12 1.76278249973e+12 1.15680022111e+12 1.27935438801e+12 1.00656401562e+12 679422264710 822220271287 316170315801 230784957021 98251084999.9 82977736024.9 51247317141.9 64289291614.2 55231970905.2 0 0 0 50259785114.2 0 46874136588.8 0 0 0 0 0 0 0 0 
0 0 0 0 0 0 0 0 0 0 0 10598598573.7 0 0 0 53351013819.1 119047524188 140924171591 36729733857.8 159989880032 475840987071 387457667889 416908882273 491615355979 1.14444820109e+12 819063293222 1.1459936997e+12 1.83865758053e+12 1.64588833777e+12 2.06777995952e+12 2.5728592912e+12 3.50969998863e+12 4.2559372221e+12 5.47515074478e+12 5.76681345857e+12 6.76915814785e+12 7.66493647684e+12 6.99332533153e+12 8.68552522111e+12 1.07302033467e+13 1.02939821713e+13 1.06228395927e+13 1.10400255601e+13 9.5604897325e+12 9.60085207778e+12 1.13888209355e+13 1.24180348645e+13 1.06593911656e+13 1.07855552001e+13 1.00216869137e+13 9.6230401371e+12 8.12333621838e+12 7.94808645636e+12 8.01807298474e+12 5.72036291081e+12 5.65329731927e+12 4.34470898079e+12 4.37472551819e+12 3.40180342481e+12 3.29575564158e+12 2.49546144398e+12 1.46979255939e+12 1.25960156594e+12 1.52774895564e+12 1.0282582347e+12 477628801308 177280023508 842773251470 341341105370 170684508506 250023488314 117060423517 136236281057 55574489445.2 0 44759211963.9 55462807073.5 0 0 0 0 0 0 0 0 0 0 0 0 0 
0 0 0 0 0 0 0 0 0 0 0 0 0 0 0 159467167541 157131848637 55438584231.1 45647565985 0 69112769508.8 47121057156.1 187309100120 503132771155 769248719279 472679696592 515575637285 896385499775 1.17579464853e+12 1.38099729272e+12 1.71480235834e+12 2.45332901872e+12 2.48347808571e+12 2.71997585717e+12 3.03384015208e+12 4.1092410451e+12 4.00894484955e+12 4.96915182685e+12 4.71252379096e+12 5.30510552908e+12 5.53121800529e+12 5.81205032763e+12 6.80731269635e+12 6.00481170474e+12 6.18646921441e+12 6.22419117821e+12 6.40218728394e+12 6.60867357906e+12 5.23418207106e+12 5.56447381051e+12 5.27507580293e+12 5.42181054145e+12 5.04132659318e+12 3.72561032054e+12 3.54715385677e+12 2.33959727873e+12 3.13697640053e+12 2.27293359272e+12 2.12672460513e+12 2.5588883206e+12 1.34762668091e+12 1.54177901961e+12 977201417545 678614135336 889212763632 385942886914 392909223916 331247554732 105550734603 342168669347 94457565339.3 108962076173 35708259439.1 14630966812.9 54836885533.2 36654264864.6 0 0 2579230118.82 0 0 0 0 0 0 0 0 0 0 0 
0 0 0 0 0 0 0 0 0 0 0 0 0 55544060321 47116393497.2 0 53099617776.2 0 53072350432.2 55824862102.6 97025262669.2 153562265820 229699064455 222786346870 150328741032 431100998446 607240406443 694823275348 815615556475 707651555722 1.28011628456e+12 544886780929 1.55257722467e+12 1.78325562349e+12 2.00932307072e+12 2.28621023548e+12 1.89744437088e+12 3.01212452995e+12 2.61447552967e+12 2.76087564139e+12 2.3075250206e+12 3.38425949362e+12 3.51918755598e+12 3.35898075568e+12 3.44921037698e+12 3.50469595507e+12 3.49697082632e+12 3.64858112908e+12 3.63904824239e+12 3.25829038073e+12 3.48338817215e+12 2.81097584273e+12 2.7447736936e+12 2.39875223847e+12 1.7380648515e+12 1.78042830624e+12 1.66202770422e+12 1.16392617601e+12 491809354479 870232315677 583460251799 658255451805 274607197521 431586807517 535136009213 220862092952 167074192473 218068257518 180869677705 206005540377 0 100252763718 0 0 109324084846 0 0 0 0 0 0 0 0 0 0 0 0 0 0 0 
0 0 0 0 0 0 0 0 0 0 0 0 0 0 0 0 0 0 0 0 27797184968 0 104003123072 40703874910.7 211355484064 52939663746.2 277128902173 171525135869 232372668222 407030653908 376704950428 480873051976 611481032560 498165518016 687518150266 1.03314785496e+12 1.54632811251e+12 1.81606210116e+12 1.53386516065e+12 1.58083302665e+12 1.55080887463e+12 1.78307183828e+12 2.10056228891e+12 1.58676729608e+12 2.08970918221e+12 1.94189908045e+12 2.01654604854e+12 2.64020594017e+12 1.41265574883e+12 1.47001139355e+12 1.47234272443e+12 1.51464153861e+12 1.29171058482e+12 1.33210098998e+12 1.03307990559e+12 1.02019183612e+12 464515242567 649593105941 759073777107 391131034956 474062138321 456633111728 255773988394 263345450140 120361154943 57005114318.5 217147869992 127756292842 124699147071 98368208361.5 0 52650778635.6 0 0 90488928215.7 0 45047175955.7 52026652803 0 50127185539.7 0 0 0 0 0 0 0 0 0 0 
0 0 0 0 0 0 0 0 0 0 0 0 0 0 0 0 0 0 0 0 0 51407929011.2 54977681838.4 47513329626 105661537882 261771187775 0 102003264222 144543232150 181626823290 391721416069 290539463891 425515371680 121948372529 366020134445 439986544644 672270112233 391166060795 523284988167 547012720659 734305790890 884411708019 801799521018 440881149398 1.073631419e+12 1.02091115417e+12 1.11794428137e+12 882347777164 1.23951657312e+12 958275154763 568006493029 1.06629918748e+12 805360868837 691077426301 359652462224 494991415806 376808015132 306374941960 226324739103 148927846701 83834390995.4 179577119414 108787550986 4041005749.84 53265450766.3 200120650750 53734453819.9 45563578010.7 0 85322669419.2 0 0 0 0 0 0 17641925939.1 0 0 0 0 0 0 0 0 0 0 0 0 0 
0 0 0 0 0 0 0 0 0 0 0 0 0 0 0 0 0 0 0 0 0 54929992888.2 0 47121743847.8 0 3487682223.63 31525967337 103918512452 55621276538.4 48927457066.2 131111259423 104257305954 53982541196.8 157672486451 139838644690 331379338243 198145560666 106470844549 91469355884.6 101270384560 434392456109 205970174700 245429712563 368789403435 383783273363 272311302539 420413894023 399275186557 326572472125 254464813431 506454184764 402058957858 302370519105 146157460418 286654169185 270507072914 177240492566 0 53362661748.2 199037582591 74570653542.2 0 49209708087.5 44319095035 0 118788518497 0 0 0 38418956914.2 0 0 0 54244956256.4 0 0 0 0 0 0 0 0 0 0 0 0 0 0 0 0 
0 0 0 0 0 0 0 0 0 0 0 0 0 0 0 0 0 0 0 0 0 0 0 53193052414.2 102220071931 51275159168.6 0 0 55536618545.6 44155239825.9 51659634284 49556071655 93132160457.7 55422289506.5 147376982557 33069838995.4 60578296704.6 48149175707.2 61158114822.7 265446448281 210058824251 66879169785.4 198582859275 164152133903 319797453308 363712797507 115608274689 81637892434.9 167552570673 147930202825 365366492125 0 203691942398 0 257847321145 164896818146 0 160901272639 59011113180.4 0 46264470999.1 112128675676 55477885976.6 0 100171717141 104432876893 0 0 0 0 0 0 0 0 0 0 0 0 0 0 0 0 0 0 0 0 0 0 0 0 
0 0 0 0 0 0 0 0 0 0 0 0 0 0 0 0 0 0 54033683343.8 0 0 0 0 0 25396834071.4 0 0 0 0 0 51842337898.1 53101528961.5 95504159546.9 14049722777.9 98695547259.5 27034438233.3 212783610.967 59592002226.7 0 26170870905.9 53713787864.2 76218942856.8 22352231470.6 93586509113.4 153908243872 111414703409 71831095400.5 88586653473.5 81341571023 78296042323 188219820763 94109641361.3 103643101633 45082396746.7 28907656885 101774967249 23483940909.9 0 101886223426 0 0 0 0 0 0 0 0 0 48073395089.4 0 0 0 0 0 0 0 0 0 0 0 0 0 0 0 0 0 0 0 0 0 
0 0 0 0 0 0 0 0 0 0 0 0 0 0 0 0 0 0 0 0 0 0 0 0 0 0 0 0 48706892569.1 50978594210.3 0 0 0 47496326110.8 0 55794404129.6 55234403370.8 0 0 42714169057.6 0 53410204348.1 34388522912.1 55178311872.1 0 0 0 0 0 0 47381414317.6 0 46768625066.1 0 0 0 0 0 44351826574.8 0 185850350.344 0 0 0 0 0 0 0 0 0 0 0 0 0 0 0 0 0 0 0 0 0 0 0 0 0 0 0 0 0 
0 0 0 0 0 0 0 0 0 0 0 0 0 0 0 0 0 0 0 0 0 0 0 0 0 0 0 0 0 0 0 0 0 0 0 9655285180.12 0 52437006245.5 0 0 55523917548 0 31924909919.1 0 0 54656679744.9 0 0 0 0 0 0 41541590656.6 0 0 0 0 0 0 0 0 0 0 0 54460261648.1 0 0 0 0 0 0 0 0 0 0 0 0 0 0 0 0 0 0 0 0 0 0 0 0 0 
0 0 0 0 0 0 0 0 0 0 0 0 0 0 0 0 0 0 0 0 0 0 0 0 0 0 0 0 0 0 0 0 0 0 0 0 0 0 0 0 0 0 0 0 0 0 0 0 0 0 0 0 0 0 0 0 0 0 0 0 0 0 0 0 0 0 0 0 0 0 0 55705527981.2 0 0 0 0 0 0 0 0 0 0 0 0 0 0 0 0 0 0 
0 0 0 0 0 0 0 0 0 0 0 0 0 0 0 0 0 0 0 0 0 0 0 0 0 0 0 0 0 0 0 0 0 0 0 0 28472763594.8 0 0 0 0 0 5501319394.71 0 54975945098.7 0 0 0 0 3329039429.87 0 0 0 0 0 0 0 0 0 0 0 0 0 0 0 0 0 0 0 0 0 0 0 0 0 0 0 0 0 0 0 0 0 0 0 0 0 0 0 0 
0 0 0 0 0 0 0 0 0 0 0 0 0 0 0 0 0 0 0 0 0 0 0 0 0 0 0 0 0 0 0 0 0 0 0 0 0 0 0 0 0 0 0 0 0 0 0 0 0 0 0 0 0 0 0 0 0 0 0 0 0 0 0 0 0 0 0 0 0 0 0 0 0 0 0 0 0 0 0 0 0 0 0 0 0 0 0 0 0 0 
0 0 0 0 0 0 0 0 0 0 0 0 0 0 0 0 0 0 0 0 0 0 0 0 0 0 0 0 0 0 0 0 0 0 0 0 0 0 0 0 0 0 0 0 0 0 0 0 0 0 0 0 0 0 0 0 0 0 0 0 0 0 0 0 0 0 0 0 0 0 0 0 0 0 0 0 0 0 0 0 0 0 0 0 0 0 0 0 0 0 
0 0 0 0 0 0 0 0 0 0 0 0 0 0 0 0 0 0 0 0 0 0 0 0 0 0 0 0 0 0 0 0 0 0 0 0 0 0 0 0 0 0 0 0 0 0 0 0 0 0 0 0 0 0 0 0 0 0 0 0 0 0 0 0 0 0 0 0 0 0 0 0 0 0 0 0 0 0 0 0 0 0 0 0 0 0 0 0 0 0 
0 0 0 0 0 0 0 0 0 0 0 0 0 0 0 0 0 0 0 0 0 0 0 0 0 0 0 0 0 0 0 0 0 0 0 0 0 0 0 0 0 0 0 0 0 0 0 0 0 0 0 0 0 0 0 0 0 0 0 0 0 0 0 0 0 0 0 0 0 0 0 0 0 0 0 0 0 0 0 0 0 0 0 0 0 0 0 0 0 0 
0 0 0 0 0 0 0 0 0 0 0 0 0 0 0 0 0 0 0 0 0 0 0 0 0 0 0 0 0 0 0 0 0 0 0 0 0 0 0 0 0 0 0 0 0 0 0 0 0 0 0 0 0 0 0 0 0 0 0 0 0 0 0 0 0 0 0 0 0 0 0 0 0 0 0 0 0 0 0 0 0 0 0 0 0 0 0 0 0 0 
0 0 0 0 0 0 0 0 0 0 0 0 0 0 0 0 0 0 0 0 0 0 0 0 0 0 0 0 0 0 0 0 0 0 0 0 0 0 0 0 0 0 0 0 0 0 0 0 0 0 0 0 0 0 0 0 0 0 0 0 0 0 0 0 0 0 0 0 0 0 0 0 0 0 0 0 0 0 0 0 0 0 0 0 0 0 0 0 0 0 
0 0 0 0 0 0 0 0 0 0 0 0 0 0 0 0 0 0 0 0 0 0 0 0 0 0 0 0 0 0 0 0 0 0 0 0 0 0 0 0 0 0 0 0 0 0 0 0 0 0 0 0 0 0 0 0 0 0 0 0 0 0 0 0 0 0 0 0 0 0 0 0 0 0 0 0 0 0 0 0 0 0 0 0 0 0 0 0 0 0 
0 0 0 0 0 0 0 0 0 0 0 0 0 0 0 0 0 0 0 0 0 0 0 0 0 0 0 0 0 0 0 0 0 0 0 0 0 0 0 0 0 0 0 0 0 0 0 0 0 0 0 0 0 0 0 0 0 0 0 0 0 0 0 0 0 0 0 0 0 0 0 0 0 0 0 0 0 0 0 0 0 0 0 0 0 0 0 0 0 0 
0 0 0 0 0 0 0 0 0 0 0 0 0 0 0 0 0 0 0 0 0 0 0 0 0 0 0 0 0 0 0 0 0 0 0 0 0 0 0 0 0 0 0 0 0 0 0 0 0 0 0 0 0 0 0 0 0 0 0 0 0 0 0 0 0 0 0 0 0 0 0 0 0 0 0 0 0 0 0 0 0 0 0 0 0 0 0 0 0 0 
0 0 0 0 0 0 0 0 0 0 0 0 0 0 0 0 0 0 0 0 0 0 0 0 0 0 0 0 0 0 0 0 0 0 0 0 0 0 0 0 0 0 0 0 0 0 0 0 0 0 0 0 0 0 0 0 0 0 0 0 0 0 0 0 0 0 0 0 0 0 0 0 0 0 0 0 0 0 0 0 0 0 0 0 0 0 0 0 0 0 
0 0 0 0 0 0 0 0 0 0 0 0 0 0 0 0 0 0 0 0 0 0 0 0 0 0 0 0 0 0 0 0 0 0 0 0 0 0 0 0 0 0 0 0 0 0 0 0 0 0 0 0 0 0 0 0 0 0 0 0 0 0 0 0 0 0 0 0 0 0 0 0 0 0 0 0 0 0 0 0 0 0 0 0 0 0 0 0 0 0 
0 0 0 0 0 0 0 0 0 0 0 0 0 0 0 0 0 0 0 0 0 0 0 0 0 0 0 0 0 0 0 0 0 0 0 0 0 0 0 0 0 0 0 0 0 0 0 0 0 0 0 0 0 0 0 0 0 0 0 0 0 0 0 0 0 0 0 0 0 0 0 0 0 0 0 0 0 0 0 0 0 0 0 0 0 0 0 0 0 0 
0 0 0 0 0 0 0 0 0 0 0 0 0 0 0 0 0 0 0 0 0 0 0 0 0 0 0 0 0 0 0 0 0 0 0 0 0 0 0 0 0 0 0 0 0 0 0 0 0 0 0 0 0 0 0 0 0 0 0 0 0 0 0 0 0 0 0 0 0 0 0 0 0 0 0 0 0 0 0 0 0 0 0 0 0 0 0 0 0 0 
0 0 0 0 0 0 0 0 0 0 0 0 0 0 0 0 0 0 0 0 0 0 0 0 0 0 0 0 0 0 0 0 0 0 0 0 0 0 0 0 0 0 0 0 0 0 0 0 0 0 0 0 0 0 0 0 0 0 0 0 0 0 0 0 0 0 0 0 0 0 0 0 0 0 0 0 0 0 0 0 0 0 0 0 0 0 0 0 0 0 
0 0 0 0 0 0 0 0 0 0 0 0 0 0 0 0 0 0 0 0 0 0 0 0 0 0 0 0 0 0 0 0 0 0 0 0 0 0 0 0 0 0 0 0 0 0 0 0 0 0 0 0 0 0 0 0 0 0 0 0 0 0 0 0 0 0 0 0 0 0 0 0 0 0 0 0 0 0 0 0 0 0 0 0 0 0 0 0 0 0 
0 0 0 0 0 0 0 0 0 0 0 0 0 0 0 0 0 0 0 0 0 0 0 0 0 0 0 0 0 0 0 0 0 0 0 0 0 0 0 0 0 0 0 0 0 0 0 0 0 0 0 0 0 0 0 0 0 0 0 0 0 0 0 0 0 0 0 0 0 0 0 0 0 0 0 0 0 0 0 0 0 0 0 0 0 0 0 0 0 0 
0 0 0 0 0 0 0 0 0 0 0 0 0 0 0 0 0 0 0 0 0 0 0 0 0 0 0 0 0 0 0 0 0 0 0 0 0 0 0 0 0 0 0 0 0 0 0 0 0 0 0 0 0 0 0 0 0 0 0 0 0 0 0 0 0 0 0 0 0 0 0 0 0 0 0 0 0 0 0 0 0 0 0 0 0 0 0 0 0 0 
0 0 0 0 0 0 0 0 0 0 0 0 0 0 0 0 0 0 0 0 0 0 0 0 0 0 0 0 0 0 0 0 0 0 0 0 0 0 0 0 0 0 0 0 0 0 0 0 0 0 0 0 0 0 0 0 0 0 0 0 0 0 0 0 0 0 0 0 0 0 0 0 0 0 0 0 0 0 0 0 0 0 0 0 0 0 0 0 0 0 
0 0 0 0 0 0 0 0 0 0 0 0 0 0 0 0 0 0 0 0 0 0 0 0 0 0 0 0 0 0 0 0 0 0 0 0 0 0 0 0 0 0 0 0 0 0 0 0 0 0 0 0 0 0 0 0 0 0 0 0 0 0 0 0 0 0 0 0 0 0 0 0 0 0 0 0 0 0 0 0 0 0 0 0 0 0 0 0 0 0 
0 0 0 0 0 0 0 0 0 0 0 0 0 0 0 0 0 0 0 0 0 0 0 0 0 0 0 0 0 0 0 0 0 0 0 0 0 0 0 0 0 0 0 0 0 0 0 0 0 0 0 0 0 0 0 0 0 0 0 0 0 0 0 0 0 0 0 0 0 0 0 0 0 0 0 0 0 0 0 0 0 0 0 0 0 0 0 0 0 0 
0 0 0 0 0 0 0 0 0 0 0 0 0 0 0 0 0 0 0 0 0 0 0 0 0 0 0 0 0 0 0 0 0 0 0 0 0 0 0 0 0 0 0 0 0 0 0 0 0 0 0 0 0 0 0 0 0 0 0 0 0 0 0 0 0 0 0 0 0 0 0 0 0 0 0 0 0 0 0 0 0 0 0 0 0 0 0 0 0 0 
0 0 0 0 0 0 0 0 0 0 0 0 0 0 0 0 0 0 0 0 0 0 0 0 0 0 0 0 0 0 0 0 0 0 0 0 0 0 0 0 0 0 0 0 0 0 0 0 0 0 0 0 0 0 0 0 0 0 0 0 0 0 0 0 0 0 0 0 0 0 0 0 0 0 0 0 0 0 0 0 0 0 0 0 0 0 0 0 0 0 
0 0 0 0 0 0 0 0 0 0 0 0 0 0 0 0 0 0 0 0 0 0 0 0 0 0 0 0 0 0 0 0 0 0 0 0 0 0 0 0 0 0 0 0 0 0 0 0 0 0 0 0 0 0 0 0 0 0 0 0 0 0 0 0 0 0 0 0 0 0 0 0 0 0 0 0 0 0 0 0 0 0 0 0 0 0 0 0 0 0 
# Errors [psd0_dat/psd0.dat] E: 
0 0 0 0 0 0 0 0 0 0 0 0 0 0 0 0 0 0 0 0 0 0 0 0 0 0 0 0 0 0 0 0 0 0 0 0 0 0 0 0 0 0 0 0 0 0 0 0 0 0 0 0 0 0 0 0 0 0 0 0 0 0 0 0 0 0 0 0 0 0 0 0 0 0 0 0 0 0 0 0 0 0 0 0 0 0 0 0 0 0 
0 0 0 0 0 0 0 0 0 0 0 0 0 0 0 0 0 0 0 0 0 0 0 0 0 0 0 0 0 0 0 0 0 0 0 0 0 0 0 0 0 0 0 0 0 0 0 0 0 0 0 0 0 0 0 0 0 0 0 0 0 0 0 0 0 0 0 0 0 0 0 0 0 0 0 0 0 0 0 0 0 0 0 0 0 0 0 0 0 0 
0 0 0 0 0 0 0 0 0 0 0 0 0 0 0 0 0 0 0 0 0 0 0 0 0 0 0 0 0 0 0 0 0 0 0 0 0 0 0 0 0 0 0 0 0 0 0 0 0 0 0 0 0 0 0 0 0 0 0 0 0 0 0 0 0 0 0 0 0 0 0 0 0 0 0 0 0 0 0 0 0 0 0 0 0 0 0 0 0 0 
0 0 0 0 0 0 0 0 0 0 0 0 0 0 0 0 0 0 0 0 0 0 0 0 0 0 0 0 0 0 0 0 0 0 0 0 0 0 0 0 0 0 0 0 0 0 0 0 0 0 0 0 0 0 0 0 0 0 0 0 0 0 0 0 0 0 0 0 0 0 0 0 0 0 0 0 0 0 0 0 0 0 0 0 0 0 0 0 0 0 
0 0 0 0 0 0 0 0 0 0 0 0 0 0 0 0 0 0 0 0 0 0 0 0 0 0 0 0 0 0 0 0 0 0 0 0 0 0 0 0 0 0 0 0 0 0 0 0 0 0 0 0 0 0 0 0 0 0 0 0 0 0 0 0 0 0 0 0 0 0 0 0 0 0 0 0 0 0 0 0 0 0 0 0 0 0 0 0 0 0 
0 0 0 0 0 0 0 0 0 0 0 0 0 0 0 0 0 0 0 0 0 0 0 0 0 0 0 0 0 0 0 0 0 0 0 0 0 0 0 0 0 0 0 0 0 0 0 0 0 0 0 0 0 0 0 0 0 0 0 0 0 0 0 0 0 0 0 0 0 0 0 0 0 0 0 0 0 0 0 0 0 0 0 0 0 0 0 0 0 0 
0 0 0 0 0 0 0 0 0 0 0 0 0 0 0 0 0 0 0 0 0 0 0 0 0 0 0 0 0 0 0 0 0 0 0 0 0 0 0 0 0 0 0 0 0 0 0 0 0 0 0 0 0 0 0 0 0 0 0 0 0 0 0 0 0 0 0 0 0 0 0 0 0 0 0 0 0 0 0 0 0 0 0 0 0 0 0 0 0 0 
0 0 0 0 0 0 0 0 0 0 0 0 0 0 0 0 0 0 0 0 0 0 0 0 0 0 0 0 0 0 0 0 0 0 0 0 0 0 0 0 0 0 0 0 0 0 0 0 0 0 0 0 0 0 0 0 0 0 0 0 0 0 0 0 0 0 0 0 0 0 0 0 0 0 0 0 0 0 0 0 0 0 0 0 0 0 0 0 0 0 
0 0 0 0 0 0 0 0 0 0 0 0 0 0 0 0 0 0 0 0 0 0 0 0 0 0 0 0 0 0 0 0 0 0 0 0 0 0 0 0 0 0 0 0 0 0 0 0 0 0 0 0 0 0 0 0 0 0 0 0 0 0 0 0 0 0 0 0 0 0 0 0 0 0 0 0 0 0 0 0 0 0 0 0 0 0 0 0 0 0 
0 0 0 0 0 0 0 0 0 0 0 0 0 0 0 0 0 0 0 0 0 0 0 0 0 0 0 0 0 0 0 0 0 0 0 0 0 0 0 0 0 0 0 0 0 0 0 0 0 0 0 0 0 0 0 0 0 0 0 0 0 0 0 0 0 0 0 0 0 0 0 0 0 0 0 0 0 0 0 0 0 0 0 0 0 0 0 0 0 0 
0 0 0 0 0 0 0 0 0 0 0 0 0 0 0 0 0 0 0 0 0 0 0 0 0 0 0 0 0 0 0 0 0 0 0 0 0 0 0 0 0 0 0 0 0 0 0 0 0 0 0 0 0 0 0 0 0 0 0 0 0 0 0 0 0 0 0 0 0 0 0 0 0 0 0 0 0 0 0 0 0 0 0 0 0 0 0 0 0 0 
0 0 0 0 0 0 0 0 0 0 0 0 0 0 0 0 0 0 0 0 0 0 0 0 0 0 0 0 0 0 0 0 0 0 0 0 0 0 0 0 0 0 0 0 0 0 0 0 0 0 0 0 0 0 0 0 0 0 0 0 0 0 0 0 0 0 0 0 0 0 0 0 0 0 0 0 0 0 0 0 0 0 0 0 0 0 0 0 0 0 
0 0 0 0 0 0 0 0 0 0 0 0 0 0 0 0 0 0 0 0 0 0 0 0 0 0 0 0 0 0 0 0 0 0 0 0 0 0 0 0 0 0 0 0 0 0 0 0 0 0 0 0 0 0 0 0 0 0 0 0 0 0 0 0 0 0 0 0 0 0 0 0 0 0 0 0 0 0 0 0 0 0 0 0 0 0 0 0 0 0 
0 0 0 0 0 0 0 0 0 0 0 0 0 0 0 0 0 0 0 0 0 0 0 0 0 0 0 0 0 0 0 0 0 0 0 0 0 0 0 0 0 0 0 0 0 0 0 0 0 0 0 0 0 0 0 0 0 0 0 0 0 0 0 0 0 0 0 0 0 0 0 0 0 0 0 0 0 0 0 0 0 0 0 0 0 0 0 0 0 0 
0 0 0 0 0 0 0 0 0 0 0 0 0 0 0 0 0 0 0 0 0 0 0 0 0 0 0 0 0 0 0 0 0 0 0 0 0 0 0 0 0 0 0 0 0 0 0 0 0 0 0 0 0 0 0 0 0 0 0 0 0 0 0 0 0 0 0 0 0 0 0 0 0 0 0 0 0 0 0 0 0 0 0 0 0 0 0 0 0 0 
0 0 0 0 0 0 0 0 0 0 0 0 0 0 0 0 0 0 0 0 0 0 0 0 0 0 0 0 0 0 0 0 0 0 0 0 0 0 0 0 0 0 0 0 0 0 0 0 0 0 0 0 0 0 0 0 0 0 0 0 0 0 0 0 0 0 0 0 0 0 0 0 0 0 0 0 0 0 0 0 0 0 0 0 0 0 0 0 0 0 
0 0 0 0 0 0 0 0 0 0 0 0 0 0 0 0 0 0 0 0 0 0 0 0 0 0 0 0 0 0 0 0 0 0 0 0 0 0 0 0 0 0 0 0 0 0 0 0 0 0 0 0 0 0 0 0 0 0 0 0 0 0 0 0 0 0 0 0 0 0 0 0 0 0 0 0 0 0 0 0 0 0 0 0 0 0 0 0 0 0 
0 0 0 0 0 0 0 0 0 0 0 0 0 0 0 0 0 0 0 0 0 0 0 0 0 0 0 0 0 0 0 0 0 0 0 0 0 0 0 0 0 0 0 0 0 0 0 0 0 0 0 0 0 0 0 0 0 0 0 0 0 0 0 0 0 0 0 0 0 0 0 0 0 0 0 0 0 0 0 0 0 0 0 0 0 0 0 0 0 0 
0 0 0 0 0 0 0 0 0 0 0 0 0 0 0 0 0 0 0 0 0 0 0 0 0 0 0 0 0 0 0 0 0 0 0 0 0 0 0 0 0 0 0 0 0 0 0 0 0 0 0 0 0 0 0 0 0 0 0 0 0 0 0 0 0 0 0 0 0 0 0 0 0 0 0 0 0 0 0 0 0 0 0 0 0 0 0 0 0 0 
0 0 0 0 0 0 0 0 0 0 0 0 0 0 0 0 0 0 0 0 0 0 0 0 0 0 0 0 0 0 0 0 0 0 0 0 0 0 0 0 0 0 0 0 0 0 0 0 0 0 0 0 0 0 0 0 0 0 0 0 0 0 0 0 0 0 0 0 0 0 0 0 0 0 0 0 0 0 0 0 0 0 0 0 0 0 0 0 0 0 
0 0 0 0 0 0 0 0 0 0 0 0 0 0 0 0 0 0 0 0 0 0 0 0 0 0 0 0 0 0 0 0 0 0 0 0 0 0 0 0 0 0 0 0 0 0 0 0 0 0 0 0 0 0 0 0 0 0 0 0 0 0 0 0 0 0 0 0 0 0 0 0 0 0 0 0 0 0 0 0 0 0 0 0 0 0 0 0 0 0 
0 0 0 0 0 0 0 0 0 0 0 0 0 0 0 0 0 0 0 0 0 0 0 0 0 0 0 0 0 0 0 0 0 0 0 0 0 0 0 0 0 0 0 0 0 0 0 0 0 0 0 0 0 0 0 0 0 0 0 0 0 0 0 0 0 0 0 0 0 0 0 0 0 0 0 0 0 0 0 0 0 0 0 0 0 0 0 0 0 0 
0 0 0 0 0 0 0 0 0 0 0 0 0 0 0 0 0 0 0 0 0 0 0 0 0 0 0 0 0 0 0 0 0 0 0 0 0 0 0 0 0 0 0 0 0 0 0 0 0 0 0 0 0 0 0 0 0 0 0 0 0 0 0 0 0 0 0 0 0 0 0 0 0 0 0 0 0 0 0 0 0 0 0 0 0 0 0 0 0 0 
0 0 0 0 0 0 0 0 0 0 0 0 0 0 0 0 0 0 0 0 0 0 0 0 0 0 0 0 0 0 0 0 0 0 0 0 0 0 0 0 0 0 0 0 0 0 0 0 0 0 0 0 0 0 0 0 0 0 0 0 0 0 0 0 0 0 0 0 0 0 0 0 0 0 0 0 0 0 0 0 0 0 0 0 0 0 0 0 0 0 
0 0 0 0 0 0 0 0 0 0 0 0 0 0 0 0 0 0 0 0 0 0 0 0 0 0 0 0 0 0 0 0 0 0 0 0 0 0 0 0 0 0 0 0 0 0 0 0 0 0 0 0 0 0 0 0 0 0 0 0 0 0 0 0 0 0 0 0 0 0 0 0 0 0 0 0 0 0 0 0 0 0 0 0 0 0 0 0 0 0 
0 0 0 0 0 0 0 0 0 0 0 0 0 0 0 0 0 0 0 0 0 0 0 0 0 0 0 0 0 0 0 0 0 0 0 0 0 0 0 0 0 0 0 0 0 0 0 0 0 0 0 0 0 0 0 0 0 0 0 0 0 0 0 0 0 0 0 0 0 0 0 0 0 0 0 0 0 0 0 0 0 0 0 0 0 0 0 0 0 0 
0 0 0 0 0 0 0 0 0 0 0 0 0 0 0 0 0 0 0 0 0 0 0 0 0 0 0 0 0 0 0 0 0 0 0 0 0 0 0 0 0 0 0 0 0 0 0 0 0 0 0 0 0 0 0 0 0 0 0 0 0 0 0 0 0 0 0 0 0 0 0 0 0 0 0 0 0 0 0 0 0 0 0 0 0 0 0 0 0 0 
0 0 0 0 0 0 0 0 0 0 0 0 0 0 0 0 0 0 0 0 0 0 0 0 0 0 0 0 0 0 0 0 0 0 0 0 0 0 0 0 0 0 0 0 0 0 0 0 0 0 0 0 0 0 0 0 0 0 0 0 0 0 0 0 0 0 0 0 0 0 0 0 0 0 0 0 0 0 0 0 0 0 0 0 0 0 0 0 0 0 
0 0 0 0 0 0 0 0 0 0 0 0 0 0 0 0 0 0 0 0 0 0 0 0 0 0 0 0 0 0 0 0 0 0 0 0 0 0 0 0 0 0 0 0 0 0 0 0 0 0 0 0 0 0 0 0 0 0 0 0 0 0 0 0 0 0 0 0 0 0 0 0 0 0 0 0 0 0 0 0 0 0 0 0 0 0 0 0 0 0 
0 0 0 0 0 0 0 0 0 0 0 0 0 0 0 0 0 0 0 0 0 0 0 0 0 0 0 0 0 0 0 0 0 0 0 0 0 0 0 0 0 0 0 0 0 0 0 0 0 0 0 0 0 0 0 0 0 0 0 0 0 0 0 0 0 0 0 0 0 0 0 0 0 0 0 0 0 0 0 0 0 0 0 0 0 0 0 0 0 0 
0 0 0 0 0 0 0 0 0 0 0 0 0 0 0 0 0 0 0 0 0 0 0 0 0 0 0 0 0 0 0 0 0 0 0 0 0 0 0 0 0 0 0 0 0 0 0 0 0 0 0 0 0 0 0 0 0 0 0 0 0 0 0 0 0 0 0 0 0 0 0 0 0 0 0 0 0 0 0 0 0 0 0 0 0 0 0 0 0 0 
0 0 0 0 0 0 0 0 0 0 0 0 0 0 0 0 0 0 0 0 0 0 0 0 0 0 0 0 0 0 0 0 0 0 0 0 0 0 0 0 0 0 0 0 0 0 0 0 0 0 0 0 0 0 0 0 0 0 0 0 0 0 0 0 0 0 0 0 0 0 0 0 0 0 0 0 0 0 0 0 0 0 0 0 0 0 0 0 0 0 
0 0 0 0 0 0 0 0 0 0 0 0 0 0 0 0 0 0 0 0 0 0 0 0 0 0 0 0 0 0 0 0 0 0 0 0 0 0 0 0 0 0 0 0 0 0 0 0 0 0 0 0 0 0 0 0 0 0 0 0 0 0 0 0 0 0 0 0 0 0 0 0 0 0 0 0 0 0 0 0 0 0 0 0 0 0 0 0 0 0 
0 0 0 0 0 0 0 0 0 0 0 0 0 0 0 0 0 0 0 0 0 0 0 0 0 0 0 0 0 0 0 0 0 0 0 0 0 0 0 0 0 0 0 0 0 0 0 0 0 0 0 0 0 0 0 0 0 0 0 0 0 0 0 0 0 0 0 0 0 0 0 0 0 0 0 0 0 0 0 0 0 0 0 0 0 0 0 0 0 0 
0 0 0 0 0 0 0 0 0 0 0 0 0 0 0 0 0 0 0 0 0 0 0 0 0 0 0 0 0 0 0 0 0 0 0 0 0 0 0 0 0 0 0 0 0 0 0 0 0 0 0 0 0 0 0 0 0 0 0 0 0 0 0 0 0 0 0 0 0 0 0 0 0 0 0 0 0 0 0 0 0 0 0 0 0 0 0 0 0 0 
0 0 0 0 0 0 0 0 0 0 0 0 0 0 0 0 0 0 0 0 0 0 0 0 0 0 0 0 0 0 0 0 0 0 0 0 0 0 0 0 0 0 0 0 0 0 0 0 0 0 0 0 0 0 0 0 0 0 0 0 0 0 0 0 0 0 0 0 0 0 0 0 0 0 0 0 0 0 0 0 0 0 0 0 0 0 0 0 0 0 
0 0 0 0 0 0 0 0 0 0 0 0 0 0 0 0 0 0 0 0 0 0 0 0 0 0 0 0 0 0 0 0 0 0 0 0 0 0 0 0 0 0 0 0 0 0 0 0 0 0 0 0 0 0 0 0 0 0 0 0 0 0 0 0 0 0 0 0 0 0 0 0 0 0 0 0 0 0 0 0 0 0 0 0 0 0 0 0 0 0 
0 0 0 0 0 0 0 0 0 0 0 0 0 0 0 0 0 0 0 0 0 0 0 0 0 0 0 0 0 0 0 0 0 0 0 0 0 0 0 0 0 0 0 0 0 0 0 0 0 0 0 0 0 0 0 0 0 0 0 0 0 0 0 0 0 0 0 0 0 0 0 0 0 0 0 0 0 0 0 0 0 0 0 0 0 0 0 0 0 0 
0 0 0 0 0 0 0 0 0 0 0 0 0 0 0 0 0 0 0 0 0 0 0 0 0 0 0 0 0 0 0 0 0 0 0 0 0 0 0 0 0 0 0 0 0 0 0 0 0 0 0 0 0 0 0 0 0 0 0 0 0 0 0 0 0 0 0 0 0 0 0 0 0 0 0 0 0 0 0 0 0 0 0 0 0 0 0 0 0 0 
0 0 0 0 0 0 0 0 0 0 0 0 0 0 0 0 0 0 0 0 0 0 0 0 0 0 0 0 0 0 0 0 0 0 0 0 0 0 0 0 0 0 0 0 0 0 0 0 0 0 0 0 0 0 0 0 0 0 0 0 0 0 0 0 0 0 0 0 0 0 0 0 0 0 0 0 0 0 0 0 0 0 0 0 0 0 0 0 0 0 
0 0 0 0 0 0 0 0 0 0 0 0 0 0 0 0 0 0 0 0 0 0 0 0 0 0 0 0 0 0 0 0 0 0 0 0 0 0 0 0 0 0 0 0 0 0 0 0 0 0 0 0 0 0 0 0 0 0 0 0 0 0 0 0 0 0 0 0 0 0 0 0 0 0 0 0 0 0 0 0 0 0 0 0 0 0 0 0 0 0 
0 0 0 0 0 0 0 0 0 0 0 0 0 0 0 0 0 0 0 0 0 0 0 0 0 0 0 0 0 0 0 0 0 0 0 0 0 0 0 0 0 0 0 0 0 0 0 0 0 0 0 0 0 0 0 0 0 0 0 0 0 0 0 0 0 0 0 0 0 0 0 0 0 0 0 0 0 0 0 0 0 0 0 0 0 0 0 0 0 0 
0 0 0 0 0 0 0 0 0 0 0 0 0 0 0 0 0 0 0 0 0 0 0 0 0 0 0 0 0 0 0 0 0 0 0 0 0 0 0 0 0 0 0 0 0 0 0 0 0 0 0 0 0 0 0 0 0 0 0 0 0 0 0 0 0 0 0 0 0 0 0 0 0 0 0 0 0 0 0 0 0 0 0 0 0 0 0 0 0 0 
0 0 0 0 0 0 0 0 0 0 0 0 0 0 0 0 0 0 0 0 0 0 0 0 0 0 0 0 0 0 0 0 0 0 0 0 0 0 0 0 0 0 0 0 0 0 0 0 0 0 0 0 0 0 0 0 0 0 0 0 0 0 0 0 0 0 0 0 0 0 0 0 0 0 0 0 0 0 0 0 0 0 0 0 0 0 0 0 0 0 
0 0 0 0 0 0 0 0 0 0 0 0 0 0 0 0 0 0 0 0 0 0 0 0 0 0 0 0 0 0 0 0 0 0 0 0 0 0 0 0 0 0 0 0 0 0 0 0 0 0 0 0 0 0 0 0 0 0 0 0 0 0 0 0 0 0 0 0 0 0 0 0 0 0 0 0 0 0 0 0 0 0 0 0 0 0 0 0 0 0 
0 0 0 0 0 0 0 0 0 0 0 0 0 0 0 0 0 0 0 0 0 0 0 0 0 0 0 0 0 0 0 0 0 0 0 0 0 0 0 0 0 0 0 0 0 0 0 0 0 0 0 0 0 0 0 0 0 0 0 0 0 0 0 0 0 0 0 0 0 0 0 0 0 0 0 0 0 0 0 0 0 0 0 0 0 0 0 0 0 0 
0 0 0 0 0 0 0 0 0 0 0 0 0 0 0 0 0 0 0 0 0 0 0 0 0 0 0 0 0 0 0 0 0 0 0 0 0 0 0 0 0 0 0 0 0 0 0 0 0 0 0 0 0 0 0 0 0 0 0 0 0 0 0 0 0 0 0 0 0 0 0 0 0 0 0 0 0 0 0 0 0 0 0 0 0 0 0 0 0 0 
0 0 0 0 0 0 0 0 0 0 0 0 0 0 0 0 0 0 0 0 0 0 0 0 0 0 0 0 0 0 0 0 0 0 0 0 0 0 0 0 0 0 0 0 0 0 0 0 0 0 0 0 0 0 0 0 0 0 0 0 0 0 0 0 0 0 0 0 0 0 0 0 0 0 0 0 0 0 0 0 0 0 0 0 0 0 0 0 0 0 
0 0 0 0 0 0 0 0 0 0 0 0 0 0 0 0 0 0 0 0 0 0 0 0 0 0 0 0 0 0 0 0 0 0 0 0 0 0 0 0 0 0 0 0 0 0 0 0 0 0 0 0 0 0 0 0 0 0 0 0 0 0 0 0 0 0 0 0 0 0 0 0 0 0 0 0 0 0 0 0 0 0 0 0 0 0 0 0 0 0 
0 0 0 0 0 0 0 0 0 0 0 0 0 0 0 0 0 0 0 0 0 0 0 0 0 0 0 0 0 0 0 0 0 0 0 0 0 0 0 0 0 0 0 0 0 0 0 0 0 0 0 0 0 0 0 0 0 0 0 0 0 0 0 0 0 0 0 0 0 0 0 0 0 0 0 0 0 0 0 0 0 0 0 0 0 0 0 0 0 0 
0 0 0 0 0 0 0 0 0 0 0 0 0 0 0 0 0 0 0 0 0 0 0 0 0 0 0 0 0 0 0 0 0 0 0 0 0 0 0 0 0 0 0 0 0 0 0 0 0 0 0 0 0 0 0 0 0 0 0 0 0 0 0 0 0 0 0 0 0 0 0 0 0 0 0 0 0 0 0 0 0 0 0 0 0 0 0 0 0 0 
0 0 0 0 0 0 0 0 0 0 0 0 0 0 0 0 0 0 0 0 0 0 0 0 0 0 0 0 0 0 0 0 0 0 0 0 0 0 0 0 0 0 0 0 0 0 0 0 0 0 0 0 0 0 0 0 0 0 0 0 0 0 0 0 0 0 0 0 0 0 0 0 0 0 0 0 0 0 0 0 0 0 0 0 0 0 0 0 0 0 
0 0 0 0 0 0 0 0 0 0 0 0 0 0 0 0 0 0 0 0 0 0 0 0 0 0 0 0 0 0 0 0 0 0 0 0 0 0 0 0 0 0 0 0 0 0 0 0 0 0 0 0 0 0 0 0 0 0 0 0 0 0 0 0 0 0 0 0 0 0 0 0 0 0 0 0 0 0 0 0 0 0 0 0 0 0 0 0 0 0 
0 0 0 0 0 0 0 0 0 0 0 0 0 0 0 0 0 0 0 0 0 0 0 0 0 0 0 0 0 0 0 0 0 0 0 0 0 0 0 0 0 0 0 0 0 0 0 0 0 0 0 0 0 0 0 0 0 0 0 0 0 0 0 0 0 0 0 0 0 0 0 0 0 0 0 0 0 0 0 0 0 0 0 0 0 0 0 0 0 0 
0 0 0 0 0 0 0 0 0 0 0 0 0 0 0 0 0 0 0 0 0 0 0 0 0 0 0 0 0 0 0 0 0 0 0 0 0 0 0 0 0 0 0 0 0 0 0 0 0 0 0 0 0 0 0 0 0 0 0 0 0 0 0 0 0 0 0 0 0 0 0 0 0 0 0 0 0 0 0 0 0 0 0 0 0 0 0 0 0 0 
0 0 0 0 0 0 0 0 0 0 0 0 0 0 0 0 0 0 0 0 0 0 0 0 0 0 0 0 0 0 0 0 0 0 0 0 0 0 0 0 0 0 0 0 0 0 0 0 0 0 0 0 0 0 0 0 0 0 0 0 0 0 0 0 0 0 0 0 0 0 0 0 0 0 0 0 0 0 0 0 0 0 0 0 0 0 0 0 0 0 
0 0 0 0 0 0 0 0 0 0 0 0 0 0 0 0 0 0 0 0 0 0 0 0 0 0 0 0 0 0 0 0 0 0 0 0 0 0 0 0 0 0 0 0 0 0 0 0 0 0 0 0 0 0 0 0 0 0 0 0 0 0 0 0 0 0 0 0 0 0 0 0 0 0 0 0 0 0 0 0 0 0 0 0 0 0 0 0 0 0 
0 0 0 0 0 0 0 0 0 0 0 0 0 0 0 0 0 0 0 0 0 0 0 0 0 0 0 0 0 0 0 0 0 0 0 0 0 0 0 0 0 0 0 0 0 0 0 0 0 0 0 0 0 0 0 0 0 0 0 0 0 0 0 0 0 0 0 0 0 0 0 0 0 0 0 0 0 0 0 0 0 0 0 0 0 0 0 0 0 0 
0 0 0 0 0 0 0 0 0 0 0 0 0 0 0 0 0 0 0 0 0 0 0 0 0 0 0 0 0 0 0 0 0 0 0 0 0 0 0 0 0 0 0 0 0 0 0 0 0 0 0 0 0 0 0 0 0 0 0 0 0 0 0 0 0 0 0 0 0 0 0 0 0 0 0 0 0 0 0 0 0 0 0 0 0 0 0 0 0 0 
0 0 0 0 0 0 0 0 0 0 0 0 0 0 0 0 0 0 0 0 0 0 0 0 0 0 0 0 0 0 0 0 0 0 0 0 0 0 0 0 0 0 0 0 0 0 0 0 0 0 0 0 0 0 0 0 0 0 0 0 0 0 0 0 0 0 0 0 0 0 0 0 0 0 0 0 0 0 0 0 0 0 0 0 0 0 0 0 0 0 
0 0 0 0 0 0 0 0 0 0 0 0 0 0 0 0 0 0 0 0 0 0 0 0 0 0 0 0 0 0 0 0 0 0 0 0 0 0 0 0 0 0 0 0 0 0 0 0 0 0 0 0 0 0 0 0 0 0 0 0 0 0 0 0 0 0 0 0 0 0 0 0 0 0 0 0 0 0 0 0 0 0 0 0 0 0 0 0 0 0 
0 0 0 0 0 0 0 0 0 0 0 0 0 0 0 0 0 0 0 0 0 0 0 0 0 0 0 0 0 0 0 0 0 0 0 0 0 0 0 0 0 0 0 0 0 0 0 0 0 0 0 0 0 0 0 0 0 0 0 0 0 0 0 0 0 0 0 0 0 0 0 0 0 0 0 0 0 0 0 0 0 0 0 0 0 0 0 0 0 0 
0 0 0 0 0 0 0 0 0 0 0 0 0 0 0 0 0 0 0 0 0 0 0 0 0 0 0 0 0 0 0 0 0 0 0 0 0 0 0 0 0 0 0 0 0 0 0 0 0 0 0 0 0 0 0 0 0 0 0 0 0 0 0 0 0 0 0 0 0 0 0 0 0 0 0 0 0 0 0 0 0 0 0 0 0 0 0 0 0 0 
0 0 0 0 0 0 0 0 0 0 0 0 0 0 0 0 0 0 0 0 0 0 0 0 0 0 0 0 0 0 0 0 0 0 0 0 0 0 0 0 0 0 0 0 0 0 0 0 0 0 0 0 0 0 0 0 0 0 0 0 0 0 0 0 0 0 0 0 0 0 0 0 0 0 0 0 0 0 0 0 0 0 0 0 0 0 0 0 0 0 
0 0 0 0 0 0 0 0 0 0 0 0 0 0 0 0 0 0 0 0 0 0 0 0 0 0 0 0 0 0 0 0 0 0 0 0 0 0 0 0 0 0 0 0 0 0 0 0 0 0 0 0 0 0 0 0 0 0 0 0 0 0 0 0 0 0 0 0 0 0 0 0 0 0 0 0 0 0 0 0 0 0 0 0 0 0 0 0 0 0 
0 0 0 0 0 0 0 0 0 0 0 0 0 0 0 0 0 0 0 0 0 0 0 0 0 0 0 0 0 0 0 0 0 0 0 0 0 0 0 0 0 0 0 0 0 0 0 0 0 0 0 0 0 0 0 0 0 0 0 0 0 0 0 0 0 0 0 0 0 0 0 0 0 0 0 0 0 0 0 0 0 0 0 0 0 0 0 0 0 0 
0 0 0 0 0 0 0 0 0 0 0 0 0 0 0 0 0 0 0 0 0 0 0 0 0 0 0 0 0 0 0 0 0 0 0 0 0 0 0 0 0 0 0 0 0 0 0 0 0 0 0 0 0 0 0 0 0 0 0 0 0 0 0 0 0 0 0 0 0 0 0 0 0 0 0 0 0 0 0 0 0 0 0 0 0 0 0 0 0 0 
0 0 0 0 0 0 0 0 0 0 0 0 0 0 0 0 0 0 0 0 0 0 0 0 0 0 0 0 0 0 0 0 0 0 0 0 0 0 0 0 0 0 0 0 0 0 0 0 0 0 0 0 0 0 0 0 0 0 0 0 0 0 0 0 0 0 0 0 0 0 0 0 0 0 0 0 0 0 0 0 0 0 0 0 0 0 0 0 0 0 
0 0 0 0 0 0 0 0 0 0 0 0 0 0 0 0 0 0 0 0 0 0 0 0 0 0 0 0 0 0 0 0 0 0 0 0 0 0 0 0 0 0 0 0 0 0 0 0 0 0 0 0 0 0 0 0 0 0 0 0 0 0 0 0 0 0 0 0 0 0 0 0 0 0 0 0 0 0 0 0 0 0 0 0 0 0 0 0 0 0 
0 0 0 0 0 0 0 0 0 0 0 0 0 0 0 0 0 0 0 0 0 0 0 0 0 0 0 0 0 0 0 0 0 0 0 0 0 0 0 0 0 0 0 0 0 0 0 0 0 0 0 0 0 0 0 0 0 0 0 0 0 0 0 0 0 0 0 0 0 0 0 0 0 0 0 0 0 0 0 0 0 0 0 0 0 0 0 0 0 0 
0 0 0 0 0 0 0 0 0 0 0 0 0 0 0 0 0 0 0 0 0 0 0 0 0 0 0 0 0 0 0 0 0 0 0 0 0 0 0 0 0 0 0 0 0 0 0 0 0 0 0 0 0 0 0 0 0 0 0 0 0 0 0 0 0 0 0 0 0 0 0 0 0 0 0 0 0 0 0 0 0 0 0 0 0 0 0 0 0 0 
0 0 0 0 0 0 0 0 0 0 0 0 0 0 0 0 0 0 0 0 0 0 0 0 0 0 0 0 0 0 0 0 0 0 0 0 0 0 0 0 0 0 0 0 0 0 0 0 0 0 0 0 0 0 0 0 0 0 0 0 0 0 0 0 0 0 0 0 0 0 0 0 0 0 0 0 0 0 0 0 0 0 0 0 0 0 0 0 0 0 
0 0 0 0 0 0 0 0 0 0 0 0 0 0 0 0 0 0 0 0 0 0 0 0 0 0 0 0 0 0 0 0 0 0 0 0 0 0 0 0 0 0 0 0 0 0 0 0 0 0 0 0 0 0 0 0 0 0 0 0 0 0 0 0 0 0 0 0 0 0 0 0 0 0 0 0 0 0 0 0 0 0 0 0 0 0 0 0 0 0 
0 0 0 0 0 0 0 0 0 0 0 0 0 0 0 0 0 0 0 0 0 0 0 0 0 0 0 0 0 0 0 0 0 0 0 0 0 0 0 0 0 0 0 0 0 0 0 0 0 0 0 0 0 0 0 0 0 0 0 0 0 0 0 0 0 0 0 0 0 0 0 0 0 0 0 0 0 0 0 0 0 0 0 0 0 0 0 0 0 0 
0 0 0 0 0 0 0 0 0 0 0 0 0 0 0 0 0 0 0 0 0 0 0 0 0 0 0 0 0 0 0 0 0 0 0 0 0 0 0 0 0 0 0 0 0 0 0 0 0 0 0 0 0 0 0 0 0 0 0 0 0 0 0 0 0 0 0 0 0 0 0 0 0 0 0 0 0 0 0 0 0 0 0 0 0 0 0 0 0 0 
0 0 0 0 0 0 0 0 0 0 0 0 0 0 0 0 0 0 0 0 0 0 0 0 0 0 0 0 0 0 0 0 0 0 0 0 0 0 0 0 0 0 0 0 0 0 0 0 0 0 0 0 0 0 0 0 0 0 0 0 0 0 0 0 0 0 0 0 0 0 0 0 0 0 0 0 0 0 0 0 0 0 0 0 0 0 0 0 0 0 
0 0 0 0 0 0 0 0 0 0 0 0 0 0 0 0 0 0 0 0 0 0 0 0 0 0 0 0 0 0 0 0 0 0 0 0 0 0 0 0 0 0 0 0 0 0 0 0 0 0 0 0 0 0 0 0 0 0 0 0 0 0 0 0 0 0 0 0 0 0 0 0 0 0 0 0 0 0 0 0 0 0 0 0 0 0 0 0 0 0 
0 0 0 0 0 0 0 0 0 0 0 0 0 0 0 0 0 0 0 0 0 0 0 0 0 0 0 0 0 0 0 0 0 0 0 0 0 0 0 0 0 0 0 0 0 0 0 0 0 0 0 0 0 0 0 0 0 0 0 0 0 0 0 0 0 0 0 0 0 0 0 0 0 0 0 0 0 0 0 0 0 0 0 0 0 0 0 0 0 0 
0 0 0 0 0 0 0 0 0 0 0 0 0 0 0 0 0 0 0 0 0 0 0 0 0 0 0 0 0 0 0 0 0 0 0 0 0 0 0 0 0 0 0 0 0 0 0 0 0 0 0 0 0 0 0 0 0 0 0 0 0 0 0 0 0 0 0 0 0 0 0 0 0 0 0 0 0 0 0 0 0 0 0 0 0 0 0 0 0 0 
0 0 0 0 0 0 0 0 0 0 0 0 0 0 0 0 0 0 0 0 0 0 0 0 0 0 0 0 0 0 0 0 0 0 0 0 0 0 0 0 0 0 0 0 0 0 0 0 0 0 0 0 0 0 0 0 0 0 0 0 0 0 0 0 0 0 0 0 0 0 0 0 0 0 0 0 0 0 0 0 0 0 0 0 0 0 0 0 0 0 
0 0 0 0 0 0 0 0 0 0 0 0 0 0 0 0 0 0 0 0 0 0 0 0 0 0 0 0 0 0 0 0 0 0 0 0 0 0 0 0 0 0 0 0 0 0 0 0 0 0 0 0 0 0 0 0 0 0 0 0 0 0 0 0 0 0 0 0 0 0 0 0 0 0 0 0 0 0 0 0 0 0 0 0 0 0 0 0 0 0 
0 0 0 0 0 0 0 0 0 0 0 0 0 0 0 0 0 0 0 0 0 0 0 0 0 0 0 0 0 0 0 0 0 0 0 0 0 0 0 0 0 0 0 0 0 0 0 0 0 0 0 0 0 0 0 0 0 0 0 0 0 0 0 0 0 0 0 0 0 0 0 0 0 0 0 0 0 0 0 0 0 0 0 0 0 0 0 0 0 0 
0 0 0 0 0 0 0 0 0 0 0 0 0 0 0 0 0 0 0 0 0 0 0 0 0 0 0 0 0 0 0 0 0 0 0 0 0 0 0 0 0 0 0 0 0 0 0 0 0 0 0 0 0 0 0 0 0 0 0 0 0 0 0 0 0 0 0 0 0 0 0 0 0 0 0 0 0 0 0 0 0 0 0 0 0 0 0 0 0 0 
0 0 0 0 0 0 0 0 0 0 0 0 0 0 0 0 0 0 0 0 0 0 0 0 0 0 0 0 0 0 0 0 0 0 0 0 0 0 0 0 0 0 0 0 0 0 0 0 0 0 0 0 0 0 0 0 0 0 0 0 0 0 0 0 0 0 0 0 0 0 0 0 0 0 0 0 0 0 0 0 0 0 0 0 0 0 0 0 0 0 
0 0 0 0 0 0 0 0 0 0 0 0 0 0 0 0 0 0 0 0 0 0 0 0 0 0 0 0 0 0 0 0 0 0 0 0 0 0 0 0 0 0 0 0 0 0 0 0 0 0 0 0 0 0 0 0 0 0 0 0 0 0 0 0 0 0 0 0 0 0 0 0 0 0 0 0 0 0 0 0 0 0 0 0 0 0 0 0 0 0 
0 0 0 0 0 0 0 0 0 0 0 0 0 0 0 0 0 0 0 0 0 0 0 0 0 0 0 0 0 0 0 0 0 0 0 0 0 0 0 0 0 0 0 0 0 0 0 0 0 0 0 0 0 0 0 0 0 0 0 0 0 0 0 0 0 0 0 0 0 0 0 0 0 0 0 0 0 0 0 0 0 0 0 0 0 0 0 0 0 0 
0 0 0 0 0 0 0 0 0 0 0 0 0 0 0 0 0 0 0 0 0 0 0 0 0 0 0 0 0 0 0 0 0 0 0 0 0 0 0 0 0 0 0 0 0 0 0 0 0 0 0 0 0 0 0 0 0 0 0 0 0 0 0 0 0 0 0 0 0 0 0 0 0 0 0 0 0 0 0 0 0 0 0 0 0 0 0 0 0 0 
0 0 0 0 0 0 0 0 0 0 0 0 0 0 0 0 0 0 0 0 0 0 0 0 0 0 0 0 0 0 0 0 0 0 0 0 0 0 0 0 0 0 0 0 0 0 0 0 0 0 0 0 0 0 0 0 0 0 0 0 0 0 0 0 0 0 0 0 0 0 0 0 0 0 0 0 0 0 0 0 0 0 0 0 0 0 0 0 0 0 
0 0 0 0 0 0 0 0 0 0 0 0 0 0 0 0 0 0 0 0 0 0 0 0 0 0 0 0 0 0 0 0 0 0 0 0 0 0 0 0 0 0 0 0 0 0 0 0 0 0 0 0 0 0 0 0 0 0 0 0 0 0 0 0 0 0 0 0 0 0 0 0 0 0 0 0 0 0 0 0 0 0 0 0 0 0 0 0 0 0 
0 0 0 0 0 0 0 0 0 0 0 0 0 0 0 0 0 0 0 0 0 0 0 0 0 0 0 0 0 0 0 0 0 0 0 0 0 0 0 0 0 0 0 0 0 0 0 0 0 0 0 0 0 0 0 0 0 0 0 0 0 0 0 0 0 0 0 0 0 0 0 0 0 0 0 0 0 0 0 0 0 0 0 0 0 0 0 0 0 0 
# Events [psd0_dat/psd0.dat] N: 
0 0 0 0 0 0 0 0 0 0 0 0 0 0 0 0 0 0 0 0 0 0 0 0 0 0 0 0 0 0 0 0 0 0 0 0 0 0 0 0 0 0 0 0 0 0 0 0 0 0 0 0 0 0 0 0 0 0 0 0 0 0 0 0 0 0 0 0 0 0 0 0 0 0 0 0 0 0 0 0 0 0 0 0 0 0 0 0 0 0 
0 0 0 0 0 0 0 0 0 0 0 0 0 0 0 0 0 0 0 0 0 0 0 0 0 0 0 0 0 0 0 0 0 0 0 0 0 0 0 0 0 0 0 0 0 0 0 0 0 0 0 0 0 0 0 0 0 0 0 0 0 0 0 0 0 0 0 0 0 0 0 0 0 0 0 0 0 0 0 0 0 0 0 0 0 0 0 0 0 0 
0 0 0 0 0 0 0 0 0 0 0 0 0 0 0 0 0 0 0 0 0 0 0 0 0 0 0 0 0 0 0 0 0 0 0 0 0 0 0 0 0 0 0 0 0 0 0 0 0 0 0 0 0 0 0 0 0 0 0 0 0 0 0 0 0 0 0 0 0 0 0 0 0 0 0 0 0 0 0 0 0 0 0 0 0 0 0 0 0 0 
0 0 0 0 0 0 0 0 0 0 0 0 0 0 0 0 0 0 0 0 0 0 0 0 0 0 0 0 0 0 0 0 0 0 0 0 0 0 0 0 0 0 0 0 0 0 0 0 0 0 0 0 0 0 0 0 0 0 0 0 0 0 0 0 0 0 0 0 0 0 0 0 0 0 0 0 0 0 0 0 0 0 0 0 0 0 0 0 0 0 
0 0 0 0 0 0 0 0 0 0 0 0 0 0 0 0 0 0 0 0 0 0 0 0 0 0 0 0 0 0 0 0 0 0 0 0 0 0 0 0 0 0 0 0 0 0 0 0 0 0 0 0 0 0 0 0 0 0 0 0 0 0 0 0 0 0 0 0 0 0 0 0 0 0 0 0 0 0 0 0 0 0 0 0 0 0 0 0 0 0 
0 0 0 0 0 0 0 0 0 0 0 0 0 0 0 0 0 0 0 0 0 0 0 0 0 0 0 0 0 0 0 0 0 0 0 0 0 0 0 0 0 0 0 0 0 0 0 0 0 0 0 0 0 0 0 0 0 0 0 0 0 0 0 0 0 0 0 0 0 0 0 0 0 0 0 0 0 0 0 0 0 0 0 0 0 0 0 0 0 0 
0 0 0 0 0 0 0 0 0 0 0 0 0 0 0 0 0 0 0 0 0 0 0 0 0 0 0 0 0 0 0 0 0 0 0 0 0 0 0 0 0 0 0 0 0 0 0 0 0 0 0 0 0 0 0 0 0 0 0 0 0 0 0 0 0 0 0 0 0 0 0 0 0 0 0 0 0 0 0 0 0 0 0 0 0 0 0 0 0 0 
0 0 0 0 0 0 0 0 0 0 0 0 0 0 0 0 0 0 0 0 0 0 0 0 0 0 0 0 0 0 0 0 0 0 0 0 0 0 0 0 0 0 0 0 0 0 0 0 0 0 0 0 0 0 0 0 0 0 0 0 0 0 0 0 0 0 0 0 0 0 0 0 0 0 0 0 0 0 0 0 0 0 0 0 0 0 0 0 0 0 
0 0 0 0 0 0 0 0 0 0 0 0 0 0 0 0 0 0 0 0 0 0 0 0 0 0 0 0 0 0 0 0 0 0 0 0 0 0 0 0 0 0 0 0 0 0 0 0 0 0 0 0 0 0 0 0 0 0 0 0 0 0 0 0 0 0 0 0 0 0 0 0 0 0 0 0 0 0 0 0 0 0 0 0 0 0 0 0 0 0 
0 0 0 0 0 0 0 0 0 0 0 0 0 0 0 0 0 0 0 0 0 0 0 0 0 0 0 0 0 0 0 0 0 0 0 0 0 0 0 0 0 0 0 0 0 0 0 0 0 0 0 0 0 0 0 0 0 0 0 0 0 0 0 0 0 0 0 0 0 0 0 0 0 0 0 0 0 0 0 0 0 0 0 0 0 0 0 0 0 0 
0 0 0 0 0 0 0 0 0 0 0 0 0 0 0 0 0 0 0 0 0 0 0 0 0 0 0 0 0 0 0 0 0 0 0 0 0 0 0 0 0 0 0 0 0 0 0 0 0 0 0 0 0 0 0 0 0 0 0 0 0 0 0 0 0 0 0 0 0 0 0 0 0 0 0 0 0 0 0 0 0 0 0 0 0 0 0 0 0 0 
0 0 0 0 0 0 0 0 0 0 0 0 0 0 0 0 0 0 0 0 0 0 0 0 0 0 0 0 0 0 0 0 0 0 0 0 0 0 0 0 0 0 0 0 0 0 0 0 0 0 0 0 0 0 0 0 0 0 0 0 0 0 0 0 0 0 0 0 0 0 0 0 0 0 0 0 0 0 0 0 0 0 0 0 0 0 0 0 0 0 
0 0 0 0 0 0 0 0 0 0 0 0 0 0 0 0 0 0 0 0 0 0 0 0 0 0 0 0 0 0 0 0 0 0 0 0 0 0 0 0 0 0 0 0 0 0 0 0 0 0 0 0 0 0 0 0 0 0 0 0 0 0 0 0 0 0 0 0 0 0 0 0 0 0 0 0 0 0 0 0 0 0 0 0 0 0 0 0 0 0 
0 0 0 0 0 0 0 0 0 0 0 0 0 0 0 0 0 0 0 0 0 0 0 0 0 0 0 0 0 0 0 0 0 0 0 0 0 0 0 0 0 0 0 0 0 0 0 0 0 0 0 0 0 0 0 0 0 0 0 0 0 0 0 0 0 0 0 0 0 0 0 0 0 0 0 0 0 0 0 0 0 0 0 0 0 0 0 0 0 0 
0 0 0 0 0 0 0 0 0 0 0 0 0 0 0 0 0 0 0 0 0 0 0 0 0 0 0 0 0 0 0 0 0 0 0 0 0 0 0 0 0 0 0 0 0 0 0 0 0 0 0 0 0 0 0 0 0 0 0 0 0 0 0 0 0 0 0 0 0 0 0 0 0 0 0 0 0 0 0 0 0 0 0 0 0 0 0 0 0 0 
0 0 0 0 0 0 0 0 0 0 0 0 0 0 0 0 0 0 0 0 0 0 0 0 0 0 0 0 0 0 0 0 0 0 0 0 0 0 0 0 0 0 0 0 0 0 0 0 0 0 0 0 0 0 0 0 0 0 0 0 0 0 0 0 0 0 0 0 0 0 0 0 0 0 0 0 0 0 0 0 0 0 0 0 0 0 0 0 0 0 
0 0 0 0 0 0 0 0 0 0 0 0 0 0 0 0 0 0 0 0 0 0 0 0 0 0 0 0 0 0 0 0 0 0 0 0 0 0 0 0 0 0 0 0 0 0 0 0 0 0 0 0 0 0 0 0 0 0 0 0 0 0 0 0 0 0 0 0 0 0 0 0 0 0 0 0 0 0 0 0 0 0 0 0 0 0 0 0 0 0 
0 0 0 0 0 0 0 0 0 0 0 0 0 0 0 0 0 0 0 0 0 0 0 0 0 0 0 0 0 0 0 0 0 0 0 0 0 0 0 0 0 0 0 0 0 0 0 0 0 0 0 0 0 0 0 0 0 0 0 0 0 0 0 0 0 0 0 0 0 0 0 0 0 0 0 0 0 0 0 0 0 0 0 0 0 0 0 0 0 0 
0 0 0 0 0 0 0 0 0 0 0 0 0 0 0 0 0 0 0 0 0 0 0 0 0 0 0 0 0 0 0 0 0 0 0 0 0 0 0 0 0 0 0 0 0 0 0 0 0 0 0 0 0 0 0 0 0 0 0 0 0 0 0 0 0 0 0 0 0 0 0 0 0 0 0 0 0 0 0 0 0 0 0 0 0 0 0 0 0 0 
0 0 0 0 0 0 0 0 0 0 0 0 0 0 0 0 0 0 0 0 0 0 0 0 0 0 0 0 0 0 0 0 0 0 0 0 0 0 0 0 0 0 0 0 0 0 0 0 0 0 0 0 0 0 0 0 0 0 0 0 0 0 0 0 0 0 0 0 0 0 0 0 0 0 0 0 0 0 0 0 0 0 0 0 0 0 0 0 0 0 
0 0 0 0 0 0 0 0 0 0 0 0 0 0 0 0 0 0 0 0 0 0 0 0 0 0 0 0 0 0 0 0 0 0 0 0 0 0 0 0 0 0 0 0 0 0 0 0 0 0 0 0 0 0 0 0 0 0 0 0 0 0 0 0 0 0 0 0 0 0 0 0 0 0 0 0 0 0 0 0 0 0 0 0 0 0 0 0 0 0 
0 0 0 0 0 0 0 0 0 0 0 0 0 0 0 0 0 0 0 0 0 0 0 0 0 0 0 0 0 0 0 0 0 0 0 0 0 0 0 0 0 0 0 0 0 0 0 0 0 0 0 0 0 0 0 0 0 0 0 0 0 0 0 0 0 0 0 0 0 0 0 0 0 0 0 0 0 0 0 0 0 0 0 0 0 0 0 0 0 0 
0 0 0 0 0 0 0 0 0 0 0 0 0 0 0 0 0 0 0 0 0 0 0 0 0 0 0 0 0 0 0 0 0 0 0 0 0 0 0 0 0 0 0 0 0 0 0 0 1 0 0 0 0 0 0 0 0 0 0 0 0 0 0 0 0 0 0 0 0 0 0 0 0 0 0 0 0 0 0 0 0 0 0 0 0 0 0 0 0 0 
0 0 0 0 0 0 0 0 0 0 0 0 0 0 0 0 0 0 0 0 0 0 0 0 0 0 0 0 0 0 0 0 0 0 0 0 0 0 0 0 0 0 0 0 0 0 0 1 0 0 0 0 0 0 0 0 0 0 0 0 0 0 0 0 0 0 0 0 0 0 0 0 0 0 0 0 0 0 0 0 0 0 0 0 0 0 0 0 0 0 
0 0 0 0 0 0 0 0 0 0 0 0 0 0 0 0 0 0 0 0 0 0 0 0 0 0 0 0 0 0 0 0 0 0 0 0 0 1 0 1 0 0 0 0 1 0 0 0 0 0 0 0 0 0 0 0 0 0 0 0 0 0 0 0 0 0 0 0 0 0 0 0 0 0 0 0 0 0 0 0 0 0 0 0 0 0 0 0 0 0 
0 0 0 0 0 0 0 0 0 0 0 0 0 0 0 0 0 0 0 0 0 0 0 0 0 0 0 0 0 0 0 0 0 1 0 0 0 1 0 0 0 0 0 1 0 0 0 0 0 1 1 0 0 1 0 0 0 1 0 1 0 0 0 0 0 0 0 0 0 0 0 0 0 0 0 0 0 0 0 0 0 0 0 0 0 0 0 0 0 0 
0 0 0 0 0 0 0 0 0 0 0 0 0 0 0 0 0 0 0 0 0 0 0 0 0 0 0 1 0 1 0 0 0 0 0 1 0 1 1 0 1 1 0 1 0 1 0 2 3 1 1 1 1 1 3 0 0 2 0 0 1 0 0 0 1 0 1 0 0 0 0 0 0 0 0 0 0 0 0 0 0 0 0 0 0 0 0 0 0 0 
0 0 0 0 0 0 0 0 0 0 0 0 0 0 0 0 0 0 0 0 0 0 0 0 0 0 0 0 0 1 0 0 1 2 1 2 2 0 1 1 0 2 0 2 2 2 1 1 1 0 3 2 3 3 1 1 1 0 1 0 0 1 1 0 0 0 1 0 0 0 1 0 0 0 0 0 0 0 0 0 0 0 0 0 0 0 0 0 0 0 
0 0 0 0 0 0 0 0 0 0 0 0 0 0 0 0 0 0 0 0 0 0 0 1 0 1 1 1 1 0 0 1 2 3 1 3 2 5 2 2 5 10 8 4 4 6 4 5 6 2 3 1 2 3 5 2 1 1 1 2 1 1 3 0 1 0 0 0 0 1 0 0 0 0 0 0 0 0 0 0 0 0 0 0 0 0 0 0 0 0 
0 0 0 0 0 0 0 0 0 0 0 0 0 0 0 0 0 0 0 0 0 0 0 0 2 0 1 1 0 0 2 1 4 5 5 7 6 6 8 9 8 9 12 10 10 9 6 11 3 7 8 9 9 6 5 4 7 6 1 6 1 0 0 2 2 0 1 0 0 0 0 0 1 0 0 0 0 0 0 0 0 0 0 0 0 0 0 0 0 0 
0 0 0 0 0 0 0 0 0 0 0 0 0 0 0 0 0 0 1 0 0 1 0 1 1 1 3 3 3 4 6 10 7 7 13 10 10 11 12 19 18 20 17 23 22 28 17 22 25 23 31 22 17 12 15 11 11 2 6 3 5 1 1 7 1 2 2 1 0 0 1 0 1 0 0 0 0 0 0 0 0 0 0 0 0 0 0 0 0 0 
0 0 0 0 0 0 0 0 0 0 0 0 0 0 0 0 0 0 0 2 2 1 4 2 1 3 6 7 6 3 15 17 20 13 18 27 29 36 33 46 32 43 41 41 35 45 45 42 39 32 37 32 36 33 31 21 21 22 15 16 15 7 7 3 5 3 2 2 1 0 1 1 0 1 0 0 0 0 0 0 0 0 0 0 0 0 0 0 0 0 
0 0 0 0 0 0 0 0 1 0 0 0 0 1 0 0 0 2 2 2 2 1 1 4 2 6 6 10 18 21 22 31 34 40 42 54 54 62 60 76 65 84 80 83 75 94 81 81 76 76 57 61 60 57 45 34 43 29 19 12 20 16 10 12 10 5 7 2 3 2 1 2 1 0 0 0 0 0 0 0 0 0 0 0 0 0 0 0 0 0 
0 0 0 0 0 0 0 0 0 0 0 0 2 0 0 1 2 1 0 0 4 3 9 7 18 13 12 27 23 35 42 59 62 82 80 91 118 99 118 99 128 134 146 138 140 147 136 141 129 110 128 113 91 94 90 74 69 62 52 50 38 30 18 13 16 10 4 3 3 1 2 4 3 0 1 2 0 1 0 0 0 1 1 0 0 0 0 0 0 0 
0 0 0 0 0 0 0 0 0 0 0 0 1 1 1 0 1 3 4 8 5 5 11 12 15 24 29 42 54 80 74 62 75 115 119 147 157 176 224 173 201 233 228 222 248 282 263 258 230 242 220 164 170 179 156 130 104 100 77 66 57 45 46 29 23 21 12 10 7 8 6 3 3 4 2 0 0 1 0 0 0 0 0 0 0 0 0 0 0 0 
0 0 0 0 0 0 0 0 0 0 0 0 1 0 2 1 1 1 3 5 7 14 13 21 30 32 49 68 72 94 101 133 157 189 219 239 270 281 347 391 324 371 414 435 428 406 428 408 396 383 323 330 254 274 226 211 175 163 122 109 83 77 66 52 42 37 34 19 10 15 7 6 6 4 2 1 2 0 1 0 0 0 0 0 0 0 0 0 0 0 
0 0 0 0 0 0 0 0 0 0 1 1 0 1 0 2 1 9 9 17 9 20 26 39 43 59 83 108 127 147 188 193 255 285 355 402 398 448 496 534 595 578 584 643 656 650 626 633 614 590 583 532 458 403 338 353 308 253 198 162 139 126 110 98 63 41 32 26 24 15 16 13 10 6 5 1 2 0 0 0 1 0 0 1 0 0 0 0 0 0 
0 0 0 1 0 0 0 0 0 1 2 0 0 0 2 2 8 9 10 19 21 36 58 53 75 95 117 148 190 221 279 316 371 442 503 551 603 706 753 809 836 918 986 1013 977 956 955 969 920 894 808 744 692 640 548 472 483 378 337 255 205 184 133 107 86 77 66 43 37 18 13 21 12 9 6 4 0 1 0 1 0 1 0 0 0 0 0 0 0 0 
0 0 0 0 0 0 0 0 0 0 0 0 2 2 4 5 5 15 25 21 29 33 51 54 116 118 156 205 255 326 409 459 514 602 738 823 946 1020 1021 1143 1219 1273 1389 1364 1381 1382 1339 1312 1295 1277 1161 1148 1043 894 760 711 602 504 494 397 311 261 203 179 126 109 65 54 43 36 20 15 11 8 5 4 3 1 2 0 0 0 0 0 0 0 0 0 0 0 
0 0 0 0 0 0 0 1 0 0 1 3 1 1 8 1 14 13 20 36 48 41 80 111 152 163 211 297 341 412 490 591 698 794 927 1019 1179 1326 1412 1493 1613 1744 1791 1921 1854 1916 1795 1707 1751 1698 1511 1424 1301 1207 1096 982 856 697 596 495 395 340 263 225 191 137 101 83 62 43 33 19 16 15 11 1 6 5 2 5 0 0 1 0 0 0 0 0 0 0 
0 0 0 0 0 0 0 1 0 2 0 1 1 4 10 3 16 23 28 45 52 72 125 124 179 193 304 321 420 552 634 783 892 1080 1190 1287 1506 1716 1824 1960 2024 2190 2341 2389 2377 2321 2506 2286 2310 2149 1984 1885 1662 1499 1398 1132 1066 862 718 626 527 439 327 295 227 180 156 102 85 65 31 28 16 9 10 7 4 2 3 0 2 0 0 0 0 0 1 0 0 0 
0 0 0 0 0 0 1 1 1 3 3 3 5 5 8 14 20 18 34 56 69 92 123 174 205 290 323 442 535 636 769 969 1125 1247 1472 1662 1877 2003 2301 2421 2512 2691 2829 2832 2828 2859 2893 2770 2661 2477 2418 2207 2012 1794 1725 1466 1210 1091 917 787 651 563 423 318 277 206 176 138 97 78 45 42 30 18 13 5 7 3 2 1 0 0 3 1 0 0 0 0 0 0 
0 0 0 0 1 1 0 1 0 1 3 3 4 10 10 18 22 19 40 51 73 118 169 190 261 323 401 501 651 729 947 1089 1264 1502 1735 1906 2176 2422 2584 2757 2971 3186 3261 3296 3362 3454 3251 3329 3028 3037 2863 2614 2276 2117 1916 1708 1512 1272 1058 935 791 636 512 368 285 231 231 150 98 76 64 48 34 19 19 10 8 1 2 1 1 3 0 0 0 0 0 0 0 0 
0 0 0 0 0 0 0 0 2 3 2 2 4 10 11 21 30 42 38 68 84 124 156 196 257 342 424 517 713 851 995 1155 1448 1692 1878 2123 2416 2600 2901 3051 3256 3448 3649 3710 3723 3759 3671 3656 3421 3279 3181 2922 2627 2427 2156 1911 1676 1454 1217 983 817 686 584 449 337 307 208 158 97 97 61 49 40 21 13 14 6 4 5 1 2 1 0 0 1 1 0 0 0 1 
0 0 0 0 0 0 0 0 1 0 2 2 3 8 8 18 31 41 58 67 98 121 176 220 297 373 497 579 723 779 1136 1343 1486 1701 1989 2253 2492 2739 3018 3382 3590 3713 3815 3728 3934 3840 3927 3778 3640 3541 3240 3000 2830 2437 2359 1953 1774 1439 1228 1055 930 752 588 449 334 292 211 177 125 80 73 50 27 19 9 11 9 6 5 2 0 0 0 0 0 0 0 0 0 0 
0 0 2 0 0 0 2 0 1 0 3 4 7 13 11 17 17 42 54 71 96 124 170 226 272 399 456 574 744 890 1107 1271 1488 1720 2048 2224 2487 2761 3018 3181 3519 3623 3696 4000 3902 3913 3716 3823 3700 3464 3218 2947 2801 2523 2329 1916 1662 1543 1253 1080 890 716 598 489 419 286 210 175 126 80 54 55 38 18 18 5 7 6 4 4 2 0 0 1 0 0 0 2 0 0 
0 0 0 0 0 0 2 0 0 6 2 4 5 12 10 12 19 29 40 76 95 115 152 200 289 388 416 533 703 802 1030 1206 1400 1656 1920 2146 2317 2636 2825 3125 3299 3510 3625 3654 3688 3737 3735 3512 3545 3404 3018 2868 2641 2386 2123 1859 1637 1480 1244 971 849 673 486 446 384 272 199 169 126 89 61 46 27 26 10 14 8 5 6 2 1 0 0 0 0 0 1 0 0 0 
0 0 0 0 0 0 0 1 0 1 1 5 2 5 9 15 32 35 32 63 79 110 183 202 255 319 457 492 575 768 880 1121 1300 1510 1727 1859 2134 2415 2608 2867 2994 3148 3273 3270 3331 3347 3342 3310 3088 3024 2843 2668 2447 2171 1912 1711 1547 1287 1077 947 773 643 479 419 313 237 201 147 111 70 62 49 24 25 17 11 3 2 1 2 1 0 0 1 0 0 0 0 0 0 
0 0 0 0 0 1 0 1 0 0 1 3 4 4 13 23 16 36 31 58 74 107 143 165 220 257 345 445 567 647 847 933 1068 1240 1478 1693 1806 2025 2211 2405 2550 2700 2796 2889 2844 2935 2959 2806 2606 2545 2389 2221 2070 1912 1613 1476 1257 1084 972 792 651 511 431 348 294 206 155 112 107 67 40 36 28 15 16 5 5 8 3 1 2 1 0 0 2 1 0 0 0 0 
0 0 1 0 0 0 0 0 1 1 0 4 3 8 5 9 11 17 34 36 69 79 121 140 171 218 256 359 430 528 619 762 911 1053 1240 1380 1502 1720 1831 2022 2189 2279 2232 2346 2404 2386 2337 2228 2167 2044 2002 1888 1708 1543 1397 1210 1002 940 801 673 520 429 347 311 220 170 151 101 88 58 44 21 13 13 9 7 4 5 4 0 2 0 0 0 0 0 0 0 0 0 
0 0 0 0 0 0 0 0 0 0 0 0 4 1 5 10 8 18 25 37 51 60 64 119 138 169 208 293 366 430 488 600 682 818 937 1012 1193 1295 1475 1510 1638 1773 1820 1772 1874 1844 1877 1801 1741 1644 1587 1461 1335 1184 1147 993 781 691 600 502 435 341 304 202 153 121 99 70 65 46 39 15 23 9 13 4 4 3 2 1 0 0 0 0 0 0 0 0 0 0 
0 0 0 0 0 0 1 2 0 0 0 0 1 3 6 5 14 12 10 23 29 48 60 76 113 125 145 211 247 319 373 442 482 596 683 789 921 945 1057 1153 1176 1362 1333 1425 1345 1423 1337 1353 1252 1281 1119 1070 985 896 790 732 590 504 433 399 298 267 211 171 130 101 85 69 53 39 32 19 10 13 4 4 3 0 0 1 1 0 0 0 0 0 0 0 0 0 
0 0 0 1 0 0 0 0 0 1 0 0 4 2 2 4 8 10 12 21 27 45 36 46 75 85 110 156 193 215 253 346 344 442 498 527 674 680 789 825 901 885 931 1028 974 965 946 991 923 832 841 762 701 655 534 522 451 347 303 270 217 184 144 120 93 70 56 43 39 30 17 11 8 5 7 5 1 1 1 0 0 0 0 0 0 0 0 0 0 0 
0 0 0 0 0 0 0 1 0 0 1 1 2 0 0 2 3 3 10 7 9 17 31 42 41 64 83 99 110 161 181 195 238 317 331 367 395 435 488 579 543 609 644 629 648 669 623 625 586 584 526 558 408 415 332 343 287 234 211 180 143 118 98 82 70 43 31 28 30 16 12 10 3 4 4 3 0 0 0 0 0 0 0 0 0 0 0 0 0 0 
0 0 0 0 0 0 0 0 0 0 0 0 1 1 0 1 5 2 4 4 15 16 19 35 33 40 38 48 78 111 116 121 149 206 213 261 268 302 341 362 371 376 423 398 413 425 436 363 385 372 334 334 300 282 228 228 163 128 134 120 103 77 64 40 30 30 24 14 20 10 5 2 2 1 2 2 0 0 0 1 0 1 0 0 0 0 0 0 0 0 
0 0 0 0 0 0 0 0 0 0 0 1 0 0 0 1 3 3 2 5 12 8 10 12 26 17 27 45 40 49 59 79 98 128 134 157 175 159 196 244 228 246 251 226 214 264 281 254 258 240 214 190 180 187 130 127 103 104 84 80 62 35 29 34 24 13 5 18 7 5 5 3 3 1 0 1 1 0 0 0 0 0 0 0 0 0 0 0 0 0 
0 0 0 0 0 0 0 0 0 0 0 0 0 0 0 3 3 1 1 0 2 1 4 11 16 10 11 21 26 28 43 57 61 61 71 94 92 108 107 123 124 131 148 140 141 145 152 161 122 134 122 123 121 87 87 58 72 52 49 58 33 35 22 15 18 9 11 8 2 9 2 2 1 1 1 1 0 0 1 0 0 0 0 0 0 0 0 0 0 0 
0 0 0 0 0 0 0 0 0 0 0 0 0 1 1 0 1 0 1 1 2 3 7 5 5 9 12 15 17 18 26 13 35 40 44 54 43 64 59 70 55 78 83 76 78 87 78 81 83 78 80 64 64 57 40 40 38 27 12 21 14 15 6 10 14 5 4 5 4 4 0 2 0 0 2 0 0 0 0 0 0 0 0 0 0 0 0 0 0 0 
0 0 0 0 0 0 0 0 0 0 0 0 0 0 0 0 0 0 0 0 1 0 2 1 5 1 6 4 6 10 9 13 15 14 16 25 35 41 37 35 38 41 49 36 46 40 53 56 35 37 33 33 28 32 23 25 13 14 17 13 10 10 5 5 3 2 4 3 3 2 0 1 0 0 2 0 1 1 0 1 0 0 0 0 0 0 0 0 0 0 
0 0 0 0 0 0 0 0 0 0 0 0 0 0 0 0 0 0 0 0 0 1 1 1 2 5 0 2 3 4 8 6 10 4 9 10 15 9 13 14 17 19 17 10 26 24 22 22 28 20 14 26 17 18 12 12 8 8 5 3 2 5 2 1 1 4 1 1 0 2 0 0 0 0 0 0 1 0 0 0 0 0 0 0 0 0 0 0 0 0 
0 0 0 0 0 0 0 0 0 0 0 0 0 0 0 0 0 0 0 0 0 1 0 1 0 1 2 2 1 1 3 3 1 4 3 7 6 3 3 2 9 6 6 9 9 6 10 9 7 5 13 8 7 4 8 7 4 0 1 4 3 0 1 1 0 3 0 0 0 1 0 0 0 1 0 0 0 0 0 0 0 0 0 0 0 0 0 0 0 0 
0 0 0 0 0 0 0 0 0 0 0 0 0 0 0 0 0 0 0 0 0 0 0 1 2 1 0 0 1 1 1 1 2 2 4 1 2 1 3 5 4 2 5 3 8 7 3 3 4 3 8 0 4 0 5 4 0 3 2 0 1 3 1 0 2 2 0 0 0 0 0 0 0 0 0 0 0 0 0 0 0 0 0 0 0 0 0 0 0 0 
0 0 0 0 0 0 0 0 0 0 0 0 0 0 0 0 0 0 1 0 0 0 0 0 1 0 0 0 0 0 1 1 2 1 2 1 1 2 0 2 1 3 1 2 4 2 2 2 2 3 5 2 2 1 1 2 1 0 2 0 0 0 0 0 0 0 0 0 1 0 0 0 0 0 0 0 0 0 0 0 0 0 0 0 0 0 0 0 0 0 
0 0 0 0 0 0 0 0 0 0 0 0 0 0 0 0 0 0 0 0 0 0 0 0 0 0 0 0 1 1 0 0 0 1 0 1 1 0 0 1 0 1 2 1 0 0 0 0 0 0 1 0 1 0 0 0 0 0 1 0 1 0 0 0 0 0 0 0 0 0 0 0 0 0 0 0 0 0 0 0 0 0 0 0 0 0 0 0 0 0 
0 0 0 0 0 0 0 0 0 0 0 0 0 0 0 0 0 0 0 0 0 0 0 0 0 0 0 0 0 0 0 0 0 0 0 1 0 1 0 0 1 0 1 0 0 1 0 0 0 0 0 0 1 0 0 0 0 0 0 0 0 0 0 0 1 0 0 0 0 0 0 0 0 0 0 0 0 0 0 0 0 0 0 0 0 0 0 0 0 0 
0 0 0 0 0 0 0 0 0 0 0 0 0 0 0 0 0 0 0 0 0 0 0 0 0 0 0 0 0 0 0 0 0 0 0 0 0 0 0 0 0 0 0 0 0 0 0 0 0 0 0 0 0 0 0 0 0 0 0 0 0 0 0 0 0 0 0 0 0 0 0 1 0 0 0 0 0 0 0 0 0 0 0 0 0 0 0 0 0 0 
0 0 0 0 0 0 0 0 0 0 0 0 0 0 0 0 0 0 0 0 0 0 0 0 0 0 0 0 0 0 0 0 0 0 0 0 1 0 0 0 0 0 1 0 1 0 0 0 0 1 0 0 0 0 0 0 0 0 0 0 0 0 0 0 0 0 0 0 0 0 0 0 0 0 0 0 0 0 0 0 0 0 0 0 0 0 0 0 0 0 
0 0 0 0 0 0 0 0 0 0 0 0 0 0 0 0 0 0 0 0 0 0 0 0 0 0 0 0 0 0 0 0 0 0 0 0 0 0 0 0 0 0 0 0 0 0 0 0 0 0 0 0 0 0 0 0 0 0 0 0 0 0 0 0 0 0 0 0 0 0 0 0 0 0 0 0 0 0 0 0 0 0 0 0 0 0 0 0 0 0 
0 0 0 0 0 0 0 0 0 0 0 0 0 0 0 0 0 0 0 0 0 0 0 0 0 0 0 0 0 0 0 0 0 0 0 0 0 0 0 0 0 0 0 0 0 0 0 0 0 0 0 0 0 0 0 0 0 0 0 0 0 0 0 0 0 0 0 0 0 0 0 0 0 0 0 0 0 0 0 0 0 0 0 0 0 0 0 0 0 0 
0 0 0 0 0 0 0 0 0 0 0 0 0 0 0 0 0 0 0 0 0 0 0 0 0 0 0 0 0 0 0 0 0 0 0 0 0 0 0 0 0 0 0 0 0 0 0 0 0 0 0 0 0 0 0 0 0 0 0 0 0 0 0 0 0 0 0 0 0 0 0 0 0 0 0 0 0 0 0 0 0 0 0 0 0 0 0 0 0 0 
0 0 0 0 0 0 0 0 0 0 0 0 0 0 0 0 0 0 0 0 0 0 0 0 0 0 0 0 0 0 0 0 0 0 0 0 0 0 0 0 0 0 0 0 0 0 0 0 0 0 0 0 0 0 0 0 0 0 0 0 0 0 0 0 0 0 0 0 0 0 0 0 0 0 0 0 0 0 0 0 0 0 0 0 0 0 0 0 0 0 
0 0 0 0 0 0 0 0 0 0 0 0 0 0 0 0 0 0 0 0 0 0 0 0 0 0 0 0 0 0 0 0 0 0 0 0 0 0 0 0 0 0 0 0 0 0 0 0 0 0 0 0 0 0 0 0 0 0 0 0 0 0 0 0 0 0 0 0 0 0 0 0 0 0 0 0 0 0 0 0 0 0 0 0 0 0 0 0 0 0 
0 0 0 0 0 0 0 0 0 0 0 0 0 0 0 0 0 0 0 0 0 0 0 0 0 0 0 0 0 0 0 0 0 0 0 0 0 0 0 0 0 0 0 0 0 0 0 0 0 0 0 0 0 0 0 0 0 0 0 0 0 0 0 0 0 0 0 0 0 0 0 0 0 0 0 0 0 0 0 0 0 0 0 0 0 0 0 0 0 0 
0 0 0 0 0 0 0 0 0 0 0 0 0 0 0 0 0 0 0 0 0 0 0 0 0 0 0 0 0 0 0 0 0 0 0 0 0 0 0 0 0 0 0 0 0 0 0 0 0 0 0 0 0 0 0 0 0 0 0 0 0 0 0 0 0 0 0 0 0 0 0 0 0 0 0 0 0 0 0 0 0 0 0 0 0 0 0 0 0 0 
0 0 0 0 0 0 0 0 0 0 0 0 0 0 0 0 0 0 0 0 0 0 0 0 0 0 0 0 0 0 0 0 0 0 0 0 0 0 0 0 0 0 0 0 0 0 0 0 0 0 0 0 0 0 0 0 0 0 0 0 0 0 0 0 0 0 0 0 0 0 0 0 0 0 0 0 0 0 0 0 0 0 0 0 0 0 0 0 0 0 
0 0 0 0 0 0 0 0 0 0 0 0 0 0 0 0 0 0 0 0 0 0 0 0 0 0 0 0 0 0 0 0 0 0 0 0 0 0 0 0 0 0 0 0 0 0 0 0 0 0 0 0 0 0 0 0 0 0 0 0 0 0 0 0 0 0 0 0 0 0 0 0 0 0 0 0 0 0 0 0 0 0 0 0 0 0 0 0 0 0 
0 0 0 0 0 0 0 0 0 0 0 0 0 0 0 0 0 0 0 0 0 0 0 0 0 0 0 0 0 0 0 0 0 0 0 0 0 0 0 0 0 0 0 0 0 0 0 0 0 0 0 0 0 0 0 0 0 0 0 0 0 0 0 0 0 0 0 0 0 0 0 0 0 0 0 0 0 0 0 0 0 0 0 0 0 0 0 0 0 0 
0 0 0 0 0 0 0 0 0 0 0 0 0 0 0 0 0 0 0 0 0 0 0 0 0 0 0 0 0 0 0 0 0 0 0 0 0 0 0 0 0 0 0 0 0 0 0 0 0 0 0 0 0 0 0 0 0 0 0 0 0 0 0 0 0 0 0 0 0 0 0 0 0 0 0 0 0 0 0 0 0 0 0 0 0 0 0 0 0 0 
0 0 0 0 0 0 0 0 0 0 0 0 0 0 0 0 0 0 0 0 0 0 0 0 0 0 0 0 0 0 0 0 0 0 0 0 0 0 0 0 0 0 0 0 0 0 0 0 0 0 0 0 0 0 0 0 0 0 0 0 0 0 0 0 0 0 0 0 0 0 0 0 0 0 0 0 0 0 0 0 0 0 0 0 0 0 0 0 0 0 
0 0 0 0 0 0 0 0 0 0 0 0 0 0 0 0 0 0 0 0 0 0 0 0 0 0 0 0 0 0 0 0 0 0 0 0 0 0 0 0 0 0 0 0 0 0 0 0 0 0 0 0 0 0 0 0 0 0 0 0 0 0 0 0 0 0 0 0 0 0 0 0 0 0 0 0 0 0 0 0 0 0 0 0 0 0 0 0 0 0 
0 0 0 0 0 0 0 0 0 0 0 0 0 0 0 0 0 0 0 0 0 0 0 0 0 0 0 0 0 0 0 0 0 0 0 0 0 0 0 0 0 0 0 0 0 0 0 0 0 0 0 0 0 0 0 0 0 0 0 0 0 0 0 0 0 0 0 0 0 0 0 0 0 0 0 0 0 0 0 0 0 0 0 0 0 0 0 0 0 0 
0 0 0 0 0 0 0 0 0 0 0 0 0 0 0 0 0 0 0 0 0 0 0 0 0 0 0 0 0 0 0 0 0 0 0 0 0 0 0 0 0 0 0 0 0 0 0 0 0 0 0 0 0 0 0 0 0 0 0 0 0 0 0 0 0 0 0 0 0 0 0 0 0 0 0 0 0 0 0 0 0 0 0 0 0 0 0 0 0 0 
0 0 0 0 0 0 0 0 0 0 0 0 0 0 0 0 0 0 0 0 0 0 0 0 0 0 0 0 0 0 0 0 0 0 0 0 0 0 0 0 0 0 0 0 0 0 0 0 0 0 0 0 0 0 0 0 0 0 0 0 0 0 0 0 0 0 0 0 0 0 0 0 0 0 0 0 0 0 0 0 0 0 0 0 0 0 0 0 0 0 
0 0 0 0 0 0 0 0 0 0 0 0 0 0 0 0 0 0 0 0 0 0 0 0 0 0 0 0 0 0 0 0 0 0 0 0 0 0 0 0 0 0 0 0 0 0 0 0 0 0 0 0 0 0 0 0 0 0 0 0 0 0 0 0 0 0 0 0 0 0 0 0 0 0 0 0 0 0 0 0 0 0 0 0 0 0 0 0 0 0 
0 0 0 0 0 0 0 0 0 0 0 0 0 0 0 0 0 0 0 0 0 0 0 0 0 0 0 0 0 0 0 0 0 0 0 0 0 0 0 0 0 0 0 0 0 0 0 0 0 0 0 0 0 0 0 0 0 0 0 0 0 0 0 0 0 0 0 0 0 0 0 0 0 0 0 0 0 0 0 0 0 0 0 0 0 0 0 0 0 0 
0 0 0 0 0 0 0 0 0 0 0 0 0 0 0 0 0 0 0 0 0 0 0 0 0 0 0 0 0 0 0 0 0 0 0 0 0 0 0 0 0 0 0 0 0 0 0 0 0 0 0 0 0 0 0 0 0 0 0 0 0 0 0 0 0 0 0 0 0 0 0 0 0 0 0 0 0 0 0 0 0 0 0 0 0 0 0 0 0 0 
0 0 0 0 0 0 0 0 0 0 0 0 0 0 0 0 0 0 0 0 0 0 0 0 0 0 0 0 0 0 0 0 0 0 0 0 0 0 0 0 0 0 0 0 0 0 0 0 0 0 0 0 0 0 0 0 0 0 0 0 0 0 0 0 0 0 0 0 0 0 0 0 0 0 0 0 0 0 0 0 0 0 0 0 0 0 0 0 0 0 
0 0 0 0 0 0 0 0 0 0 0 0 0 0 0 0 0 0 0 0 0 0 0 0 0 0 0 0 0 0 0 0 0 0 0 0 0 0 0 0 0 0 0 0 0 0 0 0 0 0 0 0 0 0 0 0 0 0 0 0 0 0 0 0 0 0 0 0 0 0 0 0 0 0 0 0 0 0 0 0 0 0 0 0 0 0 0 0 0 0 
0 0 0 0 0 0 0 0 0 0 0 0 0 0 0 0 0 0 0 0 0 0 0 0 0 0 0 0 0 0 0 0 0 0 0 0 0 0 0 0 0 0 0 0 0 0 0 0 0 0 0 0 0 0 0 0 0 0 0 0 0 0 0 0 0 0 0 0 0 0 0 0 0 0 0 0 0 0 0 0 0 0 0 0 0 0 0 0 0 0 
0 0 0 0 0 0 0 0 0 0 0 0 0 0 0 0 0 0 0 0 0 0 0 0 0 0 0 0 0 0 0 0 0 0 0 0 0 0 0 0 0 0 0 0 0 0 0 0 0 0 0 0 0 0 0 0 0 0 0 0 0 0 0 0 0 0 0 0 0 0 0 0 0 0 0 0 0 0 0 0 0 0 0 0 0 0 0 0 0 0 
# EndDate:Thu Jan 24 12:22:11 2013
