# Format: McStas with text headers file. Use mcplot/PGPLOT to view.
# URL:    http://www.mccode.org/
# Editor: erkn on localhost
# Creator:Test_src_gaussian (Test_src_gaussian.instr) simulation (McXtrace x.y.z - Jan. 22, 2013)
# Date:   Simulation started (1358950308) Wed Jan 23 15:11:48 2013
# File:   lmon0.dat
# Ncount: 250000
# Trace: no
# Gravitation: no
# Seed: 1358950304
# Param: XW=0.01
# Param: YH=0.01
# Param: DIST=10
# Param: SRC=2
# Param: E0=10.1847
# type: array_1d(100)
# Source: Test_src_gaussian.instr
# component: lmon0
# position: 0 0 0.101
# title: Wavelength monitor
# Ncount: 250000
# filename: lmon0.dat
# format: McStas with text headers
# statistics: X0=1.42861; dX=0.27097;
# signal: Min=0; Max=8.4831e+12; Mean=2.51867e+12;
# values: 2.51867e+14 3.63346e+11 482732
# xvar: L
# yvar: (I,I_err)
# xlabel: Wavelength [AA]
# ylabel: Intensity
# xlimits: 0 2
# variables: L I I_err N
# Data [lmon0_dat/lmon0.dat] I: 
0.01 0 0 0 
0.03 0 0 0 
0.05 0 0 0 
0.07 0 0 0 
0.09 0 0 0 
0.11 0 0 0 
0.13 0 0 0 
0.15 0 0 0 
0.17 0 0 0 
0.19 0 0 0 
0.21 0 0 0 
0.23 0 0 0 
0.25 0 0 0 
0.27 0 0 0 
0.29 0 0 0 
0.31 0 0 0 
0.33 0 0 0 
0.35 0 0 0 
0.37 0 0 0 
0.39 0 0 0 
0.41 0 0 0 
0.43 0 0 0 
0.45 0 0 0 
0.47 0 0 0 
0.49 0 0 0 
0.51 0 0 0 
0.53 0 0 0 
0.55 0 0 0 
0.57 0 0 0 
0.59 0 0 0 
0.61 0 0 0 
0.63 0 0 0 
0.65 0 0 0 
0.67 0 0 0 
0.69 0 0 0 
0.71 0 0 0 
0.73 0 0 0 
0.75 0 0 0 
0.77 0 0 0 
0.79 0 0 0 
0.81 0 0 0 
0.83 0 0 0 
0.85 0 0 0 
0.87 0 0 0 
0.89 0 0 0 
0.91 0 0 0 
0.93 0 0 0 
0.95 0 0 0 
0.97 0 0 0 
0.99 0 0 0 
1.01 0 0 0 
1.03 2.94800809414e+12 36183696532.5 6638 
1.05 8.48310362535e+12 61865248277.3 18803 
1.07 8.23318801739e+12 61469785011.5 17940 
1.09 8.07833883936e+12 61372978639.7 17326 
1.11 7.85961018621e+12 60988231764.3 16608 
1.13 7.73188237916e+12 60913532226.9 16112 
1.15 7.5467471122e+12 60570447153.8 15524 
1.17 7.41206651289e+12 60388927274.7 15065 
1.19 7.30452357198e+12 60290068592.5 14679 
1.21 7.050408291e+12 59426237766.7 14076 
1.23 6.95468413343e+12 59354565312.2 13730 
1.25 6.75997017122e+12 58858243186.4 13191 
1.27 6.51388871994e+12 58021284814.4 12604 
1.29 6.42862709285e+12 57866406286.7 12342 
1.31 6.33278253668e+12 57644758932.3 12069 
1.33 6.22960225979e+12 57367688299.3 11792 
1.35 5.97844222184e+12 56372893801.3 11247 
1.37 5.88086331907e+12 56074452768.7 10999 
1.39 5.77931211683e+12 55735511344.9 10752 
1.41 5.59443906442e+12 54969143814.1 10358 
1.43 5.32111227548e+12 53726728417.3 9809 
1.45 5.34398717843e+12 53952182553.6 9811 
1.47 5.12983478108e+12 52958144367.4 9383 
1.49 5.12524063769e+12 53021012192.1 9344 
1.51 5.04477366784e+12 52681382430.9 9170 
1.53 4.87000560328e+12 51829118303.1 8829 
1.55 4.63749634282e+12 50638443564.8 8387 
1.57 4.64934530178e+12 50752696759.2 8392 
1.59 4.56771457462e+12 50349955699.5 8230 
1.61 4.52350185797e+12 50143652660.6 8138 
1.63 4.2013530335e+12 48355345010.4 7549 
1.65 4.22656855456e+12 48526784984.7 7586 
1.67 4.09382588187e+12 47777363962.5 7342 
1.69 4.10575936694e+12 47861256203 7359 
1.71 3.91254606838e+12 46730503240.9 7010 
1.73 3.87073773916e+12 46483821914.7 6934 
1.75 3.77932878696e+12 45932527323.8 6770 
1.77 3.64170646744e+12 45083194370.2 6525 
1.79 3.68701233167e+12 45356504336.1 6608 
1.81 3.51281742087e+12 44260853208.4 6299 
1.83 3.50987635863e+12 44227307271.6 6298 
1.85 3.35722916956e+12 43237279633.8 6029 
1.87 3.35988885543e+12 43232112964.8 6040 
1.89 3.23337905514e+12 42386979310.5 5819 
1.91 3.17617539407e+12 41984852405.3 5723 
1.93 3.03687051563e+12 41027557194.3 5479 
1.95 2.9720326091e+12 40557060576.8 5370 
1.97 2.94275482557e+12 40323066599.3 5326 
1.99 2.93329262019e+12 40223631371.9 5318 
# EndDate:Wed Jan 23 15:11:48 2013
