# Format: McStas with text headers file. Use mcplot/PGPLOT to view.
# URL:    http://www.mccode.org/
# Editor: erkn on localhost
# Creator:Test_src_gaussian (Test_src_gaussian.instr) simulation (McXtrace x.y.z - Jan. 22, 2013)
# Date:   Simulation started (1360080740) Tue Feb  5 17:12:20 2013
# File:   lmon0.dat
# Ncount: 1e+06
# Trace: no
# Gravitation: no
# Seed: 1360080734
# Param: XW=0
# Param: YH=0
# Param: DIST=10
# Param: SRC=3
# Param: E0=9.7
# type: array_1d(100)
# Source: Test_src_gaussian.instr
# component: lmon0
# position: 0 0 0.101
# title: Wavelength monitor
# Ncount: 1e+06
# filename: lmon0.dat
# format: McStas with text headers
# statistics: X0=1.38441; dX=0.0162387;
# signal: Min=0; Max=7.95441e+18; Mean=1.48706e+17;
# values: 1.48706e+19 5.41737e+16 999999
# xvar: L
# yvar: (I,I_err)
# xlabel: Wavelength [AA]
# ylabel: Intensity
# xlimits: 0 2
# variables: L I I_err N
# Data [lmon0_dat/lmon0.dat] I: 
0.01 0 0 0 
0.03 0 0 0 
0.05 0 0 0 
0.07 0 0 0 
0.09 0 0 0 
0.11 0 0 0 
0.13 0 0 0 
0.15 0 0 0 
0.17 0 0 0 
0.19 0 0 0 
0.21 0 0 0 
0.23 0 0 0 
0.25 0 0 0 
0.27 0 0 0 
0.29 0 0 0 
0.31 0 0 0 
0.33 0 0 0 
0.35 0 0 0 
0.37 0 0 0 
0.39 0 0 0 
0.41 0 0 0 
0.43 0 0 0 
0.45 0 0 0 
0.47 0 0 0 
0.49 0 0 0 
0.51 0 0 0 
0.53 0 0 0 
0.55 0 0 0 
0.57 0 0 0 
0.59 0 0 0 
0.61 0 0 0 
0.63 0 0 0 
0.65 0 0 0 
0.67 0 0 0 
0.69 0 0 0 
0.71 0 0 0 
0.73 0 0 0 
0.75 0 0 0 
0.77 0 0 0 
0.79 0 0 0 
0.81 0 0 0 
0.83 0 0 0 
0.85 0 0 0 
0.87 0 0 0 
0.89 0 0 0 
0.91 0 0 0 
0.93 0 0 0 
0.95 0 0 0 
0.97 0 0 0 
0.99 0 0 0 
1.01 0 0 0 
1.03 0 0 0 
1.05 0 0 0 
1.07 0 0 0 
1.09 0 0 0 
1.11 0 0 0 
1.13 0 0 0 
1.15 0 0 0 
1.17 0 0 0 
1.19 0 0 0 
1.21 0 0 0 
1.23 1.93373125106e+13 751566085879 662 
1.25 2.58656695988e+15 9.18774393922e+12 79570 
1.27 3.24129936356e+15 1.17492993759e+13 76702 
1.29 4.53774153778e+15 1.67654330386e+13 74358 
1.31 7.22192003802e+15 2.71853515533e+13 72422 
1.33 1.42329212381e+16 5.56195374097e+13 69755 
1.35 4.27345301351e+16 1.78762697231e+14 68326 
1.37 5.67160188739e+18 3.81680919538e+16 65985 
1.39 7.95441338234e+18 3.82084930972e+16 63896 
1.41 9.41922771057e+17 4.20555483876e+15 62384 
1.43 1.24980000808e+17 6.01571035064e+14 60907 
1.45 1.55850697579e+16 6.50237460722e+13 58973 
1.47 1.84477964744e+16 7.79297939039e+13 57229 
1.49 2.32260134187e+16 9.8433656945e+13 55730 
1.51 2.18401738469e+16 9.38831216674e+13 54196 
1.53 1.73610135708e+16 7.54267251217e+13 53301 
1.55 6.63994287365e+15 4.15457501042e+13 25603 
1.57 0 0 0 
1.59 0 0 0 
1.61 0 0 0 
1.63 0 0 0 
1.65 0 0 0 
1.67 0 0 0 
1.69 0 0 0 
1.71 0 0 0 
1.73 0 0 0 
1.75 0 0 0 
1.77 0 0 0 
1.79 0 0 0 
1.81 0 0 0 
1.83 0 0 0 
1.85 0 0 0 
1.87 0 0 0 
1.89 0 0 0 
1.91 0 0 0 
1.93 0 0 0 
1.95 0 0 0 
1.97 0 0 0 
1.99 0 0 0 
# EndDate:Tue Feb  5 17:12:20 2013
