# Format: McStas with text headers file. Use mcplot/PGPLOT to view.
# URL:    http://www.mccode.org/
# Editor: erkn on localhost
# Creator:Test_src_gaussian (Test_src_gaussian.instr) simulation (McXtrace x.y.z - Jan. 22, 2013)
# Date:   Simulation started (1359026594) Thu Jan 24 12:23:14 2013
# File:   emon1.dat
# Ncount: 1e+06
# Trace: no
# Gravitation: no
# Seed: 1359026582
# Param: XW=0
# Param: YH=0
# Param: DIST=10
# Param: SRC=2
# Param: E0=4.7
# type: array_1d(100)
# Source: Test_src_gaussian.instr
# component: emon1
# position: 0 0 9.997
# title: Energy monitor
# Ncount: 1e+06
# filename: emon1.dat
# format: McStas with text headers
# statistics: X0=6.90037; dX=2.93963;
# signal: Min=0; Max=9.36835e+14; Mean=4.30563e+14;
# values: 4.30563e+16 4.56777e+13 1e+06
# xvar: E
# yvar: (I,I_err)
# xlabel: Energy [keV]
# ylabel: Intensity
# xlimits: 0 20
# variables: E I I_err N
# Data [emon1_dat/emon1.dat] I: 
0.1 1.60524216907e+13 147014797050 16546 
0.3 5.55622707645e+13 440127317554 16722 
0.5 9.89323511513e+13 775734339704 16546 
0.7 1.45379240049e+14 1.13271388313e+12 16614 
0.9 1.93540925966e+14 1.49971023531e+12 16737 
1.1 2.4396247672e+14 1.87759480786e+12 16937 
1.3 2.85719701006e+14 2.22017687747e+12 16598 
1.5 3.30955524864e+14 2.57211258829e+12 16582 
1.7 3.81379615406e+14 2.94103852642e+12 16835 
1.9 4.21879813368e+14 3.26641576479e+12 16696 
2.1 4.60730928975e+14 3.57853208512e+12 16587 
2.3 5.03682348023e+14 3.89999684571e+12 16688 
2.5 5.42974424426e+14 4.20149288483e+12 16708 
2.7 5.75422634505e+14 4.46832925621e+12 16589 
2.9 6.17425101239e+14 4.7658372904e+12 16788 
3.1 6.46118166681e+14 5.00345518175e+12 16679 
3.3 6.81985252479e+14 5.26174117616e+12 16802 
3.5 7.1213772411e+14 5.49021133193e+12 16827 
3.7 7.37139898805e+14 5.69016704222e+12 16784 
3.9 7.56466802189e+14 5.86134121877e+12 16658 
4.1 7.80609379415e+14 6.04399753306e+12 16682 
4.3 7.91334877889e+14 6.16743001404e+12 16464 
4.5 8.16540211082e+14 6.3401971465e+12 16587 
4.7 8.40323846876e+14 6.50019855923e+12 16713 
4.9 8.50718420183e+14 6.60135064778e+12 16608 
5.1 8.84201634132e+14 6.78537683394e+12 16981 
5.3 8.82321008075e+14 6.82704168632e+12 16703 
5.5 8.94340613583e+14 6.91610029452e+12 16722 
5.7 9.00814985511e+14 6.97805925795e+12 16665 
5.9 9.12995446771e+14 7.05675678039e+12 16739 
6.1 9.21225269605e+14 7.11504372921e+12 16764 
6.3 9.19379822054e+14 7.12784020922e+12 16637 
6.5 9.35435313444e+14 7.2056870426e+12 16853 
6.7 9.19045619539e+14 7.1534619141e+12 16506 
6.9 9.19713654527e+14 7.16278381854e+12 16487 
7.1 9.26081892886e+14 7.18995548452e+12 16590 
7.3 9.36834902571e+14 7.23020587181e+12 16789 
7.5 9.35991114105e+14 7.22175931254e+12 16798 
7.7 9.24098800348e+14 7.16700535858e+12 16625 
7.9 9.22287651768e+14 7.14801745669e+12 16648 
8.1 9.25047208265e+14 7.14349482253e+12 16769 
8.3 9.17477333682e+14 7.0960507195e+12 16717 
8.5 9.1581404015e+14 7.06861649725e+12 16786 
8.7 9.03920353522e+14 6.99895233892e+12 16680 
8.9 8.84997164033e+14 6.89975474206e+12 16452 
9.1 8.96260219705e+14 6.91502480078e+12 16799 
9.3 8.73657315346e+14 6.7971128675e+12 16521 
9.5 8.62849088144e+14 6.72280127804e+12 16473 
9.7 8.61043204935e+14 6.68201431604e+12 16605 
9.9 8.48212066081e+14 6.59656238909e+12 16534 
10.1 8.46809013204e+14 6.54343226017e+12 16749 
10.3 8.35581558431e+14 6.46518080082e+12 16704 
10.5 8.21569560822e+14 6.37800370731e+12 16593 
10.7 8.13628735043e+14 6.30629749832e+12 16646 
10.9 7.9649031342e+14 6.19790025159e+12 16515 
11.1 7.84897448016e+14 6.11009990654e+12 16502 
11.3 7.818498525e+14 6.05454193749e+12 16676 
11.5 7.63991232654e+14 5.94106220507e+12 16537 
11.7 7.59905829083e+14 5.88038743784e+12 16700 
11.9 7.40604337285e+14 5.75561093049e+12 16558 
12.1 0 0 0 
12.3 0 0 0 
12.5 0 0 0 
12.7 0 0 0 
12.9 0 0 0 
13.1 0 0 0 
13.3 0 0 0 
13.5 0 0 0 
13.7 0 0 0 
13.9 0 0 0 
14.1 0 0 0 
14.3 0 0 0 
14.5 0 0 0 
14.7 0 0 0 
14.9 0 0 0 
15.1 0 0 0 
15.3 0 0 0 
15.5 0 0 0 
15.7 0 0 0 
15.9 0 0 0 
16.1 0 0 0 
16.3 0 0 0 
16.5 0 0 0 
16.7 0 0 0 
16.9 0 0 0 
17.1 0 0 0 
17.3 0 0 0 
17.5 0 0 0 
17.7 0 0 0 
17.9 0 0 0 
18.1 0 0 0 
18.3 0 0 0 
18.5 0 0 0 
18.7 0 0 0 
18.9 0 0 0 
19.1 0 0 0 
19.3 0 0 0 
19.5 0 0 0 
19.7 0 0 0 
19.9 0 0 0 
# EndDate:Thu Jan 24 12:23:14 2013
