# Format: McStas with text headers file. Use mcplot/PGPLOT to view.
# URL:    http://www.mccode.org/
# Editor: erkn on localhost
# Creator:Test_src_gaussian (Test_src_gaussian.instr) simulation (McXtrace x.y.z - Jan. 22, 2013)
# Date:   Simulation started (1358950156) Wed Jan 23 15:09:16 2013
# File:   psd1.dat
# Ncount: 250000
# Trace: no
# Gravitation: no
# Seed: 1358950151
# Param: XW=0.01
# Param: YH=0.01
# Param: DIST=10
# Param: SRC=2
# Param: E0=4.53729
# type: array_2d(90, 90)
# Source: Test_src_gaussian.instr
# component: psd1
# position: 0 0 9.999
# title: PSD monitor
# Ncount: 250000
# filename: psd1.dat
# format: McStas with text headers
# statistics: X0=-4.76415e-06; dX=0.0100622; Y0=4.17775e-06; dY=0.00503557;
# signal: Min=0; Max=1.69094e+12; Mean=5.31721e+10;
# values: 4.30694e+14 4.56859e+11 1e+06
# xvar: X 
# yvar: Y 
# xlabel: X position [m]
# ylabel: Y position [m]
# zvar: I
# zlabel: Signal per bin
# xylimits: -0.05 0.05 -0.05 0.05
# variables: I I_err N
# Data [psd1_dat/psd1.dat] I: 
0 0 0 0 0 0 0 0 0 0 0 0 0 0 0 0 0 0 0 0 0 0 0 0 0 0 0 0 0 0 0 0 0 0 0 0 0 0 0 0 0 0 0 0 0 0 0 0 0 0 0 0 0 0 0 0 0 0 0 0 0 0 0 0 0 0 0 0 0 0 0 0 0 0 0 0 0 0 0 0 0 0 0 0 0 0 0 0 0 0 
0 0 0 0 0 0 0 0 0 0 0 0 0 0 0 0 0 0 0 0 0 0 0 0 0 0 0 0 0 0 0 0 0 0 0 0 0 0 0 0 0 0 0 0 0 0 0 0 0 0 0 0 0 0 0 0 0 0 0 0 0 0 0 0 0 0 0 0 0 0 0 0 0 0 0 0 0 0 0 0 0 0 0 0 0 0 0 0 0 0 
0 0 0 0 0 0 0 0 0 0 0 0 0 0 0 0 0 0 0 0 0 0 0 0 0 0 0 0 0 0 0 0 0 0 0 0 0 0 0 0 0 0 0 0 0 0 0 0 0 0 0 0 0 0 0 0 0 0 0 0 0 0 0 0 0 0 0 0 0 0 0 0 0 0 0 0 0 0 0 0 0 0 0 0 0 0 0 0 0 0 
0 0 0 0 0 0 0 0 0 0 0 0 0 0 0 0 0 0 0 0 0 0 0 0 0 0 0 0 0 0 0 0 0 0 0 0 0 0 0 0 0 0 0 0 0 0 0 0 0 0 0 0 0 0 0 0 0 0 0 0 0 0 0 0 0 0 0 0 0 0 0 0 0 0 0 0 0 0 0 0 0 0 0 0 0 0 0 0 0 0 
0 0 0 0 0 0 0 0 0 0 0 0 0 0 0 0 0 0 0 0 0 0 0 0 0 0 0 0 0 0 0 0 0 0 0 0 0 0 0 0 0 0 0 0 0 0 0 0 0 0 0 0 0 0 0 0 0 0 0 0 0 0 0 0 0 0 0 0 0 0 0 0 0 0 0 0 0 0 0 0 0 0 0 0 0 0 0 0 0 0 
0 0 0 0 0 0 0 0 0 0 0 0 0 0 0 0 0 0 0 0 0 0 0 0 0 0 0 0 0 0 0 0 0 0 0 0 0 0 0 0 0 0 0 0 0 0 0 0 0 0 0 0 0 0 0 0 0 0 0 0 0 0 0 0 0 0 0 0 0 0 0 0 0 0 0 0 0 0 0 0 0 0 0 0 0 0 0 0 0 0 
0 0 0 0 0 0 0 0 0 0 0 0 0 0 0 0 0 0 0 0 0 0 0 0 0 0 0 0 0 0 0 0 0 0 0 0 0 0 0 0 0 0 0 0 0 0 0 0 0 0 0 0 0 0 0 0 0 0 0 0 0 0 0 0 0 0 0 0 0 0 0 0 0 0 0 0 0 0 0 0 0 0 0 0 0 0 0 0 0 0 
0 0 0 0 0 0 0 0 0 0 0 0 0 0 0 0 0 0 0 0 0 0 0 0 0 0 0 0 0 0 0 0 0 0 0 0 0 0 0 0 0 0 0 0 0 0 0 0 0 0 0 0 0 0 0 0 0 0 0 0 0 0 0 0 0 0 0 0 0 0 0 0 0 0 0 0 0 0 0 0 0 0 0 0 0 0 0 0 0 0 
0 0 0 0 0 0 0 0 0 0 0 0 0 0 0 0 0 0 0 0 0 0 0 0 0 0 0 0 0 0 0 0 0 0 0 0 0 0 0 0 0 0 0 0 0 0 0 0 0 0 0 0 0 0 0 0 0 0 0 0 0 0 0 0 0 0 0 0 0 0 0 0 0 0 0 0 0 0 0 0 0 0 0 0 0 0 0 0 0 0 
0 0 0 0 0 0 0 0 0 0 0 0 0 0 0 0 0 0 0 0 0 0 0 0 0 0 0 0 0 0 0 0 0 0 0 0 0 0 0 0 0 0 0 0 0 0 0 0 0 0 0 0 0 0 0 0 0 0 0 0 0 0 0 0 0 0 0 0 0 0 0 0 0 0 0 0 0 0 0 0 0 0 0 0 0 0 0 0 0 0 
0 0 0 0 0 0 0 0 0 0 0 0 0 0 0 0 0 0 0 0 0 0 0 0 0 0 0 0 0 0 0 0 0 0 0 0 0 0 0 0 0 0 0 0 0 0 0 0 0 0 0 0 0 0 0 0 0 0 0 0 0 0 0 0 0 0 0 0 0 0 0 0 0 0 0 0 0 0 0 0 0 0 0 0 0 0 0 0 0 0 
0 0 0 0 0 0 0 0 0 0 0 0 0 0 0 0 0 0 0 0 0 0 0 0 0 0 0 0 0 0 0 0 0 0 0 0 0 0 0 0 0 0 0 0 0 0 0 0 0 0 0 0 0 0 0 0 0 0 0 0 0 0 0 0 0 0 0 0 0 0 0 0 0 0 0 0 0 0 0 0 0 0 0 0 0 0 0 0 0 0 
0 0 0 0 0 0 0 0 0 0 0 0 0 0 0 0 0 0 0 0 0 0 0 0 0 0 0 0 0 0 0 0 0 0 0 0 0 0 0 0 0 0 0 0 0 0 0 0 0 0 0 0 0 0 0 0 0 0 0 0 0 0 0 0 0 0 0 0 0 0 0 0 0 0 0 0 0 0 0 0 0 0 0 0 0 0 0 0 0 0 
0 0 0 0 0 0 0 0 0 0 0 0 0 0 0 0 0 0 0 0 0 0 0 0 0 0 0 0 0 0 0 0 0 0 0 0 0 0 0 0 0 0 0 0 0 0 0 0 0 0 0 0 0 0 0 0 0 0 0 0 0 0 0 0 0 0 0 0 0 0 0 0 0 0 0 0 0 0 0 0 0 0 0 0 0 0 0 0 0 0 
0 0 0 0 0 0 0 0 0 0 0 0 0 0 0 0 0 0 0 0 0 0 0 0 0 0 0 0 0 0 0 0 0 0 0 0 0 0 0 0 0 0 0 0 0 0 0 0 0 0 0 0 0 0 0 0 0 0 0 0 0 0 0 0 0 0 0 0 0 0 0 0 0 0 0 0 0 0 0 0 0 0 0 0 0 0 0 0 0 0 
0 0 0 0 0 0 0 0 0 0 0 0 0 0 0 0 0 0 0 0 0 0 0 0 0 0 0 0 0 0 0 0 0 0 0 0 0 0 0 0 0 0 0 0 0 0 0 0 0 0 0 0 0 0 0 0 0 0 0 0 0 0 0 0 0 0 0 0 0 0 0 0 0 0 0 0 0 0 0 0 0 0 0 0 0 0 0 0 0 0 
0 0 0 0 0 0 0 0 0 0 0 0 0 0 0 0 0 0 0 0 0 0 0 0 0 0 0 0 0 0 0 0 0 0 0 0 0 0 0 0 0 0 0 0 0 0 0 0 0 0 0 0 0 0 0 0 0 0 0 0 0 0 0 0 0 0 0 0 0 0 0 0 0 0 0 0 0 0 0 0 0 0 0 0 0 0 0 0 0 0 
0 0 0 0 0 0 0 0 0 0 0 0 0 0 0 0 0 0 0 0 0 0 0 0 0 0 0 0 0 0 0 0 0 0 0 0 0 0 0 0 0 0 0 0 0 0 0 0 0 0 0 0 0 0 0 0 0 0 0 0 0 0 0 0 0 0 0 0 0 0 0 0 0 0 0 0 0 0 0 0 0 0 0 0 0 0 0 0 0 0 
0 0 0 0 0 0 0 0 0 0 0 0 0 0 0 0 0 0 0 0 0 0 0 0 0 0 0 0 0 0 0 0 0 0 0 0 0 0 0 0 0 0 0 0 0 0 0 0 0 0 0 0 0 0 0 0 0 0 0 0 0 0 0 0 0 0 0 0 0 0 0 0 0 0 0 0 0 0 0 0 0 0 0 0 0 0 0 0 0 0 
0 0 0 0 0 0 0 0 0 0 0 0 0 0 0 0 0 0 0 0 0 0 0 0 0 0 0 0 0 0 0 0 0 0 0 0 0 0 0 0 0 0 0 0 0 0 0 0 0 0 0 0 0 0 0 0 0 0 0 0 0 0 0 0 0 0 0 0 0 0 0 0 0 0 0 0 0 0 0 0 0 0 0 0 0 0 0 0 0 0 
0 0 0 0 0 0 0 0 0 0 0 0 0 0 0 0 0 0 0 0 0 0 0 0 0 0 0 0 0 0 0 0 0 0 0 0 0 0 0 0 0 0 0 0 0 0 0 0 0 0 0 0 0 0 0 0 0 0 0 0 0 0 0 0 0 0 0 0 0 0 0 0 0 0 0 0 0 0 0 0 0 0 0 0 0 0 0 0 0 0 
0 0 0 0 0 0 0 0 0 0 0 0 0 0 0 0 0 0 0 0 0 0 0 0 0 0 0 0 0 0 0 0 0 0 0 0 0 0 0 0 0 0 0 0 0 0 0 0 0 0 0 0 0 0 0 0 0 0 0 0 0 0 0 0 0 0 0 0 0 0 0 0 0 0 0 0 0 0 0 0 0 0 0 0 0 0 0 0 0 0 
0 0 0 0 0 0 0 0 0 0 0 0 0 0 0 0 0 0 0 0 0 0 0 0 0 0 0 0 0 0 0 489050993.206 0 0 0 0 0 0 0 0 0 0 0 0 0 0 0 0 0 0 0 0 0 0 0 0 0 0 0 0 0 0 0 0 0 0 0 0 0 0 0 0 0 0 0 0 0 0 0 0 0 0 0 0 0 0 0 0 0 0 
0 0 0 0 0 0 0 0 0 0 0 0 0 0 0 0 0 0 0 0 0 0 0 0 0 0 0 0 0 0 0 0 0 0 0 0 0 0 0 0 0 0 0 0 0 0 0 0 0 0 0 0 0 0 0 0 0 0 0 0 0 0 0 0 0 0 0 0 0 0 0 0 0 0 0 0 0 0 0 0 0 0 0 0 0 0 0 0 0 0 
0 0 0 0 0 0 0 0 0 0 0 0 0 0 0 0 0 0 0 0 0 0 0 0 0 0 0 0 0 0 0 0 0 429103164.631 0 0 0 0 0 0 0 657205362.219 0 0 346748883.421 0 0 0 0 232701203.587 0 0 0 0 0 0 0 0 0 0 0 0 0 0 0 0 0 0 0 0 0 0 0 0 0 0 0 0 0 0 0 0 0 0 0 0 0 0 0 0 
0 0 0 0 0 0 0 0 0 0 0 0 0 0 0 0 0 0 0 0 0 0 0 0 0 0 0 541555173.397 0 0 0 0 466573670.235 0 0 0 0 0 470326772.62 0 0 0 0 374862438.501 0 0 0 547328545.763 0 0 0 0 499909645.308 0 0 0 0 0 0 0 0 558285458.1 0 0 0 0 0 0 0 0 0 0 0 0 0 0 0 0 0 0 0 0 0 0 0 0 0 0 0 0 
0 0 0 0 0 0 0 0 0 0 0 0 0 0 0 0 0 0 0 0 0 0 0 0 0 0 0 0 0 0 471092464.709 0 0 0 550718868.57 0 0 0 0 796822810.459 556964010.946 102190321.073 0 0 0 0 326638525.896 535097720.592 473456826.586 460418467.977 1033821611.78 0 0 558295775.17 0 0 21744680.4836 0 0 0 0 0 0 0 0 0 0 0 0 0 0 0 0 0 0 0 0 0 0 0 0 0 0 0 0 0 0 0 0 0 
0 0 0 0 0 0 0 0 0 0 0 0 0 0 0 0 0 0 0 0 0 0 0 0 0 0 0 0 0 0 0 163355882.058 0 1023686928.9 0 0 1060704055.72 1601684426.73 0 0 1145613008.39 0 1042032517.87 854634247.836 458244041.151 2218394040.56 555695157.32 1048640554.39 533687712.674 498897611.065 1076926386.36 1026535930.72 1108178972.51 530602900.611 0 535319438.585 497059904.076 528177348.783 1404335545.48 0 0 558234319.045 538424181.83 558200000 0 1056340967.08 0 0 0 0 0 0 0 0 0 0 0 0 0 0 0 0 0 0 0 0 0 0 0 0 
0 0 0 0 0 0 0 0 0 0 0 0 0 0 0 0 0 0 0 0 0 0 0 0 457661100.192 158953124.59 402382143.53 15415586.5591 181332037.035 0 0 1012633675.51 496073875.231 1648520875.87 751024556.47 1320753131.5 1970437858.13 160686979.301 1504352427.93 1469504015.16 1959171461.05 1418521012.23 493747379.55 2062959404.97 2896597521.3 1809778822.16 1103408860.47 1599731467.21 3494877559.83 3171691448.77 2969243542.93 848468920.731 1423309425.81 1049554400.72 2191346577.6 990340816.641 1564555207.69 2100197954.35 0 0 0 0 487076723.603 163428048.539 0 0 0 1000856574.68 0 0 0 0 0 0 0 0 0 0 0 0 0 0 0 0 0 0 0 0 0 0 
0 0 0 0 0 0 0 0 0 0 0 0 0 0 0 0 0 0 0 0 993970278.131 872123548.403 0 0 800003738.378 0 0 2199218323.01 456161212.645 557037817.941 494517221.935 1047601448.28 1480497356.22 2864363965.33 1657830519.35 2978359765.17 1393139382.28 2512570234.85 3109493649.96 3457168063.02 3596943349.05 5633443317.5 4315660851.19 4553397612.35 3266868370.88 6480242701.42 5039871541.16 6158976194.28 7650556158.94 3453654804.83 3966857734.55 3744322494.41 1927668745.85 3126656556.32 2242983339.27 4083379966.85 0 973474241.926 0 1554163301.17 839594424.051 546856297.319 0 0 0 526989559.267 1759043977.2 545536944.219 0 0 0 0 0 0 0 0 0 0 0 0 0 0 0 0 0 0 0 0 0 0 
0 0 0 0 0 0 0 0 0 0 0 0 0 0 0 0 0 0 0 382311284.562 0 539523840.1 1057489627.92 489867359.05 549339739.489 2018409724.94 530820409.055 1425487838.43 1683277121.1 1064324204.99 4325305982.3 2855361305.34 5667764289.82 3476314625.02 6497944173.79 3552320343.38 6191687851.39 5382710961.44 9602519126.57 6777845940.8 8689998023.39 11063347172.1 11415980407.5 9756287000.01 13110739151.7 8727491583.91 8918557040.6 5659231099.18 9308982547.26 7243141448.68 10406315497.3 8732327443.73 3927952069.69 10623506080.3 4486628331.11 1603953164.14 3251848778.91 6185847585.88 4906743739.38 2706935866.39 2634039763.03 1792677719.63 951447706.401 1066248329.05 374141732.863 558050349.406 262010647.858 0 548816594.011 0 0 116379274.793 0 58853485.4338 0 0 553869504.562 0 0 0 0 499563785.537 0 0 0 0 0 0 0 0 
0 0 0 0 0 0 0 0 0 0 0 0 0 0 0 0 0 0 1132346765.9 484566884.889 500922046.218 0 557892122.716 828183215.968 1503660802.97 486955530.293 3454785452.68 4686689264.75 2935605760.36 5823921314.82 8384054148.22 5752503432.58 5801195771.71 6331250372.08 9678453756.08 8939003471.81 13457013427 18408358353 16181933634.9 10886545581.7 23669821654.2 20787076701.3 16425672877.1 19974347494.3 17995492745.2 17678998016.8 15922659716.5 17260977123.9 16052583157.3 16195324928.4 12033188186.9 16607326395.6 14412118360.4 8201951539.65 9331122472.54 11454703040.8 10264807722.8 7271308975.25 3264754693.17 6989366332.76 5573497687.18 5069453008.02 5032940568.98 4625686058.12 1915342052.87 2309128872.43 1605839058.09 457202611.866 925128496.079 1168743559.6 0 0 518385745.81 0 532298952.644 0 0 0 0 0 0 0 0 0 0 0 0 0 0 0 
0 0 0 0 0 0 0 0 0 527119653.771 0 465516522.383 0 362522307.806 0 0 0 313516733.243 316356051.351 495666032.783 1603457704.86 1024090086.35 588117394.119 1627784303.12 4195113393.13 3149841295.69 5648767862.7 8604763417.97 9503720214.98 7505495394.96 9420218836.96 9951616787.08 13930813815.2 17420555497.8 23687053465.1 23570565757.8 21543164309.5 28847206752.6 27556874555.4 31458943093.5 33583394654.2 28094721892 36553805065.4 34277460920.6 35149002687.3 34655564213.3 39946438028.7 35182488615.2 28715762353.3 30420601267.4 32194250634.4 27689059529.6 29744235887.5 22973435100.8 21983025448.6 12775872538.2 20685851544.2 12001485893 10556354707.3 7713910382.1 9368929090.99 6594720198.01 5612149831.58 2957818002.5 5871653531.86 2675110585.78 1381433875.91 1295923528.68 517547416.058 323633607.093 1685067166.25 1562401482.8 0 0 0 0 946095477.7 0 0 0 0 0 0 0 0 0 0 0 0 0 
0 0 0 0 0 0 0 0 0 0 0 0 536337179.753 0 0 1017714623.43 525547515.598 563595998.578 1224595918.38 1454925254.86 4192778232.32 1498879538.82 1522130017.48 2918466885.31 4526849360.64 7013687233.3 7973348890.77 8274300034.54 13284009310.8 19033388394.2 17875099299.5 16496960146.1 23139762375.7 29293852489.2 42913702814.2 40344633761.3 45739260711.7 48677289110.7 52373317852.7 58371214367.5 62647069177.5 60921394286.1 58222109986.4 65710774610.1 64698021091.7 70939154167.1 67207718639.7 55571519378.4 58877348179.1 57320581672.2 58817831430.9 54222846701.5 46791539413.6 36280781123.6 45406371496.1 27312137489.3 29899886620.2 27717678313.2 23064000619.8 20443654961.5 17767425975.6 11269938806.2 8764421212 10327285696.3 3972631602.33 2682828480.43 2881361590.4 3600064270.54 3727538020.36 2136806041.97 2672942411.66 1087435580.46 553620215.771 395456117.175 721492286.883 482554264.448 0 0 0 0 0 0 0 0 0 0 0 0 0 0 
0 0 0 0 0 0 0 0 0 0 0 0 0 997442143.287 0 1053055143.72 442488324.227 1611891564.84 2411415242.71 3146489902.51 1116484166.66 4010566309.05 6690716557.17 8956520801.05 7752438179.84 12793757430.2 13889404816.4 20736946738.9 19848527904.6 26654983030.7 34119414757.8 35243917078.6 45563642710 57998933348.5 65752490718.3 70554080466.9 81240512606 85024539922.4 80125107972.3 91151736800.4 102716456471 106161505369 111690286636 114032003332 105410081553 120142613179 122324371120 101021298579 107455173291 99882964175.1 105516012012 78342496466.5 66424928025.5 73327480248.7 74010644505.2 49035361914.1 41852313425.6 32714739185 40705848319.1 33908801817 24448911487.7 17562764748.7 14222190552.6 12219049996.6 15532646804 8766089646.48 7571011048.45 2994284343.67 2496891740.1 3328298461.57 4221662858.42 1497716829.18 1135100084.83 507583955.735 0 472555566.296 0 974983391.879 0 0 0 0 0 0 0 0 0 0 0 0 
0 0 0 0 0 0 0 414016815.659 0 0 0 0 0 201808754.831 488135850.643 1626859984.65 0 1725707741.83 1743407436.15 3171154504.64 5157628970.96 10060782596.6 11080842107.8 12530991526.6 13208881363.9 11443798847.8 20620721361.3 29039508001 39952003552.1 44681422872.4 49026116212.2 61222398054.2 70876682700 81290119637.4 99855457672.4 122972901974 124906036529 126742579233 137408633476 151895101293 158607483773 169580755351 180064632187 181535130527 199763298774 176796468371 182176760675 184521535949 170745865950 177001286196 178811095867 150262158970 126184793854 125027814491 101161169353 101653221898 78300095472.3 67380325347.2 66522846130.7 47570231125.5 36145191680.7 36017034838.2 26250531761.9 25892776630.2 14007517105.8 14938224120.5 10397755952.4 6433199968.9 8513400020.31 5743748838.2 3625456597.4 2045579521.14 61224303.8789 3324503671.73 2022104232.69 2989229758.28 0 0 0 0 0 0 0 0 0 0 0 0 0 0 
0 0 0 0 0 0 0 0 0 0 459336957.969 0 0 553902353.329 537535375.274 3694121344.28 798378268.776 2783230273.34 6672737887.67 8465520116.65 7540354385.15 5572540847.42 12567427526.3 19203984324 20878570215.2 26548580381.9 28648188279.1 44032517135.4 59660514092.7 54296355111.7 80497686336.7 97166502882.6 114098907929 122831063409 134859005548 171561001664 183793808181 208416803487 225671729628 260393224647 263485726368 276666263568 292031110378 279767656461 296686389301 284428641035 269375257009 273090969807 282152831861 270960286003 232165968321 223055327503 216067228027 168271359801 176420945717 160047100067 119345471530 101266248741 95101194235.1 83649807326.8 63835948239.8 49980941580.4 43984911592.9 32363635441.7 27188557462.2 25189220415.3 17382234909.8 11722324867.6 10792679394.2 5676300904.89 4700340510.76 2693345947.88 1538847866.87 1382252644.59 555438614.979 0 534941803.216 818159878.464 0 0 0 0 0 0 0 0 0 0 0 0 
0 0 0 0 0 0 0 0 0 0 0 958596629.243 0 468274304.841 1434796969.18 2785151599.72 5375551698.7 5383290950.49 8053669554.61 10161836839.3 10692568141.8 16309826585.7 17314947579.9 24125650132.2 35674519276.9 37532008365.2 49168648257.9 62755894451.3 82690351408.4 98248827468 112694931097 143926456859 165595292488 193559569709 218606936853 239096364427 266673483451 286829364466 337010437325 350622203444 376131998670 385829150949 389158913881 397793685037 407700719024 435820695834 436764425878 403158352080 378817017358 387631007800 354397147392 324200208760 304482468036 264199831664 243581008381 226001828499 188594571181 168069321476 143103009249 114502597038 112192057641 84975154659.5 65032987377.2 48097672200.2 41926232043.9 35561270038.6 21838683999.1 23979699627.5 16414542842.3 11559428381 8488624642.92 7343086169.14 2083955247.93 1668759547.78 2641950571.14 2693832126.32 599703189.713 1611249486.64 0 1077459943.43 0 0 0 0 815451177.094 0 0 0 0 0 
0 0 0 0 0 0 0 0 972464753.609 517479708.69 1084797914.17 745888267.471 556407226.496 3024327986.42 1633710027.62 3499463271.01 4274267873.54 2805341594.52 6501113938.14 11136815279.7 19956344791.8 19571542269.9 27491140879.5 38664574169.8 44825512842 52014578188.3 66194935894.9 88624503210.4 114069774157 138623383027 158531542939 191359630294 234028321765 266763647175 288348612627 337837958349 379142951334 440054803844 469593898781 502301649339 538306439963 566583460334 576741205730 594446517276 569334638648 594164502552 588047744211 544937209202 570538748553 504407159151 499459324705 458381340670 416759255724 379229183475 367122901670 305887769064 263063818931 226631492622 191275835804 163505889384 142559859088 111012456209 103003729108 61041180283.4 67171058399.9 43289286958.3 34842885135.8 29336608096.3 16125184330 11888220107.2 8962928458.23 13070165846.3 5404736103.35 6141653832.24 2124588018.25 2658206309.27 0 707255069.615 988595054.215 1039534194.33 0 0 0 0 0 0 0 0 0 0 
0 0 0 0 0 514715571.231 448639601.348 0 0 0 417043256.271 965125993.797 662213008.055 1033181309.3 2443082502.77 5221222198.44 4668699365.53 8429288577.21 9795319940.96 21818436829.3 19845619631.2 23209364279.4 31714280614.3 53217103808.3 57467351977.4 79791390301.3 98478881564.1 121161458653 155656098414 182712180716 231456069967 235629527485 302007901219 355184808046 372044589924 451861811987 525103676672 531878070267 627417703559 652081364988 678207665514 736789338516 760584902594 809264659340 825179110974 825787298285 832803377955 785674289977 738150050436 720582425328 677144756815 625521997334 584937924282 511076881004 484709804065 390625639108 343011540190 311541100367 248101477754 215559232960 196042647985 142260480526 122012992612 104731651091 73558144521.7 54810341450.3 53590009777 43209571160.4 21069103151.6 18060883258.3 13103062621.3 10425581991.8 11526265168.2 3941119654.49 1443179162.66 3050212415.29 2572145184.58 1082280127.82 1390080812.75 1502679083.67 0 491756314.64 0 549217746.062 0 0 0 0 0 0 
0 0 0 0 0 0 0 0 139452422.124 736971993.758 1037145594.77 1486867011.36 1681171979.31 3595191237.46 6310165353.69 4306005634.94 5674564529.05 10837047400.6 9193452452.48 23212778999.4 26687081728.5 38818991646.4 47631751036.6 58270725429.9 83368092430.6 92433532016.1 129710879574 157890208582 204278801842 243504330105 264846762679 326086774950 413499448117 458959228858 513720870120 576508237433 661763310118 707276796457 800508724330 838786666761 905626883674 940606379797 998730343563 977261599549 1.03829579069e+12 1.0333405639e+12 970314442763 1.04013508047e+12 945070865806 891053818819 813181051638 768268407511 729130112155 631653554431 594003887139 525818000676 452146560330 416423906469 341701177505 302197783364 229023932823 189286188816 156427268814 125970914994 104918295771 76617756645.3 55049178728.8 51049072345.6 26885016423.8 23726254755 14685141981 19301449700.6 11085949872.1 6665311970.05 5491149171.61 1667474798.07 2770853495.74 2548391133.78 1082344841.34 270445435.106 265780220.221 0 0 869600759.835 0 0 0 0 0 0 
0 0 0 0 0 0 0 539447975.891 0 1062532438.75 0 1341213545.37 1860483235.89 3693181478.96 5357259613.29 5292116379.33 12215085181 9363961516.7 16975223814.4 24480602098.9 24898203605.3 43715230728.6 61259516700.1 80106863748.8 87567629118.7 120486265697 161406891694 195033140660 245421357316 288063090351 359345880110 415335261026 450422033518 549579192357 632310983649 721220774298 791227580963 903822989847 970163666968 1.01067527736e+12 1.1194879287e+12 1.172716103e+12 1.15718366412e+12 1.21352618137e+12 1.24455687942e+12 1.22181663778e+12 1.25903402189e+12 1.22433521557e+12 1.13622141924e+12 1.12529742852e+12 996187562516 949200303956 883859776993 782045116014 689679980327 625318567141 555141536105 457044148215 401106889495 364779983390 306785224316 237934425666 194936443571 165348086973 119776948825 93996539570.3 80686475900.3 59299656875.1 48790167115.7 29308886260.5 20868925295.8 17640474380.5 14830395683.5 8233626590.92 5641220040.2 3281928121.11 4191574401.55 1873808824.21 880106922.675 0 0 319782092.951 541546178.83 0 0 0 477828521.116 0 0 0 
0 0 0 0 0 0 273116501.408 490949374.069 0 0 0 1207541994.85 2243363172.69 4489884351.39 5637837810.92 3783875279.31 12386352116.6 18682029679.5 24580214598 23723150426.5 36951697835.4 46722978946.5 74113321349.3 80400688213.6 117737172745 120966131584 170445639643 229230351566 256636754865 349202915702 409046256674 483868953362 579060306744 639993927040 751342373972 796965572710 926390600837 987859494277 1.13120375605e+12 1.18492704431e+12 1.27234859411e+12 1.29229662108e+12 1.38914213097e+12 1.46434593715e+12 1.47051321996e+12 1.4379983989e+12 1.40705975242e+12 1.34998109922e+12 1.30167569617e+12 1.2712234853e+12 1.21255822494e+12 1.10731585191e+12 1.01872003854e+12 889744884993 835594748523 701019459336 654740687623 539020847152 453945612619 365851745939 359399209386 280101072793 206820507924 171857918546 158523492404 107743679486 76797692544.4 71299843665.9 50722959157.5 38573193465.8 24610303320.3 14239850213.7 12627562482.3 6865801123.56 5608795504.25 5039559365.23 2297625099.32 1574871732.37 1215477964.43 1429732302.24 0 548586479.355 0 534038741.132 0 0 0 0 0 0 
0 0 0 0 0 0 481512427.426 247925644.948 0 1871082175.24 1550515543.92 1502225661.21 1925256970.72 1514746975 4942271813.47 8525123001.1 11476119508.3 17632522603.8 25201421225 30956087793.2 37535375958.1 53899731434.6 68561729566.6 91764399015.4 109145320910 153113724169 187142390607 248731176347 280940833341 379402938733 433321680747 499115799416 612503570701 688148171538 832289421213 932708287225 998395837514 1.10845624927e+12 1.21022147496e+12 1.35782848689e+12 1.38514231378e+12 1.49874715729e+12 1.51866837275e+12 1.53613479514e+12 1.60426015603e+12 1.54514223814e+12 1.63401838474e+12 1.49343161118e+12 1.45332004241e+12 1.407201225e+12 1.31945866774e+12 1.19540932072e+12 1.10739521003e+12 999737387299 901981912870 823354351081 712031522744 611277037109 500931137140 443951368478 370962988490 323151310198 247789565027 192037377942 151359666866 122919559230 99345233000.4 78613344966.1 58005915427 42734535579.8 33195022429.8 24367901812 12674357287.3 8669073832 6734494071.02 7327076451.91 5501025222.25 3969830620.05 1373999948.09 991162347.085 0 1004207769.24 0 0 549042077.763 0 513959135.141 0 0 0 
0 0 0 0 553468280.226 0 0 426547078.927 1267817595.73 1064846645.93 2179774374.33 4071543387.14 4684128206.89 5001684624.47 5268894657.09 7522623018.84 12060860558.8 14076417225.3 18325673493 31739564230.5 46133255937.7 56859302397.6 80137989101 93403601132.5 143187357134 162212431820 202262800713 272244985954 307674484399 398890851828 473890703797 531873369717 633777610384 737342294104 836286789523 937795958905 1.05846444179e+12 1.16094437796e+12 1.26183660324e+12 1.37297182949e+12 1.50713737986e+12 1.52444198134e+12 1.6074932372e+12 1.60615405443e+12 1.69093894741e+12 1.61327119796e+12 1.62076877207e+12 1.59392583531e+12 1.53541731397e+12 1.47574891527e+12 1.36399189993e+12 1.33715534698e+12 1.17443324392e+12 1.06203973216e+12 985999738275 836809267282 753988819000 649880479894 548095587824 448812392347 376498996563 308380363783 241120008910 214288578650 162452372150 128395832962 103484795359 91137159142.1 63535636539 38222917972.5 34829257342.7 18411011545.4 12308467750.3 11717219637.8 11481570902.1 4615473259.49 5940492932.68 1581495162.51 440814542.796 2295852330.04 950642339.923 538635667.592 0 0 0 0 0 277069163.553 0 0 
0 0 0 0 0 0 0 0 778885632.963 454740658.16 1010355308.47 3711402914.15 3919992994.26 4819984787.31 8100155382.51 9659924491.11 11683804924.3 13972047985 19154177351.4 31215296190.4 42799796873.5 56530056929.6 73715367022.6 99985451824.4 136539403361 167839208500 222932265131 240087792017 304782406168 389720671664 421058630248 550366687869 660531899508 784570352154 840024434778 959065921541 1.09078774991e+12 1.15015489081e+12 1.28139457645e+12 1.41481514503e+12 1.51152100617e+12 1.50466710136e+12 1.59383813887e+12 1.65063767593e+12 1.67052694184e+12 1.67686544969e+12 1.66643041778e+12 1.62492596457e+12 1.55251853296e+12 1.48461867943e+12 1.36253241737e+12 1.29507483373e+12 1.18266685112e+12 1.09057741521e+12 979541798390 844151511696 710023557908 629826390311 566194192772 447859962063 361999467107 311524245917 270390710325 202558302967 160812036264 122971041639 106256779547 67064774005 53708935724.4 47791980305.2 32137621967.1 20565954798.4 13788224751.2 8673331919.94 6794295121.38 5918212594.12 3084351759.87 3473429392.67 1511796267.88 500844830.419 416856350.032 1033837261.39 0 544752128.688 0 0 0 0 0 0 
0 0 0 0 0 0 506051296.408 556267005.703 364496071.552 793515958.163 551168831.422 2607463117.66 1826606058.6 3550672319.73 3252026594.98 6677673308 11076549328.6 15786476813.2 21656510689.1 28626044126.7 37502060586.4 65751864933.4 68479544183.9 101640395726 136102929951 149200799669 192578323856 231395750525 289272512240 336036498700 453107896954 502418472109 601031852709 690691958731 790708622283 893002706274 1.00073946859e+12 1.11162127028e+12 1.28247855013e+12 1.27830295662e+12 1.35756610748e+12 1.468894603e+12 1.52401047786e+12 1.5399972286e+12 1.58030921457e+12 1.55698701749e+12 1.55053671498e+12 1.51128798419e+12 1.45785319464e+12 1.36360504321e+12 1.32899660431e+12 1.18907415568e+12 1.08101180516e+12 1.03806339737e+12 907729041354 842135356032 707090370855 618344916049 514013989741 438850763955 386661933889 304115378197 239499257188 184495410646 158198048946 113013437245 109022361708 70047202817.1 54527037549.5 48367726912.6 28820697197.4 25330202286.9 13448575025.9 10832219173.7 6745420253.83 7144717856.78 4323208380.73 1223755487.79 1958608104.43 1499119692.21 0 311649231.085 84578805.7357 534523556.327 0 0 0 0 0 0 
0 0 0 0 0 0 1016563789.36 0 0 1488598587.65 524902815.327 1694492160.28 1612492694.04 3198891035.36 3167910674 8090562747.18 9248880627.1 14919453947.4 17708752430.4 22645626230.6 33472185977.7 48897099245.4 74859432752.4 93864545412 117981716811 140843417193 191757315847 232534731619 296151929436 327062226545 401928346885 461319901901 528381861403 662232256911 724953626129 843301798042 872151357211 1.00659319605e+12 1.1190465997e+12 1.20857834134e+12 1.30359060529e+12 1.34311223912e+12 1.36518196789e+12 1.38120132265e+12 1.4489175249e+12 1.41956111486e+12 1.42536293391e+12 1.40072764303e+12 1.37150037908e+12 1.23503865365e+12 1.1813277077e+12 1.14284595948e+12 1.06017284806e+12 924412609765 833744037814 737457025867 635759502527 538260811375 483757229472 409730005921 333871143428 271828838339 233842759243 175086783567 144235033814 110132960071 89771928549.9 68406796728.3 46452143074.9 30083055713 25120640501.2 14718760728.6 15940172931.5 11847264025.4 3223132391.33 7931375620.98 3235669356.02 2388386563.63 1812595151.76 97212971.2639 2126973764.57 409081820.108 0 0 0 0 0 0 0 0 
0 0 0 0 499759532.264 0 525737744.62 0 545908538.316 548586638.695 542208279.301 1591100901.16 2087296162.25 2953151356.81 5444685009.74 8197493921.75 6796848930.34 11951374722.3 14673300104 27716242091.5 42079455201.1 44884504268.8 53300887728.7 74461897516.5 99522793332.3 116261238828 154481312644 193915566197 229009696913 303630296312 339480471381 401184569730 496194205186 537647198152 647579257497 679814577543 786581347313 873184582059 970816793077 1.00416317125e+12 1.11234667255e+12 1.16374404291e+12 1.19620978897e+12 1.22669126627e+12 1.25155298662e+12 1.22364979771e+12 1.21323114545e+12 1.22538114218e+12 1.1287250103e+12 1.11831060798e+12 1.05351461345e+12 937220519041 906157344829 802684872275 714121081897 624554359616 597890208677 486075115571 407340638652 331918954045 312227351306 230561554631 189760762572 141849753695 123638748539 95809673702.8 81018852397 61835333680.1 44274090566.3 38553845740.4 19179054503.6 16067949166.2 14172237875.7 8990467974.84 8092941964.67 6548315894.43 3839947405.77 1076799826.67 1577284461.95 1038530014.32 542955426.343 507775623.759 0 0 0 0 0 0 0 0 
0 0 0 0 0 482752017.791 0 0 0 0 1104976819.46 1801990203.36 3079104663.01 2703093271.42 3203088647.51 3821986821.64 3801812983.64 12516992555.8 17771160460.9 25510747336.8 31859070229.6 37401156101 52156723456.6 61328474584.8 85624582451.9 101436958023 125985203772 155704649077 186597698041 214043153901 286351083823 315943555585 405735139648 449772396228 503642938267 570077041057 644689932922 714921904017 752864968443 844069190067 903993805075 951457916842 966018319184 1.03280342061e+12 1.00886385041e+12 1.02917306293e+12 1.00074919436e+12 986479843911 980612768258 911437941161 792031388416 783356034856 711279870617 664146680864 584025135259 521431083511 466210098856 391036599063 334868197117 289617322712 239308842690 187947202720 156927757877 144006272283 102569365286 85753857931.3 55197118131.4 35736735275.9 31592113785.6 22980044349.9 19702899506.3 12555501377.2 8134084626.82 7571102129.17 4561788537.94 3541340173.57 3641132410.31 1209221289.34 2001098393.11 529742845.106 892762611.983 837118351.339 516353555.417 0 0 0 0 0 0 0 
0 0 0 0 0 330960516.476 202744764.443 0 0 904965785.922 2426968966.77 1835293121.09 2199760751.08 2494298733.49 3100231257.16 1919559684.4 3379458111.29 11134075961.7 11728962147.1 14104315593.8 19739710743.6 29522425711.4 32776707721.9 47337276888 67700007808.1 74430163244.3 106450107142 128293033054 160993148232 188186121645 211437198819 284535534095 325754416059 349845303411 407447627295 466412404424 512700023827 576905793589 619799703557 638043429808 718148011889 725320899848 741952081886 822664742552 773141249790 813457864770 785627411283 793110035333 761529845701 721297069188 679264427858 594048902709 554665928003 502313048023 435058911776 393478899123 340489530842 303825167571 255347483216 208867671318 184266879519 154916552522 113972221409 101180783721 77254229933.6 54612888181.2 43025385756.4 34813150778.9 25149522610.6 18912943699.9 13560919195 9738437533.22 5333388470.61 5223470537.26 3190269707.85 2780311488.78 1486294130.45 536226866.995 556846140.503 0 710755903.077 0 0 0 0 0 535859222.049 0 0 0 
0 0 0 0 0 0 428673445.441 0 0 507475879.595 0 278699980.018 736336575.836 1271346228.82 1171530437.3 2469868324.73 5330274124.24 7191777601.24 10635474413.8 15888508468.8 13512692568.2 20553929373.7 28616126334.9 37887475804.5 62402208387.3 49692743646.6 77159699212.5 92332190411 110217263426 143534761608 152281284829 180180485298 233433193479 269989879513 305895851776 369468103898 361960469601 420671467595 444175730163 499518743677 501089224106 577295734724 588073035712 598481897668 616808337711 622080116809 596575049896 585322840259 540868642392 524049472588 499233754846 458855008928 412737942145 384944624267 337182343544 302725415421 261688726321 223526742868 169067578914 167055627067 146091987039 119365394572 89479526120.1 63965782812.9 55823952730.5 44759554503.1 36320408967.3 24434330424.1 21208684640 15119242215.9 12472866941.8 6838251102.28 7610531026.64 3771617811.98 4133750328.1 1492845698.78 661843636.303 1053164306.44 939641991.477 514886711.435 0 0 0 0 0 0 0 0 0 0 
0 0 0 0 0 0 0 0 0 0 0 0 1000284951.83 1164504833.59 1633089718.68 2190529780.39 3605489418.46 4907123050.42 7646005066.48 8533605493.52 13343268732.9 13078365554.5 18725822086.3 27003602074.6 34916382946.7 33378223032.4 55159510171.3 70380954716.4 74752692209.8 109615054171 124129043311 134998615617 157844324147 194684590150 206248604364 257655683798 278480082408 322037057116 328426167748 359984748634 382700418973 371943960014 424781929307 443086400974 434140589223 428712323017 403952697822 419669857719 385854698091 380311440317 361372183579 328888648368 297783109397 281305275995 246137372930 214582419601 174605375977 154614812659 151527809409 118268163544 112486014254 87608745257.5 81213047450.9 55695478912.8 49879970612.6 34523116363.2 25792250149.9 21317166008.2 13154138753.8 11580172063.2 6685210298.43 4771654990.53 1378839943.03 2467922487.82 3496199279.46 983384258.613 1411818584.45 0 1052434637.12 508502010.597 0 0 0 0 0 0 0 0 0 0 
0 0 0 0 0 0 345539239.306 0 0 130544691.48 948375663.207 0 0 465412703.627 1485884702.37 1027442577.49 2542868415.64 3149392483.05 5417313368.98 3954801949.03 6333973924.14 9025668727.45 11233684653.8 16528441125.9 20014905256.3 21640494933.3 36790204593.1 50847892009.3 60105095153.2 69369700222.3 80026403265.4 91604082250.6 101410046237 130648666017 145853844847 162046532941 195224604032 220033000726 230049160912 249573477213 261693605185 257421863250 279067479748 260246529939 293857443060 286233244460 288295236135 273137878237 256201804519 241438838354 246300240602 216706340657 199761111818 181295871907 163370106338 150524571266 133682817899 113543102019 93054640669.4 76091252714.8 63188010394.6 54938645983.4 44896819692.8 42642056853.4 32236849356.5 25975734607.1 15790154295.4 12960704377 8939213289.26 11502564564.5 5450029290.49 4623257714.3 1186474911.98 2822053408.73 1780090790.08 2171047174.85 1412331756.8 0 0 72263359.0346 0 0 0 0 474256502.282 497877138.968 0 0 0 0 
0 0 0 0 0 0 0 0 0 0 1016556135.87 0 513207394.411 557172486.615 1101928806.02 1029789173.18 1338175598.54 891479443.63 3905593466.67 2045668759.58 6501117826.38 6758504127.78 6961308711.11 16798142411.2 9723726746.18 21335455835.1 25663777893.2 30602494366.9 41215545070.2 54778036206.5 47595341813.6 63946674557.6 66578694886.1 80302832132.9 98367808001.6 112666025325 111415330354 136578943469 146525137191 152761679287 165259537622 167597660001 191808552523 170467100835 159727507163 191210107155 180591442225 172418821528 157079432681 183922591576 155427481831 159067833689 147323927142 114272962398 112743289929 90996142865.8 84411430225.2 66963240769.6 66816759697.7 44987754870.6 35673467120.5 33907543387.4 31428953089.7 19740852416.5 13840216792.8 12445135184.3 10999784894.9 10181425039.5 4131923643.66 2778227255.09 1914923239.22 2580889642.98 3020131826.96 1435635799.88 0 514987291.182 1049660325.16 0 0 0 0 0 0 0 0 0 0 0 0 0 
0 0 0 0 0 0 0 0 0 0 0 548246534.96 0 0 557923789.118 556203873.402 0 1944685644.54 0 3046686202.13 3110885675.9 5640222080.51 5345483716.85 3673952947.9 8700901791.37 13645739405.1 11893118647.1 20163675678.1 19350898205.3 30911783870.2 30684929670.1 38526660534.4 46174759642.5 56278403063.2 55881528759.5 67379446296.9 77057890420.3 87048540593.9 91691473793.8 102325084659 101382988221 100130005144 109365548743 119039456630 111425871776 106555919311 105832307371 108310793211 102918002048 117020846476 99832265078.5 77058315874.6 74136583909.2 66611909985.9 64229514053.2 54600135389.1 52763953452.7 44854548643.1 36178199262.3 26368766068 23212362647.4 21312417274.3 17974586073 15116005385.3 6376194397.5 10284034683.3 6056773727.61 3215716299.12 3193328649.07 3524581805.96 0 548589357.338 601978311.799 181487334.336 1078664800.76 450850882.506 0 507808921.03 484218863.825 0 558197949.136 0 0 0 0 0 0 0 0 0 
0 0 0 0 0 556253884.301 0 0 0 0 0 0 0 0 0 0 461952416.841 1094475187.59 1560593534.26 904454754.377 2339653530.05 3879469071.7 2903300170.33 1876379844.29 3271009162.16 6170395033.41 8348706787.83 8296620667.06 18201202714.3 14572776522.2 20895224492.5 23963574046.8 21687829672.4 31216617228.2 35354094103.6 40923251169.3 48845110929.5 51969893400.6 45855442065.1 57202143684.5 55885581162.3 67542559459.2 72393503681.6 65659115368.9 74979658475 71156091796.7 71888556848.9 61677352772.5 71712500947.6 61436508022.9 61243589138.6 53705516718 46175303146.3 37688571532.6 39217223278.3 33155570918.6 24837760417.5 23515057544.4 21994955404 19360261912.7 10997449960.5 12062548980.8 7147432918.83 7150350548.98 6247879985.8 3206138507.88 3229286208.21 4766274701.96 2655160562.74 4062438504.49 1183480416.09 1728710756.89 0 1093652192.88 720632946.854 0 509356815 0 0 0 0 0 0 0 0 0 0 0 0 0 
0 0 0 0 0 0 0 0 0 0 0 0 0 0 543002039.398 0 0 0 465235246.751 925244338.159 645588538.418 581612539.008 1728117625.11 4517730302.59 1508350473.4 2593559685.32 3889091934.76 6298260514.92 6524819583.85 7543029705.88 12530933642.2 8559741454.52 12707169295.3 19483338063.7 20348888601.6 24884138736.2 23906422348.2 20512404106.1 30953729378.4 29766162912.2 35084652570.2 39172123902 29136624786.6 42108542090.9 36806957183 38358102968 28718880066.4 35037534616.3 36221246377.5 31973686024.2 32588935123.4 28765060691.8 27586500493.2 24420900302.8 20609048974.1 22097601832.2 16808719959.2 18891063556.5 8487555160.58 10893632596.4 9296705965.96 6554776315 6698710791.34 7648976398.95 4549044474.76 1951879331.53 4107673582.64 1825312814.68 530023215.984 1091364025.84 1184442319.64 0 963080654.472 0 0 471562164.251 0 0 0 0 0 0 0 0 0 0 0 0 0 0 
0 0 0 0 0 0 0 0 0 0 0 0 0 0 0 0 688939810.881 0 0 0 477917359.133 556649404.451 374692731.581 1306364382.02 460257684.007 2107189184.06 3750442486.71 3068195033.44 3050366098.6 5672229511.35 6711999015.32 3619946448.24 9069531982.54 6172284647.86 9201579574.35 12295135291.3 17040339480.6 13356530559.6 13068539924.1 17138921497 16751090542.7 16432165315.3 19552361372.6 17345495623 29297742582 20545438546.1 18878838433.2 16273421409.3 16745708243.5 18045345262.9 14248574512.3 15573218666.1 16202322656.6 13751066434.9 12232566166.2 7238145835.38 12391775304.5 6128093011.25 6657296882.53 5424874664.26 4990577798.31 3034144937.43 2571504909.01 1865263945.32 2050979869.66 550079003.847 796849866.388 80877980.8283 1052756151.73 540643156.727 0 464235708.185 0 0 0 0 535446071.949 0 0 0 0 0 0 0 0 0 0 0 0 0 
0 0 0 0 0 0 0 0 0 0 0 0 0 0 0 0 0 0 0 0 0 1038429538.22 480423100.769 1072913118.33 544492183.294 1347722291.6 740987041.813 1092960715.45 2517825498.01 3702836255.03 1577624413.22 3702635812 3841427752.45 4405088008.74 8468982904.73 6562033451.83 5893723232.9 5199651950.77 8531682042.85 9785893158.34 7107546670.88 4546608721.27 6866324005.92 8606800008.62 9942603948.46 14110697212.1 8293512803.46 7051178998.92 3364381621.95 10644714019.2 8530223558.77 7604495237.08 7499354614.93 5418781100.98 6551853490.66 3199606748.53 2423214087.81 4634711451.67 4782239786.02 3585432237.97 3992069628.52 2057923602.15 2218564356.6 1513230760.46 2031804212.49 1106376184.99 305684968.723 0 145695570.622 548527185.777 0 0 0 0 0 0 0 0 0 0 0 0 0 0 0 0 0 0 0 0 
0 0 0 0 0 0 0 0 0 0 0 0 0 0 0 0 0 0 0 0 0 166387183.796 0 482496897.905 0 0 1044300946.18 537358735.578 1323443305.85 1665689538.32 1974998645.96 1404690216.66 1467546797.34 2074091682.43 3367893145.56 6705008495 2977912774.22 2096100814.09 4727182890.16 6279810065.32 2481803740.74 4141147441.33 3179488401.01 2760272569.69 6223281086.36 5176490072.93 3350692766.42 7426942701.41 3158330102.27 2453381809.69 3956046651 3866744971.48 3373645695.61 5067374940.49 1755661303.19 3637832832.67 1810427513.39 1115294636.7 1084329319.68 1346672483.19 381376859.892 1430686975.73 1440540849.38 0 414502461.094 467389256.896 476017842.885 0 0 0 0 0 0 0 0 0 0 0 0 0 0 0 0 0 0 0 0 0 0 0 
0 0 0 0 0 0 0 0 0 0 0 0 0 0 0 0 0 0 0 0 0 0 538718241.29 0 531722984.97 0 523240662.525 629872074.387 1353987002.85 538328943.801 97377854.3271 959706905.259 1084944182.85 1790752058.21 876842906.616 453881622.43 89217834.3176 518718490.655 1007924208.13 2805215664.48 1099863437.7 1983791852.09 1439242454.6 2483379158.76 3655554482.86 1504222097.22 1588993114.62 2484595287.48 1741130879.18 522136233.562 2850481707.25 2565873989.29 2103804169.53 1335032060.51 1253558367.34 2182066052.74 2173906274.78 1121105212.49 1044025973.77 719638857.68 1698799345.76 0 0 0 0 0 0 0 0 0 0 0 0 0 0 0 0 0 0 0 0 0 0 0 0 0 0 0 0 0 
0 0 0 0 0 0 0 0 0 0 0 0 0 0 0 0 0 0 0 0 0 0 0 0 0 0 555250094.78 0 0 0 0 0 9378061.56209 0 609962211.933 0 544650091.251 540224932.096 1006944923.78 549371775.657 2549849117.6 2042520925.08 516378286.192 629148296.712 548984123.505 2579793494.24 0 0 37448563.0852 1063062167.13 467983792.349 544283249.739 346183447.27 331811974.545 2352635552.26 452719156.142 558292478.762 0 1879304474.53 521637840.073 0 0 0 0 0 0 0 0 0 0 0 95671803.6292 0 0 0 0 0 0 0 0 0 0 0 0 0 0 0 0 0 0 
0 0 0 0 0 0 0 0 0 0 0 0 0 0 0 0 0 0 0 0 0 0 0 540694107.209 0 0 0 0 479129780.383 0 0 509858259.056 531509232.602 0 0 557963137.41 0 468984575.244 58944222.6553 1312560139.72 1035350272.93 0 0 185963978.189 509520416.032 557843103.946 660876773.92 547106697.247 0 961695487.004 881979396.73 0 519012591.177 0 0 557521385.029 351058528.519 483307743.459 1047854528.75 0 0 0 0 0 0 0 0 0 0 0 0 0 0 0 0 0 0 0 0 0 0 0 0 0 0 0 0 0 0 0 
0 0 0 0 0 0 0 0 0 0 0 0 0 0 0 0 0 0 0 0 0 0 0 0 0 0 0 0 0 0 0 0 0 0 0 0 0 0 519905133.002 0 523613136.292 0 0 0 382416652.984 0 0 0 0 0 0 0 0 0 126725888.452 0 0 0 0 0 0 0 0 0 0 0 0 0 0 0 0 0 0 0 0 0 0 0 0 0 0 0 0 0 0 0 0 0 0 0 
0 0 0 0 0 0 0 0 0 0 0 0 0 0 0 0 0 0 0 0 0 0 0 0 0 0 0 0 0 0 0 0 0 0 0 0 0 0 0 0 0 0 257266316.29 0 0 960124282.071 0 0 0 0 0 462434978.711 0 0 0 0 0 0 0 0 0 0 0 0 0 0 0 0 0 0 0 0 0 0 0 0 0 0 0 0 0 0 0 0 0 0 0 0 0 0 
0 0 0 0 0 0 0 0 0 0 0 0 0 0 0 0 0 0 0 0 0 0 0 0 0 0 0 0 0 0 0 0 0 0 0 0 0 0 0 0 0 0 0 0 0 0 0 0 0 0 0 0 0 0 0 0 0 0 0 0 0 0 0 0 0 0 0 0 0 0 0 0 0 0 0 0 0 0 0 0 0 0 0 0 0 0 0 0 0 0 
0 0 0 0 0 0 0 0 0 0 0 0 0 0 0 0 0 0 0 0 0 0 0 0 0 0 0 0 0 0 0 0 0 0 0 0 0 0 0 0 0 0 0 0 0 0 0 0 0 0 0 0 0 0 0 0 0 0 0 0 0 0 0 0 0 0 0 0 0 0 0 0 0 0 0 0 0 0 0 0 0 0 0 0 0 0 0 0 0 0 
0 0 0 0 0 0 0 0 0 0 0 0 0 0 0 0 0 0 0 0 0 0 0 0 0 0 0 0 0 0 0 0 0 0 0 0 0 0 0 0 0 0 0 0 0 0 0 0 0 0 0 0 0 0 0 0 0 0 0 0 0 0 0 0 0 0 0 0 0 0 0 0 0 0 0 0 0 0 0 0 0 0 0 0 0 0 0 0 0 0 
0 0 0 0 0 0 0 0 0 0 0 0 0 0 0 0 0 0 0 0 0 0 0 0 0 0 0 0 0 0 0 0 0 0 0 0 0 0 0 0 0 0 0 0 0 0 0 0 0 0 0 0 0 0 0 0 0 0 0 0 0 0 0 0 0 0 0 0 0 0 0 0 0 0 0 0 0 0 0 0 0 0 0 0 0 0 0 0 0 0 
0 0 0 0 0 0 0 0 0 0 0 0 0 0 0 0 0 0 0 0 0 0 0 0 0 0 0 0 0 0 0 0 0 0 0 0 0 0 0 0 0 0 0 0 0 0 0 0 0 0 0 0 0 0 0 0 0 0 0 0 0 0 0 0 0 0 0 0 0 0 0 0 0 0 0 0 0 0 0 0 0 0 0 0 0 0 0 0 0 0 
0 0 0 0 0 0 0 0 0 0 0 0 0 0 0 0 0 0 0 0 0 0 0 0 0 0 0 0 0 0 0 0 0 0 0 0 0 0 0 0 0 0 0 0 0 0 0 0 0 0 0 0 0 0 0 0 0 0 0 0 0 0 0 0 0 0 0 0 0 0 0 0 0 0 0 0 0 0 0 0 0 0 0 0 0 0 0 0 0 0 
0 0 0 0 0 0 0 0 0 0 0 0 0 0 0 0 0 0 0 0 0 0 0 0 0 0 0 0 0 0 0 0 0 0 0 0 0 0 0 0 0 0 0 0 0 0 0 0 0 0 0 0 0 0 0 0 0 0 0 0 0 0 0 0 0 0 0 0 0 0 0 0 0 0 0 0 0 0 0 0 0 0 0 0 0 0 0 0 0 0 
0 0 0 0 0 0 0 0 0 0 0 0 0 0 0 0 0 0 0 0 0 0 0 0 0 0 0 0 0 0 0 0 0 0 0 0 0 0 0 0 0 0 0 0 0 0 0 0 0 0 0 0 0 0 0 0 0 0 0 0 0 0 0 0 0 0 0 0 0 0 0 0 0 0 0 0 0 0 0 0 0 0 0 0 0 0 0 0 0 0 
0 0 0 0 0 0 0 0 0 0 0 0 0 0 0 0 0 0 0 0 0 0 0 0 0 0 0 0 0 0 0 0 0 0 0 0 0 0 0 0 0 0 0 0 0 0 0 0 0 0 0 0 0 0 0 0 0 0 0 0 0 0 0 0 0 0 0 0 0 0 0 0 0 0 0 0 0 0 0 0 0 0 0 0 0 0 0 0 0 0 
0 0 0 0 0 0 0 0 0 0 0 0 0 0 0 0 0 0 0 0 0 0 0 0 0 0 0 0 0 0 0 0 0 0 0 0 0 0 0 0 0 0 0 0 0 0 0 0 0 0 0 0 0 0 0 0 0 0 0 0 0 0 0 0 0 0 0 0 0 0 0 0 0 0 0 0 0 0 0 0 0 0 0 0 0 0 0 0 0 0 
0 0 0 0 0 0 0 0 0 0 0 0 0 0 0 0 0 0 0 0 0 0 0 0 0 0 0 0 0 0 0 0 0 0 0 0 0 0 0 0 0 0 0 0 0 0 0 0 0 0 0 0 0 0 0 0 0 0 0 0 0 0 0 0 0 0 0 0 0 0 0 0 0 0 0 0 0 0 0 0 0 0 0 0 0 0 0 0 0 0 
0 0 0 0 0 0 0 0 0 0 0 0 0 0 0 0 0 0 0 0 0 0 0 0 0 0 0 0 0 0 0 0 0 0 0 0 0 0 0 0 0 0 0 0 0 0 0 0 0 0 0 0 0 0 0 0 0 0 0 0 0 0 0 0 0 0 0 0 0 0 0 0 0 0 0 0 0 0 0 0 0 0 0 0 0 0 0 0 0 0 
0 0 0 0 0 0 0 0 0 0 0 0 0 0 0 0 0 0 0 0 0 0 0 0 0 0 0 0 0 0 0 0 0 0 0 0 0 0 0 0 0 0 0 0 0 0 0 0 0 0 0 0 0 0 0 0 0 0 0 0 0 0 0 0 0 0 0 0 0 0 0 0 0 0 0 0 0 0 0 0 0 0 0 0 0 0 0 0 0 0 
0 0 0 0 0 0 0 0 0 0 0 0 0 0 0 0 0 0 0 0 0 0 0 0 0 0 0 0 0 0 0 0 0 0 0 0 0 0 0 0 0 0 0 0 0 0 0 0 0 0 0 0 0 0 0 0 0 0 0 0 0 0 0 0 0 0 0 0 0 0 0 0 0 0 0 0 0 0 0 0 0 0 0 0 0 0 0 0 0 0 
0 0 0 0 0 0 0 0 0 0 0 0 0 0 0 0 0 0 0 0 0 0 0 0 0 0 0 0 0 0 0 0 0 0 0 0 0 0 0 0 0 0 0 0 0 0 0 0 0 0 0 0 0 0 0 0 0 0 0 0 0 0 0 0 0 0 0 0 0 0 0 0 0 0 0 0 0 0 0 0 0 0 0 0 0 0 0 0 0 0 
0 0 0 0 0 0 0 0 0 0 0 0 0 0 0 0 0 0 0 0 0 0 0 0 0 0 0 0 0 0 0 0 0 0 0 0 0 0 0 0 0 0 0 0 0 0 0 0 0 0 0 0 0 0 0 0 0 0 0 0 0 0 0 0 0 0 0 0 0 0 0 0 0 0 0 0 0 0 0 0 0 0 0 0 0 0 0 0 0 0 
0 0 0 0 0 0 0 0 0 0 0 0 0 0 0 0 0 0 0 0 0 0 0 0 0 0 0 0 0 0 0 0 0 0 0 0 0 0 0 0 0 0 0 0 0 0 0 0 0 0 0 0 0 0 0 0 0 0 0 0 0 0 0 0 0 0 0 0 0 0 0 0 0 0 0 0 0 0 0 0 0 0 0 0 0 0 0 0 0 0 
0 0 0 0 0 0 0 0 0 0 0 0 0 0 0 0 0 0 0 0 0 0 0 0 0 0 0 0 0 0 0 0 0 0 0 0 0 0 0 0 0 0 0 0 0 0 0 0 0 0 0 0 0 0 0 0 0 0 0 0 0 0 0 0 0 0 0 0 0 0 0 0 0 0 0 0 0 0 0 0 0 0 0 0 0 0 0 0 0 0 
0 0 0 0 0 0 0 0 0 0 0 0 0 0 0 0 0 0 0 0 0 0 0 0 0 0 0 0 0 0 0 0 0 0 0 0 0 0 0 0 0 0 0 0 0 0 0 0 0 0 0 0 0 0 0 0 0 0 0 0 0 0 0 0 0 0 0 0 0 0 0 0 0 0 0 0 0 0 0 0 0 0 0 0 0 0 0 0 0 0 
0 0 0 0 0 0 0 0 0 0 0 0 0 0 0 0 0 0 0 0 0 0 0 0 0 0 0 0 0 0 0 0 0 0 0 0 0 0 0 0 0 0 0 0 0 0 0 0 0 0 0 0 0 0 0 0 0 0 0 0 0 0 0 0 0 0 0 0 0 0 0 0 0 0 0 0 0 0 0 0 0 0 0 0 0 0 0 0 0 0 
0 0 0 0 0 0 0 0 0 0 0 0 0 0 0 0 0 0 0 0 0 0 0 0 0 0 0 0 0 0 0 0 0 0 0 0 0 0 0 0 0 0 0 0 0 0 0 0 0 0 0 0 0 0 0 0 0 0 0 0 0 0 0 0 0 0 0 0 0 0 0 0 0 0 0 0 0 0 0 0 0 0 0 0 0 0 0 0 0 0 
0 0 0 0 0 0 0 0 0 0 0 0 0 0 0 0 0 0 0 0 0 0 0 0 0 0 0 0 0 0 0 0 0 0 0 0 0 0 0 0 0 0 0 0 0 0 0 0 0 0 0 0 0 0 0 0 0 0 0 0 0 0 0 0 0 0 0 0 0 0 0 0 0 0 0 0 0 0 0 0 0 0 0 0 0 0 0 0 0 0 
0 0 0 0 0 0 0 0 0 0 0 0 0 0 0 0 0 0 0 0 0 0 0 0 0 0 0 0 0 0 0 0 0 0 0 0 0 0 0 0 0 0 0 0 0 0 0 0 0 0 0 0 0 0 0 0 0 0 0 0 0 0 0 0 0 0 0 0 0 0 0 0 0 0 0 0 0 0 0 0 0 0 0 0 0 0 0 0 0 0 
0 0 0 0 0 0 0 0 0 0 0 0 0 0 0 0 0 0 0 0 0 0 0 0 0 0 0 0 0 0 0 0 0 0 0 0 0 0 0 0 0 0 0 0 0 0 0 0 0 0 0 0 0 0 0 0 0 0 0 0 0 0 0 0 0 0 0 0 0 0 0 0 0 0 0 0 0 0 0 0 0 0 0 0 0 0 0 0 0 0 
# Errors [psd1_dat/psd1.dat] E: 
0 0 0 0 0 0 0 0 0 0 0 0 0 0 0 0 0 0 0 0 0 0 0 0 0 0 0 0 0 0 0 0 0 0 0 0 0 0 0 0 0 0 0 0 0 0 0 0 0 0 0 0 0 0 0 0 0 0 0 0 0 0 0 0 0 0 0 0 0 0 0 0 0 0 0 0 0 0 0 0 0 0 0 0 0 0 0 0 0 0 
0 0 0 0 0 0 0 0 0 0 0 0 0 0 0 0 0 0 0 0 0 0 0 0 0 0 0 0 0 0 0 0 0 0 0 0 0 0 0 0 0 0 0 0 0 0 0 0 0 0 0 0 0 0 0 0 0 0 0 0 0 0 0 0 0 0 0 0 0 0 0 0 0 0 0 0 0 0 0 0 0 0 0 0 0 0 0 0 0 0 
0 0 0 0 0 0 0 0 0 0 0 0 0 0 0 0 0 0 0 0 0 0 0 0 0 0 0 0 0 0 0 0 0 0 0 0 0 0 0 0 0 0 0 0 0 0 0 0 0 0 0 0 0 0 0 0 0 0 0 0 0 0 0 0 0 0 0 0 0 0 0 0 0 0 0 0 0 0 0 0 0 0 0 0 0 0 0 0 0 0 
0 0 0 0 0 0 0 0 0 0 0 0 0 0 0 0 0 0 0 0 0 0 0 0 0 0 0 0 0 0 0 0 0 0 0 0 0 0 0 0 0 0 0 0 0 0 0 0 0 0 0 0 0 0 0 0 0 0 0 0 0 0 0 0 0 0 0 0 0 0 0 0 0 0 0 0 0 0 0 0 0 0 0 0 0 0 0 0 0 0 
0 0 0 0 0 0 0 0 0 0 0 0 0 0 0 0 0 0 0 0 0 0 0 0 0 0 0 0 0 0 0 0 0 0 0 0 0 0 0 0 0 0 0 0 0 0 0 0 0 0 0 0 0 0 0 0 0 0 0 0 0 0 0 0 0 0 0 0 0 0 0 0 0 0 0 0 0 0 0 0 0 0 0 0 0 0 0 0 0 0 
0 0 0 0 0 0 0 0 0 0 0 0 0 0 0 0 0 0 0 0 0 0 0 0 0 0 0 0 0 0 0 0 0 0 0 0 0 0 0 0 0 0 0 0 0 0 0 0 0 0 0 0 0 0 0 0 0 0 0 0 0 0 0 0 0 0 0 0 0 0 0 0 0 0 0 0 0 0 0 0 0 0 0 0 0 0 0 0 0 0 
0 0 0 0 0 0 0 0 0 0 0 0 0 0 0 0 0 0 0 0 0 0 0 0 0 0 0 0 0 0 0 0 0 0 0 0 0 0 0 0 0 0 0 0 0 0 0 0 0 0 0 0 0 0 0 0 0 0 0 0 0 0 0 0 0 0 0 0 0 0 0 0 0 0 0 0 0 0 0 0 0 0 0 0 0 0 0 0 0 0 
0 0 0 0 0 0 0 0 0 0 0 0 0 0 0 0 0 0 0 0 0 0 0 0 0 0 0 0 0 0 0 0 0 0 0 0 0 0 0 0 0 0 0 0 0 0 0 0 0 0 0 0 0 0 0 0 0 0 0 0 0 0 0 0 0 0 0 0 0 0 0 0 0 0 0 0 0 0 0 0 0 0 0 0 0 0 0 0 0 0 
0 0 0 0 0 0 0 0 0 0 0 0 0 0 0 0 0 0 0 0 0 0 0 0 0 0 0 0 0 0 0 0 0 0 0 0 0 0 0 0 0 0 0 0 0 0 0 0 0 0 0 0 0 0 0 0 0 0 0 0 0 0 0 0 0 0 0 0 0 0 0 0 0 0 0 0 0 0 0 0 0 0 0 0 0 0 0 0 0 0 
0 0 0 0 0 0 0 0 0 0 0 0 0 0 0 0 0 0 0 0 0 0 0 0 0 0 0 0 0 0 0 0 0 0 0 0 0 0 0 0 0 0 0 0 0 0 0 0 0 0 0 0 0 0 0 0 0 0 0 0 0 0 0 0 0 0 0 0 0 0 0 0 0 0 0 0 0 0 0 0 0 0 0 0 0 0 0 0 0 0 
0 0 0 0 0 0 0 0 0 0 0 0 0 0 0 0 0 0 0 0 0 0 0 0 0 0 0 0 0 0 0 0 0 0 0 0 0 0 0 0 0 0 0 0 0 0 0 0 0 0 0 0 0 0 0 0 0 0 0 0 0 0 0 0 0 0 0 0 0 0 0 0 0 0 0 0 0 0 0 0 0 0 0 0 0 0 0 0 0 0 
0 0 0 0 0 0 0 0 0 0 0 0 0 0 0 0 0 0 0 0 0 0 0 0 0 0 0 0 0 0 0 0 0 0 0 0 0 0 0 0 0 0 0 0 0 0 0 0 0 0 0 0 0 0 0 0 0 0 0 0 0 0 0 0 0 0 0 0 0 0 0 0 0 0 0 0 0 0 0 0 0 0 0 0 0 0 0 0 0 0 
0 0 0 0 0 0 0 0 0 0 0 0 0 0 0 0 0 0 0 0 0 0 0 0 0 0 0 0 0 0 0 0 0 0 0 0 0 0 0 0 0 0 0 0 0 0 0 0 0 0 0 0 0 0 0 0 0 0 0 0 0 0 0 0 0 0 0 0 0 0 0 0 0 0 0 0 0 0 0 0 0 0 0 0 0 0 0 0 0 0 
0 0 0 0 0 0 0 0 0 0 0 0 0 0 0 0 0 0 0 0 0 0 0 0 0 0 0 0 0 0 0 0 0 0 0 0 0 0 0 0 0 0 0 0 0 0 0 0 0 0 0 0 0 0 0 0 0 0 0 0 0 0 0 0 0 0 0 0 0 0 0 0 0 0 0 0 0 0 0 0 0 0 0 0 0 0 0 0 0 0 
0 0 0 0 0 0 0 0 0 0 0 0 0 0 0 0 0 0 0 0 0 0 0 0 0 0 0 0 0 0 0 0 0 0 0 0 0 0 0 0 0 0 0 0 0 0 0 0 0 0 0 0 0 0 0 0 0 0 0 0 0 0 0 0 0 0 0 0 0 0 0 0 0 0 0 0 0 0 0 0 0 0 0 0 0 0 0 0 0 0 
0 0 0 0 0 0 0 0 0 0 0 0 0 0 0 0 0 0 0 0 0 0 0 0 0 0 0 0 0 0 0 0 0 0 0 0 0 0 0 0 0 0 0 0 0 0 0 0 0 0 0 0 0 0 0 0 0 0 0 0 0 0 0 0 0 0 0 0 0 0 0 0 0 0 0 0 0 0 0 0 0 0 0 0 0 0 0 0 0 0 
0 0 0 0 0 0 0 0 0 0 0 0 0 0 0 0 0 0 0 0 0 0 0 0 0 0 0 0 0 0 0 0 0 0 0 0 0 0 0 0 0 0 0 0 0 0 0 0 0 0 0 0 0 0 0 0 0 0 0 0 0 0 0 0 0 0 0 0 0 0 0 0 0 0 0 0 0 0 0 0 0 0 0 0 0 0 0 0 0 0 
0 0 0 0 0 0 0 0 0 0 0 0 0 0 0 0 0 0 0 0 0 0 0 0 0 0 0 0 0 0 0 0 0 0 0 0 0 0 0 0 0 0 0 0 0 0 0 0 0 0 0 0 0 0 0 0 0 0 0 0 0 0 0 0 0 0 0 0 0 0 0 0 0 0 0 0 0 0 0 0 0 0 0 0 0 0 0 0 0 0 
0 0 0 0 0 0 0 0 0 0 0 0 0 0 0 0 0 0 0 0 0 0 0 0 0 0 0 0 0 0 0 0 0 0 0 0 0 0 0 0 0 0 0 0 0 0 0 0 0 0 0 0 0 0 0 0 0 0 0 0 0 0 0 0 0 0 0 0 0 0 0 0 0 0 0 0 0 0 0 0 0 0 0 0 0 0 0 0 0 0 
0 0 0 0 0 0 0 0 0 0 0 0 0 0 0 0 0 0 0 0 0 0 0 0 0 0 0 0 0 0 0 0 0 0 0 0 0 0 0 0 0 0 0 0 0 0 0 0 0 0 0 0 0 0 0 0 0 0 0 0 0 0 0 0 0 0 0 0 0 0 0 0 0 0 0 0 0 0 0 0 0 0 0 0 0 0 0 0 0 0 
0 0 0 0 0 0 0 0 0 0 0 0 0 0 0 0 0 0 0 0 0 0 0 0 0 0 0 0 0 0 0 0 0 0 0 0 0 0 0 0 0 0 0 0 0 0 0 0 0 0 0 0 0 0 0 0 0 0 0 0 0 0 0 0 0 0 0 0 0 0 0 0 0 0 0 0 0 0 0 0 0 0 0 0 0 0 0 0 0 0 
0 0 0 0 0 0 0 0 0 0 0 0 0 0 0 0 0 0 0 0 0 0 0 0 0 0 0 0 0 0 0 0 0 0 0 0 0 0 0 0 0 0 0 0 0 0 0 0 0 0 0 0 0 0 0 0 0 0 0 0 0 0 0 0 0 0 0 0 0 0 0 0 0 0 0 0 0 0 0 0 0 0 0 0 0 0 0 0 0 0 
0 0 0 0 0 0 0 0 0 0 0 0 0 0 0 0 0 0 0 0 0 0 0 0 0 0 0 0 0 0 0 0 0 0 0 0 0 0 0 0 0 0 0 0 0 0 0 0 0 0 0 0 0 0 0 0 0 0 0 0 0 0 0 0 0 0 0 0 0 0 0 0 0 0 0 0 0 0 0 0 0 0 0 0 0 0 0 0 0 0 
0 0 0 0 0 0 0 0 0 0 0 0 0 0 0 0 0 0 0 0 0 0 0 0 0 0 0 0 0 0 0 0 0 0 0 0 0 0 0 0 0 0 0 0 0 0 0 0 0 0 0 0 0 0 0 0 0 0 0 0 0 0 0 0 0 0 0 0 0 0 0 0 0 0 0 0 0 0 0 0 0 0 0 0 0 0 0 0 0 0 
0 0 0 0 0 0 0 0 0 0 0 0 0 0 0 0 0 0 0 0 0 0 0 0 0 0 0 0 0 0 0 0 0 0 0 0 0 0 0 0 0 0 0 0 0 0 0 0 0 0 0 0 0 0 0 0 0 0 0 0 0 0 0 0 0 0 0 0 0 0 0 0 0 0 0 0 0 0 0 0 0 0 0 0 0 0 0 0 0 0 
0 0 0 0 0 0 0 0 0 0 0 0 0 0 0 0 0 0 0 0 0 0 0 0 0 0 0 0 0 0 0 0 0 0 0 0 0 0 0 0 0 0 0 0 0 0 0 0 0 0 0 0 0 0 0 0 0 0 0 0 0 0 0 0 0 0 0 0 0 0 0 0 0 0 0 0 0 0 0 0 0 0 0 0 0 0 0 0 0 0 
0 0 0 0 0 0 0 0 0 0 0 0 0 0 0 0 0 0 0 0 0 0 0 0 0 0 0 0 0 0 0 0 0 0 0 0 0 0 0 0 0 0 0 0 0 0 0 0 0 0 0 0 0 0 0 0 0 0 0 0 0 0 0 0 0 0 0 0 0 0 0 0 0 0 0 0 0 0 0 0 0 0 0 0 0 0 0 0 0 0 
0 0 0 0 0 0 0 0 0 0 0 0 0 0 0 0 0 0 0 0 0 0 0 0 0 0 0 0 0 0 0 0 0 0 0 0 0 0 0 0 0 0 0 0 0 0 0 0 0 0 0 0 0 0 0 0 0 0 0 0 0 0 0 0 0 0 0 0 0 0 0 0 0 0 0 0 0 0 0 0 0 0 0 0 0 0 0 0 0 0 
0 0 0 0 0 0 0 0 0 0 0 0 0 0 0 0 0 0 0 0 0 0 0 0 0 0 0 0 0 0 0 0 0 0 0 0 0 0 0 0 0 0 0 0 0 0 0 0 0 0 0 0 0 0 0 0 0 0 0 0 0 0 0 0 0 0 0 0 0 0 0 0 0 0 0 0 0 0 0 0 0 0 0 0 0 0 0 0 0 0 
0 0 0 0 0 0 0 0 0 0 0 0 0 0 0 0 0 0 0 0 0 0 0 0 0 0 0 0 0 0 0 0 0 0 0 0 0 0 0 0 0 0 0 0 0 0 0 0 0 0 0 0 0 0 0 0 0 0 0 0 0 0 0 0 0 0 0 0 0 0 0 0 0 0 0 0 0 0 0 0 0 0 0 0 0 0 0 0 0 0 
0 0 0 0 0 0 0 0 0 0 0 0 0 0 0 0 0 0 0 0 0 0 0 0 0 0 0 0 0 0 0 0 0 0 0 0 0 0 0 0 0 0 0 0 0 0 0 0 0 0 0 0 0 0 0 0 0 0 0 0 0 0 0 0 0 0 0 0 0 0 0 0 0 0 0 0 0 0 0 0 0 0 0 0 0 0 0 0 0 0 
0 0 0 0 0 0 0 0 0 0 0 0 0 0 0 0 0 0 0 0 0 0 0 0 0 0 0 0 0 0 0 0 0 0 0 0 0 0 0 0 0 0 0 0 0 0 0 0 0 0 0 0 0 0 0 0 0 0 0 0 0 0 0 0 0 0 0 0 0 0 0 0 0 0 0 0 0 0 0 0 0 0 0 0 0 0 0 0 0 0 
0 0 0 0 0 0 0 0 0 0 0 0 0 0 0 0 0 0 0 0 0 0 0 0 0 0 0 0 0 0 0 0 0 0 0 0 0 0 0 0 0 0 0 0 0 0 0 0 0 0 0 0 0 0 0 0 0 0 0 0 0 0 0 0 0 0 0 0 0 0 0 0 0 0 0 0 0 0 0 0 0 0 0 0 0 0 0 0 0 0 
0 0 0 0 0 0 0 0 0 0 0 0 0 0 0 0 0 0 0 0 0 0 0 0 0 0 0 0 0 0 0 0 0 0 0 0 0 0 0 0 0 0 0 0 0 0 0 0 0 0 0 0 0 0 0 0 0 0 0 0 0 0 0 0 0 0 0 0 0 0 0 0 0 0 0 0 0 0 0 0 0 0 0 0 0 0 0 0 0 0 
0 0 0 0 0 0 0 0 0 0 0 0 0 0 0 0 0 0 0 0 0 0 0 0 0 0 0 0 0 0 0 0 0 0 0 0 0 0 0 0 0 0 0 0 0 0 0 0 0 0 0 0 0 0 0 0 0 0 0 0 0 0 0 0 0 0 0 0 0 0 0 0 0 0 0 0 0 0 0 0 0 0 0 0 0 0 0 0 0 0 
0 0 0 0 0 0 0 0 0 0 0 0 0 0 0 0 0 0 0 0 0 0 0 0 0 0 0 0 0 0 0 0 0 0 0 0 0 0 0 0 0 0 0 0 0 0 0 0 0 0 0 0 0 0 0 0 0 0 0 0 0 0 0 0 0 0 0 0 0 0 0 0 0 0 0 0 0 0 0 0 0 0 0 0 0 0 0 0 0 0 
0 0 0 0 0 0 0 0 0 0 0 0 0 0 0 0 0 0 0 0 0 0 0 0 0 0 0 0 0 0 0 0 0 0 0 0 0 0 0 0 0 0 0 0 0 0 0 0 0 0 0 0 0 0 0 0 0 0 0 0 0 0 0 0 0 0 0 0 0 0 0 0 0 0 0 0 0 0 0 0 0 0 0 0 0 0 0 0 0 0 
0 0 0 0 0 0 0 0 0 0 0 0 0 0 0 0 0 0 0 0 0 0 0 0 0 0 0 0 0 0 0 0 0 0 0 0 0 0 0 0 0 0 0 0 0 0 0 0 0 0 0 0 0 0 0 0 0 0 0 0 0 0 0 0 0 0 0 0 0 0 0 0 0 0 0 0 0 0 0 0 0 0 0 0 0 0 0 0 0 0 
0 0 0 0 0 0 0 0 0 0 0 0 0 0 0 0 0 0 0 0 0 0 0 0 0 0 0 0 0 0 0 0 0 0 0 0 0 0 0 0 0 0 0 0 0 0 0 0 0 0 0 0 0 0 0 0 0 0 0 0 0 0 0 0 0 0 0 0 0 0 0 0 0 0 0 0 0 0 0 0 0 0 0 0 0 0 0 0 0 0 
0 0 0 0 0 0 0 0 0 0 0 0 0 0 0 0 0 0 0 0 0 0 0 0 0 0 0 0 0 0 0 0 0 0 0 0 0 0 0 0 0 0 0 0 0 0 0 0 0 0 0 0 0 0 0 0 0 0 0 0 0 0 0 0 0 0 0 0 0 0 0 0 0 0 0 0 0 0 0 0 0 0 0 0 0 0 0 0 0 0 
0 0 0 0 0 0 0 0 0 0 0 0 0 0 0 0 0 0 0 0 0 0 0 0 0 0 0 0 0 0 0 0 0 0 0 0 0 0 0 0 0 0 0 0 0 0 0 0 0 0 0 0 0 0 0 0 0 0 0 0 0 0 0 0 0 0 0 0 0 0 0 0 0 0 0 0 0 0 0 0 0 0 0 0 0 0 0 0 0 0 
0 0 0 0 0 0 0 0 0 0 0 0 0 0 0 0 0 0 0 0 0 0 0 0 0 0 0 0 0 0 0 0 0 0 0 0 0 0 0 0 0 0 0 0 0 0 0 0 0 0 0 0 0 0 0 0 0 0 0 0 0 0 0 0 0 0 0 0 0 0 0 0 0 0 0 0 0 0 0 0 0 0 0 0 0 0 0 0 0 0 
0 0 0 0 0 0 0 0 0 0 0 0 0 0 0 0 0 0 0 0 0 0 0 0 0 0 0 0 0 0 0 0 0 0 0 0 0 0 0 0 0 0 0 0 0 0 0 0 0 0 0 0 0 0 0 0 0 0 0 0 0 0 0 0 0 0 0 0 0 0 0 0 0 0 0 0 0 0 0 0 0 0 0 0 0 0 0 0 0 0 
0 0 0 0 0 0 0 0 0 0 0 0 0 0 0 0 0 0 0 0 0 0 0 0 0 0 0 0 0 0 0 0 0 0 0 0 0 0 0 0 0 0 0 0 0 0 0 0 0 0 0 0 0 0 0 0 0 0 0 0 0 0 0 0 0 0 0 0 0 0 0 0 0 0 0 0 0 0 0 0 0 0 0 0 0 0 0 0 0 0 
0 0 0 0 0 0 0 0 0 0 0 0 0 0 0 0 0 0 0 0 0 0 0 0 0 0 0 0 0 0 0 0 0 0 0 0 0 0 0 0 0 0 0 0 0 0 0 0 0 0 0 0 0 0 0 0 0 0 0 0 0 0 0 0 0 0 0 0 0 0 0 0 0 0 0 0 0 0 0 0 0 0 0 0 0 0 0 0 0 0 
0 0 0 0 0 0 0 0 0 0 0 0 0 0 0 0 0 0 0 0 0 0 0 0 0 0 0 0 0 0 0 0 0 0 0 0 0 0 0 0 0 0 0 0 0 0 0 0 0 0 0 0 0 0 0 0 0 0 0 0 0 0 0 0 0 0 0 0 0 0 0 0 0 0 0 0 0 0 0 0 0 0 0 0 0 0 0 0 0 0 
0 0 0 0 0 0 0 0 0 0 0 0 0 0 0 0 0 0 0 0 0 0 0 0 0 0 0 0 0 0 0 0 0 0 0 0 0 0 0 0 0 0 0 0 0 0 0 0 0 0 0 0 0 0 0 0 0 0 0 0 0 0 0 0 0 0 0 0 0 0 0 0 0 0 0 0 0 0 0 0 0 0 0 0 0 0 0 0 0 0 
0 0 0 0 0 0 0 0 0 0 0 0 0 0 0 0 0 0 0 0 0 0 0 0 0 0 0 0 0 0 0 0 0 0 0 0 0 0 0 0 0 0 0 0 0 0 0 0 0 0 0 0 0 0 0 0 0 0 0 0 0 0 0 0 0 0 0 0 0 0 0 0 0 0 0 0 0 0 0 0 0 0 0 0 0 0 0 0 0 0 
0 0 0 0 0 0 0 0 0 0 0 0 0 0 0 0 0 0 0 0 0 0 0 0 0 0 0 0 0 0 0 0 0 0 0 0 0 0 0 0 0 0 0 0 0 0 0 0 0 0 0 0 0 0 0 0 0 0 0 0 0 0 0 0 0 0 0 0 0 0 0 0 0 0 0 0 0 0 0 0 0 0 0 0 0 0 0 0 0 0 
0 0 0 0 0 0 0 0 0 0 0 0 0 0 0 0 0 0 0 0 0 0 0 0 0 0 0 0 0 0 0 0 0 0 0 0 0 0 0 0 0 0 0 0 0 0 0 0 0 0 0 0 0 0 0 0 0 0 0 0 0 0 0 0 0 0 0 0 0 0 0 0 0 0 0 0 0 0 0 0 0 0 0 0 0 0 0 0 0 0 
0 0 0 0 0 0 0 0 0 0 0 0 0 0 0 0 0 0 0 0 0 0 0 0 0 0 0 0 0 0 0 0 0 0 0 0 0 0 0 0 0 0 0 0 0 0 0 0 0 0 0 0 0 0 0 0 0 0 0 0 0 0 0 0 0 0 0 0 0 0 0 0 0 0 0 0 0 0 0 0 0 0 0 0 0 0 0 0 0 0 
0 0 0 0 0 0 0 0 0 0 0 0 0 0 0 0 0 0 0 0 0 0 0 0 0 0 0 0 0 0 0 0 0 0 0 0 0 0 0 0 0 0 0 0 0 0 0 0 0 0 0 0 0 0 0 0 0 0 0 0 0 0 0 0 0 0 0 0 0 0 0 0 0 0 0 0 0 0 0 0 0 0 0 0 0 0 0 0 0 0 
0 0 0 0 0 0 0 0 0 0 0 0 0 0 0 0 0 0 0 0 0 0 0 0 0 0 0 0 0 0 0 0 0 0 0 0 0 0 0 0 0 0 0 0 0 0 0 0 0 0 0 0 0 0 0 0 0 0 0 0 0 0 0 0 0 0 0 0 0 0 0 0 0 0 0 0 0 0 0 0 0 0 0 0 0 0 0 0 0 0 
0 0 0 0 0 0 0 0 0 0 0 0 0 0 0 0 0 0 0 0 0 0 0 0 0 0 0 0 0 0 0 0 0 0 0 0 0 0 0 0 0 0 0 0 0 0 0 0 0 0 0 0 0 0 0 0 0 0 0 0 0 0 0 0 0 0 0 0 0 0 0 0 0 0 0 0 0 0 0 0 0 0 0 0 0 0 0 0 0 0 
0 0 0 0 0 0 0 0 0 0 0 0 0 0 0 0 0 0 0 0 0 0 0 0 0 0 0 0 0 0 0 0 0 0 0 0 0 0 0 0 0 0 0 0 0 0 0 0 0 0 0 0 0 0 0 0 0 0 0 0 0 0 0 0 0 0 0 0 0 0 0 0 0 0 0 0 0 0 0 0 0 0 0 0 0 0 0 0 0 0 
0 0 0 0 0 0 0 0 0 0 0 0 0 0 0 0 0 0 0 0 0 0 0 0 0 0 0 0 0 0 0 0 0 0 0 0 0 0 0 0 0 0 0 0 0 0 0 0 0 0 0 0 0 0 0 0 0 0 0 0 0 0 0 0 0 0 0 0 0 0 0 0 0 0 0 0 0 0 0 0 0 0 0 0 0 0 0 0 0 0 
0 0 0 0 0 0 0 0 0 0 0 0 0 0 0 0 0 0 0 0 0 0 0 0 0 0 0 0 0 0 0 0 0 0 0 0 0 0 0 0 0 0 0 0 0 0 0 0 0 0 0 0 0 0 0 0 0 0 0 0 0 0 0 0 0 0 0 0 0 0 0 0 0 0 0 0 0 0 0 0 0 0 0 0 0 0 0 0 0 0 
0 0 0 0 0 0 0 0 0 0 0 0 0 0 0 0 0 0 0 0 0 0 0 0 0 0 0 0 0 0 0 0 0 0 0 0 0 0 0 0 0 0 0 0 0 0 0 0 0 0 0 0 0 0 0 0 0 0 0 0 0 0 0 0 0 0 0 0 0 0 0 0 0 0 0 0 0 0 0 0 0 0 0 0 0 0 0 0 0 0 
0 0 0 0 0 0 0 0 0 0 0 0 0 0 0 0 0 0 0 0 0 0 0 0 0 0 0 0 0 0 0 0 0 0 0 0 0 0 0 0 0 0 0 0 0 0 0 0 0 0 0 0 0 0 0 0 0 0 0 0 0 0 0 0 0 0 0 0 0 0 0 0 0 0 0 0 0 0 0 0 0 0 0 0 0 0 0 0 0 0 
0 0 0 0 0 0 0 0 0 0 0 0 0 0 0 0 0 0 0 0 0 0 0 0 0 0 0 0 0 0 0 0 0 0 0 0 0 0 0 0 0 0 0 0 0 0 0 0 0 0 0 0 0 0 0 0 0 0 0 0 0 0 0 0 0 0 0 0 0 0 0 0 0 0 0 0 0 0 0 0 0 0 0 0 0 0 0 0 0 0 
0 0 0 0 0 0 0 0 0 0 0 0 0 0 0 0 0 0 0 0 0 0 0 0 0 0 0 0 0 0 0 0 0 0 0 0 0 0 0 0 0 0 0 0 0 0 0 0 0 0 0 0 0 0 0 0 0 0 0 0 0 0 0 0 0 0 0 0 0 0 0 0 0 0 0 0 0 0 0 0 0 0 0 0 0 0 0 0 0 0 
0 0 0 0 0 0 0 0 0 0 0 0 0 0 0 0 0 0 0 0 0 0 0 0 0 0 0 0 0 0 0 0 0 0 0 0 0 0 0 0 0 0 0 0 0 0 0 0 0 0 0 0 0 0 0 0 0 0 0 0 0 0 0 0 0 0 0 0 0 0 0 0 0 0 0 0 0 0 0 0 0 0 0 0 0 0 0 0 0 0 
0 0 0 0 0 0 0 0 0 0 0 0 0 0 0 0 0 0 0 0 0 0 0 0 0 0 0 0 0 0 0 0 0 0 0 0 0 0 0 0 0 0 0 0 0 0 0 0 0 0 0 0 0 0 0 0 0 0 0 0 0 0 0 0 0 0 0 0 0 0 0 0 0 0 0 0 0 0 0 0 0 0 0 0 0 0 0 0 0 0 
0 0 0 0 0 0 0 0 0 0 0 0 0 0 0 0 0 0 0 0 0 0 0 0 0 0 0 0 0 0 0 0 0 0 0 0 0 0 0 0 0 0 0 0 0 0 0 0 0 0 0 0 0 0 0 0 0 0 0 0 0 0 0 0 0 0 0 0 0 0 0 0 0 0 0 0 0 0 0 0 0 0 0 0 0 0 0 0 0 0 
0 0 0 0 0 0 0 0 0 0 0 0 0 0 0 0 0 0 0 0 0 0 0 0 0 0 0 0 0 0 0 0 0 0 0 0 0 0 0 0 0 0 0 0 0 0 0 0 0 0 0 0 0 0 0 0 0 0 0 0 0 0 0 0 0 0 0 0 0 0 0 0 0 0 0 0 0 0 0 0 0 0 0 0 0 0 0 0 0 0 
0 0 0 0 0 0 0 0 0 0 0 0 0 0 0 0 0 0 0 0 0 0 0 0 0 0 0 0 0 0 0 0 0 0 0 0 0 0 0 0 0 0 0 0 0 0 0 0 0 0 0 0 0 0 0 0 0 0 0 0 0 0 0 0 0 0 0 0 0 0 0 0 0 0 0 0 0 0 0 0 0 0 0 0 0 0 0 0 0 0 
0 0 0 0 0 0 0 0 0 0 0 0 0 0 0 0 0 0 0 0 0 0 0 0 0 0 0 0 0 0 0 0 0 0 0 0 0 0 0 0 0 0 0 0 0 0 0 0 0 0 0 0 0 0 0 0 0 0 0 0 0 0 0 0 0 0 0 0 0 0 0 0 0 0 0 0 0 0 0 0 0 0 0 0 0 0 0 0 0 0 
0 0 0 0 0 0 0 0 0 0 0 0 0 0 0 0 0 0 0 0 0 0 0 0 0 0 0 0 0 0 0 0 0 0 0 0 0 0 0 0 0 0 0 0 0 0 0 0 0 0 0 0 0 0 0 0 0 0 0 0 0 0 0 0 0 0 0 0 0 0 0 0 0 0 0 0 0 0 0 0 0 0 0 0 0 0 0 0 0 0 
0 0 0 0 0 0 0 0 0 0 0 0 0 0 0 0 0 0 0 0 0 0 0 0 0 0 0 0 0 0 0 0 0 0 0 0 0 0 0 0 0 0 0 0 0 0 0 0 0 0 0 0 0 0 0 0 0 0 0 0 0 0 0 0 0 0 0 0 0 0 0 0 0 0 0 0 0 0 0 0 0 0 0 0 0 0 0 0 0 0 
0 0 0 0 0 0 0 0 0 0 0 0 0 0 0 0 0 0 0 0 0 0 0 0 0 0 0 0 0 0 0 0 0 0 0 0 0 0 0 0 0 0 0 0 0 0 0 0 0 0 0 0 0 0 0 0 0 0 0 0 0 0 0 0 0 0 0 0 0 0 0 0 0 0 0 0 0 0 0 0 0 0 0 0 0 0 0 0 0 0 
0 0 0 0 0 0 0 0 0 0 0 0 0 0 0 0 0 0 0 0 0 0 0 0 0 0 0 0 0 0 0 0 0 0 0 0 0 0 0 0 0 0 0 0 0 0 0 0 0 0 0 0 0 0 0 0 0 0 0 0 0 0 0 0 0 0 0 0 0 0 0 0 0 0 0 0 0 0 0 0 0 0 0 0 0 0 0 0 0 0 
0 0 0 0 0 0 0 0 0 0 0 0 0 0 0 0 0 0 0 0 0 0 0 0 0 0 0 0 0 0 0 0 0 0 0 0 0 0 0 0 0 0 0 0 0 0 0 0 0 0 0 0 0 0 0 0 0 0 0 0 0 0 0 0 0 0 0 0 0 0 0 0 0 0 0 0 0 0 0 0 0 0 0 0 0 0 0 0 0 0 
0 0 0 0 0 0 0 0 0 0 0 0 0 0 0 0 0 0 0 0 0 0 0 0 0 0 0 0 0 0 0 0 0 0 0 0 0 0 0 0 0 0 0 0 0 0 0 0 0 0 0 0 0 0 0 0 0 0 0 0 0 0 0 0 0 0 0 0 0 0 0 0 0 0 0 0 0 0 0 0 0 0 0 0 0 0 0 0 0 0 
0 0 0 0 0 0 0 0 0 0 0 0 0 0 0 0 0 0 0 0 0 0 0 0 0 0 0 0 0 0 0 0 0 0 0 0 0 0 0 0 0 0 0 0 0 0 0 0 0 0 0 0 0 0 0 0 0 0 0 0 0 0 0 0 0 0 0 0 0 0 0 0 0 0 0 0 0 0 0 0 0 0 0 0 0 0 0 0 0 0 
0 0 0 0 0 0 0 0 0 0 0 0 0 0 0 0 0 0 0 0 0 0 0 0 0 0 0 0 0 0 0 0 0 0 0 0 0 0 0 0 0 0 0 0 0 0 0 0 0 0 0 0 0 0 0 0 0 0 0 0 0 0 0 0 0 0 0 0 0 0 0 0 0 0 0 0 0 0 0 0 0 0 0 0 0 0 0 0 0 0 
0 0 0 0 0 0 0 0 0 0 0 0 0 0 0 0 0 0 0 0 0 0 0 0 0 0 0 0 0 0 0 0 0 0 0 0 0 0 0 0 0 0 0 0 0 0 0 0 0 0 0 0 0 0 0 0 0 0 0 0 0 0 0 0 0 0 0 0 0 0 0 0 0 0 0 0 0 0 0 0 0 0 0 0 0 0 0 0 0 0 
0 0 0 0 0 0 0 0 0 0 0 0 0 0 0 0 0 0 0 0 0 0 0 0 0 0 0 0 0 0 0 0 0 0 0 0 0 0 0 0 0 0 0 0 0 0 0 0 0 0 0 0 0 0 0 0 0 0 0 0 0 0 0 0 0 0 0 0 0 0 0 0 0 0 0 0 0 0 0 0 0 0 0 0 0 0 0 0 0 0 
0 0 0 0 0 0 0 0 0 0 0 0 0 0 0 0 0 0 0 0 0 0 0 0 0 0 0 0 0 0 0 0 0 0 0 0 0 0 0 0 0 0 0 0 0 0 0 0 0 0 0 0 0 0 0 0 0 0 0 0 0 0 0 0 0 0 0 0 0 0 0 0 0 0 0 0 0 0 0 0 0 0 0 0 0 0 0 0 0 0 
0 0 0 0 0 0 0 0 0 0 0 0 0 0 0 0 0 0 0 0 0 0 0 0 0 0 0 0 0 0 0 0 0 0 0 0 0 0 0 0 0 0 0 0 0 0 0 0 0 0 0 0 0 0 0 0 0 0 0 0 0 0 0 0 0 0 0 0 0 0 0 0 0 0 0 0 0 0 0 0 0 0 0 0 0 0 0 0 0 0 
0 0 0 0 0 0 0 0 0 0 0 0 0 0 0 0 0 0 0 0 0 0 0 0 0 0 0 0 0 0 0 0 0 0 0 0 0 0 0 0 0 0 0 0 0 0 0 0 0 0 0 0 0 0 0 0 0 0 0 0 0 0 0 0 0 0 0 0 0 0 0 0 0 0 0 0 0 0 0 0 0 0 0 0 0 0 0 0 0 0 
0 0 0 0 0 0 0 0 0 0 0 0 0 0 0 0 0 0 0 0 0 0 0 0 0 0 0 0 0 0 0 0 0 0 0 0 0 0 0 0 0 0 0 0 0 0 0 0 0 0 0 0 0 0 0 0 0 0 0 0 0 0 0 0 0 0 0 0 0 0 0 0 0 0 0 0 0 0 0 0 0 0 0 0 0 0 0 0 0 0 
0 0 0 0 0 0 0 0 0 0 0 0 0 0 0 0 0 0 0 0 0 0 0 0 0 0 0 0 0 0 0 0 0 0 0 0 0 0 0 0 0 0 0 0 0 0 0 0 0 0 0 0 0 0 0 0 0 0 0 0 0 0 0 0 0 0 0 0 0 0 0 0 0 0 0 0 0 0 0 0 0 0 0 0 0 0 0 0 0 0 
0 0 0 0 0 0 0 0 0 0 0 0 0 0 0 0 0 0 0 0 0 0 0 0 0 0 0 0 0 0 0 0 0 0 0 0 0 0 0 0 0 0 0 0 0 0 0 0 0 0 0 0 0 0 0 0 0 0 0 0 0 0 0 0 0 0 0 0 0 0 0 0 0 0 0 0 0 0 0 0 0 0 0 0 0 0 0 0 0 0 
0 0 0 0 0 0 0 0 0 0 0 0 0 0 0 0 0 0 0 0 0 0 0 0 0 0 0 0 0 0 0 0 0 0 0 0 0 0 0 0 0 0 0 0 0 0 0 0 0 0 0 0 0 0 0 0 0 0 0 0 0 0 0 0 0 0 0 0 0 0 0 0 0 0 0 0 0 0 0 0 0 0 0 0 0 0 0 0 0 0 
0 0 0 0 0 0 0 0 0 0 0 0 0 0 0 0 0 0 0 0 0 0 0 0 0 0 0 0 0 0 0 0 0 0 0 0 0 0 0 0 0 0 0 0 0 0 0 0 0 0 0 0 0 0 0 0 0 0 0 0 0 0 0 0 0 0 0 0 0 0 0 0 0 0 0 0 0 0 0 0 0 0 0 0 0 0 0 0 0 0 
0 0 0 0 0 0 0 0 0 0 0 0 0 0 0 0 0 0 0 0 0 0 0 0 0 0 0 0 0 0 0 0 0 0 0 0 0 0 0 0 0 0 0 0 0 0 0 0 0 0 0 0 0 0 0 0 0 0 0 0 0 0 0 0 0 0 0 0 0 0 0 0 0 0 0 0 0 0 0 0 0 0 0 0 0 0 0 0 0 0 
0 0 0 0 0 0 0 0 0 0 0 0 0 0 0 0 0 0 0 0 0 0 0 0 0 0 0 0 0 0 0 0 0 0 0 0 0 0 0 0 0 0 0 0 0 0 0 0 0 0 0 0 0 0 0 0 0 0 0 0 0 0 0 0 0 0 0 0 0 0 0 0 0 0 0 0 0 0 0 0 0 0 0 0 0 0 0 0 0 0 
0 0 0 0 0 0 0 0 0 0 0 0 0 0 0 0 0 0 0 0 0 0 0 0 0 0 0 0 0 0 0 0 0 0 0 0 0 0 0 0 0 0 0 0 0 0 0 0 0 0 0 0 0 0 0 0 0 0 0 0 0 0 0 0 0 0 0 0 0 0 0 0 0 0 0 0 0 0 0 0 0 0 0 0 0 0 0 0 0 0 
0 0 0 0 0 0 0 0 0 0 0 0 0 0 0 0 0 0 0 0 0 0 0 0 0 0 0 0 0 0 0 0 0 0 0 0 0 0 0 0 0 0 0 0 0 0 0 0 0 0 0 0 0 0 0 0 0 0 0 0 0 0 0 0 0 0 0 0 0 0 0 0 0 0 0 0 0 0 0 0 0 0 0 0 0 0 0 0 0 0 
0 0 0 0 0 0 0 0 0 0 0 0 0 0 0 0 0 0 0 0 0 0 0 0 0 0 0 0 0 0 0 0 0 0 0 0 0 0 0 0 0 0 0 0 0 0 0 0 0 0 0 0 0 0 0 0 0 0 0 0 0 0 0 0 0 0 0 0 0 0 0 0 0 0 0 0 0 0 0 0 0 0 0 0 0 0 0 0 0 0 
# Events [psd1_dat/psd1.dat] N: 
0 0 0 0 0 0 0 0 0 0 0 0 0 0 0 0 0 0 0 0 0 0 0 0 0 0 0 0 0 0 0 0 0 0 0 0 0 0 0 0 0 0 0 0 0 0 0 0 0 0 0 0 0 0 0 0 0 0 0 0 0 0 0 0 0 0 0 0 0 0 0 0 0 0 0 0 0 0 0 0 0 0 0 0 0 0 0 0 0 0 
0 0 0 0 0 0 0 0 0 0 0 0 0 0 0 0 0 0 0 0 0 0 0 0 0 0 0 0 0 0 0 0 0 0 0 0 0 0 0 0 0 0 0 0 0 0 0 0 0 0 0 0 0 0 0 0 0 0 0 0 0 0 0 0 0 0 0 0 0 0 0 0 0 0 0 0 0 0 0 0 0 0 0 0 0 0 0 0 0 0 
0 0 0 0 0 0 0 0 0 0 0 0 0 0 0 0 0 0 0 0 0 0 0 0 0 0 0 0 0 0 0 0 0 0 0 0 0 0 0 0 0 0 0 0 0 0 0 0 0 0 0 0 0 0 0 0 0 0 0 0 0 0 0 0 0 0 0 0 0 0 0 0 0 0 0 0 0 0 0 0 0 0 0 0 0 0 0 0 0 0 
0 0 0 0 0 0 0 0 0 0 0 0 0 0 0 0 0 0 0 0 0 0 0 0 0 0 0 0 0 0 0 0 0 0 0 0 0 0 0 0 0 0 0 0 0 0 0 0 0 0 0 0 0 0 0 0 0 0 0 0 0 0 0 0 0 0 0 0 0 0 0 0 0 0 0 0 0 0 0 0 0 0 0 0 0 0 0 0 0 0 
0 0 0 0 0 0 0 0 0 0 0 0 0 0 0 0 0 0 0 0 0 0 0 0 0 0 0 0 0 0 0 0 0 0 0 0 0 0 0 0 0 0 0 0 0 0 0 0 0 0 0 0 0 0 0 0 0 0 0 0 0 0 0 0 0 0 0 0 0 0 0 0 0 0 0 0 0 0 0 0 0 0 0 0 0 0 0 0 0 0 
0 0 0 0 0 0 0 0 0 0 0 0 0 0 0 0 0 0 0 0 0 0 0 0 0 0 0 0 0 0 0 0 0 0 0 0 0 0 0 0 0 0 0 0 0 0 0 0 0 0 0 0 0 0 0 0 0 0 0 0 0 0 0 0 0 0 0 0 0 0 0 0 0 0 0 0 0 0 0 0 0 0 0 0 0 0 0 0 0 0 
0 0 0 0 0 0 0 0 0 0 0 0 0 0 0 0 0 0 0 0 0 0 0 0 0 0 0 0 0 0 0 0 0 0 0 0 0 0 0 0 0 0 0 0 0 0 0 0 0 0 0 0 0 0 0 0 0 0 0 0 0 0 0 0 0 0 0 0 0 0 0 0 0 0 0 0 0 0 0 0 0 0 0 0 0 0 0 0 0 0 
0 0 0 0 0 0 0 0 0 0 0 0 0 0 0 0 0 0 0 0 0 0 0 0 0 0 0 0 0 0 0 0 0 0 0 0 0 0 0 0 0 0 0 0 0 0 0 0 0 0 0 0 0 0 0 0 0 0 0 0 0 0 0 0 0 0 0 0 0 0 0 0 0 0 0 0 0 0 0 0 0 0 0 0 0 0 0 0 0 0 
0 0 0 0 0 0 0 0 0 0 0 0 0 0 0 0 0 0 0 0 0 0 0 0 0 0 0 0 0 0 0 0 0 0 0 0 0 0 0 0 0 0 0 0 0 0 0 0 0 0 0 0 0 0 0 0 0 0 0 0 0 0 0 0 0 0 0 0 0 0 0 0 0 0 0 0 0 0 0 0 0 0 0 0 0 0 0 0 0 0 
0 0 0 0 0 0 0 0 0 0 0 0 0 0 0 0 0 0 0 0 0 0 0 0 0 0 0 0 0 0 0 0 0 0 0 0 0 0 0 0 0 0 0 0 0 0 0 0 0 0 0 0 0 0 0 0 0 0 0 0 0 0 0 0 0 0 0 0 0 0 0 0 0 0 0 0 0 0 0 0 0 0 0 0 0 0 0 0 0 0 
0 0 0 0 0 0 0 0 0 0 0 0 0 0 0 0 0 0 0 0 0 0 0 0 0 0 0 0 0 0 0 0 0 0 0 0 0 0 0 0 0 0 0 0 0 0 0 0 0 0 0 0 0 0 0 0 0 0 0 0 0 0 0 0 0 0 0 0 0 0 0 0 0 0 0 0 0 0 0 0 0 0 0 0 0 0 0 0 0 0 
0 0 0 0 0 0 0 0 0 0 0 0 0 0 0 0 0 0 0 0 0 0 0 0 0 0 0 0 0 0 0 0 0 0 0 0 0 0 0 0 0 0 0 0 0 0 0 0 0 0 0 0 0 0 0 0 0 0 0 0 0 0 0 0 0 0 0 0 0 0 0 0 0 0 0 0 0 0 0 0 0 0 0 0 0 0 0 0 0 0 
0 0 0 0 0 0 0 0 0 0 0 0 0 0 0 0 0 0 0 0 0 0 0 0 0 0 0 0 0 0 0 0 0 0 0 0 0 0 0 0 0 0 0 0 0 0 0 0 0 0 0 0 0 0 0 0 0 0 0 0 0 0 0 0 0 0 0 0 0 0 0 0 0 0 0 0 0 0 0 0 0 0 0 0 0 0 0 0 0 0 
0 0 0 0 0 0 0 0 0 0 0 0 0 0 0 0 0 0 0 0 0 0 0 0 0 0 0 0 0 0 0 0 0 0 0 0 0 0 0 0 0 0 0 0 0 0 0 0 0 0 0 0 0 0 0 0 0 0 0 0 0 0 0 0 0 0 0 0 0 0 0 0 0 0 0 0 0 0 0 0 0 0 0 0 0 0 0 0 0 0 
0 0 0 0 0 0 0 0 0 0 0 0 0 0 0 0 0 0 0 0 0 0 0 0 0 0 0 0 0 0 0 0 0 0 0 0 0 0 0 0 0 0 0 0 0 0 0 0 0 0 0 0 0 0 0 0 0 0 0 0 0 0 0 0 0 0 0 0 0 0 0 0 0 0 0 0 0 0 0 0 0 0 0 0 0 0 0 0 0 0 
0 0 0 0 0 0 0 0 0 0 0 0 0 0 0 0 0 0 0 0 0 0 0 0 0 0 0 0 0 0 0 0 0 0 0 0 0 0 0 0 0 0 0 0 0 0 0 0 0 0 0 0 0 0 0 0 0 0 0 0 0 0 0 0 0 0 0 0 0 0 0 0 0 0 0 0 0 0 0 0 0 0 0 0 0 0 0 0 0 0 
0 0 0 0 0 0 0 0 0 0 0 0 0 0 0 0 0 0 0 0 0 0 0 0 0 0 0 0 0 0 0 0 0 0 0 0 0 0 0 0 0 0 0 0 0 0 0 0 0 0 0 0 0 0 0 0 0 0 0 0 0 0 0 0 0 0 0 0 0 0 0 0 0 0 0 0 0 0 0 0 0 0 0 0 0 0 0 0 0 0 
0 0 0 0 0 0 0 0 0 0 0 0 0 0 0 0 0 0 0 0 0 0 0 0 0 0 0 0 0 0 0 0 0 0 0 0 0 0 0 0 0 0 0 0 0 0 0 0 0 0 0 0 0 0 0 0 0 0 0 0 0 0 0 0 0 0 0 0 0 0 0 0 0 0 0 0 0 0 0 0 0 0 0 0 0 0 0 0 0 0 
0 0 0 0 0 0 0 0 0 0 0 0 0 0 0 0 0 0 0 0 0 0 0 0 0 0 0 0 0 0 0 0 0 0 0 0 0 0 0 0 0 0 0 0 0 0 0 0 0 0 0 0 0 0 0 0 0 0 0 0 0 0 0 0 0 0 0 0 0 0 0 0 0 0 0 0 0 0 0 0 0 0 0 0 0 0 0 0 0 0 
0 0 0 0 0 0 0 0 0 0 0 0 0 0 0 0 0 0 0 0 0 0 0 0 0 0 0 0 0 0 0 0 0 0 0 0 0 0 0 0 0 0 0 0 0 0 0 0 0 0 0 0 0 0 0 0 0 0 0 0 0 0 0 0 0 0 0 0 0 0 0 0 0 0 0 0 0 0 0 0 0 0 0 0 0 0 0 0 0 0 
0 0 0 0 0 0 0 0 0 0 0 0 0 0 0 0 0 0 0 0 0 0 0 0 0 0 0 0 0 0 0 0 0 0 0 0 0 0 0 0 0 0 0 0 0 0 0 0 0 0 0 0 0 0 0 0 0 0 0 0 0 0 0 0 0 0 0 0 0 0 0 0 0 0 0 0 0 0 0 0 0 0 0 0 0 0 0 0 0 0 
0 0 0 0 0 0 0 0 0 0 0 0 0 0 0 0 0 0 0 0 0 0 0 0 0 0 0 0 0 0 0 0 0 0 0 0 0 0 0 0 0 0 0 0 0 0 0 0 0 0 0 0 0 0 0 0 0 0 0 0 0 0 0 0 0 0 0 0 0 0 0 0 0 0 0 0 0 0 0 0 0 0 0 0 0 0 0 0 0 0 
0 0 0 0 0 0 0 0 0 0 0 0 0 0 0 0 0 0 0 0 0 0 0 0 0 0 0 0 0 0 0 1 0 0 0 0 0 0 0 0 0 0 0 0 0 0 0 0 0 0 0 0 0 0 0 0 0 0 0 0 0 0 0 0 0 0 0 0 0 0 0 0 0 0 0 0 0 0 0 0 0 0 0 0 0 0 0 0 0 0 
0 0 0 0 0 0 0 0 0 0 0 0 0 0 0 0 0 0 0 0 0 0 0 0 0 0 0 0 0 0 0 0 0 0 0 0 0 0 0 0 0 0 0 0 0 0 0 0 0 0 0 0 0 0 0 0 0 0 0 0 0 0 0 0 0 0 0 0 0 0 0 0 0 0 0 0 0 0 0 0 0 0 0 0 0 0 0 0 0 0 
0 0 0 0 0 0 0 0 0 0 0 0 0 0 0 0 0 0 0 0 0 0 0 0 0 0 0 0 0 0 0 0 0 1 0 0 0 0 0 0 0 2 0 0 1 0 0 0 0 1 0 0 0 0 0 0 0 0 0 0 0 0 0 0 0 0 0 0 0 0 0 0 0 0 0 0 0 0 0 0 0 0 0 0 0 0 0 0 0 0 
0 0 0 0 0 0 0 0 0 0 0 0 0 0 0 0 0 0 0 0 0 0 0 0 0 0 0 1 0 0 0 0 1 0 0 0 0 0 1 0 0 0 0 1 0 0 0 1 0 0 0 0 1 0 0 0 0 0 0 0 0 1 0 0 0 0 0 0 0 0 0 0 0 0 0 0 0 0 0 0 0 0 0 0 0 0 0 0 0 0 
0 0 0 0 0 0 0 0 0 0 0 0 0 0 0 0 0 0 0 0 0 0 0 0 0 0 0 0 0 0 1 0 0 0 1 0 0 0 0 2 1 1 0 0 0 0 1 1 1 1 2 0 0 1 0 0 1 0 0 0 0 0 0 0 0 0 0 0 0 0 0 0 0 0 0 0 0 0 0 0 0 0 0 0 0 0 0 0 0 0 
0 0 0 0 0 0 0 0 0 0 0 0 0 0 0 0 0 0 0 0 0 0 0 0 0 0 0 0 0 0 0 1 0 2 0 0 2 3 0 0 3 0 2 2 1 5 1 2 1 1 2 2 2 1 0 1 1 1 3 0 0 1 1 1 0 2 0 0 0 0 0 0 0 0 0 0 0 0 0 0 0 0 0 0 0 0 0 0 0 0 
0 0 0 0 0 0 0 0 0 0 0 0 0 0 0 0 0 0 0 0 0 0 0 0 1 1 1 1 1 0 0 2 1 3 2 3 4 1 3 3 4 5 1 4 7 6 2 4 8 8 6 3 3 2 5 2 3 4 0 0 0 0 1 1 0 0 0 2 0 0 0 0 0 0 0 0 0 0 0 0 0 0 0 0 0 0 0 0 0 0 
0 0 0 0 0 0 0 0 0 0 0 0 0 0 0 0 0 0 0 0 2 3 0 0 2 0 0 6 1 1 1 3 4 6 4 6 3 6 7 9 10 13 10 11 7 14 12 12 18 8 10 9 5 6 6 8 0 2 0 3 2 1 0 0 0 1 4 1 0 0 0 0 0 0 0 0 0 0 0 0 0 0 0 0 0 0 0 0 0 0 
0 0 0 0 0 0 0 0 0 0 0 0 0 0 0 0 0 0 0 1 0 1 3 1 2 5 1 3 4 3 8 9 13 7 16 10 15 12 22 17 21 27 26 21 33 20 18 15 20 21 22 18 11 22 11 4 7 14 10 7 6 4 3 2 1 1 1 0 1 0 0 1 0 1 0 0 1 0 0 0 0 1 0 0 0 0 0 0 0 0 
0 0 0 0 0 0 0 0 0 0 0 0 0 0 0 0 0 0 3 1 1 0 1 2 5 1 7 11 7 13 20 12 12 14 24 20 30 42 35 25 52 45 42 44 41 41 39 39 33 35 27 38 31 20 19 26 22 17 7 14 13 10 10 9 4 5 3 1 2 3 0 0 1 0 1 0 0 0 0 0 0 0 0 0 0 0 0 0 0 0 
0 0 0 0 0 0 0 0 0 1 0 1 0 1 0 0 0 1 2 1 3 2 2 4 9 7 12 19 21 17 22 21 33 37 53 51 51 63 61 70 81 67 84 81 78 75 86 81 74 70 72 68 68 56 48 33 48 25 30 16 22 14 14 7 14 6 5 4 1 3 4 3 0 0 0 0 2 0 0 0 0 0 0 0 0 0 0 0 0 0 
0 0 0 0 0 0 0 0 0 0 0 0 1 0 0 2 1 2 3 3 8 4 5 8 10 17 21 18 30 43 41 36 55 64 97 89 106 111 119 140 139 142 145 150 157 172 158 137 134 139 136 119 108 80 96 63 68 64 51 46 43 25 21 24 9 7 6 8 9 4 6 3 1 1 2 1 0 0 0 0 0 0 0 0 0 0 0 0 0 0 
0 0 0 0 0 0 0 0 0 0 0 0 0 2 0 2 1 4 6 7 4 11 17 20 17 27 33 51 45 57 79 78 105 132 153 161 188 202 181 211 242 253 261 268 252 273 290 236 239 230 238 193 164 168 171 119 98 85 90 81 60 43 33 31 33 20 16 8 9 7 9 4 3 1 0 1 0 2 0 0 0 0 0 0 0 0 0 0 0 0 
0 0 0 0 0 0 0 1 0 0 0 0 0 1 1 3 0 4 4 7 15 23 24 27 33 27 50 71 94 114 112 145 157 188 227 286 293 298 318 355 377 398 412 429 462 415 422 410 402 418 418 353 301 290 237 227 181 155 150 115 88 83 63 59 35 32 25 15 17 12 8 5 1 7 4 6 0 0 0 0 0 0 0 0 0 0 0 0 0 0 
0 0 0 0 0 0 0 0 0 0 1 0 0 1 1 9 2 6 15 19 18 14 26 44 47 62 71 105 139 126 183 228 268 287 317 407 436 483 519 609 608 638 663 639 683 663 644 638 645 626 544 514 492 392 424 369 265 238 216 192 150 115 102 72 69 60 43 29 25 13 12 7 3 3 1 0 1 2 0 0 0 0 0 0 0 0 0 0 0 0 
0 0 0 0 0 0 0 0 0 0 0 2 0 1 4 7 11 15 17 24 28 36 41 61 82 86 116 143 188 235 269 339 379 464 497 553 628 667 786 801 876 905 913 908 962 1013 1024 945 896 889 820 758 710 628 575 534 434 390 330 269 255 196 152 108 99 83 53 54 38 27 18 17 4 4 5 6 2 3 0 2 0 0 0 0 2 0 0 0 0 0 
0 0 0 0 0 0 0 0 2 2 2 2 1 7 4 9 12 7 18 26 43 45 64 94 109 124 158 208 262 328 373 431 536 622 678 787 887 1002 1103 1160 1240 1322 1341 1379 1323 1400 1348 1271 1312 1184 1161 1068 981 896 843 713 617 529 441 383 334 255 243 141 156 96 77 70 37 28 21 29 15 14 5 5 0 2 2 2 0 0 0 0 0 0 0 0 0 0 
0 0 0 0 0 1 1 0 0 0 1 3 2 2 7 13 14 20 23 47 42 54 73 123 132 178 235 286 371 423 528 565 697 811 890 1045 1209 1239 1451 1538 1604 1692 1769 1874 1928 1916 1912 1798 1721 1643 1566 1463 1342 1197 1124 905 795 734 591 501 461 332 295 242 179 129 120 101 55 38 32 24 24 10 6 6 6 3 4 4 0 1 0 1 0 0 0 0 0 0 
0 0 0 0 0 0 0 0 1 2 2 4 4 7 13 9 13 24 23 53 60 87 113 136 190 216 299 378 461 549 626 756 943 1081 1191 1334 1524 1666 1877 1958 2110 2199 2336 2287 2420 2378 2286 2385 2210 2111 1926 1790 1714 1472 1376 1208 1051 949 806 690 535 456 354 289 242 173 126 115 63 53 35 43 26 14 11 4 6 5 2 1 1 0 0 2 0 0 0 0 0 0 
0 0 0 0 0 0 0 1 0 2 0 3 4 8 13 14 27 24 38 52 59 97 143 182 204 282 371 443 567 667 828 945 1051 1275 1471 1673 1794 2081 2228 2341 2623 2702 2682 2790 2885 2840 2895 2812 2641 2587 2339 2205 2061 1818 1597 1463 1264 1061 941 836 694 535 456 368 272 211 186 133 111 69 48 40 36 19 13 7 10 4 2 0 0 1 1 0 0 0 1 0 0 0 
0 0 0 0 0 0 1 1 0 0 0 3 5 10 15 9 29 39 54 57 84 110 171 190 282 284 405 529 606 795 945 1123 1314 1500 1742 1857 2151 2305 2615 2785 2961 3038 3185 3411 3400 3367 3235 3150 3017 2939 2785 2548 2383 2083 1941 1633 1483 1245 1077 853 818 650 480 397 363 251 181 161 112 90 60 33 27 16 14 12 6 4 4 3 0 1 0 1 0 0 0 0 0 0 
0 0 0 0 0 0 1 1 0 4 3 5 5 3 10 19 25 37 58 74 90 130 158 220 261 362 433 580 653 875 983 1135 1435 1599 1935 2148 2314 2578 2832 3135 3199 3487 3559 3562 3723 3581 3755 3507 3387 3259 3071 2778 2563 2357 2098 1920 1644 1437 1177 1021 858 737 574 438 367 290 234 174 142 100 80 56 31 23 16 19 12 9 4 2 0 2 0 0 1 0 1 0 0 0 
0 0 0 0 1 0 0 1 3 2 5 11 9 11 15 15 28 34 43 71 108 135 182 215 326 375 473 630 719 930 1092 1257 1474 1702 1942 2185 2482 2695 2924 3205 3490 3507 3704 3739 3953 3767 3780 3726 3552 3415 3200 3082 2716 2482 2259 1967 1751 1506 1264 1040 867 728 565 492 381 303 236 206 148 87 81 44 29 29 24 12 13 3 1 6 2 1 0 0 0 0 0 1 0 0 
0 0 0 0 0 0 0 0 2 1 2 9 9 10 19 23 29 34 48 74 95 128 169 230 318 398 512 561 720 881 1003 1261 1542 1820 1970 2210 2531 2667 2978 3284 3502 3503 3708 3834 3854 3890 3874 3792 3573 3436 3164 2958 2753 2535 2264 1961 1649 1446 1324 1032 816 723 625 478 382 284 251 160 128 110 75 49 31 22 15 13 6 7 3 1 1 2 0 1 0 0 0 0 0 0 
0 0 0 0 0 0 1 1 1 2 1 5 4 9 7 16 26 34 51 62 85 152 158 230 321 354 448 535 679 789 1061 1164 1412 1604 1833 2040 2310 2586 2934 3017 3162 3386 3502 3568 3683 3646 3608 3499 3393 3177 3092 2712 2529 2374 2119 1953 1648 1432 1201 1026 895 704 555 434 376 266 250 170 130 110 68 60 34 25 18 16 9 3 4 3 0 1 1 1 0 0 0 0 0 0 
0 0 0 0 0 0 2 0 0 3 1 5 4 9 8 16 22 33 42 52 83 109 168 214 277 334 438 538 673 784 935 1077 1238 1539 1677 1947 2056 2352 2608 2818 3011 3107 3182 3209 3357 3310 3301 3257 3187 2865 2753 2669 2459 2133 1926 1704 1472 1259 1122 956 777 633 544 405 339 255 206 152 109 76 57 35 36 28 10 18 9 5 4 1 4 1 0 0 0 0 0 0 0 0 
0 0 0 0 1 0 1 0 1 1 1 4 5 7 15 18 15 28 38 63 97 101 127 167 222 271 360 443 544 706 788 941 1147 1258 1477 1579 1824 2026 2237 2336 2585 2707 2772 2858 2907 2848 2824 2800 2591 2606 2438 2159 2103 1862 1636 1467 1362 1127 951 779 714 536 444 323 295 223 181 147 99 86 48 37 33 21 17 17 8 3 3 3 1 1 0 0 0 0 0 0 0 0 
0 0 0 0 0 1 0 0 0 0 2 4 6 8 9 10 9 26 38 59 71 89 116 144 197 233 294 362 429 505 655 747 940 1074 1169 1341 1492 1673 1756 1968 2083 2227 2234 2396 2346 2384 2351 2262 2273 2107 1830 1868 1655 1509 1361 1184 1105 898 781 680 553 447 362 329 231 195 130 81 73 59 49 32 20 17 10 11 7 3 5 1 2 2 1 0 0 0 0 0 0 0 
0 0 0 0 0 1 1 0 0 2 5 4 5 5 7 6 8 24 29 32 49 67 80 115 146 171 243 293 361 439 496 646 742 825 952 1078 1194 1346 1428 1512 1674 1693 1723 1883 1795 1875 1824 1827 1774 1675 1575 1381 1274 1173 1013 936 792 698 579 487 429 367 268 230 185 131 102 78 59 49 34 23 12 11 6 6 3 1 1 0 2 0 0 0 0 0 1 0 0 0 
0 0 0 0 0 0 1 0 0 1 0 1 2 3 3 5 13 18 22 38 32 51 69 91 138 118 178 214 257 332 347 429 535 624 707 850 849 967 1051 1170 1159 1341 1372 1375 1439 1433 1382 1353 1249 1219 1180 1070 955 906 784 718 612 508 390 390 343 273 205 150 132 105 83 60 47 34 28 19 16 8 9 3 2 2 2 1 0 0 0 0 0 0 0 0 0 0 
0 0 0 0 0 0 0 0 0 0 0 0 2 3 4 5 9 12 19 18 30 30 46 62 87 83 133 156 173 247 284 321 357 460 481 588 654 728 756 857 892 865 972 1034 994 986 959 967 903 885 828 763 687 659 570 499 403 360 344 274 250 194 174 124 107 78 60 48 29 24 17 11 3 7 10 2 3 0 2 1 0 0 0 0 0 0 0 0 0 0 
0 0 0 0 0 0 1 0 0 1 2 0 0 1 3 2 7 8 12 9 16 21 29 39 47 50 90 118 136 165 189 215 237 302 346 382 452 512 528 573 595 601 656 616 682 650 665 622 607 576 546 517 479 423 379 346 314 261 224 178 142 123 101 103 75 60 36 31 23 24 11 9 3 6 5 5 3 0 0 1 0 0 0 0 1 1 0 0 0 0 
0 0 0 0 0 0 0 0 0 0 2 0 2 1 2 2 3 2 8 4 16 17 18 40 26 52 55 74 94 121 111 141 154 188 237 262 274 316 332 357 378 385 462 398 377 434 411 402 359 434 359 366 348 267 271 219 193 154 156 108 85 84 76 48 34 28 25 23 9 8 4 6 6 3 0 1 2 0 0 0 0 0 0 0 0 0 0 0 0 0 
0 0 0 0 0 0 0 0 0 0 0 1 0 0 1 1 0 4 0 6 6 12 12 8 21 33 27 49 47 74 71 88 105 124 129 157 184 203 214 237 232 235 249 279 259 251 249 257 248 261 228 176 175 160 147 123 132 105 92 65 58 47 41 34 16 23 14 7 8 7 0 1 2 1 2 1 0 1 1 0 1 0 0 0 0 0 0 0 0 0 
0 0 0 0 0 1 0 0 0 0 0 0 0 0 0 0 1 3 4 2 5 8 6 5 10 13 20 20 42 36 52 58 46 76 80 88 115 118 108 134 124 153 168 152 175 166 166 151 170 153 145 124 107 92 90 73 66 52 50 43 26 26 21 18 15 8 7 12 7 8 4 4 0 2 2 0 1 0 0 0 0 0 0 0 0 0 0 0 0 0 
0 0 0 0 0 0 0 0 0 0 0 0 0 0 1 0 0 0 1 2 2 2 5 9 4 6 9 16 14 17 30 22 31 43 49 59 54 47 73 68 79 89 79 97 84 84 66 83 81 76 75 68 61 60 49 48 34 42 19 27 23 15 17 16 13 4 10 5 1 2 3 0 2 0 0 1 0 0 0 0 0 0 0 0 0 0 0 0 0 0 
0 0 0 0 0 0 0 0 0 0 0 0 0 0 0 0 2 0 0 0 1 1 1 3 1 4 8 8 7 15 15 9 20 15 22 27 43 32 28 42 37 39 44 40 67 46 49 39 39 44 33 36 34 29 26 18 29 14 15 13 10 8 7 4 6 1 2 1 2 1 0 1 0 0 0 0 1 0 0 0 0 0 0 0 0 0 0 0 0 0 
0 0 0 0 0 0 0 0 0 0 0 0 0 0 0 0 0 0 0 0 0 2 1 2 1 4 2 3 5 7 3 12 12 10 19 14 15 12 18 23 17 11 14 22 22 35 23 18 9 27 19 18 16 13 14 10 5 11 12 9 8 5 5 4 4 2 1 0 1 1 0 0 0 0 0 0 0 0 0 0 0 0 0 0 0 0 0 0 0 0 
0 0 0 0 0 0 0 0 0 0 0 0 0 0 0 0 0 0 0 0 0 1 0 1 0 0 2 1 3 5 4 3 4 5 8 14 6 6 11 14 6 9 7 7 12 11 9 17 8 7 9 10 8 10 5 8 4 3 3 4 1 3 3 0 1 1 1 0 0 0 0 0 0 0 0 0 0 0 0 0 0 0 0 0 0 0 0 0 0 0 
0 0 0 0 0 0 0 0 0 0 0 0 0 0 0 0 0 0 0 0 0 0 1 0 1 0 1 2 3 1 1 2 2 4 2 1 1 1 2 6 2 4 4 5 8 3 4 6 4 2 6 5 5 3 3 4 5 3 2 2 4 0 0 0 0 0 0 0 0 0 0 0 0 0 0 0 0 0 0 0 0 0 0 0 0 0 0 0 0 0 
0 0 0 0 0 0 0 0 0 0 0 0 0 0 0 0 0 0 0 0 0 0 0 0 0 0 1 0 0 0 0 0 1 0 2 0 1 1 2 1 5 4 1 2 1 5 0 0 1 2 2 1 1 1 5 1 1 0 4 1 0 0 0 0 0 0 0 0 0 0 0 1 0 0 0 0 0 0 0 0 0 0 0 0 0 0 0 0 0 0 
0 0 0 0 0 0 0 0 0 0 0 0 0 0 0 0 0 0 0 0 0 0 0 1 0 0 0 0 1 0 0 1 1 0 0 1 0 1 1 3 2 0 0 1 1 1 2 1 0 2 2 0 1 0 0 1 1 1 2 0 0 0 0 0 0 0 0 0 0 0 0 0 0 0 0 0 0 0 0 0 0 0 0 0 0 0 0 0 0 0 
0 0 0 0 0 0 0 0 0 0 0 0 0 0 0 0 0 0 0 0 0 0 0 0 0 0 0 0 0 0 0 0 0 0 0 0 0 0 1 0 1 0 0 0 1 0 0 0 0 0 0 0 0 0 1 0 0 0 0 0 0 0 0 0 0 0 0 0 0 0 0 0 0 0 0 0 0 0 0 0 0 0 0 0 0 0 0 0 0 0 
0 0 0 0 0 0 0 0 0 0 0 0 0 0 0 0 0 0 0 0 0 0 0 0 0 0 0 0 0 0 0 0 0 0 0 0 0 0 0 0 0 0 1 0 0 2 0 0 0 0 0 1 0 0 0 0 0 0 0 0 0 0 0 0 0 0 0 0 0 0 0 0 0 0 0 0 0 0 0 0 0 0 0 0 0 0 0 0 0 0 
0 0 0 0 0 0 0 0 0 0 0 0 0 0 0 0 0 0 0 0 0 0 0 0 0 0 0 0 0 0 0 0 0 0 0 0 0 0 0 0 0 0 0 0 0 0 0 0 0 0 0 0 0 0 0 0 0 0 0 0 0 0 0 0 0 0 0 0 0 0 0 0 0 0 0 0 0 0 0 0 0 0 0 0 0 0 0 0 0 0 
0 0 0 0 0 0 0 0 0 0 0 0 0 0 0 0 0 0 0 0 0 0 0 0 0 0 0 0 0 0 0 0 0 0 0 0 0 0 0 0 0 0 0 0 0 0 0 0 0 0 0 0 0 0 0 0 0 0 0 0 0 0 0 0 0 0 0 0 0 0 0 0 0 0 0 0 0 0 0 0 0 0 0 0 0 0 0 0 0 0 
0 0 0 0 0 0 0 0 0 0 0 0 0 0 0 0 0 0 0 0 0 0 0 0 0 0 0 0 0 0 0 0 0 0 0 0 0 0 0 0 0 0 0 0 0 0 0 0 0 0 0 0 0 0 0 0 0 0 0 0 0 0 0 0 0 0 0 0 0 0 0 0 0 0 0 0 0 0 0 0 0 0 0 0 0 0 0 0 0 0 
0 0 0 0 0 0 0 0 0 0 0 0 0 0 0 0 0 0 0 0 0 0 0 0 0 0 0 0 0 0 0 0 0 0 0 0 0 0 0 0 0 0 0 0 0 0 0 0 0 0 0 0 0 0 0 0 0 0 0 0 0 0 0 0 0 0 0 0 0 0 0 0 0 0 0 0 0 0 0 0 0 0 0 0 0 0 0 0 0 0 
0 0 0 0 0 0 0 0 0 0 0 0 0 0 0 0 0 0 0 0 0 0 0 0 0 0 0 0 0 0 0 0 0 0 0 0 0 0 0 0 0 0 0 0 0 0 0 0 0 0 0 0 0 0 0 0 0 0 0 0 0 0 0 0 0 0 0 0 0 0 0 0 0 0 0 0 0 0 0 0 0 0 0 0 0 0 0 0 0 0 
0 0 0 0 0 0 0 0 0 0 0 0 0 0 0 0 0 0 0 0 0 0 0 0 0 0 0 0 0 0 0 0 0 0 0 0 0 0 0 0 0 0 0 0 0 0 0 0 0 0 0 0 0 0 0 0 0 0 0 0 0 0 0 0 0 0 0 0 0 0 0 0 0 0 0 0 0 0 0 0 0 0 0 0 0 0 0 0 0 0 
0 0 0 0 0 0 0 0 0 0 0 0 0 0 0 0 0 0 0 0 0 0 0 0 0 0 0 0 0 0 0 0 0 0 0 0 0 0 0 0 0 0 0 0 0 0 0 0 0 0 0 0 0 0 0 0 0 0 0 0 0 0 0 0 0 0 0 0 0 0 0 0 0 0 0 0 0 0 0 0 0 0 0 0 0 0 0 0 0 0 
0 0 0 0 0 0 0 0 0 0 0 0 0 0 0 0 0 0 0 0 0 0 0 0 0 0 0 0 0 0 0 0 0 0 0 0 0 0 0 0 0 0 0 0 0 0 0 0 0 0 0 0 0 0 0 0 0 0 0 0 0 0 0 0 0 0 0 0 0 0 0 0 0 0 0 0 0 0 0 0 0 0 0 0 0 0 0 0 0 0 
0 0 0 0 0 0 0 0 0 0 0 0 0 0 0 0 0 0 0 0 0 0 0 0 0 0 0 0 0 0 0 0 0 0 0 0 0 0 0 0 0 0 0 0 0 0 0 0 0 0 0 0 0 0 0 0 0 0 0 0 0 0 0 0 0 0 0 0 0 0 0 0 0 0 0 0 0 0 0 0 0 0 0 0 0 0 0 0 0 0 
0 0 0 0 0 0 0 0 0 0 0 0 0 0 0 0 0 0 0 0 0 0 0 0 0 0 0 0 0 0 0 0 0 0 0 0 0 0 0 0 0 0 0 0 0 0 0 0 0 0 0 0 0 0 0 0 0 0 0 0 0 0 0 0 0 0 0 0 0 0 0 0 0 0 0 0 0 0 0 0 0 0 0 0 0 0 0 0 0 0 
0 0 0 0 0 0 0 0 0 0 0 0 0 0 0 0 0 0 0 0 0 0 0 0 0 0 0 0 0 0 0 0 0 0 0 0 0 0 0 0 0 0 0 0 0 0 0 0 0 0 0 0 0 0 0 0 0 0 0 0 0 0 0 0 0 0 0 0 0 0 0 0 0 0 0 0 0 0 0 0 0 0 0 0 0 0 0 0 0 0 
0 0 0 0 0 0 0 0 0 0 0 0 0 0 0 0 0 0 0 0 0 0 0 0 0 0 0 0 0 0 0 0 0 0 0 0 0 0 0 0 0 0 0 0 0 0 0 0 0 0 0 0 0 0 0 0 0 0 0 0 0 0 0 0 0 0 0 0 0 0 0 0 0 0 0 0 0 0 0 0 0 0 0 0 0 0 0 0 0 0 
0 0 0 0 0 0 0 0 0 0 0 0 0 0 0 0 0 0 0 0 0 0 0 0 0 0 0 0 0 0 0 0 0 0 0 0 0 0 0 0 0 0 0 0 0 0 0 0 0 0 0 0 0 0 0 0 0 0 0 0 0 0 0 0 0 0 0 0 0 0 0 0 0 0 0 0 0 0 0 0 0 0 0 0 0 0 0 0 0 0 
0 0 0 0 0 0 0 0 0 0 0 0 0 0 0 0 0 0 0 0 0 0 0 0 0 0 0 0 0 0 0 0 0 0 0 0 0 0 0 0 0 0 0 0 0 0 0 0 0 0 0 0 0 0 0 0 0 0 0 0 0 0 0 0 0 0 0 0 0 0 0 0 0 0 0 0 0 0 0 0 0 0 0 0 0 0 0 0 0 0 
0 0 0 0 0 0 0 0 0 0 0 0 0 0 0 0 0 0 0 0 0 0 0 0 0 0 0 0 0 0 0 0 0 0 0 0 0 0 0 0 0 0 0 0 0 0 0 0 0 0 0 0 0 0 0 0 0 0 0 0 0 0 0 0 0 0 0 0 0 0 0 0 0 0 0 0 0 0 0 0 0 0 0 0 0 0 0 0 0 0 
0 0 0 0 0 0 0 0 0 0 0 0 0 0 0 0 0 0 0 0 0 0 0 0 0 0 0 0 0 0 0 0 0 0 0 0 0 0 0 0 0 0 0 0 0 0 0 0 0 0 0 0 0 0 0 0 0 0 0 0 0 0 0 0 0 0 0 0 0 0 0 0 0 0 0 0 0 0 0 0 0 0 0 0 0 0 0 0 0 0 
0 0 0 0 0 0 0 0 0 0 0 0 0 0 0 0 0 0 0 0 0 0 0 0 0 0 0 0 0 0 0 0 0 0 0 0 0 0 0 0 0 0 0 0 0 0 0 0 0 0 0 0 0 0 0 0 0 0 0 0 0 0 0 0 0 0 0 0 0 0 0 0 0 0 0 0 0 0 0 0 0 0 0 0 0 0 0 0 0 0 
0 0 0 0 0 0 0 0 0 0 0 0 0 0 0 0 0 0 0 0 0 0 0 0 0 0 0 0 0 0 0 0 0 0 0 0 0 0 0 0 0 0 0 0 0 0 0 0 0 0 0 0 0 0 0 0 0 0 0 0 0 0 0 0 0 0 0 0 0 0 0 0 0 0 0 0 0 0 0 0 0 0 0 0 0 0 0 0 0 0 
0 0 0 0 0 0 0 0 0 0 0 0 0 0 0 0 0 0 0 0 0 0 0 0 0 0 0 0 0 0 0 0 0 0 0 0 0 0 0 0 0 0 0 0 0 0 0 0 0 0 0 0 0 0 0 0 0 0 0 0 0 0 0 0 0 0 0 0 0 0 0 0 0 0 0 0 0 0 0 0 0 0 0 0 0 0 0 0 0 0 
0 0 0 0 0 0 0 0 0 0 0 0 0 0 0 0 0 0 0 0 0 0 0 0 0 0 0 0 0 0 0 0 0 0 0 0 0 0 0 0 0 0 0 0 0 0 0 0 0 0 0 0 0 0 0 0 0 0 0 0 0 0 0 0 0 0 0 0 0 0 0 0 0 0 0 0 0 0 0 0 0 0 0 0 0 0 0 0 0 0 
0 0 0 0 0 0 0 0 0 0 0 0 0 0 0 0 0 0 0 0 0 0 0 0 0 0 0 0 0 0 0 0 0 0 0 0 0 0 0 0 0 0 0 0 0 0 0 0 0 0 0 0 0 0 0 0 0 0 0 0 0 0 0 0 0 0 0 0 0 0 0 0 0 0 0 0 0 0 0 0 0 0 0 0 0 0 0 0 0 0 
0 0 0 0 0 0 0 0 0 0 0 0 0 0 0 0 0 0 0 0 0 0 0 0 0 0 0 0 0 0 0 0 0 0 0 0 0 0 0 0 0 0 0 0 0 0 0 0 0 0 0 0 0 0 0 0 0 0 0 0 0 0 0 0 0 0 0 0 0 0 0 0 0 0 0 0 0 0 0 0 0 0 0 0 0 0 0 0 0 0 
0 0 0 0 0 0 0 0 0 0 0 0 0 0 0 0 0 0 0 0 0 0 0 0 0 0 0 0 0 0 0 0 0 0 0 0 0 0 0 0 0 0 0 0 0 0 0 0 0 0 0 0 0 0 0 0 0 0 0 0 0 0 0 0 0 0 0 0 0 0 0 0 0 0 0 0 0 0 0 0 0 0 0 0 0 0 0 0 0 0 
0 0 0 0 0 0 0 0 0 0 0 0 0 0 0 0 0 0 0 0 0 0 0 0 0 0 0 0 0 0 0 0 0 0 0 0 0 0 0 0 0 0 0 0 0 0 0 0 0 0 0 0 0 0 0 0 0 0 0 0 0 0 0 0 0 0 0 0 0 0 0 0 0 0 0 0 0 0 0 0 0 0 0 0 0 0 0 0 0 0 
# EndDate:Wed Jan 23 15:09:16 2013
