# Format: McStas with text headers file. Use mcplot/PGPLOT to view.
# URL:    http://www.mccode.org/
# Editor: erkn on localhost
# Creator:Test_src_gaussian (Test_src_gaussian.instr) simulation (McXtrace x.y.z - Jan. 22, 2013)
# Date:   Simulation started (1358947119) Wed Jan 23 14:18:39 2013
# File:   emon1.dat
# Ncount: 250000
# Trace: no
# Gravitation: no
# Seed: 1358947115
# Param: XW=0.01
# Param: YH=0.01
# Param: DIST=10
# Param: SRC=2
# Param: E0=9.025
# type: array_1d(100)
# Source: Test_src_gaussian.instr
# component: emon1
# position: 0 0 9.997
# title: Energy monitor
# Ncount: 250000
# filename: emon1.dat
# format: McStas with text headers
# statistics: X0=6.90773; dX=2.93943;
# signal: Min=0; Max=9.45181e+12; Mean=4.30909e+12;
# values: 4.30909e+14 4.57018e+11 1e+06
# xvar: E
# yvar: (I,I_err)
# xlabel: Energy [keV]
# ylabel: Intensity
# xlimits: 0 20
# variables: E I I_err N
# Data [emon1_dat/emon1.dat] I: 
0.1 160459187829 1471509014.56 16474 
0.3 549241845680 4377547675.82 16493 
0.5 986628866165 7741328392.19 16525 
0.7 1.46182874493e+12 11360169227.2 16700 
0.9 1.9401734151e+12 15021927197.7 16765 
1.1 2.39696925209e+12 18611722620 16640 
1.3 2.87368549524e+12 22258144346.3 16705 
1.5 3.28930070855e+12 25651134806.1 16469 
1.7 3.7578358985e+12 29191869125.5 16590 
1.9 4.14400729925e+12 32372242754.5 16401 
2.1 4.60966868323e+12 35795010951.1 16595 
2.3 5.10337145474e+12 39257277832.5 16908 
2.5 5.33427876412e+12 41646973226.5 16412 
2.7 5.79760890127e+12 44855540686.3 16711 
2.9 6.19039963928e+12 47723371231.3 16830 
3.1 6.42102841058e+12 49882397367.9 16573 
3.3 6.74505947719e+12 52316702345.7 16625 
3.5 7.05793072681e+12 54650553631.1 16681 
3.7 7.35843408338e+12 56852413462.2 16754 
3.9 7.71718722491e+12 59202794767.8 16993 
4.1 7.79156323654e+12 60385414005.7 16650 
4.3 8.02960891196e+12 62127314314.1 16705 
4.5 8.22369026652e+12 63622930890.6 16708 
4.7 8.31613959702e+12 64661830445.1 16541 
4.9 8.57184492794e+12 66264365584.9 16734 
5.1 8.63707502974e+12 67065666030.9 16586 
5.3 8.74001100246e+12 67950849869.6 16544 
5.5 9.04829344766e+12 69567668997 16917 
5.7 8.98479500027e+12 69691736759.2 16621 
5.9 9.030350657e+12 70180279858.5 16557 
6.1 9.24837800833e+12 71289252967.5 16830 
6.3 9.21286104267e+12 71351180490.9 16672 
6.5 9.24779307456e+12 71645318543.5 16661 
6.7 9.21387450086e+12 71625828215.1 16548 
6.9 9.29422336048e+12 72004991209.2 16661 
7.1 9.33227992265e+12 72176463436.5 16718 
7.3 9.29808870465e+12 72030611803.1 16663 
7.5 9.45181212198e+12 72571119426.4 16963 
7.7 9.25474574083e+12 71722847383.2 16650 
7.9 9.24224248143e+12 71555088676 16683 
8.1 9.18988256915e+12 71200970613.5 16659 
8.3 9.06772687295e+12 70545231814.8 16522 
8.5 9.14136664501e+12 70619833045.5 16756 
8.7 9.00234818482e+12 69846677288.7 16612 
8.9 9.02029053285e+12 69657526981.3 16769 
9.1 8.91057742078e+12 68950268911.7 16701 
9.3 8.86799327654e+12 68481505199 16769 
9.5 8.75846297026e+12 67734757633.2 16720 
9.7 8.73065919597e+12 67284741988.9 16837 
9.9 8.44875227638e+12 65835652259.8 16469 
10.1 8.40277926623e+12 65179192901.7 16621 
10.3 8.33844994286e+12 64587074699.2 16668 
10.5 8.30071829963e+12 64110586944.8 16764 
10.7 8.15462459785e+12 63131187109.4 16685 
10.9 7.964418047e+12 61975226517.7 16515 
11.1 7.95471411551e+12 61509926790.2 16725 
11.3 7.75576465704e+12 60302383382.5 16542 
11.5 7.73772712368e+12 59791018456.8 16748 
11.7 7.67107807571e+12 59080600423.8 16859 
11.9 7.425955957e+12 57632597509.4 16603 
12.1 0 0 0 
12.3 0 0 0 
12.5 0 0 0 
12.7 0 0 0 
12.9 0 0 0 
13.1 0 0 0 
13.3 0 0 0 
13.5 0 0 0 
13.7 0 0 0 
13.9 0 0 0 
14.1 0 0 0 
14.3 0 0 0 
14.5 0 0 0 
14.7 0 0 0 
14.9 0 0 0 
15.1 0 0 0 
15.3 0 0 0 
15.5 0 0 0 
15.7 0 0 0 
15.9 0 0 0 
16.1 0 0 0 
16.3 0 0 0 
16.5 0 0 0 
16.7 0 0 0 
16.9 0 0 0 
17.1 0 0 0 
17.3 0 0 0 
17.5 0 0 0 
17.7 0 0 0 
17.9 0 0 0 
18.1 0 0 0 
18.3 0 0 0 
18.5 0 0 0 
18.7 0 0 0 
18.9 0 0 0 
19.1 0 0 0 
19.3 0 0 0 
19.5 0 0 0 
19.7 0 0 0 
19.9 0 0 0 
# EndDate:Wed Jan 23 14:18:39 2013
