# Format: McStas with text headers file. Use mcplot/PGPLOT to view.
# URL:    http://www.mccode.org/
# Editor: erkn on localhost
# Creator:Test_src_gaussian (Test_src_gaussian.instr) simulation (McXtrace x.y.z - Jan. 22, 2013)
# Date:   Simulation started (1360080814) Tue Feb  5 17:13:34 2013
# File:   emon00.dat
# Ncount: 1e+06
# Trace: no
# Gravitation: no
# Seed: 1360080808
# Param: XW=0
# Param: YH=0
# Param: DIST=10
# Param: SRC=3
# Param: E0=12.1
# type: array_1d(66)
# Source: Test_src_gaussian.instr
# component: emon00
# position: 0 0 0.09
# title: Energy monitor
# Ncount: 1e+06
# filename: emon00.dat
# format: McStas with text headers
# statistics: X0=8.96392; dX=0.0943969;
# signal: Min=0; Max=1.28735e+19; Mean=2.27823e+17;
# values: 1.50363e+19 5.44919e+16 999999
# xvar: E
# yvar: (I,I_err)
# xlabel: Energy [keV]
# ylabel: Intensity
# xlimits: 0.1 13
# variables: E I I_err N
# Data [emon00_dat/emon00.dat] I: 
0.197727272727 0 0 0 
0.393181818182 0 0 0 
0.588636363636 0 0 0 
0.784090909091 0 0 0 
0.979545454545 0 0 0 
1.175 0 0 0 
1.37045454545 0 0 0 
1.56590909091 0 0 0 
1.76136363636 0 0 0 
1.95681818182 0 0 0 
2.15227272727 0 0 0 
2.34772727273 0 0 0 
2.54318181818 0 0 0 
2.73863636364 0 0 0 
2.93409090909 0 0 0 
3.12954545455 0 0 0 
3.325 0 0 0 
3.52045454545 0 0 0 
3.71590909091 0 0 0 
3.91136363636 0 0 0 
4.10681818182 0 0 0 
4.30227272727 0 0 0 
4.49772727273 0 0 0 
4.69318181818 0 0 0 
4.88863636364 0 0 0 
5.08409090909 0 0 0 
5.27954545455 0 0 0 
5.475 0 0 0 
5.67045454545 0 0 0 
5.86590909091 0 0 0 
6.06136363636 0 0 0 
6.25681818182 0 0 0 
6.45227272727 0 0 0 
6.64772727273 0 0 0 
6.84318181818 0 0 0 
7.03863636364 0 0 0 
7.23409090909 0 0 0 
7.42954545455 0 0 0 
7.625 0 0 0 
7.82045454545 0 0 0 
8.01590909091 1.62515692219e+16 6.85093541444e+13 56807 
8.21136363636 3.89866294036e+16 1.24809913272e+14 98105 
8.40681818182 3.39916909972e+16 1.10333536016e+14 98009 
8.60227272727 7.65888827357e+16 3.19849633413e+14 97965 
8.79772727273 1.9019543668e+18 7.78248277018e+15 97260 
8.99318181818 1.28734674878e+19 5.39314860791e+16 98090 
9.18863636364 6.80081631905e+16 2.59663277729e+14 97487 
9.38409090909 1.44203088153e+16 4.78685175595e+13 97718 
9.57954545455 6.6168101704e+15 2.14550905982e+13 97842 
9.775 4.04161372853e+15 1.30258399701e+13 97442 
9.97045454545 2.00531035306e+15 7.98095315511e+12 63274 
10.1659090909 0 0 0 
10.3613636364 0 0 0 
10.5568181818 0 0 0 
10.7522727273 0 0 0 
10.9477272727 0 0 0 
11.1431818182 0 0 0 
11.3386363636 0 0 0 
11.5340909091 0 0 0 
11.7295454545 0 0 0 
11.925 0 0 0 
12.1204545455 0 0 0 
12.3159090909 0 0 0 
12.5113636364 0 0 0 
12.7068181818 0 0 0 
12.9022727273 0 0 0 
# EndDate:Tue Feb  5 17:13:34 2013
