# Format: McStas with text headers file. Use mcplot/PGPLOT to view.
# URL:    http://www.mccode.org/
# Editor: erkn on localhost
# Creator:Test_src_gaussian (Test_src_gaussian.instr) simulation (McXtrace x.y.z - Jan. 22, 2013)
# Date:   Simulation started (1359024616) Thu Jan 24 11:50:16 2013
# File:   emon2.dat
# Ncount: 1e+06
# Trace: no
# Gravitation: no
# Seed: 1359024605
# Param: XW=0
# Param: YH=0
# Param: DIST=10
# Param: SRC=2
# Param: E0=8.9
# type: array_1d(100)
# Source: Test_src_gaussian.instr
# component: emon2
# position: 0 0 10.001
# title: Energy monitor
# Ncount: 1e+06
# filename: emon2.dat
# format: McStas with text headers
# statistics: X0=6.84529; dX=2.94027;
# signal: Min=0; Max=1.26666e+11; Mean=5.41102e+10;
# values: 5.41102e+12 5.11654e+10 12572
# xvar: E
# yvar: (I,I_err)
# xlabel: Energy [keV]
# ylabel: Intensity
# xlimits: 0 20
# variables: E I I_err N
# Data [emon2_dat/emon2.dat] I: 
0.1 2137845672.41 169489302.188 221 
0.3 6534924314.66 475966939.031 196 
0.5 10309140873.6 781356536.44 177 
0.7 18388638081.3 1274506682.03 210 
0.9 23932087397.9 1667424599.06 207 
1.1 29203820903.8 2053046351.73 203 
1.3 37537691714.1 2545416910.46 218 
1.5 42606067569.5 2907993587.48 215 
1.7 48279456702.4 3302505405.88 214 
1.9 58249681724.3 3842449332.99 230 
2.1 59762371308.7 4067647697.36 216 
2.3 60694598328.5 4282092973.19 201 
2.5 75004085756.5 4935906295.65 231 
2.7 75634614782.2 5123441734.31 218 
2.9 68737257939 5027206816.64 187 
3.1 84143832831.6 5712643193.34 217 
3.3 99031577598.2 6340408053.54 244 
3.5 91028773862.2 6208537998.74 215 
3.7 96149888006.2 6497563401.94 219 
3.9 97548603307 6653036160.34 215 
4.1 113110916709 7271293821.09 242 
4.3 101406691854 6981311845.41 211 
4.5 103336024662 7131014694.69 210 
4.7 109609073982 7423777819.87 218 
4.9 110647626471 7528719969.93 216 
5.1 119192556585 7876538796.91 229 
5.3 104059779426 7414007842.08 197 
5.5 97888002215.2 7236129494.04 183 
5.7 117810573228 7979171183.75 218 
5.9 121093513807 8127286197.51 222 
6.1 116513198702 8002169689.2 212 
6.3 108306277856 7736171880.17 196 
6.5 118771054699 8119026496.8 214 
6.7 111921498906 7894336007.68 201 
6.9 110454291314 7849645153.88 198 
7.1 115551968888 8031417062.9 207 
7.3 126666002650 8407118179.2 227 
7.5 114232918041 7978374483.5 205 
7.7 111172391626 7861077721.92 200 
7.9 125193070852 8327723852.56 226 
8.1 112536627873 7879146533 204 
8.3 110314838846 7781018491.77 201 
8.5 121677134423 8148117103.09 223 
8.7 106787058623 7608278281.4 197 
8.9 114617591211 7853488201.01 213 
9.1 101909301899 7373923022.72 191 
9.3 103124916080 7384955081.96 195 
9.5 103700644948 7369715848.46 198 
9.7 115132041609 7727190531.89 222 
9.9 102623621340 7256622792.26 200 
10.1 98148851474.6 7046893718.66 194 
10.3 111067327026 7454386045.62 222 
10.5 103494561126 7158917436.08 209 
10.7 88477267180.6 6576509158.71 181 
10.9 99316919481.7 6919792996.42 206 
11.1 101322581485 6942561881.48 213 
11.3 104096089018 6986537345.03 222 
11.5 98851722131 6757429509.44 214 
11.7 90575380822.8 6420780337.09 199 
11.9 81393770051.7 6033431688.39 182 
12.1 0 0 0 
12.3 0 0 0 
12.5 0 0 0 
12.7 0 0 0 
12.9 0 0 0 
13.1 0 0 0 
13.3 0 0 0 
13.5 0 0 0 
13.7 0 0 0 
13.9 0 0 0 
14.1 0 0 0 
14.3 0 0 0 
14.5 0 0 0 
14.7 0 0 0 
14.9 0 0 0 
15.1 0 0 0 
15.3 0 0 0 
15.5 0 0 0 
15.7 0 0 0 
15.9 0 0 0 
16.1 0 0 0 
16.3 0 0 0 
16.5 0 0 0 
16.7 0 0 0 
16.9 0 0 0 
17.1 0 0 0 
17.3 0 0 0 
17.5 0 0 0 
17.7 0 0 0 
17.9 0 0 0 
18.1 0 0 0 
18.3 0 0 0 
18.5 0 0 0 
18.7 0 0 0 
18.9 0 0 0 
19.1 0 0 0 
19.3 0 0 0 
19.5 0 0 0 
19.7 0 0 0 
19.9 0 0 0 
# EndDate:Thu Jan 24 11:50:16 2013
