# Format: McStas with text headers file. Use mcplot/PGPLOT to view.
# URL:    http://www.mccode.org/
# Editor: erkn on localhost
# Creator:Test_src_gaussian (Test_src_gaussian.instr) simulation (McXtrace x.y.z - Jan. 22, 2013)
# Date:   Simulation started (1358946317) Wed Jan 23 14:05:17 2013
# File:   lmon0.dat
# Ncount: 250000
# Trace: no
# Gravitation: no
# Seed: 1358946312
# Param: XW=0.01
# Param: YH=0.01
# Param: DIST=10
# Param: SRC=2
# Param: E0=4.2
# type: array_1d(100)
# Source: Test_src_gaussian.instr
# component: lmon0
# position: 0 0 0.101
# title: Wavelength monitor
# Ncount: 250000
# filename: lmon0.dat
# format: McStas with text headers
# statistics: X0=1.42875; dX=0.270849;
# signal: Min=0; Max=8.41434e+12; Mean=2.51968e+12;
# values: 2.51968e+14 3.63431e+11 482893
# xvar: L
# yvar: (I,I_err)
# xlabel: Wavelength [AA]
# ylabel: Intensity
# xlimits: 0 2
# variables: L I I_err N
# Data [lmon0_dat/lmon0.dat] I: 
0.01 0 0 0 
0.03 0 0 0 
0.05 0 0 0 
0.07 0 0 0 
0.09 0 0 0 
0.11 0 0 0 
0.13 0 0 0 
0.15 0 0 0 
0.17 0 0 0 
0.19 0 0 0 
0.21 0 0 0 
0.23 0 0 0 
0.25 0 0 0 
0.27 0 0 0 
0.29 0 0 0 
0.31 0 0 0 
0.33 0 0 0 
0.35 0 0 0 
0.37 0 0 0 
0.39 0 0 0 
0.41 0 0 0 
0.43 0 0 0 
0.45 0 0 0 
0.47 0 0 0 
0.49 0 0 0 
0.51 0 0 0 
0.53 0 0 0 
0.55 0 0 0 
0.57 0 0 0 
0.59 0 0 0 
0.61 0 0 0 
0.63 0 0 0 
0.65 0 0 0 
0.67 0 0 0 
0.69 0 0 0 
0.71 0 0 0 
0.73 0 0 0 
0.75 0 0 0 
0.77 0 0 0 
0.79 0 0 0 
0.81 0 0 0 
0.83 0 0 0 
0.85 0 0 0 
0.87 0 0 0 
0.89 0 0 0 
0.91 0 0 0 
0.93 0 0 0 
0.95 0 0 0 
0.97 0 0 0 
0.99 0 0 0 
1.01 0 0 0 
1.03 2.9355845251e+12 36107440962.4 6610 
1.05 8.41433568333e+12 61613280404.9 18651 
1.07 8.34735481154e+12 61895816951.4 18188 
1.09 8.14746585271e+12 61637223102.9 17473 
1.11 7.89509227397e+12 61125703875.9 16683 
1.13 7.65384891489e+12 60606108631.3 15949 
1.15 7.53623212735e+12 60527007257.8 15503 
1.17 7.32161888387e+12 60021688558.9 14880 
1.19 7.28859100747e+12 60224243384.7 14647 
1.21 6.99675672625e+12 59199449480.5 13969 
1.23 6.93913716192e+12 59288854259 13699 
1.25 6.69107683987e+12 58556580634.2 13057 
1.27 6.62069441223e+12 58496536825.2 12810 
1.29 6.39095782133e+12 57695869265.9 12270 
1.31 6.21673654613e+12 57116182934.9 11847 
1.33 6.21929860706e+12 57321434864.5 11772 
1.35 6.05351233127e+12 56726284801.3 11388 
1.37 5.82889484676e+12 55825637127.3 10902 
1.39 5.82053774953e+12 55933166842 10829 
1.41 5.63334464709e+12 55160036692.5 10430 
1.43 5.36776120628e+12 53961699974.3 9895 
1.45 5.36722272001e+12 54068408731.2 9854 
1.47 5.23414588123e+12 53493295167 9574 
1.49 5.12796116744e+12 53034968507.8 9349 
1.51 4.95896932716e+12 52231535058.9 9014 
1.53 4.91742781378e+12 52080774844.5 8915 
1.55 4.7795776013e+12 51408179881.3 8644 
1.57 4.72414251484e+12 51159338169.3 8527 
1.59 4.54219450211e+12 50209161475.2 8184 
1.61 4.40788380215e+12 49498675813.1 7930 
1.63 4.3677459965e+12 49303516952.7 7848 
1.65 4.20153249293e+12 48383053906.3 7541 
1.67 4.12115260882e+12 47936586263 7391 
1.69 4.05276802028e+12 47551457176.6 7264 
1.71 3.9789688273e+12 47125528321.9 7129 
1.73 3.86627052231e+12 46456982218.2 6926 
1.75 3.75085668429e+12 45759171321.9 6719 
1.77 3.64338552623e+12 45093615439.1 6528 
1.79 3.55365627371e+12 44528677493.3 6369 
1.81 3.48993159936e+12 44116306314.3 6258 
1.83 3.43855991803e+12 43775793113.1 6170 
1.85 3.37167629964e+12 43330012622.7 6055 
1.87 3.36044431182e+12 43235681069 6041 
1.89 3.27618120895e+12 42666714646.7 5896 
1.91 3.19059901766e+12 42080035667 5749 
1.93 3.11610872382e+12 41559203597 5622 
1.95 2.967574357e+12 40526420741.5 5362 
1.97 2.92507680328e+12 40201787097.1 5294 
1.99 2.91676997884e+12 40110355518.8 5288 
# EndDate:Wed Jan 23 14:05:17 2013
