# Format: McStas with text headers file. Use mcplot/PGPLOT to view.
# URL:    http://www.mccode.org/
# Editor: erkn on localhost
# Creator:Test_src_gaussian (Test_src_gaussian.instr) simulation (McXtrace x.y.z - Jan. 22, 2013)
# Date:   Simulation started (1358946513) Wed Jan 23 14:08:33 2013
# File:   emon00.dat
# Ncount: 250000
# Trace: no
# Gravitation: no
# Seed: 1358946508
# Param: XW=0.01
# Param: YH=0.01
# Param: DIST=10
# Param: SRC=2
# Param: E0=11.2
# type: array_1d(100)
# Source: Test_src_gaussian.instr
# component: emon00
# position: 0 0 0.09
# title: Energy monitor
# Ncount: 250000
# filename: emon00.dat
# format: McStas with text headers
# statistics: X0=6.90777; dX=2.93937;
# signal: Min=0; Max=9.46626e+12; Mean=4.3081e+12;
# values: 4.3081e+14 4.5696e+11 1e+06
# xvar: E
# yvar: (I,I_err)
# xlabel: Energy [keV]
# ylabel: Intensity
# xlimits: 0 20
# variables: E I I_err N
# Data [emon00_dat/emon00.dat] I: 
0.1 159141254106 1466347174.58 16410 
0.3 553116730027 4395678792.19 16610 
0.5 990008466077 7752388458.39 16592 
0.7 1.45536120074e+12 11330650417.2 16639 
0.9 1.92233829532e+12 14945657524.5 16626 
1.1 2.41622915351e+12 18685197643.8 16775 
1.3 2.87727695482e+12 22273161882.9 16724 
1.5 3.33078011476e+12 25805244504.5 16686 
1.7 3.77917063688e+12 29277587758.3 16681 
1.9 4.19496431243e+12 32566273143.4 16607 
2.1 4.58014844927e+12 35677751305.9 16491 
2.3 5.06286368784e+12 39111583431.4 16765 
2.5 5.43560048012e+12 42042715004.3 16722 
2.7 5.83558045882e+12 45005548231.3 16818 
2.9 6.02331089219e+12 47065885461.1 16382 
3.1 6.42967883869e+12 49911938501.6 16598 
3.3 6.75151989103e+12 52347891967.8 16637 
3.5 7.02209438842e+12 54508842581.6 16598 
3.7 7.30066953194e+12 56629623568.6 16622 
3.9 7.56813325289e+12 58633135534.4 16662 
4.1 7.8093860283e+12 60454588478.8 16688 
4.3 8.04613128675e+12 62191879091.1 16739 
4.5 8.20388000921e+12 63547671005.9 16667 
4.7 8.44093669138e+12 65145639180.6 16789 
4.9 8.42082772369e+12 65676423918.4 16440 
5.1 8.73436923394e+12 67442006418.1 16773 
5.3 8.85631722179e+12 68401794571.8 16764 
5.5 8.97702916876e+12 69292677542.7 16784 
5.7 8.90442037703e+12 69377876995.1 16473 
5.9 9.16735228034e+12 70711034806.6 16808 
6.1 9.10230301798e+12 70724392632.9 16564 
6.3 9.19359099944e+12 71276796191.7 16637 
6.5 9.19960532303e+12 71458808770.3 16574 
6.7 9.34239197734e+12 72123230209.5 16779 
6.9 9.27413642967e+12 71927121732.8 16625 
7.1 9.46625642006e+12 72692725216 16958 
7.3 9.3839991035e+12 72362524727.5 16817 
7.5 9.30636844129e+12 72010541258.2 16702 
7.7 9.22257035656e+12 71598307710.3 16592 
7.9 9.27321390908e+12 71674680626.2 16739 
8.1 9.2444042472e+12 71411515372.9 16758 
8.3 9.19846120811e+12 71052393442.5 16760 
8.5 9.08986270528e+12 70421864056.4 16661 
8.7 8.89860664499e+12 69442142559.4 16421 
8.9 8.96381996581e+12 69439183636.1 16664 
9.1 8.83961244839e+12 68675135698.8 16568 
9.3 8.8798671354e+12 68528261883.5 16791 
9.5 8.77923825559e+12 67814350464.1 16760 
9.7 8.64432721962e+12 66950261495.5 16671 
9.9 8.56294895563e+12 66278297855.9 16692 
10.1 8.55910212139e+12 65781169571.4 16931 
10.3 8.36741836382e+12 64698988299.4 16726 
10.5 8.14932233162e+12 63523703515.9 16458 
10.7 8.09799993657e+12 62911887156.2 16569 
10.9 8.03318627232e+12 62243328197.9 16657 
11.1 7.89185453013e+12 61264258723.6 16594 
11.3 7.80231115788e+12 60483563866.5 16641 
11.5 7.76362504129e+12 59891090329 16804 
11.7 7.5526482401e+12 58622282384.1 16599 
11.9 7.47797198339e+12 57836349662.1 16718 
12.1 0 0 0 
12.3 0 0 0 
12.5 0 0 0 
12.7 0 0 0 
12.9 0 0 0 
13.1 0 0 0 
13.3 0 0 0 
13.5 0 0 0 
13.7 0 0 0 
13.9 0 0 0 
14.1 0 0 0 
14.3 0 0 0 
14.5 0 0 0 
14.7 0 0 0 
14.9 0 0 0 
15.1 0 0 0 
15.3 0 0 0 
15.5 0 0 0 
15.7 0 0 0 
15.9 0 0 0 
16.1 0 0 0 
16.3 0 0 0 
16.5 0 0 0 
16.7 0 0 0 
16.9 0 0 0 
17.1 0 0 0 
17.3 0 0 0 
17.5 0 0 0 
17.7 0 0 0 
17.9 0 0 0 
18.1 0 0 0 
18.3 0 0 0 
18.5 0 0 0 
18.7 0 0 0 
18.9 0 0 0 
19.1 0 0 0 
19.3 0 0 0 
19.5 0 0 0 
19.7 0 0 0 
19.9 0 0 0 
# EndDate:Wed Jan 23 14:08:33 2013
