# Format: McStas with text headers file. Use mcplot/PGPLOT to view.
# URL:    http://www.mccode.org/
# Editor: erkn on localhost
# Creator:Test_src_gaussian (Test_src_gaussian.instr) simulation (McXtrace x.y.z - Jan. 22, 2013)
# Date:   Simulation started (1360080685) Tue Feb  5 17:11:25 2013
# File:   emon0.dat
# Ncount: 1e+06
# Trace: no
# Gravitation: no
# Seed: 1360080679
# Param: XW=0
# Param: YH=0
# Param: DIST=10
# Param: SRC=3
# Param: E0=7.9
# type: array_1d(100)
# Source: Test_src_gaussian.instr
# component: emon0
# position: 0 0 0.1
# title: Energy monitor
# Ncount: 1e+06
# filename: emon0.dat
# format: McStas with text headers
# statistics: X0=0; dX=0;
# signal: Min=0; Max=0; Mean=0;
# values: 0 0 0
# xvar: E
# yvar: (I,I_err)
# xlabel: Energy [keV]
# ylabel: Intensity
# xlimits: 7.8921 7.9079
# variables: E I I_err N
# Data [emon0_dat/emon0.dat] I: 
7.892179 0 0 0 
7.892337 0 0 0 
7.892495 0 0 0 
7.892653 0 0 0 
7.892811 0 0 0 
7.892969 0 0 0 
7.893127 0 0 0 
7.893285 0 0 0 
7.893443 0 0 0 
7.893601 0 0 0 
7.893759 0 0 0 
7.893917 0 0 0 
7.894075 0 0 0 
7.894233 0 0 0 
7.894391 0 0 0 
7.894549 0 0 0 
7.894707 0 0 0 
7.894865 0 0 0 
7.895023 0 0 0 
7.895181 0 0 0 
7.895339 0 0 0 
7.895497 0 0 0 
7.895655 0 0 0 
7.895813 0 0 0 
7.895971 0 0 0 
7.896129 0 0 0 
7.896287 0 0 0 
7.896445 0 0 0 
7.896603 0 0 0 
7.896761 0 0 0 
7.896919 0 0 0 
7.897077 0 0 0 
7.897235 0 0 0 
7.897393 0 0 0 
7.897551 0 0 0 
7.897709 0 0 0 
7.897867 0 0 0 
7.898025 0 0 0 
7.898183 0 0 0 
7.898341 0 0 0 
7.898499 0 0 0 
7.898657 0 0 0 
7.898815 0 0 0 
7.898973 0 0 0 
7.899131 0 0 0 
7.899289 0 0 0 
7.899447 0 0 0 
7.899605 0 0 0 
7.899763 0 0 0 
7.899921 0 0 0 
7.900079 0 0 0 
7.900237 0 0 0 
7.900395 0 0 0 
7.900553 0 0 0 
7.900711 0 0 0 
7.900869 0 0 0 
7.901027 0 0 0 
7.901185 0 0 0 
7.901343 0 0 0 
7.901501 0 0 0 
7.901659 0 0 0 
7.901817 0 0 0 
7.901975 0 0 0 
7.902133 0 0 0 
7.902291 0 0 0 
7.902449 0 0 0 
7.902607 0 0 0 
7.902765 0 0 0 
7.902923 0 0 0 
7.903081 0 0 0 
7.903239 0 0 0 
7.903397 0 0 0 
7.903555 0 0 0 
7.903713 0 0 0 
7.903871 0 0 0 
7.904029 0 0 0 
7.904187 0 0 0 
7.904345 0 0 0 
7.904503 0 0 0 
7.904661 0 0 0 
7.904819 0 0 0 
7.904977 0 0 0 
7.905135 0 0 0 
7.905293 0 0 0 
7.905451 0 0 0 
7.905609 0 0 0 
7.905767 0 0 0 
7.905925 0 0 0 
7.906083 0 0 0 
7.906241 0 0 0 
7.906399 0 0 0 
7.906557 0 0 0 
7.906715 0 0 0 
7.906873 0 0 0 
7.907031 0 0 0 
7.907189 0 0 0 
7.907347 0 0 0 
7.907505 0 0 0 
7.907663 0 0 0 
7.907821 0 0 0 
# EndDate:Tue Feb  5 17:11:25 2013
