# Format: McStas with text headers file. Use mcplot/PGPLOT to view.
# URL:    http://www.mccode.org/
# Editor: erkn on localhost
# Creator:Test_src_gaussian (Test_src_gaussian.instr) simulation (McXtrace x.y.z - Jan. 22, 2013)
# Date:   Simulation started (1360080685) Tue Feb  5 17:11:25 2013
# File:   emon00.dat
# Ncount: 1e+06
# Trace: no
# Gravitation: no
# Seed: 1360080679
# Param: XW=0
# Param: YH=0
# Param: DIST=10
# Param: SRC=3
# Param: E0=7.9
# type: array_1d(66)
# Source: Test_src_gaussian.instr
# component: emon00
# position: 0 0 0.09
# title: Energy monitor
# Ncount: 1e+06
# filename: emon00.dat
# format: McStas with text headers
# statistics: X0=8.96368; dX=0.0946975;
# signal: Min=0; Max=1.27653e+19; Mean=2.26232e+17;
# values: 1.49313e+19 5.43169e+16 1e+06
# xvar: E
# yvar: (I,I_err)
# xlabel: Energy [keV]
# ylabel: Intensity
# xlimits: 0.1 13
# variables: E I I_err N
# Data [emon00_dat/emon00.dat] I: 
0.197727272727 0 0 0 
0.393181818182 0 0 0 
0.588636363636 0 0 0 
0.784090909091 0 0 0 
0.979545454545 0 0 0 
1.175 0 0 0 
1.37045454545 0 0 0 
1.56590909091 0 0 0 
1.76136363636 0 0 0 
1.95681818182 0 0 0 
2.15227272727 0 0 0 
2.34772727273 0 0 0 
2.54318181818 0 0 0 
2.73863636364 0 0 0 
2.93409090909 0 0 0 
3.12954545455 0 0 0 
3.325 0 0 0 
3.52045454545 0 0 0 
3.71590909091 0 0 0 
3.91136363636 0 0 0 
4.10681818182 0 0 0 
4.30227272727 0 0 0 
4.49772727273 0 0 0 
4.69318181818 0 0 0 
4.88863636364 0 0 0 
5.08409090909 0 0 0 
5.27954545455 0 0 0 
5.475 0 0 0 
5.67045454545 0 0 0 
5.86590909091 0 0 0 
6.06136363636 0 0 0 
6.25681818182 0 0 0 
6.45227272727 0 0 0 
6.64772727273 0 0 0 
6.84318181818 0 0 0 
7.03863636364 0 0 0 
7.23409090909 0 0 0 
7.42954545455 0 0 0 
7.625 0 0 0 
7.82045454545 0 0 0 
8.01590909091 1.61438904452e+16 6.82824803684e+13 56432 
8.21136363636 3.90160313533e+16 1.24838570824e+14 98206 
8.40681818182 3.39895567528e+16 1.10325082833e+14 98022 
8.60227272727 7.63298249471e+16 3.19671004761e+14 97602 
8.79772727273 1.90531692167e+18 7.76885761024e+15 97703 
8.99318181818 1.27652867858e+19 5.37566793652e+16 97518 
9.18863636364 6.81739448344e+16 2.6015825463e+14 97720 
9.38409090909 1.4400184036e+16 4.78405701516e+13 97565 
9.57954545455 6.60187649274e+15 2.14379417432e+13 97579 
9.775 4.06909190197e+15 1.30742862132e+13 98035 
9.97045454545 2.01662033316e+15 8.00427205377e+12 63618 
10.1659090909 0 0 0 
10.3613636364 0 0 0 
10.5568181818 0 0 0 
10.7522727273 0 0 0 
10.9477272727 0 0 0 
11.1431818182 0 0 0 
11.3386363636 0 0 0 
11.5340909091 0 0 0 
11.7295454545 0 0 0 
11.925 0 0 0 
12.1204545455 0 0 0 
12.3159090909 0 0 0 
12.5113636364 0 0 0 
12.7068181818 0 0 0 
12.9022727273 0 0 0 
# EndDate:Tue Feb  5 17:11:25 2013
