# Format: McStas with text headers file. Use mcplot/PGPLOT to view.
# URL:    http://www.mccode.org/
# Editor: erkn on localhost
# Creator:Test_src_gaussian (Test_src_gaussian.instr) simulation (McXtrace x.y.z - Jan. 22, 2013)
# Date:   Simulation started (1359024256) Thu Jan 24 11:44:16 2013
# File:   emon2.dat
# Ncount: 1e+06
# Trace: no
# Gravitation: no
# Seed: 1359024245
# Param: XW=0
# Param: YH=0
# Param: DIST=10
# Param: SRC=2
# Param: E0=2.3
# type: array_1d(100)
# Source: Test_src_gaussian.instr
# component: emon2
# position: 0 0 10.001
# title: Energy monitor
# Ncount: 1e+06
# filename: emon2.dat
# format: McStas with text headers
# statistics: X0=6.87263; dX=2.93167;
# signal: Min=0; Max=1.3447e+11; Mean=5.40825e+10;
# values: 5.40825e+12 5.11934e+10 12536
# xvar: E
# yvar: (I,I_err)
# xlabel: Energy [keV]
# ylabel: Intensity
# xlimits: 0 20
# variables: E I I_err N
# Data [emon2_dat/emon2.dat] I: 
0.1 1765711682.88 151609539.867 189 
0.3 6670785049.89 484604849.058 199 
0.5 14068123614.7 925332573.042 235 
0.7 18479403705.9 1277554261.73 211 
0.9 22960039646.8 1635834633.1 198 
1.1 26075790804.7 1936222392.69 182 
1.3 36308933956.1 2502395979.07 211 
1.5 43001218621.2 2934995933.1 215 
1.7 47052917790.8 3272351873.79 207 
1.9 53263255569.9 3668401343.81 211 
2.1 60397581874.7 4091941593.86 218 
2.3 56302829993.2 4129317617.67 186 
2.5 75608827934 4954324005.11 233 
2.7 69581471655 4908547992.83 201 
2.9 76941438803.6 5322858489.53 209 
3.1 88480425698.7 5860374666.1 228 
3.3 87182117819.1 5946290412.84 215 
3.5 91135491626.7 6215804286.96 215 
3.7 90851330207.7 6314941792.19 207 
3.9 96344229696.5 6617223246.15 212 
4.1 104880220956 7007840926.09 224 
4.3 106297182050 7150511497.81 221 
4.5 113624573181 7476110678.27 231 
4.7 103070020081 7198839662.56 205 
4.9 114201706508 7647610892.09 223 
5.1 113007202184 7671500047.83 217 
5.3 110409567431 7637248439.17 209 
5.5 109650841757 7658385291.7 205 
5.7 121629743936 8108683999.39 225 
5.9 112877966978 7845582067.76 207 
6.1 118141288225 8057180154.97 215 
6.3 93941841625.5 7205019164.79 170 
6.5 108245129533 7751599164.44 195 
6.7 111357179965 7874143875.82 200 
6.9 114362927083 7987453803.59 205 
7.1 105503827596 7674274251.46 189 
7.3 111602893386 7891516551.37 200 
7.5 118681910176 8131951955.82 213 
7.7 115611199053 8016197052.73 208 
7.9 114677152942 7970617366.79 207 
8.1 112544562518 7879704061.18 204 
8.3 134469597495 8590958454.67 245 
8.5 118414905739 8038541837.99 217 
8.7 119233310916 8038724130.66 220 
8.9 122659514528 8123344969.48 228 
9.1 117921375243 7932274771.77 221 
9.3 113185722483 7737244869.86 214 
9.5 106904108106 7484814457.86 204 
9.7 104215242118 7350808672.43 201 
9.9 107740054491 7434806419.18 210 
10.1 106215513000 7329798130.52 210 
10.3 104555969377 7232320634.78 209 
10.5 99011268125.5 7001199710.2 200 
10.7 89947611049.2 6631077660.41 184 
10.9 100314308520 6955597724.27 208 
11.1 101798545897 6958862340.97 214 
11.3 98429701451.7 6792355030.92 210 
11.5 83615244394.5 6215126902.56 181 
11.7 95120878545.2 6579707011.95 209 
11.9 87710205487.6 6265143234.45 196 
12.1 0 0 0 
12.3 0 0 0 
12.5 0 0 0 
12.7 0 0 0 
12.9 0 0 0 
13.1 0 0 0 
13.3 0 0 0 
13.5 0 0 0 
13.7 0 0 0 
13.9 0 0 0 
14.1 0 0 0 
14.3 0 0 0 
14.5 0 0 0 
14.7 0 0 0 
14.9 0 0 0 
15.1 0 0 0 
15.3 0 0 0 
15.5 0 0 0 
15.7 0 0 0 
15.9 0 0 0 
16.1 0 0 0 
16.3 0 0 0 
16.5 0 0 0 
16.7 0 0 0 
16.9 0 0 0 
17.1 0 0 0 
17.3 0 0 0 
17.5 0 0 0 
17.7 0 0 0 
17.9 0 0 0 
18.1 0 0 0 
18.3 0 0 0 
18.5 0 0 0 
18.7 0 0 0 
18.9 0 0 0 
19.1 0 0 0 
19.3 0 0 0 
19.5 0 0 0 
19.7 0 0 0 
19.9 0 0 0 
# EndDate:Thu Jan 24 11:44:16 2013
