# Format: McStas with text headers file. Use mcplot/PGPLOT to view.
# URL:    http://www.mccode.org/
# Editor: erkn on localhost
# Creator:Test_src_gaussian (Test_src_gaussian.instr) simulation (McXtrace x.y.z - Jan. 22, 2013)
# Date:   Simulation started (1359024256) Thu Jan 24 11:44:16 2013
# File:   lmon1.dat
# Ncount: 1e+06
# Trace: no
# Gravitation: no
# Seed: 1359024245
# Param: XW=0
# Param: YH=0
# Param: DIST=10
# Param: SRC=2
# Param: E0=2.3
# type: array_1d(100)
# Source: Test_src_gaussian.instr
# component: lmon1
# position: 0 0 9.998
# title: Wavelength monitor
# Ncount: 1e+06
# filename: lmon1.dat
# format: McStas with text headers
# statistics: X0=1.42775; dX=0.270423;
# signal: Min=0; Max=8.43594e+12; Mean=2.52381e+12;
# values: 2.52381e+14 3.63702e+11 483751
# xvar: L
# yvar: (I,I_err)
# xlabel: Wavelength [AA]
# ylabel: Intensity
# xlimits: 0 2
# variables: L I I_err N
# Data [lmon1_dat/lmon1.dat] I: 
0.01 0 0 0 
0.03 0 0 0 
0.05 0 0 0 
0.07 0 0 0 
0.09 0 0 0 
0.11 0 0 0 
0.13 0 0 0 
0.15 0 0 0 
0.17 0 0 0 
0.19 0 0 0 
0.21 0 0 0 
0.23 0 0 0 
0.25 0 0 0 
0.27 0 0 0 
0.29 0 0 0 
0.31 0 0 0 
0.33 0 0 0 
0.35 0 0 0 
0.37 0 0 0 
0.39 0 0 0 
0.41 0 0 0 
0.43 0 0 0 
0.45 0 0 0 
0.47 0 0 0 
0.49 0 0 0 
0.51 0 0 0 
0.53 0 0 0 
0.55 0 0 0 
0.57 0 0 0 
0.59 0 0 0 
0.61 0 0 0 
0.63 0 0 0 
0.65 0 0 0 
0.67 0 0 0 
0.69 0 0 0 
0.71 0 0 0 
0.73 0 0 0 
0.75 0 0 0 
0.77 0 0 0 
0.79 0 0 0 
0.81 0 0 0 
0.83 0 0 0 
0.85 0 0 0 
0.87 0 0 0 
0.89 0 0 0 
0.91 0 0 0 
0.93 0 0 0 
0.95 0 0 0 
0.97 0 0 0 
0.99 0 0 0 
1.01 0 0 0 
1.03 2.85794007766e+12 35627201138.5 6435 
1.05 8.43593807529e+12 61693787196.1 18698 
1.07 8.35315021212e+12 61914965935.1 18202 
1.09 8.02751418404e+12 61181371664.7 17216 
1.11 7.93956636365e+12 61297582093.8 16777 
1.13 7.82392668114e+12 61274664069.7 16304 
1.15 7.57068354839e+12 60664949340.6 15574 
1.17 7.54043017394e+12 60911375665.7 15325 
1.19 7.33967021681e+12 60436230188.1 14749 
1.21 6.94282418345e+12 58969418057.2 13862 
1.23 7.09538832063e+12 59953618411.1 14007 
1.25 6.77823997834e+12 58936946613.4 13227 
1.27 6.66132601683e+12 58674887249.6 12889 
1.29 6.38277674806e+12 57659616303.7 12254 
1.31 6.36877343782e+12 57809741665.9 12137 
1.33 6.14310439618e+12 56968680498.3 11628 
1.35 6.01348969004e+12 56537722969.3 11313 
1.37 5.92622641483e+12 56289909286.7 11084 
1.39 5.76363704481e+12 55659455825.8 10723 
1.41 5.57765242685e+12 54886399408.6 10327 
1.43 5.56638407035e+12 54951387111.8 10261 
1.45 5.34942489306e+12 53979578392.7 9821 
1.47 5.18171717414e+12 53224989941 9478 
1.49 5.16635331987e+12 53233114274.6 9419 
1.51 4.98862150605e+12 52387170968.8 9068 
1.53 4.81764291878e+12 51549936249.1 8734 
1.55 4.74534918422e+12 51224061535.3 8582 
1.57 4.69482840344e+12 51000631296.8 8474 
1.59 4.58767954158e+12 50459788391.4 8266 
1.61 4.35227667269e+12 49185336976.6 7830 
1.63 4.34939025553e+12 49199864668.3 7815 
1.65 4.20763693992e+12 48418049399.4 7552 
1.67 4.13619403667e+12 48023907844 7418 
1.69 4.00199281773e+12 47252619796.3 7173 
1.71 4.00072568289e+12 47254130749.7 7168 
1.73 3.83668866957e+12 46278938409.3 6873 
1.75 3.7966386242e+12 46037621189.9 6801 
1.77 3.62775247023e+12 44996731582.9 6500 
1.79 3.61002365988e+12 44880523147 6470 
1.81 3.48266938155e+12 44070302758.8 6245 
1.83 3.4190598468e+12 43651525694.2 6135 
1.85 3.38003553425e+12 43383734754.8 6070 
1.87 3.33265073413e+12 43056642597.1 5991 
1.89 3.17061943516e+12 41973797181 5706 
1.91 3.22999876547e+12 42339028764 5820 
1.93 3.07560596133e+12 41287954423 5549 
1.95 3.02291387613e+12 40902511119.4 5462 
1.97 2.8720248839e+12 39835485370.1 5198 
1.99 2.83567187572e+12 39548701324.5 5141 
# EndDate:Thu Jan 24 11:44:16 2013
