# Format: McStas with text headers file. Use mcplot/PGPLOT to view.
# URL:    http://www.mccode.org/
# Editor: erkn on localhost
# Creator:Test_src_gaussian (Test_src_gaussian.instr) simulation (McXtrace x.y.z - Jan. 22, 2013)
# Date:   Simulation started (1359622672) Thu Jan 31 09:57:52 2013
# File:   emon0.dat
# Ncount: 1e+06
# Trace: no
# Gravitation: no
# Seed: 1359622660
# Param: XW=0
# Param: YH=0
# Param: DIST=10
# Param: SRC=2
# Param: E0=9.1
# type: array_1d(100)
# Source: Test_src_gaussian.instr
# component: emon0
# position: 0 0 0.1
# title: Energy monitor
# Ncount: 1e+06
# filename: emon0.dat
# format: McStas with text headers
# statistics: X0=9.09991; dX=0.00525892;
# signal: Min=2.499e+11; Max=8.56463e+11; Mean=5.29646e+11;
# values: 5.29646e+13 1.37489e+12 1484
# xvar: E
# yvar: (I,I_err)
# xlabel: Energy [keV]
# ylabel: Intensity
# xlimits: 9.0909 9.1091
# variables: E I I_err N
# Data [emon0_dat/emon0.dat] I: 
9.090991 678709054774 155706535887 19 
9.091173 500091840591 133655166388 14 
9.091355 535803063169 138343756035 15 
9.091537 392914713473 118468243565 11 
9.091719 678661034525 155695519287 19 
9.091901 500055530445 133645462094 14 
9.092083 500048464119 133643573539 14 
9.092265 428604716087 123727524106 12 
9.092447 750044437356 163673114705 21 
9.092629 357158496459 112943433450 10 
9.092811 500013295400 133634174303 14 
9.092993 821433678533 171280762169 23 
9.093175 428566892937 123716605504 12 
9.093357 392845409562 118447347649 11 
9.093539 535688778433 138314247843 15 
9.093721 821376669920 171268875050 23 
9.093903 607091818746 147241393716 17 
9.094085 464238841533 128756688248 13 
9.094267 535649814713 138304187454 15 
9.094449 535641594361 138302064968 15 
9.094631 535631327706 138299414129 15 
9.094813 642748074101 151497173933 18 
9.094995 357075242635 112917106279 10 
9.095177 571310484434 142827621112 16 
9.095359 571300513826 142825128459 16 
9.095541 714112661508 159680445475 20 
9.095723 321345392383 107115130796 9 
9.095905 464156490960 128733848309 13 
9.096087 642669092565 151478557806 18 
9.096269 535545755361 138277319445 15 
9.096451 606941956442 147205046768 17 
9.096633 571228789906 142807197478 16 
9.096815 357012155691 112897156436 10 
9.096997 428405364449 123669976245 12 
9.097179 249899974498 94453312167.5 7 
9.097361 678287515984 155609828256 19 
9.097543 321287735061 107095911689 9 
9.097725 713960429884 159646405448 20 
9.097907 642552871528 151451164244 18 
9.098089 678238633193 155598613775 19 
9.098271 356961165555 112881031940 10 
9.098453 713910878575 159635325439 20 
9.098635 464032788170 128699539328 13 
9.098817 499719937932 133555771222 14 
9.098999 571097295083 142774323773 16 
9.099181 321237124519 107079041508 9 
9.099363 820922893420 171174256110 23 
9.099545 535375496523 138233358802 15 
9.099727 356911492803 112865324036 10 
9.099909 535356928811 138228564639 15 
9.100091 499657229073 133539011575 14 
9.100273 356891007888 112858846137 10 
9.100455 463950795134 128676798552 13 
9.100637 499630691824 133531919196 14 
9.100819 642370151710 151408096770 18 
9.101001 642359797287 151405656210 18 
9.101183 856463156603 174824809767 24 
9.101365 713708136651 159589990967 20 
9.101547 713694522510 159586946752 20 
9.101729 499576829376 133517523851 14 
9.101911 713668073165 159581032499 20 
9.102093 392512320888 118346917635 11 
9.102275 642277071527 151386157561 18 
9.102457 428178565180 123604504936 12 
9.102639 499532156936 133505584640 14 
9.102821 535204640922 138189244075 15 
9.103003 392475703204 118335876989 11 
9.103185 463826835595 128642418362 13 
9.103367 392462703214 118331957344 11 
9.103549 463810745296 128637955716 13 
9.103731 321093535047 107031178350 9 
9.103913 285412303841 100908487741 8 
9.104095 499462281840 133486909735 14 
9.104277 749180251468 163484533884 21 
9.104459 499443540885 133481901004 14 
9.104641 499435835794 133479841731 14 
9.104823 535099839000 138162184336 15 
9.105005 535090248220 138159708007 15 
9.105187 535079564396 138156949455 15 
9.105369 321042232110 107014077371 9 
9.105551 463719985580 128612783499 13 
9.105733 463711531226 128610438683 13 
9.105915 749059848160 163458259728 21 
9.106097 677707807313 155476833968 19 
9.106279 535023940836 138142587514 15 
9.106461 428011234968 123556200864 12 
9.106643 642005712396 151322197600 18 
9.106825 427996522841 123551953838 12 
9.107007 606317129101 147053503878 17 
9.107189 641970463905 151313889452 18 
9.107371 641960845338 151311622333 18 
9.107553 320973486017 106991162007 9 
9.107735 463620980304 128585324376 13 
9.107917 463614006204 128583390109 13 
9.108099 356619445022 112772970418 10 
9.108281 463596551508 128578549048 13 
9.108463 570570636472 142642659120 16 
9.108645 392260419565 118270966530 11 
9.108827 677526530827 155435246288 19 
9.109009 641857407617 151287241829 18 
# EndDate:Thu Jan 31 09:57:52 2013
