# Format: McStas with text headers file. Use mcplot/PGPLOT to view.
# URL:    http://www.mccode.org/
# Editor: erkn on localhost
# Creator:Test_src_gaussian (Test_src_gaussian.instr) simulation (McXtrace x.y.z - Jan. 22, 2013)
# Date:   Simulation started (1359030432) Thu Jan 24 13:27:12 2013
# File:   emon00.dat
# Ncount: 1e+06
# Trace: no
# Gravitation: no
# Seed: 1359030419
# Param: XW=0
# Param: YH=0
# Param: DIST=10
# Param: SRC=2
# Param: E0=3.1
# type: array_1d(100)
# Source: Test_src_gaussian.instr
# component: emon00
# position: 0 0 0.09
# title: Energy monitor
# Ncount: 1e+06
# filename: emon00.dat
# format: McStas with text headers
# statistics: X0=6.90433; dX=2.94178;
# signal: Min=0; Max=9.40243e+14; Mean=4.30383e+14;
# values: 4.30383e+16 4.56653e+13 999999
# xvar: E
# yvar: (I,I_err)
# xlabel: Energy [keV]
# ylabel: Intensity
# xlimits: 0 20
# variables: E I I_err N
# Data [emon00_dat/emon00.dat] I: 
0.1 1.61498407663e+13 147277923258 16663 
0.3 5.54605108027e+13 440246605045 16650 
0.5 9.92524953407e+13 776574712237 16617 
0.7 1.46344508576e+14 1.1358113157e+12 16744 
0.9 1.94557627762e+14 1.50464464404e+12 16803 
1.1 2.40406145448e+14 1.86350719073e+12 16696 
1.3 2.89757298557e+14 2.23479329346e+12 16848 
1.5 3.35464916827e+14 2.58891904443e+12 16816 
1.7 3.80198713054e+14 2.93609853378e+12 16787 
1.9 4.16986733868e+14 3.24634798795e+12 16513 
2.1 4.65072607529e+14 3.59529891512e+12 16744 
2.3 5.04459588683e+14 3.90343582163e+12 16710 
2.5 5.40994183453e+14 4.19372022608e+12 16648 
2.7 5.72446680407e+14 4.45718907815e+12 16500 
2.9 6.12898025471e+14 4.74818019928e+12 16666 
3.1 6.45495236516e+14 5.00074433992e+12 16665 
3.3 6.7895313049e+14 5.24928934809e+12 16732 
3.5 7.08302135464e+14 5.47431943592e+12 16743 
3.7 7.33310402249e+14 5.67533012866e+12 16697 
3.9 7.64083718885e+14 5.89089610372e+12 16825 
4.1 7.68585768135e+14 5.997826945e+12 16422 
4.3 7.94967342262e+14 6.18129794696e+12 16541 
4.5 8.22906005483e+14 6.36473334868e+12 16717 
4.7 8.44390481462e+14 6.51569088493e+12 16795 
4.9 8.57116352763e+14 6.62610758689e+12 16733 
5.1 8.75953341995e+14 6.75397402865e+12 16821 
5.3 8.73246328476e+14 6.79209123189e+12 16530 
5.5 9.06869115466e+14 6.96442646774e+12 16956 
5.7 8.93901000928e+14 6.9512473942e+12 16537 
5.9 8.99528735725e+14 7.00454083726e+12 16492 
6.1 9.09789668159e+14 7.07072335801e+12 16556 
6.3 9.0754886164e+14 7.08180995433e+12 16423 
6.5 9.2190065367e+14 7.15340187347e+12 16609 
6.7 9.19703325742e+14 7.15598048212e+12 16518 
6.9 9.37340291355e+14 7.23109221839e+12 16803 
7.1 9.21672790879e+14 7.17282243169e+12 16511 
7.3 9.40243416979e+14 7.24336490179e+12 16850 
7.5 9.26963029507e+14 7.18684090124e+12 16636 
7.7 9.39982501721e+14 7.22828509558e+12 16911 
7.9 9.27607585679e+14 7.16860954512e+12 16744 
8.1 9.2091396087e+14 7.12753346295e+12 16694 
8.3 9.10901993014e+14 7.07061820212e+12 16597 
8.5 9.11878768411e+14 7.05338583022e+12 16714 
8.7 9.02324972291e+14 6.99268092864e+12 16651 
8.9 8.94291902094e+14 6.93584846511e+12 16625 
9.1 8.88015519289e+14 6.88324234225e+12 16644 
9.3 8.7036912081e+14 6.78447818168e+12 16458 
9.5 8.73468702711e+14 6.76419674006e+12 16675 
9.7 8.55443304066e+14 6.66025151265e+12 16497 
9.9 8.56923610899e+14 6.63031341264e+12 16704 
10.1 8.40942346012e+14 6.52091375054e+12 16632 
10.3 8.32656926486e+14 6.45415338658e+12 16644 
10.5 8.28274366189e+14 6.40386453846e+12 16729 
10.7 8.10482418637e+14 6.29383185625e+12 16583 
10.9 8.0198038056e+14 6.21919306869e+12 16629 
11.1 7.90649977898e+14 6.1324392739e+12 16623 
11.3 7.78356986075e+14 6.04109427267e+12 16601 
11.5 7.70779540901e+14 5.96738600089e+12 16684 
11.7 7.63250434842e+14 5.89322690324e+12 16774 
11.9 7.45625379287e+14 5.77530663862e+12 16669 
12.1 0 0 0 
12.3 0 0 0 
12.5 0 0 0 
12.7 0 0 0 
12.9 0 0 0 
13.1 0 0 0 
13.3 0 0 0 
13.5 0 0 0 
13.7 0 0 0 
13.9 0 0 0 
14.1 0 0 0 
14.3 0 0 0 
14.5 0 0 0 
14.7 0 0 0 
14.9 0 0 0 
15.1 0 0 0 
15.3 0 0 0 
15.5 0 0 0 
15.7 0 0 0 
15.9 0 0 0 
16.1 0 0 0 
16.3 0 0 0 
16.5 0 0 0 
16.7 0 0 0 
16.9 0 0 0 
17.1 0 0 0 
17.3 0 0 0 
17.5 0 0 0 
17.7 0 0 0 
17.9 0 0 0 
18.1 0 0 0 
18.3 0 0 0 
18.5 0 0 0 
18.7 0 0 0 
18.9 0 0 0 
19.1 0 0 0 
19.3 0 0 0 
19.5 0 0 0 
19.7 0 0 0 
19.9 0 0 0 
# EndDate:Thu Jan 24 13:27:12 2013
