# Format: McStas with text headers file. Use mcplot/PGPLOT to view.
# URL:    http://www.mccode.org/
# Editor: erkn on localhost
# Creator:Test_src_gaussian (Test_src_gaussian.instr) simulation (McXtrace x.y.z - Jan. 22, 2013)
# Date:   Simulation started (1359026658) Thu Jan 24 12:24:18 2013
# File:   psd0.dat
# Ncount: 1e+06
# Trace: no
# Gravitation: no
# Seed: 1359026645
# Param: XW=0
# Param: YH=0
# Param: DIST=10
# Param: SRC=2
# Param: E0=5.7
# type: array_2d(90, 90)
# Source: Test_src_gaussian.instr
# component: psd0
# position: 0 0 0.102
# title: PSD monitor
# Ncount: 1e+06
# filename: psd0.dat
# format: McStas with text headers
# statistics: X0=-7.05677e-07; dX=0.000994904; Y0=-2.74745e-07; dY=0.000498671;
# signal: Min=0; Max=1.76332e+14; Mean=5.31879e+12;
# values: 4.30822e+16 4.57e+13 1e+06
# xvar: X 
# yvar: Y 
# xlabel: X position [m]
# ylabel: Y position [m]
# zvar: I
# zlabel: Signal per bin
# xylimits: -0.005 0.005 -0.005 0.005
# variables: I I_err N
# Data [psd0_dat/psd0.dat] I: 
0 0 0 0 0 0 0 0 0 0 0 0 0 0 0 0 0 0 0 0 0 0 0 0 0 0 0 0 0 0 0 0 0 0 0 0 0 0 0 0 0 0 0 0 0 0 0 0 0 0 0 0 0 0 0 0 0 0 0 0 0 0 0 0 0 0 0 0 0 0 0 0 0 0 0 0 0 0 0 0 0 0 0 0 0 0 0 0 0 0 
0 0 0 0 0 0 0 0 0 0 0 0 0 0 0 0 0 0 0 0 0 0 0 0 0 0 0 0 0 0 0 0 0 0 0 0 0 0 0 0 0 0 0 0 0 0 0 0 0 0 0 0 0 0 0 0 0 0 0 0 0 0 0 0 0 0 0 0 0 0 0 0 0 0 0 0 0 0 0 0 0 0 0 0 0 0 0 0 0 0 
0 0 0 0 0 0 0 0 0 0 0 0 0 0 0 0 0 0 0 0 0 0 0 0 0 0 0 0 0 0 0 0 0 0 0 0 0 0 0 0 0 0 0 0 0 0 0 0 0 0 0 0 0 0 0 0 0 0 0 0 0 0 0 0 0 0 0 0 0 0 0 0 0 0 0 0 0 0 0 0 0 0 0 0 0 0 0 0 0 0 
0 0 0 0 0 0 0 0 0 0 0 0 0 0 0 0 0 0 0 0 0 0 0 0 0 0 0 0 0 0 0 0 0 0 0 0 0 0 0 0 0 0 0 0 0 0 0 0 0 0 0 0 0 0 0 0 0 0 0 0 0 0 0 0 0 0 0 0 0 0 0 0 0 0 0 0 0 0 0 0 0 0 0 0 0 0 0 0 0 0 
0 0 0 0 0 0 0 0 0 0 0 0 0 0 0 0 0 0 0 0 0 0 0 0 0 0 0 0 0 0 0 0 0 0 0 0 0 0 0 0 0 0 0 0 0 0 0 0 0 0 0 0 0 0 0 0 0 0 0 0 0 0 0 0 0 0 0 0 0 0 0 0 0 0 0 0 0 0 0 0 0 0 0 0 0 0 0 0 0 0 
0 0 0 0 0 0 0 0 0 0 0 0 0 0 0 0 0 0 0 0 0 0 0 0 0 0 0 0 0 0 0 0 0 0 0 0 0 0 0 0 0 0 0 0 0 0 0 0 0 0 0 0 0 0 0 0 0 0 0 0 0 0 0 0 0 0 0 0 0 0 0 0 0 0 0 0 0 0 0 0 0 0 0 0 0 0 0 0 0 0 
0 0 0 0 0 0 0 0 0 0 0 0 0 0 0 0 0 0 0 0 0 0 0 0 0 0 0 0 0 0 0 0 0 0 0 0 0 0 0 0 0 0 0 0 0 0 0 0 0 0 0 0 0 0 0 0 0 0 0 0 0 0 0 0 0 0 0 0 0 0 0 0 0 0 0 0 0 0 0 0 0 0 0 0 0 0 0 0 0 0 
0 0 0 0 0 0 0 0 0 0 0 0 0 0 0 0 0 0 0 0 0 0 0 0 0 0 0 0 0 0 0 0 0 0 0 0 0 0 0 0 0 0 0 0 0 0 0 0 0 0 0 0 0 0 0 0 0 0 0 0 0 0 0 0 0 0 0 0 0 0 0 0 0 0 0 0 0 0 0 0 0 0 0 0 0 0 0 0 0 0 
0 0 0 0 0 0 0 0 0 0 0 0 0 0 0 0 0 0 0 0 0 0 0 0 0 0 0 0 0 0 0 0 0 0 0 0 0 0 0 0 0 0 0 0 0 0 0 0 0 0 0 0 0 0 0 0 0 0 0 0 0 0 0 0 0 0 0 0 0 0 0 0 0 0 0 0 0 0 0 0 0 0 0 0 0 0 0 0 0 0 
0 0 0 0 0 0 0 0 0 0 0 0 0 0 0 0 0 0 0 0 0 0 0 0 0 0 0 0 0 0 0 0 0 0 0 0 0 0 0 0 0 0 0 0 0 0 0 0 0 0 0 0 0 0 0 0 0 0 0 0 0 0 0 0 0 0 0 0 0 0 0 0 0 0 0 0 0 0 0 0 0 0 0 0 0 0 0 0 0 0 
0 0 0 0 0 0 0 0 0 0 0 0 0 0 0 0 0 0 0 0 0 0 0 0 0 0 0 0 0 0 0 0 0 0 0 0 0 0 0 0 0 0 0 0 0 0 0 0 0 0 0 0 0 0 0 0 0 0 0 0 0 0 0 0 0 0 0 0 0 0 0 0 0 0 0 0 0 0 0 0 0 0 0 0 0 0 0 0 0 0 
0 0 0 0 0 0 0 0 0 0 0 0 0 0 0 0 0 0 0 0 0 0 0 0 0 0 0 0 0 0 0 0 0 0 0 0 0 0 0 0 0 0 0 0 0 0 0 0 0 0 0 0 0 0 0 0 0 0 0 0 0 0 0 0 0 0 0 0 0 0 0 0 0 0 0 0 0 0 0 0 0 0 0 0 0 0 0 0 0 0 
0 0 0 0 0 0 0 0 0 0 0 0 0 0 0 0 0 0 0 0 0 0 0 0 0 0 0 0 0 0 0 0 0 0 0 0 0 0 0 0 0 0 0 0 0 0 0 0 0 0 0 0 0 0 0 0 0 0 0 0 0 0 0 0 0 0 0 0 0 0 0 0 0 0 0 0 0 0 0 0 0 0 0 0 0 0 0 0 0 0 
0 0 0 0 0 0 0 0 0 0 0 0 0 0 0 0 0 0 0 0 0 0 0 0 0 0 0 0 0 0 0 0 0 0 0 0 0 0 0 0 0 0 0 0 0 0 0 0 0 0 0 0 0 0 0 0 0 0 0 0 0 0 0 0 0 0 0 0 0 0 0 0 0 0 0 0 0 0 0 0 0 0 0 0 0 0 0 0 0 0 
0 0 0 0 0 0 0 0 0 0 0 0 0 0 0 0 0 0 0 0 0 0 0 0 0 0 0 0 0 0 0 0 0 0 0 0 0 0 0 0 0 0 0 0 0 0 0 0 0 0 0 0 0 0 0 0 0 0 0 0 0 0 0 0 0 0 0 0 0 0 0 0 0 0 0 0 0 0 0 0 0 0 0 0 0 0 0 0 0 0 
0 0 0 0 0 0 0 0 0 0 0 0 0 0 0 0 0 0 0 0 0 0 0 0 0 0 0 0 0 0 0 0 0 0 0 0 0 0 0 0 0 0 0 0 0 0 0 0 0 0 0 0 0 0 0 0 0 0 0 0 0 0 0 0 0 0 0 0 0 0 0 0 0 0 0 0 0 0 0 0 0 0 0 0 0 0 0 0 0 0 
0 0 0 0 0 0 0 0 0 0 0 0 0 0 0 0 0 0 0 0 0 0 0 0 0 0 0 0 0 0 0 0 0 0 0 0 0 0 0 0 0 0 0 0 0 0 0 0 0 0 0 0 0 0 0 0 0 0 0 0 0 0 0 0 0 0 0 0 0 0 0 0 0 0 0 0 0 0 0 0 0 0 0 0 0 0 0 0 0 0 
0 0 0 0 0 0 0 0 0 0 0 0 0 0 0 0 0 0 0 0 0 0 0 0 0 0 0 0 0 0 0 0 0 0 0 0 0 0 0 0 0 0 0 0 0 0 0 0 0 0 0 0 0 0 0 0 0 0 0 0 0 0 0 0 0 0 0 0 0 0 0 0 0 0 0 0 0 0 0 0 0 0 0 0 0 0 0 0 0 0 
0 0 0 0 0 0 0 0 0 0 0 0 0 0 0 0 0 0 0 0 0 0 0 0 0 0 0 0 0 0 0 0 0 0 0 0 0 0 0 0 0 0 0 0 0 0 0 0 0 0 0 0 0 0 0 0 0 0 0 0 0 0 0 0 0 0 0 0 0 0 0 0 0 0 0 0 0 0 0 0 0 0 0 0 0 0 0 0 0 0 
0 0 0 0 0 0 0 0 0 0 0 0 0 0 0 0 0 0 0 0 0 0 0 0 0 0 0 0 0 0 0 0 0 0 0 0 0 0 0 0 0 0 0 0 0 0 0 0 0 0 0 0 0 0 0 0 0 0 0 0 0 0 0 0 0 0 0 0 0 0 0 0 0 0 0 0 0 0 0 0 0 0 0 0 0 0 0 0 0 0 
0 0 0 0 0 0 0 0 0 0 0 0 0 0 0 0 0 0 0 0 0 0 0 0 0 0 0 0 0 0 0 0 0 0 0 0 0 0 0 0 0 0 0 0 0 0 0 0 0 0 0 0 0 0 0 0 0 0 0 0 0 0 0 0 0 0 0 0 0 0 0 0 0 0 0 0 0 0 0 0 0 0 0 0 0 0 0 0 0 0 
0 0 0 0 0 0 0 0 0 0 0 0 0 0 0 0 0 0 0 0 0 0 0 0 0 0 0 0 0 0 0 0 0 0 0 0 0 0 0 0 0 0 0 0 0 0 0 0 0 0 0 0 0 0 0 0 0 0 0 0 0 0 0 0 0 0 0 0 0 0 0 0 0 0 0 0 0 0 0 0 0 0 0 0 0 0 0 0 0 0 
0 0 0 0 0 0 0 0 0 0 0 0 0 0 0 0 0 0 0 0 0 0 0 0 0 0 0 0 0 0 0 0 0 0 0 0 0 0 0 0 0 0 0 0 0 0 0 0 0 0 0 0 0 0 0 0 0 0 0 0 0 0 0 0 0 0 0 0 0 0 0 0 0 0 0 0 0 0 0 0 0 0 0 0 0 0 0 0 0 0 
0 0 0 0 0 0 0 0 0 0 0 0 0 0 0 0 0 0 0 0 0 0 0 0 0 0 0 0 0 0 0 0 0 55573804418 0 0 0 0 0 0 0 0 0 0 0 0 0 0 0 0 0 0 0 0 0 0 0 0 0 0 0 0 0 0 0 0 0 0 0 0 0 0 0 0 0 0 0 0 0 0 0 0 0 0 0 0 0 0 0 0 
0 0 0 0 0 0 0 0 0 0 0 0 0 0 0 0 0 0 0 0 0 0 0 0 0 0 0 0 0 0 0 0 0 0 0 0 0 0 0 23227842282 0 0 0 0 0 0 0 0 0 0 0 0 0 0 0 2266025538.54 0 0 0 0 0 0 0 0 0 0 0 0 0 0 0 0 0 0 0 0 0 0 0 0 0 0 0 0 0 0 0 0 0 0 
0 0 0 0 0 0 0 0 0 0 0 0 0 0 0 0 0 0 0 0 0 0 0 0 0 0 0 0 0 1972694951.03 0 0 0 0 0 55829837879.7 0 0 0 0 0 0 0 0 0 46526763294.7 20928963955.9 0 0 0 0 0 0 0 0 0 50178217278.3 0 0 0 0 0 0 0 0 0 0 0 0 0 0 0 0 0 0 0 0 0 0 0 0 0 0 0 0 0 0 0 0 0 
0 0 0 0 0 0 0 0 0 0 0 0 0 0 0 0 0 0 0 0 0 0 0 0 0 0 0 0 0 47116575057.5 0 78151416772 0 0 0 54249707228.7 0 11521395251.2 52019991738.4 0 143724359786 0 50067176111.9 91803068552 68311910007.2 0 108379121321 35291173987.5 0 0 0 0 0 55016843826.4 0 0 0 54470558482.1 0 0 0 0 0 0 0 0 0 0 0 0 0 0 0 0 0 0 0 0 0 0 0 0 0 0 0 0 0 0 0 0 
0 0 0 0 0 0 0 0 0 0 0 0 0 0 0 0 0 0 0 0 0 0 0 0 41455536740.9 0 0 55810993446.5 0 0 17053806149.7 0 55682228111.4 50723575608.9 0 0 12547654043.4 97208240965 100581965432 82450660484.6 105450911130 157499267109 196284578894 117883583633 50186548118 0 134861434144 105258201342 14910138054.2 32875195908.7 2900425959.6 54256495148.3 53890979078.2 90337524501.1 91729668498.7 44325136745.7 0 99256637849.3 47817199086 1288549979.53 0 49954461117.3 53670790417.3 45303215626.7 0 106173971064 0 0 0 0 0 0 0 0 0 0 0 0 0 0 0 0 0 0 0 0 0 0 0 0 
0 0 0 0 0 0 0 0 0 0 0 0 0 0 0 0 0 0 0 0 0 0 0 0 0 73022910814.8 0 252579184291 101987781522 109693252692 0 98032659376.7 0 98275684438.5 132802144335 207681067058 54700628077.4 43890165520.2 196222630266 97919542713.4 215643774999 201947461005 325955530023 128000765750 203000886208 92074016538.1 93532981564.3 103764826649 204856640463 177690908565 228382170706 178093400356 88220400437.8 50719752626.6 213986217645 53586900685.4 95173659156.2 0 195938866805 53821967011.6 39836375406.3 97253329569.2 96288874230.2 0 0 0 0 0 55752037316.9 0 0 0 0 0 0 0 0 0 0 0 0 0 0 0 0 0 0 0 0 0 
0 0 0 0 0 0 0 0 0 0 0 0 0 0 55030619489.8 0 0 0 0 0 48787192866.3 131274344814 0 0 60437563960.8 104022860707 45353121214.8 50030292973.7 62907161158.1 191517359816 144223400508 55665464158.7 209594776683 61644563231 152674826094 52459770627.9 358902585330 234670774857 362098942175 705992363932 181813345959 308355244176 501595837405 474613174309 566149578036 587130802705 439816162324 684213519454 389347606089 516061824276 484345611500 477633906323 102950048643 431078952750 226120278121 236566939567 294276478549 204821225073 89602799564.2 279793096611 155082502236 84143776344.5 0 0 54267156186.1 27746302138.8 54511627845.8 0 47308812743.4 0 0 45175569028.7 0 0 0 0 0 0 0 0 0 0 0 0 0 0 0 0 0 0 
0 0 0 0 0 0 0 0 0 0 0 0 0 0 0 0 0 0 48065801387.8 0 96847502973.2 0 0 108166477113 180814555252 0 114679119269 173374647789 146996338119 311176989518 286734786965 239197337082 274090116804 368958611559 326843067746 279441615296 476503832333 580438311614 412993660541 661974065487 965029381901 525117042476 737445066714 948776762840 900172594009 992285898143 1.05780690178e+12 878290702998 1.19885324552e+12 960417256869 759798136064 671351889740 543564505885 729028933936 492997083349 228576141797 333630746179 229501577840 464326395413 379491348803 229783099648 303503406762 0 55712934775.7 55702360044.9 55758319445.4 0 48252046013 111351025111 70835823326.5 0 0 0 0 0 0 0 0 0 0 0 0 0 0 0 0 0 0 0 0 
0 0 0 0 0 0 0 0 0 0 0 0 0 0 0 0 0 54216429945.9 0 45570221376.1 55662574139.5 39415813179.9 108661214627 53995634223 184895860994 210865516122 453297204754 347213958482 214614275499 562218599465 448861544531 1.03175144583e+12 1.02852843044e+12 730711753182 1.22947420132e+12 934863786267 1.15836262292e+12 1.61420686381e+12 2.01468910149e+12 1.60255681554e+12 1.55547203303e+12 1.5969131772e+12 1.57185676352e+12 1.5548534374e+12 1.68536553655e+12 1.87319449096e+12 1.49932458361e+12 1.71382858593e+12 1.72766999908e+12 1.79501094659e+12 1.90997695718e+12 1.67746342503e+12 1.63527754949e+12 1.15442747633e+12 1.28091456221e+12 1.20833675195e+12 1.0113097823e+12 594291239621 359439306483 592353143217 367453120211 496200496445 203269633285 182180024028 199862723311 0 227297176122 45178657692.8 54085798104.1 0 14056076785 0 0 11512446466.1 0 0 0 0 0 0 0 0 0 0 0 0 0 0 0 0 
0 0 0 0 0 0 0 0 0 0 0 0 0 0 0 0 55322143514.3 0 0 115997235817 0 90523024626.4 133568034513 108822411256 312762742148 306623916910 570044032141 430695007967 471948522044 1.28432866213e+12 699636498243 1.20745944428e+12 1.79417015624e+12 1.30074015702e+12 1.80050730619e+12 1.99421479565e+12 2.05339214338e+12 3.09484358055e+12 3.07636786429e+12 2.85047328696e+12 2.56835692877e+12 3.6954711892e+12 3.22053332777e+12 3.52964053237e+12 3.83286216692e+12 3.61277972714e+12 3.78274451894e+12 4.15538572229e+12 2.80713399708e+12 2.89436819394e+12 3.1457865939e+12 2.53195664085e+12 2.33028364538e+12 2.35711833326e+12 1.62704796728e+12 1.94581604467e+12 2.0526891593e+12 1.06691991535e+12 667013379924 1.03024241793e+12 830702169034 641192384012 441460842383 490844126712 516492443331 111713571033 204539214482 275004891323 38458503134.1 102508402590 0 41191222184.7 0 0 53546307735 0 0 0 0 0 0 0 0 0 0 0 0 0 0 0 
0 0 0 0 0 0 0 0 0 0 0 0 0 0 50981267981.4 55671278711.3 54911949112.7 0 126067446351 101322021590 175905540381 225427580277 209181377740 201513846606 261894333698 780607651802 781913440220 692570128405 1.32432993749e+12 1.63448976985e+12 1.87425617687e+12 1.84020812716e+12 2.2986418899e+12 3.16019469183e+12 2.86029164665e+12 2.96743300988e+12 3.52260461028e+12 3.92355558548e+12 4.75634745429e+12 5.4388362386e+12 5.12994751405e+12 6.30266566348e+12 5.6071374152e+12 6.87999080482e+12 6.9713469735e+12 6.29385642934e+12 7.16195156891e+12 5.66055589728e+12 5.47665316185e+12 5.20424508242e+12 6.02501346207e+12 4.56238219033e+12 3.78687962433e+12 3.77011170642e+12 3.69369293101e+12 3.58018036761e+12 3.06608476224e+12 2.34678069457e+12 2.36865484923e+12 2.10534143449e+12 1.24289984275e+12 1.64792287017e+12 1.24856211278e+12 757690367988 526463898176 312938544995 199200594050 142024748466 101476017528 240445572176 0 110392249665 58202467091.4 55619289033.5 0 0 53330602864.8 0 0 0 0 0 0 0 0 0 0 0 0 0 
0 0 0 0 0 0 0 0 0 0 0 0 0 0 0 82477845175.5 105442528235 120179888532 157351108063 161298299741 17604456515.9 566077992720 507299692204 555721383061 959837121401 844979445809 979864287457 1.63297113417e+12 1.77323068819e+12 2.26408862791e+12 2.86696672556e+12 4.22387656627e+12 4.36639162247e+12 3.30408938591e+12 5.02103935134e+12 6.53327065141e+12 7.67949165344e+12 7.53946234952e+12 7.71120429747e+12 7.8606982439e+12 9.53438678174e+12 1.01673212347e+13 9.55209899592e+12 1.25636111038e+13 1.11696671982e+13 1.1329775783e+13 1.08060710524e+13 1.04857190463e+13 1.13190448832e+13 8.58055854273e+12 8.65037980689e+12 8.15122210698e+12 7.58243934271e+12 7.0204619922e+12 5.88266192502e+12 4.97059598739e+12 4.45772813115e+12 4.3799525539e+12 4.00487847187e+12 2.97776406217e+12 1.9022234146e+12 1.77371758143e+12 1.59491260321e+12 1.67427628651e+12 1.22092587207e+12 587062192864 663508995688 320733542516 412228736810 223382759512 292108261633 91391575887.5 198132571687 0 38310544051 82548646996 0 45755754187.4 0 0 0 41323053644 0 0 0 0 0 0 0 0 
0 0 0 0 0 0 0 0 0 0 36479469671.9 44415908315.1 29073712771.8 0 49710619498.5 0 211345471692 165733084039 222417921135 530303773376 287039037394 610059904398 994505473001 1.19660333024e+12 1.3897213865e+12 1.63034530984e+12 1.77754357099e+12 2.93735971978e+12 3.201553937e+12 4.49070570832e+12 4.73410412123e+12 6.13104979466e+12 8.16435054374e+12 8.68558574467e+12 9.39203328657e+12 9.78095194908e+12 1.2226365993e+13 1.3269792471e+13 1.33032623261e+13 1.53235939212e+13 1.69268133782e+13 1.71234590587e+13 1.69044448484e+13 1.91282317134e+13 1.89477135844e+13 1.97724266729e+13 1.79796553544e+13 1.66809286272e+13 1.64876798876e+13 1.75954148134e+13 1.55973582371e+13 1.59527804683e+13 1.30302315936e+13 1.10486736079e+13 1.10639530072e+13 8.70388556517e+12 8.29392232907e+12 6.57930353749e+12 5.72597750087e+12 4.90506678346e+12 4.99410031327e+12 2.92861361941e+12 2.75953912719e+12 2.26836065827e+12 1.52894611e+12 965861978579 984631018963 1.19688720456e+12 493877215590 457330347164 324561678285 127186984207 87103977751 63819591981.7 0 18335178063.4 79655956716.8 0 0 0 98666190943.2 0 0 0 0 0 0 0 0 0 
0 0 0 0 0 0 0 0 0 53188916581.2 0 0 41462338754.3 53527612450.8 0 130262467714 151762297670 522550303346 223771512059 189486555007 554685163756 648944592948 1.13842458127e+12 1.54428785566e+12 1.89905279558e+12 2.24131223927e+12 3.3156676635e+12 4.48556510493e+12 5.01384219692e+12 5.54209001221e+12 9.12239838799e+12 7.84947637008e+12 1.1770496624e+13 1.19471763002e+13 1.24814518984e+13 1.5466681954e+13 1.87209000046e+13 2.00413916425e+13 2.27392477064e+13 2.39701645557e+13 2.52379958631e+13 2.74032903435e+13 2.65583751577e+13 2.7416226066e+13 3.08165316445e+13 2.67551947339e+13 2.62237595291e+13 2.85565323329e+13 2.59318734416e+13 2.59285173871e+13 2.43674398403e+13 2.19341603508e+13 1.91547379215e+13 1.93635204773e+13 1.62097674425e+13 1.37190697203e+13 1.36757995719e+13 1.16259846317e+13 1.05149588638e+13 7.94759543888e+12 5.88059669823e+12 4.86036881016e+12 4.31643371228e+12 3.0312541888e+12 2.7077614829e+12 1.70798008153e+12 823330882046 581456148160 902603254004 972066527885 338410581035 209260825818 275681894763 44269899696.1 49441144764.4 63044708742.7 46983551697.1 0 0 53831445004.8 0 0 0 0 0 0 0 0 0 0 
0 0 0 0 0 0 0 0 0 51233595846.4 38065767004.8 0 22399690210.1 57589894745.9 52092510398.4 102105034255 384912321576 437094460590 784449814270 825744172203 516694613116 1.4044551545e+12 1.44493995263e+12 2.3401538263e+12 3.74924470525e+12 3.92530140535e+12 4.69384013363e+12 5.48415294115e+12 7.04901079606e+12 9.49421437117e+12 1.12660211506e+13 1.32244299958e+13 1.65357326597e+13 1.75039285432e+13 2.00792683824e+13 2.53569548163e+13 2.81935280403e+13 3.13055753581e+13 3.11185124713e+13 3.65684987912e+13 3.73469131608e+13 3.84308559884e+13 4.31400047157e+13 4.031701261e+13 4.27414046747e+13 4.18228723102e+13 4.18904442903e+13 4.10242269419e+13 4.00038332559e+13 3.86497252142e+13 3.52076013725e+13 3.08494126082e+13 2.9908324991e+13 2.67206329455e+13 2.35290176638e+13 2.06921907341e+13 1.89558040996e+13 1.58702609594e+13 1.33111557214e+13 1.11696727852e+13 9.88255441899e+12 7.59735249439e+12 6.37369869238e+12 5.46181479106e+12 3.95410753185e+12 3.72671400156e+12 2.53302363907e+12 2.20214872042e+12 1.08849458603e+12 1.02714845727e+12 503454035609 767421101395 403649941241 293369908125 171812122139 133847648922 10949822647.4 71298394712 147863287465 0 94487291288.6 0 55199601391.8 97117423430.3 45403168063 0 0 0 0 0 
0 0 0 27619309602 0 0 0 0 0 0 107469704676 0 185001336242 129476918942 86482457749.3 137513168678 276832956194 531973253919 856538956574 996314127785 1.23809760917e+12 1.80710427017e+12 2.98201498223e+12 3.5185221403e+12 4.68408777699e+12 5.57117799017e+12 7.0190465492e+12 8.77376731811e+12 9.29530732164e+12 1.32705414016e+13 1.59311489345e+13 2.01942308909e+13 2.24281165963e+13 2.59260199497e+13 3.13126082018e+13 3.41092569543e+13 3.83479607309e+13 4.05773125982e+13 4.70133785735e+13 5.06771740252e+13 5.33112649329e+13 5.68354158907e+13 5.61946457617e+13 5.75700928191e+13 5.90349542652e+13 5.81144553797e+13 5.81270318997e+13 5.76040838698e+13 5.38772521996e+13 5.43363258032e+13 4.93014054452e+13 4.63412539254e+13 3.92559809007e+13 3.79558974355e+13 3.32548331559e+13 2.94934628405e+13 2.64866365688e+13 2.47447450048e+13 1.95446298633e+13 1.66333279749e+13 1.18804597682e+13 1.04673082067e+13 8.97884252586e+12 6.27018780977e+12 5.17438410102e+12 4.26503010483e+12 3.94209196103e+12 2.74748962559e+12 1.94100892662e+12 1.46823222453e+12 942973890431 740715277410 451900222608 310919407708 462761624011 160034927000 111484946003 159218899649 0 51680655268.2 43189344281.7 0 52252859451 0 0 0 0 0 0 0 
0 0 0 0 0 0 41533515048.6 0 0 0 65499999431.7 95062523194.9 252761944138 202895295106 162768939996 482515483446 429077068846 667492441844 1.18321166001e+12 1.37873006228e+12 2.1262320252e+12 1.99052266775e+12 3.33344362367e+12 4.8377715512e+12 6.18693012601e+12 8.14553759206e+12 1.05214924855e+13 1.17654671772e+13 1.48409607637e+13 1.65340794164e+13 2.4199182627e+13 2.71179414371e+13 3.26023416541e+13 3.39178691556e+13 4.00806812232e+13 4.43006115845e+13 5.28594120586e+13 5.75798994053e+13 6.09585279339e+13 6.65498245062e+13 7.10676910996e+13 7.4627252339e+13 7.61213211435e+13 8.13506146021e+13 8.25984979663e+13 8.04378517657e+13 8.25582020985e+13 7.74227007988e+13 7.53998897902e+13 6.87123713797e+13 6.53338149307e+13 6.22161408585e+13 5.62507789014e+13 5.10202337593e+13 4.65273988342e+13 4.20869927436e+13 3.62653476968e+13 2.88924101294e+13 2.46947167544e+13 2.10645021484e+13 1.76350411818e+13 1.52836161269e+13 1.22782188595e+13 1.0080504281e+13 6.47921720135e+12 6.63815249364e+12 4.9386012869e+12 3.39024573248e+12 2.06927800007e+12 1.41333587694e+12 1.43975216563e+12 1.16215908865e+12 700825151973 568698212192 293674568381 262727313077 369920701454 104287239798 0 0 55362331884.6 103949238165 46160384919.6 0 0 0 0 0 0 0 
0 0 0 0 0 0 0 0 0 9001240445.48 55799848815.5 130178908738 149065333809 104616199966 334232527802 757396244051 741931701975 938142810237 1.32572996701e+12 1.94363961792e+12 1.72777577199e+12 3.20068823639e+12 4.21463287962e+12 6.97892531389e+12 7.94941212251e+12 9.31301969925e+12 1.15495163334e+13 1.5859658151e+13 1.93493034096e+13 2.38962662591e+13 2.70757543052e+13 3.28501660318e+13 3.76906535731e+13 4.57493643327e+13 5.21565553465e+13 5.84519320081e+13 6.47191764094e+13 7.25287391137e+13 8.02592123124e+13 8.66947334102e+13 8.98479627236e+13 9.12327880811e+13 1.01700636858e+14 1.02708314664e+14 1.04563277711e+14 1.05813549623e+14 1.01167320108e+14 1.00937658877e+14 9.55144302611e+13 9.12706684312e+13 8.88342336249e+13 7.90597403973e+13 7.44451275464e+13 6.64212601541e+13 5.86917914551e+13 5.03219282445e+13 4.48502073669e+13 3.84639704167e+13 3.33494673231e+13 2.8953000743e+13 2.29235156563e+13 1.82756405704e+13 1.47271200237e+13 1.1671490226e+13 9.50191651928e+12 8.2503410253e+12 6.72347363913e+12 4.51357429238e+12 3.44251318788e+12 2.84921151556e+12 1.88767452556e+12 1.44280193331e+12 1.18392770649e+12 606178611821 369277456526 387617740271 210148491828 94192700116.8 122593715907 0 0 0 0 0 0 5357819889.13 0 0 0 0 
0 0 0 0 0 0 41476571483.5 0 52938827158.4 0 149556745776 20308267845.6 214224275190 173746820398 343995322508 573802205494 562629230226 682266932570 1.8189917723e+12 2.51897457071e+12 2.43096852511e+12 4.00529339195e+12 4.99696009177e+12 7.62592408422e+12 8.88859555775e+12 1.33157437082e+13 1.49126406183e+13 1.87292141337e+13 2.31369913861e+13 2.82494352456e+13 3.30552383301e+13 4.04853747601e+13 4.83230497049e+13 5.50691132963e+13 6.66425645709e+13 6.85848098227e+13 8.15689036978e+13 8.3628073448e+13 9.1465137788e+13 1.0244226057e+14 1.06558170182e+14 1.11195542849e+14 1.20372383601e+14 1.22440994575e+14 1.23314209973e+14 1.26150154161e+14 1.23806423226e+14 1.20769795107e+14 1.16347561061e+14 1.08416579012e+14 1.067429039e+14 9.72311552399e+13 8.84608978896e+13 7.73419867707e+13 7.0813887396e+13 6.16305582104e+13 5.61280006707e+13 4.6593981588e+13 4.02305631253e+13 3.50030109364e+13 2.85621380717e+13 2.27100398025e+13 1.7766690905e+13 1.62807735983e+13 1.10120548702e+13 9.46725445781e+12 7.44861614987e+12 5.17592435765e+12 4.23333507328e+12 3.57277389679e+12 2.54391612186e+12 1.63375838304e+12 1.19572824855e+12 1.03160369575e+12 686925797219 495903460395 184382630649 49016763920.2 159752779361 140431218445 0 0 0 0 0 0 0 0 0 0 
0 0 0 0 0 0 0 0 57734549385.4 0 160041228504 184285809454 250521819957 163681044446 257440052444 811587333050 784084165403 1.42613227643e+12 2.00491021003e+12 2.55088354391e+12 3.35166635044e+12 4.64803850045e+12 6.19887448545e+12 8.74661304553e+12 1.1806555808e+13 1.41137324402e+13 1.67478399354e+13 2.14619206586e+13 2.63732756781e+13 3.07596761634e+13 3.9647806588e+13 5.09532789346e+13 5.36254840599e+13 6.51165740902e+13 7.5942327027e+13 8.50429213939e+13 9.08354535102e+13 1.05296649398e+14 1.11747812548e+14 1.22760506146e+14 1.31209787343e+14 1.38308624787e+14 1.41111362868e+14 1.42769971172e+14 1.50525834149e+14 1.44609246394e+14 1.42297799322e+14 1.36168414654e+14 1.34291030583e+14 1.2708321619e+14 1.18640114841e+14 1.12526239353e+14 1.01942159851e+14 8.95646510702e+13 7.99100456257e+13 7.79583557967e+13 6.27305742128e+13 5.59150435222e+13 4.36514816828e+13 3.76589880185e+13 3.22711138353e+13 2.66385479681e+13 1.95601583788e+13 1.77404067143e+13 1.30013504259e+13 1.04506481545e+13 6.80459666573e+12 6.48529515395e+12 3.98768329192e+12 3.61180562781e+12 2.54926135469e+12 1.52046163674e+12 1.30942744653e+12 815410501716 1.00972377577e+12 431305769480 292595242981 188464731531 70698171288.1 53870036042.2 133163922157 36093756233.2 55583740897.9 0 0 0 0 0 0 0 
0 0 0 0 28931982676.9 48140120351.2 0 0 47672979095.7 55820000000 102802153067 286724374968 268645201385 320535840066 398029949790 599799630753 1.05848568293e+12 1.24539336428e+12 1.99788529788e+12 2.54816700756e+12 3.18584360833e+12 5.51210480913e+12 7.11248898303e+12 8.88747083089e+12 1.13729332726e+13 1.40364079397e+13 1.9266680334e+13 2.39897863862e+13 2.94244297344e+13 3.45195312293e+13 4.4574897031e+13 5.21443609795e+13 5.86776591004e+13 7.08041139255e+13 8.28248034211e+13 9.2809427665e+13 1.00485484016e+14 1.12477082666e+14 1.23849278039e+14 1.3089850242e+14 1.41737121238e+14 1.50540349963e+14 1.54682029234e+14 1.59527455436e+14 1.57061974208e+14 1.59273899455e+14 1.5856096546e+14 1.54630216656e+14 1.45566798319e+14 1.39410550638e+14 1.33822192289e+14 1.22900655969e+14 1.13916551895e+14 1.03914659476e+14 9.08977453903e+13 8.20206876037e+13 6.99080499449e+13 6.13380914089e+13 5.01571097e+13 4.21197625596e+13 3.89022269516e+13 2.9737921621e+13 2.22275110472e+13 1.95462500512e+13 1.45524422845e+13 1.04441761262e+13 7.98179464845e+12 7.41216128415e+12 4.35624406553e+12 3.2668254823e+12 2.67182693202e+12 2.52365993258e+12 984708345946 1.2609108005e+12 758374989072 362434501362 78173896219 157170603695 104398490591 0 98730951450.8 0 48542806163 0 0 0 51511632385.5 0 0 0 
0 0 0 0 0 0 0 0 45025178504.2 107720640121 38012526908.3 124293740221 245639799415 518100621976 430104837506 660991378877 1.17214687176e+12 1.26118036802e+12 2.08475479585e+12 3.70441971113e+12 4.48108344486e+12 5.57468305891e+12 7.27315517112e+12 8.44251267032e+12 1.1894643517e+13 1.49134357119e+13 2.09386086085e+13 2.49204681368e+13 3.0827814347e+13 3.80094854896e+13 4.44064755223e+13 5.22080904599e+13 6.1661364162e+13 7.55416784272e+13 8.61187787934e+13 9.49895014383e+13 1.03230628093e+14 1.18403095169e+14 1.31642724086e+14 1.40263474188e+14 1.50826113484e+14 1.58006963214e+14 1.63389516864e+14 1.67614791068e+14 1.71018583902e+14 1.71106811967e+14 1.66583524728e+14 1.63648984214e+14 1.61422234241e+14 1.5517402379e+14 1.42922364595e+14 1.33921849873e+14 1.22967169373e+14 1.09500933265e+14 9.58014573339e+13 8.67673892076e+13 7.52725993371e+13 6.54311693531e+13 5.44674740814e+13 4.62110168492e+13 3.70911984002e+13 3.11179108266e+13 2.30715517566e+13 1.94561714694e+13 1.6522227284e+13 1.18587224572e+13 9.09124057598e+12 7.25544271468e+12 5.02342778536e+12 3.17767723798e+12 2.48767169194e+12 2.46115691379e+12 1.33249645825e+12 1.27599164997e+12 554457465889 588335024751 265282054926 218235341792 124326494915 252382878647 89042775712.9 54718421407.8 0 44923649716.5 0 0 0 0 0 0 
0 0 55514399495.6 51231015198.2 0 51045280704.5 0 20264869030 51512034188.4 104264250528 55528547380.6 110229541621 219346823547 367714012278 631234256549 974749645819 729571914583 1.54035703735e+12 2.33714636033e+12 2.79228886412e+12 4.57109175722e+12 5.51791866844e+12 6.34716320164e+12 9.58341442813e+12 1.29488547049e+13 1.660794733e+13 1.88306671051e+13 2.64551665662e+13 3.11794683996e+13 3.79847378878e+13 4.47511136264e+13 5.32968076304e+13 6.6231631971e+13 7.65587268408e+13 8.14613703244e+13 9.92950945929e+13 1.05517282567e+14 1.17616452669e+14 1.30663554476e+14 1.39944091433e+14 1.5182783397e+14 1.61319598382e+14 1.65630721067e+14 1.71608643599e+14 1.67030027619e+14 1.76331758393e+14 1.66101154677e+14 1.64886644303e+14 1.55872290431e+14 1.48560031573e+14 1.38342443371e+14 1.27017661892e+14 1.23743282037e+14 1.09672992648e+14 9.88420949742e+13 8.59897999045e+13 7.37975660662e+13 6.79283361076e+13 5.20783822518e+13 4.17018907418e+13 4.00527863876e+13 2.95881519791e+13 2.68683060909e+13 1.99918335941e+13 1.54240206074e+13 1.20487733127e+13 9.41111672095e+12 7.24057147064e+12 5.73994812377e+12 3.99761321712e+12 3.53203538254e+12 2.66627966685e+12 1.55779710306e+12 1.24479526357e+12 418788364373 436592469230 355439979866 361387243742 85107910528.6 94406696520.4 45390953380.6 101978694875 0 55016977837 0 0 0 0 0 0 
0 0 0 0 0 0 83296504850.2 70824974591.3 47121472922.2 13493646591.3 97461960513.5 153131850962 255107908621 279339758297 572687781709 748655701637 1.0930208291e+12 1.83857724492e+12 2.30280697849e+12 3.23727196606e+12 3.03896567859e+12 6.13055721299e+12 6.90307476855e+12 9.62194809821e+12 1.15305187882e+13 1.51569631441e+13 1.9189525715e+13 2.7391503816e+13 3.18732549497e+13 3.58621227377e+13 4.26981260144e+13 5.04003150158e+13 6.0425249691e+13 7.38793120697e+13 8.49508831035e+13 9.07048375132e+13 1.05202113822e+14 1.12624622655e+14 1.23813269393e+14 1.31622206692e+14 1.41242885048e+14 1.51620472772e+14 1.54074657838e+14 1.60044495391e+14 1.53143868142e+14 1.59029698964e+14 1.60091764914e+14 1.55999524122e+14 1.48395151254e+14 1.48234113128e+14 1.32492221212e+14 1.23072045225e+14 1.16106741377e+14 1.06616279864e+14 9.09245837388e+13 8.05933049559e+13 7.40178605442e+13 6.00942019745e+13 5.19966240734e+13 4.27641917235e+13 3.53465870206e+13 2.87283162782e+13 2.19473067997e+13 1.74546648773e+13 1.60909551826e+13 1.3169167669e+13 8.96687969203e+12 6.64687900809e+12 5.64835544043e+12 3.41146579596e+12 2.60645904517e+12 2.37980111434e+12 1.02370870616e+12 1.0168068666e+12 947487393546 567461759888 432404536223 259530494559 237065991603 144388160223 94837684280.9 55673925889.6 0 0 0 52109424798.4 0 0 0 0 
0 0 0 0 55596611185.5 0 0 0 106159752681 0 104167502865 252527968236 217819935365 201760996402 462796615628 579004774006 718403654585 1.69046301738e+12 2.14028429126e+12 2.46373386495e+12 3.20068998971e+12 4.47018761454e+12 7.23184740272e+12 7.77677374488e+12 1.10284671607e+13 1.61463453899e+13 1.82160257715e+13 2.3009895805e+13 2.57632461125e+13 3.23745864796e+13 4.05093588025e+13 4.37386003924e+13 5.29154730481e+13 6.29010231455e+13 7.22813385905e+13 8.41022219452e+13 9.37348166175e+13 9.88529560534e+13 1.10209322904e+14 1.20311324169e+14 1.30884860219e+14 1.37420679003e+14 1.37007416873e+14 1.43029879442e+14 1.41354732747e+14 1.43250787616e+14 1.45185065842e+14 1.39380895263e+14 1.35634228749e+14 1.30571831796e+14 1.23768123889e+14 1.09635541281e+14 1.02133734568e+14 9.3905267812e+13 8.24602479718e+13 7.37580459926e+13 6.39831334819e+13 5.83758393703e+13 4.73008349572e+13 3.93401107824e+13 3.52824713337e+13 2.89944016324e+13 1.98514962869e+13 1.75455298262e+13 1.3986764122e+13 1.13834109696e+13 8.03577427068e+12 5.40602695315e+12 4.92998839355e+12 3.18562555195e+12 2.08710395324e+12 1.72610449755e+12 998765852997 1.08254218707e+12 415155987139 517534887876 212126743011 347834808470 112892289622 220284866312 0 0 0 0 0 47212738377.7 0 0 0 0 
0 0 0 0 0 0 0 0 45128972885.7 0 97670090733.3 108249175025 170635254400 363599783145 687688638000 1.01655948463e+12 724921235287 1.26806696786e+12 1.62503093686e+12 1.57125791682e+12 2.80066211953e+12 4.23108407406e+12 4.96377527358e+12 6.62028010461e+12 8.36755664135e+12 1.05216810955e+13 1.46882808573e+13 1.8372459759e+13 2.37980298613e+13 2.78314485957e+13 3.5954792128e+13 4.25936134399e+13 4.75503863571e+13 5.21577687407e+13 6.17661010329e+13 7.07521362595e+13 7.94149882999e+13 8.97274606315e+13 9.89242051837e+13 1.05354999186e+14 1.10705439655e+14 1.14852857702e+14 1.22528611872e+14 1.21789674371e+14 1.2546949427e+14 1.27980167535e+14 1.24632184409e+14 1.18114859792e+14 1.17094580295e+14 1.10008014316e+14 1.01288772514e+14 9.76140764393e+13 8.88667050123e+13 7.83897825359e+13 6.99446543818e+13 6.21537660682e+13 5.81971972614e+13 4.80405935305e+13 3.85213843118e+13 3.23674049972e+13 2.8067545269e+13 2.28396931282e+13 2.10557632609e+13 1.5850670783e+13 1.1018738754e+13 1.0193825996e+13 7.51538261214e+12 5.35574105281e+12 4.22508528231e+12 3.46972335021e+12 2.81136842718e+12 1.75424134327e+12 958199256237 509419023602 423429263868 258129116212 309866278658 57752307418.6 217246286944 81348243210.2 50726590368.5 101468035973 87976136248.2 0 0 0 0 0 0 0 
0 0 0 0 0 0 0 0 55800743049.9 51034523459.8 21109362106.2 153403430136 136320456307 225830092866 152776021415 259306941971 870060769067 943732556336 1.96981284023e+12 1.67854825639e+12 2.63538969029e+12 3.61165743368e+12 4.35424948846e+12 5.45933559059e+12 7.53798326128e+12 9.84148339074e+12 1.18156768432e+13 1.59782744972e+13 1.97653318335e+13 2.24418772166e+13 2.7772664982e+13 3.37602857266e+13 3.80135301584e+13 4.50217314294e+13 5.31271309261e+13 5.91985167501e+13 6.58437751561e+13 7.30138404575e+13 7.80073595535e+13 8.65336266821e+13 9.29361757089e+13 9.4738999318e+13 1.00413688879e+14 1.0377744156e+14 1.0498878746e+14 1.02330470657e+14 1.07090637887e+14 9.84790533497e+13 9.78387370573e+13 8.84794674148e+13 8.64159028102e+13 8.20393160711e+13 7.07069827373e+13 6.37882324759e+13 5.64023838432e+13 5.24038661537e+13 4.57855809317e+13 3.91809500939e+13 3.10009499624e+13 2.76874086323e+13 2.39113614009e+13 1.80691316468e+13 1.39970797812e+13 1.17268597153e+13 1.00057628312e+13 8.57480013028e+12 5.53004044265e+12 5.21764897398e+12 3.31871245617e+12 2.45874413981e+12 2.16524585928e+12 1.05575527191e+12 693365366117 698959968549 429073194238 327422661017 252981450956 175889468685 58398018110.8 55585086179.2 56527151505.3 0 0 0 0 0 0 0 0 0 
0 0 0 0 0 54869447666.4 0 0 0 0 0 104106795784 93660853066.1 54022194330.2 217081502482 349917913603 368253850883 573990128193 862737825328 1.31095713053e+12 1.95837886053e+12 2.15306976787e+12 2.96376056219e+12 4.13549244768e+12 6.31580948444e+12 7.42087594598e+12 1.0065116e+13 1.1631940036e+13 1.53289651819e+13 1.83372881102e+13 2.2977790949e+13 2.677773388e+13 3.07665822053e+13 3.63043493236e+13 4.15165265704e+13 4.85025906816e+13 5.44049179115e+13 5.65682079736e+13 6.03200130275e+13 6.7108858688e+13 7.41827309597e+13 7.30699936865e+13 7.86044413399e+13 7.81597913131e+13 7.96150471088e+13 8.12775232136e+13 7.9755832391e+13 7.72024596878e+13 7.52467495584e+13 7.22437863694e+13 6.71305155192e+13 6.22992743716e+13 5.67444263053e+13 5.09267046092e+13 4.4700501851e+13 3.99292540728e+13 3.50865901523e+13 3.13474332419e+13 2.36313404705e+13 1.97376232501e+13 1.75191773016e+13 1.44713434574e+13 1.25182954804e+13 9.9767630776e+12 6.99449744858e+12 5.26030853921e+12 3.9584998386e+12 3.41407196692e+12 2.62155717398e+12 1.81267745992e+12 1.31872649734e+12 1.1775018084e+12 567617485944 357359054787 338629380988 306385521815 36776629698.2 29788451860.3 93254698906.7 91153309206.7 0 0 55603331638.3 0 0 0 0 0 0 0 
0 0 0 0 0 0 0 0 0 0 36028059139.3 18734641655.9 85321137612.7 162466872157 103504314218 274681653059 211459025367 370471084487 977739023830 932990867298 1.55030588036e+12 2.49421967641e+12 2.60971726403e+12 3.66220809829e+12 4.6495505002e+12 5.45066273316e+12 6.69062207598e+12 9.88145898942e+12 1.06490748247e+13 1.28791869711e+13 1.59057002878e+13 2.00355249622e+13 2.20698157943e+13 2.49638342126e+13 3.07483523542e+13 3.68676019066e+13 3.60962064831e+13 4.04263058206e+13 4.64749573296e+13 5.04788747769e+13 5.22740993674e+13 5.68981409924e+13 5.66135367718e+13 6.05884597723e+13 5.75324937033e+13 5.94485736594e+13 6.00322941114e+13 5.81594781426e+13 5.6989508632e+13 5.24874995987e+13 4.72881797824e+13 4.18964984459e+13 4.24111194957e+13 4.34081371553e+13 3.35636259592e+13 3.05406453915e+13 2.76042747757e+13 2.25399595033e+13 2.07976025199e+13 1.54497218782e+13 1.38444347107e+13 1.10303090118e+13 7.42685069179e+12 7.21353043148e+12 5.18755949079e+12 4.02333688711e+12 4.00238886614e+12 2.55220098164e+12 1.34907635624e+12 1.74295462818e+12 1.04729224865e+12 1.1417988816e+12 727222995974 363836849306 296878341968 187152279113 315230767101 109322952040 60493242571.7 55313021023.9 0 0 55751597617.8 0 0 0 0 0 0 0 
0 0 0 0 0 0 55154538815.2 0 0 0 0 0 47416319793.7 105200289342 0 111197167115 58317888318.3 365824393511 453945993905 747077019249 1.27459349297e+12 1.3713982294e+12 1.82678037885e+12 1.37384242677e+12 3.00113631794e+12 4.30200353806e+12 4.66958628291e+12 6.60267500609e+12 7.65159277404e+12 9.35612239892e+12 1.06696507575e+13 1.28446831758e+13 1.54766023314e+13 1.87386588317e+13 2.16611101843e+13 2.26718843585e+13 2.55677897546e+13 3.10355671634e+13 3.44216403777e+13 3.49630769195e+13 3.66084818796e+13 3.95683804825e+13 3.82167337359e+13 3.99303839851e+13 4.36981679664e+13 4.05276471451e+13 4.06299210395e+13 4.06277928147e+13 3.8065463979e+13 3.5612707766e+13 3.34162384046e+13 3.42208151546e+13 2.99083937422e+13 2.82639603429e+13 2.40898120832e+13 2.18858046942e+13 1.71885152655e+13 1.62896574243e+13 1.29877196265e+13 1.14639740291e+13 8.57383132415e+12 8.48963780775e+12 5.26357184205e+12 5.22762159635e+12 3.17810761762e+12 3.05280540496e+12 2.59523425564e+12 1.62272967282e+12 1.33221044196e+12 879970716268 945722058958 560093835351 386898460448 428795735993 303059040020 196050522799 117448138018 104673110220 0 0 0 0 0 0 0 0 0 0 0 0 
0 0 0 0 0 0 0 0 0 0 0 21617285101.1 80822517537.4 0 156204805808 131227208061 321928033481 266480104372 310998656620 592586397911 668584589240 1.28421401221e+12 1.083309775e+12 1.55309963427e+12 1.6700610829e+12 2.53097614599e+12 3.25021664588e+12 3.63231141003e+12 4.9981283012e+12 5.70806265303e+12 7.20916225056e+12 9.68490000838e+12 1.1732601203e+13 1.21643238264e+13 1.48121106395e+13 1.67341693343e+13 1.70481777717e+13 2.20735781079e+13 2.14781836971e+13 2.41382802627e+13 2.53516596408e+13 2.769316163e+13 2.71013473443e+13 2.8781616535e+13 2.77183671114e+13 2.76759272825e+13 2.76460906731e+13 2.56990662986e+13 2.60945122756e+13 2.64058834786e+13 2.40501480495e+13 2.19178564194e+13 1.99781151839e+13 1.79350939611e+13 1.39022746451e+13 1.53845117095e+13 1.14935370184e+13 9.08445208963e+12 9.45701199001e+12 8.61374650409e+12 6.14793419191e+12 5.12113345557e+12 3.56183090063e+12 4.02396438636e+12 2.38312414441e+12 2.00474388612e+12 1.26034379412e+12 1.42871112999e+12 739687326445 603076142474 630931670763 279136416145 103142557926 262031616378 106742989834 102810957250 80086402336 0 0 40349458207.8 0 0 0 0 0 0 0 0 0 0 
0 0 0 0 0 0 0 46872995327.6 0 0 0 0 0 205280236823 54934945501.2 105013435372 160385301721 143497858128 151083526942 350571219285 539345032403 371205367265 792008457306 1.0807927159e+12 1.83309145379e+12 2.00167771089e+12 1.47097254272e+12 2.93517805719e+12 3.37061541416e+12 4.09199770678e+12 5.05483329103e+12 5.92082712044e+12 7.24057399767e+12 8.50237359745e+12 9.30138133568e+12 1.00991893866e+13 1.07373148773e+13 1.24143147771e+13 1.31678097503e+13 1.49777202972e+13 1.67466598748e+13 1.51604103956e+13 1.827697325e+13 1.87747559909e+13 1.74785150798e+13 1.63794072242e+13 1.65920075325e+13 1.74467956616e+13 1.60927517007e+13 1.56399635305e+13 1.50021103195e+13 1.48136445405e+13 1.38372439712e+13 1.31547935253e+13 1.04007893332e+13 1.02473111164e+13 7.85321651628e+12 6.54735912766e+12 6.17278668474e+12 4.64096493283e+12 3.57410572043e+12 3.08984480065e+12 3.08596984387e+12 2.40112086084e+12 1.16521797309e+12 1.13172667032e+12 1.09414943791e+12 560759249246 644701828654 214327389872 158423560397 185268396922 367966906224 212224557808 0 0 0 54708228851.1 0 0 0 0 0 0 37152784323 0 0 0 0 0 
0 0 0 0 0 0 0 0 0 34044840332.4 0 0 0 48330782787.3 55790295894.7 12491813761.1 55712632718.2 0 53803650500.1 332867251324 232829674773 124012223040 492221766406 589523713441 625397331795 867798615893 1.3367021151e+12 1.61482867336e+12 2.1786687688e+12 2.28544978899e+12 2.57087063257e+12 3.66082768018e+12 3.70457806218e+12 4.22408594639e+12 5.4066239165e+12 6.66614665489e+12 7.13138165326e+12 7.71908684577e+12 8.36874275861e+12 8.65000667205e+12 8.31769582027e+12 9.96242621165e+12 1.07651223832e+13 1.01685180285e+13 1.17653335285e+13 1.04670670326e+13 9.93819894084e+12 1.01797269447e+13 1.00296453028e+13 1.05984814896e+13 9.07700563852e+12 9.10521264342e+12 7.05145894068e+12 7.08099995239e+12 6.59188889314e+12 5.72963970174e+12 4.90859933675e+12 4.4632242181e+12 4.00083031338e+12 2.84046973282e+12 2.20304711703e+12 1.95046610283e+12 1.95095889062e+12 1.20745819029e+12 1.35287210462e+12 802353511054 643400913921 391260279079 510025973273 407895560138 318846458108 128942487726 50104446324.2 38564012649.7 0 55784872818.4 0 0 0 0 0 0 0 0 0 0 0 0 0 0 
0 0 0 0 0 0 0 0 0 0 0 0 0 0 0 0 53236897692.1 143194165182 93644731883.6 168902674451 49066613693.7 319822427577 301771552382 294337252476 383789423050 556668098174 823154246404 804294382866 1.68754594145e+12 1.73473924521e+12 1.79070195606e+12 1.7120585669e+12 2.76479346577e+12 2.19030956642e+12 3.45152262391e+12 4.26809743948e+12 3.96838543344e+12 4.90737420948e+12 3.9329769761e+12 5.91403661667e+12 5.51888778541e+12 5.16176186661e+12 5.49401486054e+12 6.70860177183e+12 5.98709272159e+12 6.64539962938e+12 5.95163825724e+12 6.15484122194e+12 5.92239162578e+12 5.52040208779e+12 5.7775190049e+12 4.51535690023e+12 5.12338295061e+12 4.46795804049e+12 3.22892683255e+12 4.10901501719e+12 2.24269248932e+12 1.99591560353e+12 2.62634467457e+12 1.79742812825e+12 1.44887197394e+12 1.08324471896e+12 1.26690782571e+12 539899824895 570417780882 694017759924 360062787211 354118465007 228041873966 70684434678.2 67554962446.8 0 0 0 50225897424.9 54726228875.8 6666779420.25 0 0 53646696437.5 0 0 0 0 0 0 0 0 0 0 
0 0 0 0 0 0 0 0 0 0 0 0 0 25203086224.3 0 0 0 0 51891607945.3 203822027137 74859338531.8 152433106090 76994317961.5 280726779214 217072737858 75774858941.1 570921515441 388858433182 598050011319 800025198966 886773598088 1.15787904151e+12 1.28540024501e+12 1.30893165138e+12 1.5705396539e+12 1.6480628515e+12 2.0835847259e+12 2.88312789924e+12 2.81360078239e+12 3.50053291883e+12 2.79188407231e+12 2.77772469587e+12 2.71804084795e+12 3.95508990895e+12 3.62418840873e+12 3.96947663819e+12 4.03080212466e+12 3.78910916135e+12 3.34628691169e+12 2.88924667897e+12 2.53600503191e+12 2.86924889e+12 1.74813869027e+12 2.02983500627e+12 1.94485393395e+12 1.54340731828e+12 1.38800301637e+12 1.23967671239e+12 1.35014694846e+12 956165489076 325636727999 605922821834 389582617866 523119883270 423121530008 216861377136 53700717985.3 5523726213.28 86733416667.6 35594573124 93390908399.1 10578213083.2 0 176849355379 59183917218.1 63736904196.7 55028699878.5 0 0 0 0 0 0 0 0 0 0 0 0 0 
0 0 0 0 0 0 0 0 0 0 0 0 0 0 0 0 8156689967.88 0 0 46887937304.6 107832162976 23744561111.1 12485007655.4 50919256204.4 135195067555 107726258615 99099463528.1 309688700647 345746675943 397396146802 648297287036 352040560758 492387810318 940773983817 920827058586 1.13261316345e+12 853937677958 1.42502135147e+12 1.66261829947e+12 1.37520484674e+12 1.47724632101e+12 1.5702847247e+12 2.00346686658e+12 1.46332957954e+12 1.73522469232e+12 2.49333295173e+12 2.13502226358e+12 2.02770069961e+12 1.2221452934e+12 1.96852514138e+12 1.81651539921e+12 1.05803068006e+12 1.13060987365e+12 1.24176409209e+12 1.00964439906e+12 822537381277 829300321440 869737113189 821415572514 539087554735 387478718474 248668496468 344307622748 431354989329 98447083735.8 152150120906 51752975208.8 30050408689.2 153839676050 0 0 0 0 0 15120503472.2 0 0 0 0 0 0 0 0 0 0 0 0 0 0 0 
0 0 0 0 0 0 0 0 0 0 0 0 0 0 0 0 0 0 0 0 19981427008.5 49841637400.5 0 52904577208.3 54769382484.8 160338476809 40003971302.3 206779275235 160333402070 208580620360 358924948870 374265935652 331474173198 345558297374 545773189920 572429458258 376978965008 468514867853 862770903541 759993559169 639685940068 993701170290 1.12428432893e+12 814561792103 564900212781 832886564691 984361794905 1.07385997495e+12 896355442534 847126614635 927699048596 266132325997 526901271556 534180790785 516518254314 379233336662 191036738631 461899581351 416579235983 251097533438 109371159120 98186948240.6 20480063963.9 159237979000 194700009960 87127120126.2 100819995540 0 0 55795600900.3 0 0 0 0 0 0 0 0 0 0 0 0 0 0 0 0 0 0 0 0 
0 0 0 0 0 0 0 0 0 0 0 0 0 0 0 0 0 0 0 0 84343840669.3 0 0 0 0 0 118508805853 126104091844 0 96924037881.7 109743386047 267481003040 257319252553 172760204398 268856453010 218072980562 171766176969 449946895058 465790181245 262447636000 390865368736 646957480847 536978679103 590204474241 514429923187 447651887153 391963711032 427509407788 566417770572 317656642732 360413870449 332607480376 299037828144 370895831508 224201541833 220458849552 270386439019 201656828698 364713492491 108232775501 211126598491 48838323526 55782775840 0 0 0 26635603264.8 62001561342.2 86040252188.5 0 0 0 0 0 0 0 0 0 0 0 0 0 0 0 0 0 0 0 0 0 
0 0 0 0 0 0 0 0 0 0 0 0 0 0 0 0 0 0 0 0 0 49017136055.3 0 38518261410.3 47406992040.6 0 0 54690716210.5 0 61798889197.2 0 0 0 53428577551.8 56270319175.7 140933896444 201748042638 142170686232 83807327601.1 126016490499 121954795975 197498944415 209915594667 118306011295 135656368821 210665797621 0 237026110969 206802553530 214705370426 81285675685.8 49359047152.2 208869232969 47370532375.4 68199177796.8 201095825730 74650292970.5 0 157723517435 99880002394.5 114888756988 93949653910.2 19548465222 0 0 0 0 0 0 0 0 0 0 0 0 0 0 0 0 0 0 0 0 0 0 0 0 0 0 0 
0 0 0 0 0 0 0 0 0 0 0 0 0 0 0 0 0 55541278296.2 0 0 0 0 0 52120200753.7 0 0 0 50429825306.6 0 0 20579168732 0 0 0 0 157161960333 0 51764251733.5 31467259023 73328625365.5 64361665536.7 55633537289.5 75427120844.9 0 44891139606.6 0 1167365940.53 55561030205.6 124125856201 18419775038.5 30408420665.2 0 118882154311 0 0 0 0 54837264512.5 0 0 51084839277.8 52566052182.7 51704149993.6 0 0 0 0 0 0 0 0 0 0 0 0 0 0 0 0 0 0 0 0 0 0 0 0 0 0 0 
0 0 0 0 0 0 0 0 0 0 0 0 0 0 0 0 0 0 0 0 0 0 0 0 0 0 0 0 0 0 0 0 55548818529.1 0 45306436672.4 50027596661.8 63136867012.3 47130444028.5 0 6339285333.79 79559715833 55558516072.1 0 158035008725 48966747401.3 0 0 100937177.879 0 0 55030913093.2 0 0 0 55645018836.5 100318345364 0 52531885548.5 50173688728.3 0 0 20730539397.7 0 0 0 0 0 0 0 0 0 0 0 0 0 0 0 0 0 0 0 0 0 0 0 0 0 0 0 0 
0 0 0 0 0 0 0 0 0 0 0 0 0 0 0 0 0 0 0 0 0 0 0 0 0 0 0 0 0 0 0 0 0 0 0 0 0 108533104928 0 0 53331036563.6 0 0 0 0 0 0 0 8941804877.5 0 0 0 0 30535837592.4 0 0 3413840611.44 0 0 0 0 0 0 0 0 0 0 0 0 0 0 0 0 0 0 0 0 0 0 0 0 0 0 0 0 0 0 0 0 0 
0 0 0 0 0 0 0 0 0 0 0 0 0 0 0 0 0 0 0 0 0 0 0 0 0 0 0 0 0 0 54834163104.7 0 0 0 0 0 0 0 0 0 0 0 0 0 0 0 0 0 0 0 0 0 0 0 0 0 0 0 55820000000 0 0 0 0 0 0 0 0 0 0 0 0 0 0 0 0 0 0 0 0 0 0 0 0 0 0 0 0 0 0 0 
0 0 0 0 0 0 0 0 0 0 0 0 0 0 0 0 0 0 0 0 0 0 0 0 0 0 0 0 0 0 0 0 0 0 0 0 0 0 0 0 0 0 0 0 0 0 0 0 0 0 0 0 0 0 0 0 0 0 0 0 0 0 0 0 0 0 0 0 0 0 0 0 0 0 0 0 0 0 0 0 0 0 0 0 0 0 0 0 0 0 
0 0 0 0 0 0 0 0 0 0 0 0 0 0 0 0 0 0 0 0 0 0 0 0 0 0 0 0 0 0 0 0 0 0 0 0 0 0 0 0 0 0 0 0 0 0 0 0 0 0 0 0 0 0 0 0 0 0 0 0 0 0 0 0 0 0 0 0 0 0 0 0 0 0 0 0 0 0 0 0 0 0 0 0 0 0 0 0 0 0 
0 0 0 0 0 0 0 0 0 0 0 0 0 0 0 0 0 0 0 0 0 0 0 0 0 0 0 0 0 0 0 0 0 0 0 0 0 0 0 0 0 0 0 0 0 0 0 0 0 0 0 0 0 0 0 0 0 0 0 0 0 0 0 0 0 0 0 0 0 0 0 0 0 0 0 0 0 0 0 0 0 0 0 0 0 0 0 0 0 0 
0 0 0 0 0 0 0 0 0 0 0 0 0 0 0 0 0 0 0 0 0 0 0 0 0 0 0 0 0 0 0 0 0 0 0 0 0 0 0 0 0 0 0 0 0 0 0 0 0 0 0 0 0 0 0 0 0 0 0 0 0 0 0 0 0 0 0 0 0 0 0 0 0 0 0 0 0 0 0 0 0 0 0 0 0 0 0 0 0 0 
0 0 0 0 0 0 0 0 0 0 0 0 0 0 0 0 0 0 0 0 0 0 0 0 0 0 0 0 0 0 0 0 0 0 0 0 0 0 0 0 0 0 0 0 0 0 0 0 0 0 0 0 0 0 0 0 0 0 0 0 0 0 0 0 0 0 0 0 0 0 0 0 0 0 0 0 0 0 0 0 0 0 0 0 0 0 0 0 0 0 
0 0 0 0 0 0 0 0 0 0 0 0 0 0 0 0 0 0 0 0 0 0 0 0 0 0 0 0 0 0 0 0 0 0 0 0 0 0 0 0 0 0 0 0 0 0 0 0 0 0 0 0 0 0 0 0 0 0 0 0 0 0 0 0 0 0 0 0 0 0 0 0 0 0 0 0 0 0 0 0 0 0 0 0 0 0 0 0 0 0 
0 0 0 0 0 0 0 0 0 0 0 0 0 0 0 0 0 0 0 0 0 0 0 0 0 0 0 0 0 0 0 0 0 0 0 0 0 0 0 0 0 0 0 0 0 0 0 0 0 0 0 0 0 0 0 0 0 0 0 0 0 0 0 0 0 0 0 0 0 0 0 0 0 0 0 0 0 0 0 0 0 0 0 0 0 0 0 0 0 0 
0 0 0 0 0 0 0 0 0 0 0 0 0 0 0 0 0 0 0 0 0 0 0 0 0 0 0 0 0 0 0 0 0 0 0 0 0 0 0 0 0 0 0 0 0 0 0 0 0 0 0 0 0 0 0 0 0 0 0 0 0 0 0 0 0 0 0 0 0 0 0 0 0 0 0 0 0 0 0 0 0 0 0 0 0 0 0 0 0 0 
0 0 0 0 0 0 0 0 0 0 0 0 0 0 0 0 0 0 0 0 0 0 0 0 0 0 0 0 0 0 0 0 0 0 0 0 0 0 0 0 0 0 0 0 0 0 0 0 0 0 0 0 0 0 0 0 0 0 0 0 0 0 0 0 0 0 0 0 0 0 0 0 0 0 0 0 0 0 0 0 0 0 0 0 0 0 0 0 0 0 
0 0 0 0 0 0 0 0 0 0 0 0 0 0 0 0 0 0 0 0 0 0 0 0 0 0 0 0 0 0 0 0 0 0 0 0 0 0 0 0 0 0 0 0 0 0 0 0 0 0 0 0 0 0 0 0 0 0 0 0 0 0 0 0 0 0 0 0 0 0 0 0 0 0 0 0 0 0 0 0 0 0 0 0 0 0 0 0 0 0 
0 0 0 0 0 0 0 0 0 0 0 0 0 0 0 0 0 0 0 0 0 0 0 0 0 0 0 0 0 0 0 0 0 0 0 0 0 0 0 0 0 0 0 0 0 0 0 0 0 0 0 0 0 0 0 0 0 0 0 0 0 0 0 0 0 0 0 0 0 0 0 0 0 0 0 0 0 0 0 0 0 0 0 0 0 0 0 0 0 0 
0 0 0 0 0 0 0 0 0 0 0 0 0 0 0 0 0 0 0 0 0 0 0 0 0 0 0 0 0 0 0 0 0 0 0 0 0 0 0 0 0 0 0 0 0 0 0 0 0 0 0 0 0 0 0 0 0 0 0 0 0 0 0 0 0 0 0 0 0 0 0 0 0 0 0 0 0 0 0 0 0 0 0 0 0 0 0 0 0 0 
0 0 0 0 0 0 0 0 0 0 0 0 0 0 0 0 0 0 0 0 0 0 0 0 0 0 0 0 0 0 0 0 0 0 0 0 0 0 0 0 0 0 0 0 0 0 0 0 0 0 0 0 0 0 0 0 0 0 0 0 0 0 0 0 0 0 0 0 0 0 0 0 0 0 0 0 0 0 0 0 0 0 0 0 0 0 0 0 0 0 
0 0 0 0 0 0 0 0 0 0 0 0 0 0 0 0 0 0 0 0 0 0 0 0 0 0 0 0 0 0 0 0 0 0 0 0 0 0 0 0 0 0 0 0 0 0 0 0 0 0 0 0 0 0 0 0 0 0 0 0 0 0 0 0 0 0 0 0 0 0 0 0 0 0 0 0 0 0 0 0 0 0 0 0 0 0 0 0 0 0 
0 0 0 0 0 0 0 0 0 0 0 0 0 0 0 0 0 0 0 0 0 0 0 0 0 0 0 0 0 0 0 0 0 0 0 0 0 0 0 0 0 0 0 0 0 0 0 0 0 0 0 0 0 0 0 0 0 0 0 0 0 0 0 0 0 0 0 0 0 0 0 0 0 0 0 0 0 0 0 0 0 0 0 0 0 0 0 0 0 0 
0 0 0 0 0 0 0 0 0 0 0 0 0 0 0 0 0 0 0 0 0 0 0 0 0 0 0 0 0 0 0 0 0 0 0 0 0 0 0 0 0 0 0 0 0 0 0 0 0 0 0 0 0 0 0 0 0 0 0 0 0 0 0 0 0 0 0 0 0 0 0 0 0 0 0 0 0 0 0 0 0 0 0 0 0 0 0 0 0 0 
0 0 0 0 0 0 0 0 0 0 0 0 0 0 0 0 0 0 0 0 0 0 0 0 0 0 0 0 0 0 0 0 0 0 0 0 0 0 0 0 0 0 0 0 0 0 0 0 0 0 0 0 0 0 0 0 0 0 0 0 0 0 0 0 0 0 0 0 0 0 0 0 0 0 0 0 0 0 0 0 0 0 0 0 0 0 0 0 0 0 
0 0 0 0 0 0 0 0 0 0 0 0 0 0 0 0 0 0 0 0 0 0 0 0 0 0 0 0 0 0 0 0 0 0 0 0 0 0 0 0 0 0 0 0 0 0 0 0 0 0 0 0 0 0 0 0 0 0 0 0 0 0 0 0 0 0 0 0 0 0 0 0 0 0 0 0 0 0 0 0 0 0 0 0 0 0 0 0 0 0 
0 0 0 0 0 0 0 0 0 0 0 0 0 0 0 0 0 0 0 0 0 0 0 0 0 0 0 0 0 0 0 0 0 0 0 0 0 0 0 0 0 0 0 0 0 0 0 0 0 0 0 0 0 0 0 0 0 0 0 0 0 0 0 0 0 0 0 0 0 0 0 0 0 0 0 0 0 0 0 0 0 0 0 0 0 0 0 0 0 0 
0 0 0 0 0 0 0 0 0 0 0 0 0 0 0 0 0 0 0 0 0 0 0 0 0 0 0 0 0 0 0 0 0 0 0 0 0 0 0 0 0 0 0 0 0 0 0 0 0 0 0 0 0 0 0 0 0 0 0 0 0 0 0 0 0 0 0 0 0 0 0 0 0 0 0 0 0 0 0 0 0 0 0 0 0 0 0 0 0 0 
0 0 0 0 0 0 0 0 0 0 0 0 0 0 0 0 0 0 0 0 0 0 0 0 0 0 0 0 0 0 0 0 0 0 0 0 0 0 0 0 0 0 0 0 0 0 0 0 0 0 0 0 0 0 0 0 0 0 0 0 0 0 0 0 0 0 0 0 0 0 0 0 0 0 0 0 0 0 0 0 0 0 0 0 0 0 0 0 0 0 
0 0 0 0 0 0 0 0 0 0 0 0 0 0 0 0 0 0 0 0 0 0 0 0 0 0 0 0 0 0 0 0 0 0 0 0 0 0 0 0 0 0 0 0 0 0 0 0 0 0 0 0 0 0 0 0 0 0 0 0 0 0 0 0 0 0 0 0 0 0 0 0 0 0 0 0 0 0 0 0 0 0 0 0 0 0 0 0 0 0 
0 0 0 0 0 0 0 0 0 0 0 0 0 0 0 0 0 0 0 0 0 0 0 0 0 0 0 0 0 0 0 0 0 0 0 0 0 0 0 0 0 0 0 0 0 0 0 0 0 0 0 0 0 0 0 0 0 0 0 0 0 0 0 0 0 0 0 0 0 0 0 0 0 0 0 0 0 0 0 0 0 0 0 0 0 0 0 0 0 0 
0 0 0 0 0 0 0 0 0 0 0 0 0 0 0 0 0 0 0 0 0 0 0 0 0 0 0 0 0 0 0 0 0 0 0 0 0 0 0 0 0 0 0 0 0 0 0 0 0 0 0 0 0 0 0 0 0 0 0 0 0 0 0 0 0 0 0 0 0 0 0 0 0 0 0 0 0 0 0 0 0 0 0 0 0 0 0 0 0 0 
# Errors [psd0_dat/psd0.dat] E: 
0 0 0 0 0 0 0 0 0 0 0 0 0 0 0 0 0 0 0 0 0 0 0 0 0 0 0 0 0 0 0 0 0 0 0 0 0 0 0 0 0 0 0 0 0 0 0 0 0 0 0 0 0 0 0 0 0 0 0 0 0 0 0 0 0 0 0 0 0 0 0 0 0 0 0 0 0 0 0 0 0 0 0 0 0 0 0 0 0 0 
0 0 0 0 0 0 0 0 0 0 0 0 0 0 0 0 0 0 0 0 0 0 0 0 0 0 0 0 0 0 0 0 0 0 0 0 0 0 0 0 0 0 0 0 0 0 0 0 0 0 0 0 0 0 0 0 0 0 0 0 0 0 0 0 0 0 0 0 0 0 0 0 0 0 0 0 0 0 0 0 0 0 0 0 0 0 0 0 0 0 
0 0 0 0 0 0 0 0 0 0 0 0 0 0 0 0 0 0 0 0 0 0 0 0 0 0 0 0 0 0 0 0 0 0 0 0 0 0 0 0 0 0 0 0 0 0 0 0 0 0 0 0 0 0 0 0 0 0 0 0 0 0 0 0 0 0 0 0 0 0 0 0 0 0 0 0 0 0 0 0 0 0 0 0 0 0 0 0 0 0 
0 0 0 0 0 0 0 0 0 0 0 0 0 0 0 0 0 0 0 0 0 0 0 0 0 0 0 0 0 0 0 0 0 0 0 0 0 0 0 0 0 0 0 0 0 0 0 0 0 0 0 0 0 0 0 0 0 0 0 0 0 0 0 0 0 0 0 0 0 0 0 0 0 0 0 0 0 0 0 0 0 0 0 0 0 0 0 0 0 0 
0 0 0 0 0 0 0 0 0 0 0 0 0 0 0 0 0 0 0 0 0 0 0 0 0 0 0 0 0 0 0 0 0 0 0 0 0 0 0 0 0 0 0 0 0 0 0 0 0 0 0 0 0 0 0 0 0 0 0 0 0 0 0 0 0 0 0 0 0 0 0 0 0 0 0 0 0 0 0 0 0 0 0 0 0 0 0 0 0 0 
0 0 0 0 0 0 0 0 0 0 0 0 0 0 0 0 0 0 0 0 0 0 0 0 0 0 0 0 0 0 0 0 0 0 0 0 0 0 0 0 0 0 0 0 0 0 0 0 0 0 0 0 0 0 0 0 0 0 0 0 0 0 0 0 0 0 0 0 0 0 0 0 0 0 0 0 0 0 0 0 0 0 0 0 0 0 0 0 0 0 
0 0 0 0 0 0 0 0 0 0 0 0 0 0 0 0 0 0 0 0 0 0 0 0 0 0 0 0 0 0 0 0 0 0 0 0 0 0 0 0 0 0 0 0 0 0 0 0 0 0 0 0 0 0 0 0 0 0 0 0 0 0 0 0 0 0 0 0 0 0 0 0 0 0 0 0 0 0 0 0 0 0 0 0 0 0 0 0 0 0 
0 0 0 0 0 0 0 0 0 0 0 0 0 0 0 0 0 0 0 0 0 0 0 0 0 0 0 0 0 0 0 0 0 0 0 0 0 0 0 0 0 0 0 0 0 0 0 0 0 0 0 0 0 0 0 0 0 0 0 0 0 0 0 0 0 0 0 0 0 0 0 0 0 0 0 0 0 0 0 0 0 0 0 0 0 0 0 0 0 0 
0 0 0 0 0 0 0 0 0 0 0 0 0 0 0 0 0 0 0 0 0 0 0 0 0 0 0 0 0 0 0 0 0 0 0 0 0 0 0 0 0 0 0 0 0 0 0 0 0 0 0 0 0 0 0 0 0 0 0 0 0 0 0 0 0 0 0 0 0 0 0 0 0 0 0 0 0 0 0 0 0 0 0 0 0 0 0 0 0 0 
0 0 0 0 0 0 0 0 0 0 0 0 0 0 0 0 0 0 0 0 0 0 0 0 0 0 0 0 0 0 0 0 0 0 0 0 0 0 0 0 0 0 0 0 0 0 0 0 0 0 0 0 0 0 0 0 0 0 0 0 0 0 0 0 0 0 0 0 0 0 0 0 0 0 0 0 0 0 0 0 0 0 0 0 0 0 0 0 0 0 
0 0 0 0 0 0 0 0 0 0 0 0 0 0 0 0 0 0 0 0 0 0 0 0 0 0 0 0 0 0 0 0 0 0 0 0 0 0 0 0 0 0 0 0 0 0 0 0 0 0 0 0 0 0 0 0 0 0 0 0 0 0 0 0 0 0 0 0 0 0 0 0 0 0 0 0 0 0 0 0 0 0 0 0 0 0 0 0 0 0 
0 0 0 0 0 0 0 0 0 0 0 0 0 0 0 0 0 0 0 0 0 0 0 0 0 0 0 0 0 0 0 0 0 0 0 0 0 0 0 0 0 0 0 0 0 0 0 0 0 0 0 0 0 0 0 0 0 0 0 0 0 0 0 0 0 0 0 0 0 0 0 0 0 0 0 0 0 0 0 0 0 0 0 0 0 0 0 0 0 0 
0 0 0 0 0 0 0 0 0 0 0 0 0 0 0 0 0 0 0 0 0 0 0 0 0 0 0 0 0 0 0 0 0 0 0 0 0 0 0 0 0 0 0 0 0 0 0 0 0 0 0 0 0 0 0 0 0 0 0 0 0 0 0 0 0 0 0 0 0 0 0 0 0 0 0 0 0 0 0 0 0 0 0 0 0 0 0 0 0 0 
0 0 0 0 0 0 0 0 0 0 0 0 0 0 0 0 0 0 0 0 0 0 0 0 0 0 0 0 0 0 0 0 0 0 0 0 0 0 0 0 0 0 0 0 0 0 0 0 0 0 0 0 0 0 0 0 0 0 0 0 0 0 0 0 0 0 0 0 0 0 0 0 0 0 0 0 0 0 0 0 0 0 0 0 0 0 0 0 0 0 
0 0 0 0 0 0 0 0 0 0 0 0 0 0 0 0 0 0 0 0 0 0 0 0 0 0 0 0 0 0 0 0 0 0 0 0 0 0 0 0 0 0 0 0 0 0 0 0 0 0 0 0 0 0 0 0 0 0 0 0 0 0 0 0 0 0 0 0 0 0 0 0 0 0 0 0 0 0 0 0 0 0 0 0 0 0 0 0 0 0 
0 0 0 0 0 0 0 0 0 0 0 0 0 0 0 0 0 0 0 0 0 0 0 0 0 0 0 0 0 0 0 0 0 0 0 0 0 0 0 0 0 0 0 0 0 0 0 0 0 0 0 0 0 0 0 0 0 0 0 0 0 0 0 0 0 0 0 0 0 0 0 0 0 0 0 0 0 0 0 0 0 0 0 0 0 0 0 0 0 0 
0 0 0 0 0 0 0 0 0 0 0 0 0 0 0 0 0 0 0 0 0 0 0 0 0 0 0 0 0 0 0 0 0 0 0 0 0 0 0 0 0 0 0 0 0 0 0 0 0 0 0 0 0 0 0 0 0 0 0 0 0 0 0 0 0 0 0 0 0 0 0 0 0 0 0 0 0 0 0 0 0 0 0 0 0 0 0 0 0 0 
0 0 0 0 0 0 0 0 0 0 0 0 0 0 0 0 0 0 0 0 0 0 0 0 0 0 0 0 0 0 0 0 0 0 0 0 0 0 0 0 0 0 0 0 0 0 0 0 0 0 0 0 0 0 0 0 0 0 0 0 0 0 0 0 0 0 0 0 0 0 0 0 0 0 0 0 0 0 0 0 0 0 0 0 0 0 0 0 0 0 
0 0 0 0 0 0 0 0 0 0 0 0 0 0 0 0 0 0 0 0 0 0 0 0 0 0 0 0 0 0 0 0 0 0 0 0 0 0 0 0 0 0 0 0 0 0 0 0 0 0 0 0 0 0 0 0 0 0 0 0 0 0 0 0 0 0 0 0 0 0 0 0 0 0 0 0 0 0 0 0 0 0 0 0 0 0 0 0 0 0 
0 0 0 0 0 0 0 0 0 0 0 0 0 0 0 0 0 0 0 0 0 0 0 0 0 0 0 0 0 0 0 0 0 0 0 0 0 0 0 0 0 0 0 0 0 0 0 0 0 0 0 0 0 0 0 0 0 0 0 0 0 0 0 0 0 0 0 0 0 0 0 0 0 0 0 0 0 0 0 0 0 0 0 0 0 0 0 0 0 0 
0 0 0 0 0 0 0 0 0 0 0 0 0 0 0 0 0 0 0 0 0 0 0 0 0 0 0 0 0 0 0 0 0 0 0 0 0 0 0 0 0 0 0 0 0 0 0 0 0 0 0 0 0 0 0 0 0 0 0 0 0 0 0 0 0 0 0 0 0 0 0 0 0 0 0 0 0 0 0 0 0 0 0 0 0 0 0 0 0 0 
0 0 0 0 0 0 0 0 0 0 0 0 0 0 0 0 0 0 0 0 0 0 0 0 0 0 0 0 0 0 0 0 0 0 0 0 0 0 0 0 0 0 0 0 0 0 0 0 0 0 0 0 0 0 0 0 0 0 0 0 0 0 0 0 0 0 0 0 0 0 0 0 0 0 0 0 0 0 0 0 0 0 0 0 0 0 0 0 0 0 
0 0 0 0 0 0 0 0 0 0 0 0 0 0 0 0 0 0 0 0 0 0 0 0 0 0 0 0 0 0 0 0 0 0 0 0 0 0 0 0 0 0 0 0 0 0 0 0 0 0 0 0 0 0 0 0 0 0 0 0 0 0 0 0 0 0 0 0 0 0 0 0 0 0 0 0 0 0 0 0 0 0 0 0 0 0 0 0 0 0 
0 0 0 0 0 0 0 0 0 0 0 0 0 0 0 0 0 0 0 0 0 0 0 0 0 0 0 0 0 0 0 0 0 0 0 0 0 0 0 0 0 0 0 0 0 0 0 0 0 0 0 0 0 0 0 0 0 0 0 0 0 0 0 0 0 0 0 0 0 0 0 0 0 0 0 0 0 0 0 0 0 0 0 0 0 0 0 0 0 0 
0 0 0 0 0 0 0 0 0 0 0 0 0 0 0 0 0 0 0 0 0 0 0 0 0 0 0 0 0 0 0 0 0 0 0 0 0 0 0 0 0 0 0 0 0 0 0 0 0 0 0 0 0 0 0 0 0 0 0 0 0 0 0 0 0 0 0 0 0 0 0 0 0 0 0 0 0 0 0 0 0 0 0 0 0 0 0 0 0 0 
0 0 0 0 0 0 0 0 0 0 0 0 0 0 0 0 0 0 0 0 0 0 0 0 0 0 0 0 0 0 0 0 0 0 0 0 0 0 0 0 0 0 0 0 0 0 0 0 0 0 0 0 0 0 0 0 0 0 0 0 0 0 0 0 0 0 0 0 0 0 0 0 0 0 0 0 0 0 0 0 0 0 0 0 0 0 0 0 0 0 
0 0 0 0 0 0 0 0 0 0 0 0 0 0 0 0 0 0 0 0 0 0 0 0 0 0 0 0 0 0 0 0 0 0 0 0 0 0 0 0 0 0 0 0 0 0 0 0 0 0 0 0 0 0 0 0 0 0 0 0 0 0 0 0 0 0 0 0 0 0 0 0 0 0 0 0 0 0 0 0 0 0 0 0 0 0 0 0 0 0 
0 0 0 0 0 0 0 0 0 0 0 0 0 0 0 0 0 0 0 0 0 0 0 0 0 0 0 0 0 0 0 0 0 0 0 0 0 0 0 0 0 0 0 0 0 0 0 0 0 0 0 0 0 0 0 0 0 0 0 0 0 0 0 0 0 0 0 0 0 0 0 0 0 0 0 0 0 0 0 0 0 0 0 0 0 0 0 0 0 0 
0 0 0 0 0 0 0 0 0 0 0 0 0 0 0 0 0 0 0 0 0 0 0 0 0 0 0 0 0 0 0 0 0 0 0 0 0 0 0 0 0 0 0 0 0 0 0 0 0 0 0 0 0 0 0 0 0 0 0 0 0 0 0 0 0 0 0 0 0 0 0 0 0 0 0 0 0 0 0 0 0 0 0 0 0 0 0 0 0 0 
0 0 0 0 0 0 0 0 0 0 0 0 0 0 0 0 0 0 0 0 0 0 0 0 0 0 0 0 0 0 0 0 0 0 0 0 0 0 0 0 0 0 0 0 0 0 0 0 0 0 0 0 0 0 0 0 0 0 0 0 0 0 0 0 0 0 0 0 0 0 0 0 0 0 0 0 0 0 0 0 0 0 0 0 0 0 0 0 0 0 
0 0 0 0 0 0 0 0 0 0 0 0 0 0 0 0 0 0 0 0 0 0 0 0 0 0 0 0 0 0 0 0 0 0 0 0 0 0 0 0 0 0 0 0 0 0 0 0 0 0 0 0 0 0 0 0 0 0 0 0 0 0 0 0 0 0 0 0 0 0 0 0 0 0 0 0 0 0 0 0 0 0 0 0 0 0 0 0 0 0 
0 0 0 0 0 0 0 0 0 0 0 0 0 0 0 0 0 0 0 0 0 0 0 0 0 0 0 0 0 0 0 0 0 0 0 0 0 0 0 0 0 0 0 0 0 0 0 0 0 0 0 0 0 0 0 0 0 0 0 0 0 0 0 0 0 0 0 0 0 0 0 0 0 0 0 0 0 0 0 0 0 0 0 0 0 0 0 0 0 0 
0 0 0 0 0 0 0 0 0 0 0 0 0 0 0 0 0 0 0 0 0 0 0 0 0 0 0 0 0 0 0 0 0 0 0 0 0 0 0 0 0 0 0 0 0 0 0 0 0 0 0 0 0 0 0 0 0 0 0 0 0 0 0 0 0 0 0 0 0 0 0 0 0 0 0 0 0 0 0 0 0 0 0 0 0 0 0 0 0 0 
0 0 0 0 0 0 0 0 0 0 0 0 0 0 0 0 0 0 0 0 0 0 0 0 0 0 0 0 0 0 0 0 0 0 0 0 0 0 0 0 0 0 0 0 0 0 0 0 0 0 0 0 0 0 0 0 0 0 0 0 0 0 0 0 0 0 0 0 0 0 0 0 0 0 0 0 0 0 0 0 0 0 0 0 0 0 0 0 0 0 
0 0 0 0 0 0 0 0 0 0 0 0 0 0 0 0 0 0 0 0 0 0 0 0 0 0 0 0 0 0 0 0 0 0 0 0 0 0 0 0 0 0 0 0 0 0 0 0 0 0 0 0 0 0 0 0 0 0 0 0 0 0 0 0 0 0 0 0 0 0 0 0 0 0 0 0 0 0 0 0 0 0 0 0 0 0 0 0 0 0 
0 0 0 0 0 0 0 0 0 0 0 0 0 0 0 0 0 0 0 0 0 0 0 0 0 0 0 0 0 0 0 0 0 0 0 0 0 0 0 0 0 0 0 0 0 0 0 0 0 0 0 0 0 0 0 0 0 0 0 0 0 0 0 0 0 0 0 0 0 0 0 0 0 0 0 0 0 0 0 0 0 0 0 0 0 0 0 0 0 0 
0 0 0 0 0 0 0 0 0 0 0 0 0 0 0 0 0 0 0 0 0 0 0 0 0 0 0 0 0 0 0 0 0 0 0 0 0 0 0 0 0 0 0 0 0 0 0 0 0 0 0 0 0 0 0 0 0 0 0 0 0 0 0 0 0 0 0 0 0 0 0 0 0 0 0 0 0 0 0 0 0 0 0 0 0 0 0 0 0 0 
0 0 0 0 0 0 0 0 0 0 0 0 0 0 0 0 0 0 0 0 0 0 0 0 0 0 0 0 0 0 0 0 0 0 0 0 0 0 0 0 0 0 0 0 0 0 0 0 0 0 0 0 0 0 0 0 0 0 0 0 0 0 0 0 0 0 0 0 0 0 0 0 0 0 0 0 0 0 0 0 0 0 0 0 0 0 0 0 0 0 
0 0 0 0 0 0 0 0 0 0 0 0 0 0 0 0 0 0 0 0 0 0 0 0 0 0 0 0 0 0 0 0 0 0 0 0 0 0 0 0 0 0 0 0 0 0 0 0 0 0 0 0 0 0 0 0 0 0 0 0 0 0 0 0 0 0 0 0 0 0 0 0 0 0 0 0 0 0 0 0 0 0 0 0 0 0 0 0 0 0 
0 0 0 0 0 0 0 0 0 0 0 0 0 0 0 0 0 0 0 0 0 0 0 0 0 0 0 0 0 0 0 0 0 0 0 0 0 0 0 0 0 0 0 0 0 0 0 0 0 0 0 0 0 0 0 0 0 0 0 0 0 0 0 0 0 0 0 0 0 0 0 0 0 0 0 0 0 0 0 0 0 0 0 0 0 0 0 0 0 0 
0 0 0 0 0 0 0 0 0 0 0 0 0 0 0 0 0 0 0 0 0 0 0 0 0 0 0 0 0 0 0 0 0 0 0 0 0 0 0 0 0 0 0 0 0 0 0 0 0 0 0 0 0 0 0 0 0 0 0 0 0 0 0 0 0 0 0 0 0 0 0 0 0 0 0 0 0 0 0 0 0 0 0 0 0 0 0 0 0 0 
0 0 0 0 0 0 0 0 0 0 0 0 0 0 0 0 0 0 0 0 0 0 0 0 0 0 0 0 0 0 0 0 0 0 0 0 0 0 0 0 0 0 0 0 0 0 0 0 0 0 0 0 0 0 0 0 0 0 0 0 0 0 0 0 0 0 0 0 0 0 0 0 0 0 0 0 0 0 0 0 0 0 0 0 0 0 0 0 0 0 
0 0 0 0 0 0 0 0 0 0 0 0 0 0 0 0 0 0 0 0 0 0 0 0 0 0 0 0 0 0 0 0 0 0 0 0 0 0 0 0 0 0 0 0 0 0 0 0 0 0 0 0 0 0 0 0 0 0 0 0 0 0 0 0 0 0 0 0 0 0 0 0 0 0 0 0 0 0 0 0 0 0 0 0 0 0 0 0 0 0 
0 0 0 0 0 0 0 0 0 0 0 0 0 0 0 0 0 0 0 0 0 0 0 0 0 0 0 0 0 0 0 0 0 0 0 0 0 0 0 0 0 0 0 0 0 0 0 0 0 0 0 0 0 0 0 0 0 0 0 0 0 0 0 0 0 0 0 0 0 0 0 0 0 0 0 0 0 0 0 0 0 0 0 0 0 0 0 0 0 0 
0 0 0 0 0 0 0 0 0 0 0 0 0 0 0 0 0 0 0 0 0 0 0 0 0 0 0 0 0 0 0 0 0 0 0 0 0 0 0 0 0 0 0 0 0 0 0 0 0 0 0 0 0 0 0 0 0 0 0 0 0 0 0 0 0 0 0 0 0 0 0 0 0 0 0 0 0 0 0 0 0 0 0 0 0 0 0 0 0 0 
0 0 0 0 0 0 0 0 0 0 0 0 0 0 0 0 0 0 0 0 0 0 0 0 0 0 0 0 0 0 0 0 0 0 0 0 0 0 0 0 0 0 0 0 0 0 0 0 0 0 0 0 0 0 0 0 0 0 0 0 0 0 0 0 0 0 0 0 0 0 0 0 0 0 0 0 0 0 0 0 0 0 0 0 0 0 0 0 0 0 
0 0 0 0 0 0 0 0 0 0 0 0 0 0 0 0 0 0 0 0 0 0 0 0 0 0 0 0 0 0 0 0 0 0 0 0 0 0 0 0 0 0 0 0 0 0 0 0 0 0 0 0 0 0 0 0 0 0 0 0 0 0 0 0 0 0 0 0 0 0 0 0 0 0 0 0 0 0 0 0 0 0 0 0 0 0 0 0 0 0 
0 0 0 0 0 0 0 0 0 0 0 0 0 0 0 0 0 0 0 0 0 0 0 0 0 0 0 0 0 0 0 0 0 0 0 0 0 0 0 0 0 0 0 0 0 0 0 0 0 0 0 0 0 0 0 0 0 0 0 0 0 0 0 0 0 0 0 0 0 0 0 0 0 0 0 0 0 0 0 0 0 0 0 0 0 0 0 0 0 0 
0 0 0 0 0 0 0 0 0 0 0 0 0 0 0 0 0 0 0 0 0 0 0 0 0 0 0 0 0 0 0 0 0 0 0 0 0 0 0 0 0 0 0 0 0 0 0 0 0 0 0 0 0 0 0 0 0 0 0 0 0 0 0 0 0 0 0 0 0 0 0 0 0 0 0 0 0 0 0 0 0 0 0 0 0 0 0 0 0 0 
0 0 0 0 0 0 0 0 0 0 0 0 0 0 0 0 0 0 0 0 0 0 0 0 0 0 0 0 0 0 0 0 0 0 0 0 0 0 0 0 0 0 0 0 0 0 0 0 0 0 0 0 0 0 0 0 0 0 0 0 0 0 0 0 0 0 0 0 0 0 0 0 0 0 0 0 0 0 0 0 0 0 0 0 0 0 0 0 0 0 
0 0 0 0 0 0 0 0 0 0 0 0 0 0 0 0 0 0 0 0 0 0 0 0 0 0 0 0 0 0 0 0 0 0 0 0 0 0 0 0 0 0 0 0 0 0 0 0 0 0 0 0 0 0 0 0 0 0 0 0 0 0 0 0 0 0 0 0 0 0 0 0 0 0 0 0 0 0 0 0 0 0 0 0 0 0 0 0 0 0 
0 0 0 0 0 0 0 0 0 0 0 0 0 0 0 0 0 0 0 0 0 0 0 0 0 0 0 0 0 0 0 0 0 0 0 0 0 0 0 0 0 0 0 0 0 0 0 0 0 0 0 0 0 0 0 0 0 0 0 0 0 0 0 0 0 0 0 0 0 0 0 0 0 0 0 0 0 0 0 0 0 0 0 0 0 0 0 0 0 0 
0 0 0 0 0 0 0 0 0 0 0 0 0 0 0 0 0 0 0 0 0 0 0 0 0 0 0 0 0 0 0 0 0 0 0 0 0 0 0 0 0 0 0 0 0 0 0 0 0 0 0 0 0 0 0 0 0 0 0 0 0 0 0 0 0 0 0 0 0 0 0 0 0 0 0 0 0 0 0 0 0 0 0 0 0 0 0 0 0 0 
0 0 0 0 0 0 0 0 0 0 0 0 0 0 0 0 0 0 0 0 0 0 0 0 0 0 0 0 0 0 0 0 0 0 0 0 0 0 0 0 0 0 0 0 0 0 0 0 0 0 0 0 0 0 0 0 0 0 0 0 0 0 0 0 0 0 0 0 0 0 0 0 0 0 0 0 0 0 0 0 0 0 0 0 0 0 0 0 0 0 
0 0 0 0 0 0 0 0 0 0 0 0 0 0 0 0 0 0 0 0 0 0 0 0 0 0 0 0 0 0 0 0 0 0 0 0 0 0 0 0 0 0 0 0 0 0 0 0 0 0 0 0 0 0 0 0 0 0 0 0 0 0 0 0 0 0 0 0 0 0 0 0 0 0 0 0 0 0 0 0 0 0 0 0 0 0 0 0 0 0 
0 0 0 0 0 0 0 0 0 0 0 0 0 0 0 0 0 0 0 0 0 0 0 0 0 0 0 0 0 0 0 0 0 0 0 0 0 0 0 0 0 0 0 0 0 0 0 0 0 0 0 0 0 0 0 0 0 0 0 0 0 0 0 0 0 0 0 0 0 0 0 0 0 0 0 0 0 0 0 0 0 0 0 0 0 0 0 0 0 0 
0 0 0 0 0 0 0 0 0 0 0 0 0 0 0 0 0 0 0 0 0 0 0 0 0 0 0 0 0 0 0 0 0 0 0 0 0 0 0 0 0 0 0 0 0 0 0 0 0 0 0 0 0 0 0 0 0 0 0 0 0 0 0 0 0 0 0 0 0 0 0 0 0 0 0 0 0 0 0 0 0 0 0 0 0 0 0 0 0 0 
0 0 0 0 0 0 0 0 0 0 0 0 0 0 0 0 0 0 0 0 0 0 0 0 0 0 0 0 0 0 0 0 0 0 0 0 0 0 0 0 0 0 0 0 0 0 0 0 0 0 0 0 0 0 0 0 0 0 0 0 0 0 0 0 0 0 0 0 0 0 0 0 0 0 0 0 0 0 0 0 0 0 0 0 0 0 0 0 0 0 
0 0 0 0 0 0 0 0 0 0 0 0 0 0 0 0 0 0 0 0 0 0 0 0 0 0 0 0 0 0 0 0 0 0 0 0 0 0 0 0 0 0 0 0 0 0 0 0 0 0 0 0 0 0 0 0 0 0 0 0 0 0 0 0 0 0 0 0 0 0 0 0 0 0 0 0 0 0 0 0 0 0 0 0 0 0 0 0 0 0 
0 0 0 0 0 0 0 0 0 0 0 0 0 0 0 0 0 0 0 0 0 0 0 0 0 0 0 0 0 0 0 0 0 0 0 0 0 0 0 0 0 0 0 0 0 0 0 0 0 0 0 0 0 0 0 0 0 0 0 0 0 0 0 0 0 0 0 0 0 0 0 0 0 0 0 0 0 0 0 0 0 0 0 0 0 0 0 0 0 0 
0 0 0 0 0 0 0 0 0 0 0 0 0 0 0 0 0 0 0 0 0 0 0 0 0 0 0 0 0 0 0 0 0 0 0 0 0 0 0 0 0 0 0 0 0 0 0 0 0 0 0 0 0 0 0 0 0 0 0 0 0 0 0 0 0 0 0 0 0 0 0 0 0 0 0 0 0 0 0 0 0 0 0 0 0 0 0 0 0 0 
0 0 0 0 0 0 0 0 0 0 0 0 0 0 0 0 0 0 0 0 0 0 0 0 0 0 0 0 0 0 0 0 0 0 0 0 0 0 0 0 0 0 0 0 0 0 0 0 0 0 0 0 0 0 0 0 0 0 0 0 0 0 0 0 0 0 0 0 0 0 0 0 0 0 0 0 0 0 0 0 0 0 0 0 0 0 0 0 0 0 
0 0 0 0 0 0 0 0 0 0 0 0 0 0 0 0 0 0 0 0 0 0 0 0 0 0 0 0 0 0 0 0 0 0 0 0 0 0 0 0 0 0 0 0 0 0 0 0 0 0 0 0 0 0 0 0 0 0 0 0 0 0 0 0 0 0 0 0 0 0 0 0 0 0 0 0 0 0 0 0 0 0 0 0 0 0 0 0 0 0 
0 0 0 0 0 0 0 0 0 0 0 0 0 0 0 0 0 0 0 0 0 0 0 0 0 0 0 0 0 0 0 0 0 0 0 0 0 0 0 0 0 0 0 0 0 0 0 0 0 0 0 0 0 0 0 0 0 0 0 0 0 0 0 0 0 0 0 0 0 0 0 0 0 0 0 0 0 0 0 0 0 0 0 0 0 0 0 0 0 0 
0 0 0 0 0 0 0 0 0 0 0 0 0 0 0 0 0 0 0 0 0 0 0 0 0 0 0 0 0 0 0 0 0 0 0 0 0 0 0 0 0 0 0 0 0 0 0 0 0 0 0 0 0 0 0 0 0 0 0 0 0 0 0 0 0 0 0 0 0 0 0 0 0 0 0 0 0 0 0 0 0 0 0 0 0 0 0 0 0 0 
0 0 0 0 0 0 0 0 0 0 0 0 0 0 0 0 0 0 0 0 0 0 0 0 0 0 0 0 0 0 0 0 0 0 0 0 0 0 0 0 0 0 0 0 0 0 0 0 0 0 0 0 0 0 0 0 0 0 0 0 0 0 0 0 0 0 0 0 0 0 0 0 0 0 0 0 0 0 0 0 0 0 0 0 0 0 0 0 0 0 
0 0 0 0 0 0 0 0 0 0 0 0 0 0 0 0 0 0 0 0 0 0 0 0 0 0 0 0 0 0 0 0 0 0 0 0 0 0 0 0 0 0 0 0 0 0 0 0 0 0 0 0 0 0 0 0 0 0 0 0 0 0 0 0 0 0 0 0 0 0 0 0 0 0 0 0 0 0 0 0 0 0 0 0 0 0 0 0 0 0 
0 0 0 0 0 0 0 0 0 0 0 0 0 0 0 0 0 0 0 0 0 0 0 0 0 0 0 0 0 0 0 0 0 0 0 0 0 0 0 0 0 0 0 0 0 0 0 0 0 0 0 0 0 0 0 0 0 0 0 0 0 0 0 0 0 0 0 0 0 0 0 0 0 0 0 0 0 0 0 0 0 0 0 0 0 0 0 0 0 0 
0 0 0 0 0 0 0 0 0 0 0 0 0 0 0 0 0 0 0 0 0 0 0 0 0 0 0 0 0 0 0 0 0 0 0 0 0 0 0 0 0 0 0 0 0 0 0 0 0 0 0 0 0 0 0 0 0 0 0 0 0 0 0 0 0 0 0 0 0 0 0 0 0 0 0 0 0 0 0 0 0 0 0 0 0 0 0 0 0 0 
0 0 0 0 0 0 0 0 0 0 0 0 0 0 0 0 0 0 0 0 0 0 0 0 0 0 0 0 0 0 0 0 0 0 0 0 0 0 0 0 0 0 0 0 0 0 0 0 0 0 0 0 0 0 0 0 0 0 0 0 0 0 0 0 0 0 0 0 0 0 0 0 0 0 0 0 0 0 0 0 0 0 0 0 0 0 0 0 0 0 
0 0 0 0 0 0 0 0 0 0 0 0 0 0 0 0 0 0 0 0 0 0 0 0 0 0 0 0 0 0 0 0 0 0 0 0 0 0 0 0 0 0 0 0 0 0 0 0 0 0 0 0 0 0 0 0 0 0 0 0 0 0 0 0 0 0 0 0 0 0 0 0 0 0 0 0 0 0 0 0 0 0 0 0 0 0 0 0 0 0 
0 0 0 0 0 0 0 0 0 0 0 0 0 0 0 0 0 0 0 0 0 0 0 0 0 0 0 0 0 0 0 0 0 0 0 0 0 0 0 0 0 0 0 0 0 0 0 0 0 0 0 0 0 0 0 0 0 0 0 0 0 0 0 0 0 0 0 0 0 0 0 0 0 0 0 0 0 0 0 0 0 0 0 0 0 0 0 0 0 0 
0 0 0 0 0 0 0 0 0 0 0 0 0 0 0 0 0 0 0 0 0 0 0 0 0 0 0 0 0 0 0 0 0 0 0 0 0 0 0 0 0 0 0 0 0 0 0 0 0 0 0 0 0 0 0 0 0 0 0 0 0 0 0 0 0 0 0 0 0 0 0 0 0 0 0 0 0 0 0 0 0 0 0 0 0 0 0 0 0 0 
0 0 0 0 0 0 0 0 0 0 0 0 0 0 0 0 0 0 0 0 0 0 0 0 0 0 0 0 0 0 0 0 0 0 0 0 0 0 0 0 0 0 0 0 0 0 0 0 0 0 0 0 0 0 0 0 0 0 0 0 0 0 0 0 0 0 0 0 0 0 0 0 0 0 0 0 0 0 0 0 0 0 0 0 0 0 0 0 0 0 
0 0 0 0 0 0 0 0 0 0 0 0 0 0 0 0 0 0 0 0 0 0 0 0 0 0 0 0 0 0 0 0 0 0 0 0 0 0 0 0 0 0 0 0 0 0 0 0 0 0 0 0 0 0 0 0 0 0 0 0 0 0 0 0 0 0 0 0 0 0 0 0 0 0 0 0 0 0 0 0 0 0 0 0 0 0 0 0 0 0 
0 0 0 0 0 0 0 0 0 0 0 0 0 0 0 0 0 0 0 0 0 0 0 0 0 0 0 0 0 0 0 0 0 0 0 0 0 0 0 0 0 0 0 0 0 0 0 0 0 0 0 0 0 0 0 0 0 0 0 0 0 0 0 0 0 0 0 0 0 0 0 0 0 0 0 0 0 0 0 0 0 0 0 0 0 0 0 0 0 0 
0 0 0 0 0 0 0 0 0 0 0 0 0 0 0 0 0 0 0 0 0 0 0 0 0 0 0 0 0 0 0 0 0 0 0 0 0 0 0 0 0 0 0 0 0 0 0 0 0 0 0 0 0 0 0 0 0 0 0 0 0 0 0 0 0 0 0 0 0 0 0 0 0 0 0 0 0 0 0 0 0 0 0 0 0 0 0 0 0 0 
0 0 0 0 0 0 0 0 0 0 0 0 0 0 0 0 0 0 0 0 0 0 0 0 0 0 0 0 0 0 0 0 0 0 0 0 0 0 0 0 0 0 0 0 0 0 0 0 0 0 0 0 0 0 0 0 0 0 0 0 0 0 0 0 0 0 0 0 0 0 0 0 0 0 0 0 0 0 0 0 0 0 0 0 0 0 0 0 0 0 
0 0 0 0 0 0 0 0 0 0 0 0 0 0 0 0 0 0 0 0 0 0 0 0 0 0 0 0 0 0 0 0 0 0 0 0 0 0 0 0 0 0 0 0 0 0 0 0 0 0 0 0 0 0 0 0 0 0 0 0 0 0 0 0 0 0 0 0 0 0 0 0 0 0 0 0 0 0 0 0 0 0 0 0 0 0 0 0 0 0 
0 0 0 0 0 0 0 0 0 0 0 0 0 0 0 0 0 0 0 0 0 0 0 0 0 0 0 0 0 0 0 0 0 0 0 0 0 0 0 0 0 0 0 0 0 0 0 0 0 0 0 0 0 0 0 0 0 0 0 0 0 0 0 0 0 0 0 0 0 0 0 0 0 0 0 0 0 0 0 0 0 0 0 0 0 0 0 0 0 0 
0 0 0 0 0 0 0 0 0 0 0 0 0 0 0 0 0 0 0 0 0 0 0 0 0 0 0 0 0 0 0 0 0 0 0 0 0 0 0 0 0 0 0 0 0 0 0 0 0 0 0 0 0 0 0 0 0 0 0 0 0 0 0 0 0 0 0 0 0 0 0 0 0 0 0 0 0 0 0 0 0 0 0 0 0 0 0 0 0 0 
0 0 0 0 0 0 0 0 0 0 0 0 0 0 0 0 0 0 0 0 0 0 0 0 0 0 0 0 0 0 0 0 0 0 0 0 0 0 0 0 0 0 0 0 0 0 0 0 0 0 0 0 0 0 0 0 0 0 0 0 0 0 0 0 0 0 0 0 0 0 0 0 0 0 0 0 0 0 0 0 0 0 0 0 0 0 0 0 0 0 
0 0 0 0 0 0 0 0 0 0 0 0 0 0 0 0 0 0 0 0 0 0 0 0 0 0 0 0 0 0 0 0 0 0 0 0 0 0 0 0 0 0 0 0 0 0 0 0 0 0 0 0 0 0 0 0 0 0 0 0 0 0 0 0 0 0 0 0 0 0 0 0 0 0 0 0 0 0 0 0 0 0 0 0 0 0 0 0 0 0 
0 0 0 0 0 0 0 0 0 0 0 0 0 0 0 0 0 0 0 0 0 0 0 0 0 0 0 0 0 0 0 0 0 0 0 0 0 0 0 0 0 0 0 0 0 0 0 0 0 0 0 0 0 0 0 0 0 0 0 0 0 0 0 0 0 0 0 0 0 0 0 0 0 0 0 0 0 0 0 0 0 0 0 0 0 0 0 0 0 0 
0 0 0 0 0 0 0 0 0 0 0 0 0 0 0 0 0 0 0 0 0 0 0 0 0 0 0 0 0 0 0 0 0 0 0 0 0 0 0 0 0 0 0 0 0 0 0 0 0 0 0 0 0 0 0 0 0 0 0 0 0 0 0 0 0 0 0 0 0 0 0 0 0 0 0 0 0 0 0 0 0 0 0 0 0 0 0 0 0 0 
0 0 0 0 0 0 0 0 0 0 0 0 0 0 0 0 0 0 0 0 0 0 0 0 0 0 0 0 0 0 0 0 0 0 0 0 0 0 0 0 0 0 0 0 0 0 0 0 0 0 0 0 0 0 0 0 0 0 0 0 0 0 0 0 0 0 0 0 0 0 0 0 0 0 0 0 0 0 0 0 0 0 0 0 0 0 0 0 0 0 
0 0 0 0 0 0 0 0 0 0 0 0 0 0 0 0 0 0 0 0 0 0 0 0 0 0 0 0 0 0 0 0 0 0 0 0 0 0 0 0 0 0 0 0 0 0 0 0 0 0 0 0 0 0 0 0 0 0 0 0 0 0 0 0 0 0 0 0 0 0 0 0 0 0 0 0 0 0 0 0 0 0 0 0 0 0 0 0 0 0 
0 0 0 0 0 0 0 0 0 0 0 0 0 0 0 0 0 0 0 0 0 0 0 0 0 0 0 0 0 0 0 0 0 0 0 0 0 0 0 0 0 0 0 0 0 0 0 0 0 0 0 0 0 0 0 0 0 0 0 0 0 0 0 0 0 0 0 0 0 0 0 0 0 0 0 0 0 0 0 0 0 0 0 0 0 0 0 0 0 0 
0 0 0 0 0 0 0 0 0 0 0 0 0 0 0 0 0 0 0 0 0 0 0 0 0 0 0 0 0 0 0 0 0 0 0 0 0 0 0 0 0 0 0 0 0 0 0 0 0 0 0 0 0 0 0 0 0 0 0 0 0 0 0 0 0 0 0 0 0 0 0 0 0 0 0 0 0 0 0 0 0 0 0 0 0 0 0 0 0 0 
0 0 0 0 0 0 0 0 0 0 0 0 0 0 0 0 0 0 0 0 0 0 0 0 0 0 0 0 0 0 0 0 0 0 0 0 0 0 0 0 0 0 0 0 0 0 0 0 0 0 0 0 0 0 0 0 0 0 0 0 0 0 0 0 0 0 0 0 0 0 0 0 0 0 0 0 0 0 0 0 0 0 0 0 0 0 0 0 0 0 
# Events [psd0_dat/psd0.dat] N: 
0 0 0 0 0 0 0 0 0 0 0 0 0 0 0 0 0 0 0 0 0 0 0 0 0 0 0 0 0 0 0 0 0 0 0 0 0 0 0 0 0 0 0 0 0 0 0 0 0 0 0 0 0 0 0 0 0 0 0 0 0 0 0 0 0 0 0 0 0 0 0 0 0 0 0 0 0 0 0 0 0 0 0 0 0 0 0 0 0 0 
0 0 0 0 0 0 0 0 0 0 0 0 0 0 0 0 0 0 0 0 0 0 0 0 0 0 0 0 0 0 0 0 0 0 0 0 0 0 0 0 0 0 0 0 0 0 0 0 0 0 0 0 0 0 0 0 0 0 0 0 0 0 0 0 0 0 0 0 0 0 0 0 0 0 0 0 0 0 0 0 0 0 0 0 0 0 0 0 0 0 
0 0 0 0 0 0 0 0 0 0 0 0 0 0 0 0 0 0 0 0 0 0 0 0 0 0 0 0 0 0 0 0 0 0 0 0 0 0 0 0 0 0 0 0 0 0 0 0 0 0 0 0 0 0 0 0 0 0 0 0 0 0 0 0 0 0 0 0 0 0 0 0 0 0 0 0 0 0 0 0 0 0 0 0 0 0 0 0 0 0 
0 0 0 0 0 0 0 0 0 0 0 0 0 0 0 0 0 0 0 0 0 0 0 0 0 0 0 0 0 0 0 0 0 0 0 0 0 0 0 0 0 0 0 0 0 0 0 0 0 0 0 0 0 0 0 0 0 0 0 0 0 0 0 0 0 0 0 0 0 0 0 0 0 0 0 0 0 0 0 0 0 0 0 0 0 0 0 0 0 0 
0 0 0 0 0 0 0 0 0 0 0 0 0 0 0 0 0 0 0 0 0 0 0 0 0 0 0 0 0 0 0 0 0 0 0 0 0 0 0 0 0 0 0 0 0 0 0 0 0 0 0 0 0 0 0 0 0 0 0 0 0 0 0 0 0 0 0 0 0 0 0 0 0 0 0 0 0 0 0 0 0 0 0 0 0 0 0 0 0 0 
0 0 0 0 0 0 0 0 0 0 0 0 0 0 0 0 0 0 0 0 0 0 0 0 0 0 0 0 0 0 0 0 0 0 0 0 0 0 0 0 0 0 0 0 0 0 0 0 0 0 0 0 0 0 0 0 0 0 0 0 0 0 0 0 0 0 0 0 0 0 0 0 0 0 0 0 0 0 0 0 0 0 0 0 0 0 0 0 0 0 
0 0 0 0 0 0 0 0 0 0 0 0 0 0 0 0 0 0 0 0 0 0 0 0 0 0 0 0 0 0 0 0 0 0 0 0 0 0 0 0 0 0 0 0 0 0 0 0 0 0 0 0 0 0 0 0 0 0 0 0 0 0 0 0 0 0 0 0 0 0 0 0 0 0 0 0 0 0 0 0 0 0 0 0 0 0 0 0 0 0 
0 0 0 0 0 0 0 0 0 0 0 0 0 0 0 0 0 0 0 0 0 0 0 0 0 0 0 0 0 0 0 0 0 0 0 0 0 0 0 0 0 0 0 0 0 0 0 0 0 0 0 0 0 0 0 0 0 0 0 0 0 0 0 0 0 0 0 0 0 0 0 0 0 0 0 0 0 0 0 0 0 0 0 0 0 0 0 0 0 0 
0 0 0 0 0 0 0 0 0 0 0 0 0 0 0 0 0 0 0 0 0 0 0 0 0 0 0 0 0 0 0 0 0 0 0 0 0 0 0 0 0 0 0 0 0 0 0 0 0 0 0 0 0 0 0 0 0 0 0 0 0 0 0 0 0 0 0 0 0 0 0 0 0 0 0 0 0 0 0 0 0 0 0 0 0 0 0 0 0 0 
0 0 0 0 0 0 0 0 0 0 0 0 0 0 0 0 0 0 0 0 0 0 0 0 0 0 0 0 0 0 0 0 0 0 0 0 0 0 0 0 0 0 0 0 0 0 0 0 0 0 0 0 0 0 0 0 0 0 0 0 0 0 0 0 0 0 0 0 0 0 0 0 0 0 0 0 0 0 0 0 0 0 0 0 0 0 0 0 0 0 
0 0 0 0 0 0 0 0 0 0 0 0 0 0 0 0 0 0 0 0 0 0 0 0 0 0 0 0 0 0 0 0 0 0 0 0 0 0 0 0 0 0 0 0 0 0 0 0 0 0 0 0 0 0 0 0 0 0 0 0 0 0 0 0 0 0 0 0 0 0 0 0 0 0 0 0 0 0 0 0 0 0 0 0 0 0 0 0 0 0 
0 0 0 0 0 0 0 0 0 0 0 0 0 0 0 0 0 0 0 0 0 0 0 0 0 0 0 0 0 0 0 0 0 0 0 0 0 0 0 0 0 0 0 0 0 0 0 0 0 0 0 0 0 0 0 0 0 0 0 0 0 0 0 0 0 0 0 0 0 0 0 0 0 0 0 0 0 0 0 0 0 0 0 0 0 0 0 0 0 0 
0 0 0 0 0 0 0 0 0 0 0 0 0 0 0 0 0 0 0 0 0 0 0 0 0 0 0 0 0 0 0 0 0 0 0 0 0 0 0 0 0 0 0 0 0 0 0 0 0 0 0 0 0 0 0 0 0 0 0 0 0 0 0 0 0 0 0 0 0 0 0 0 0 0 0 0 0 0 0 0 0 0 0 0 0 0 0 0 0 0 
0 0 0 0 0 0 0 0 0 0 0 0 0 0 0 0 0 0 0 0 0 0 0 0 0 0 0 0 0 0 0 0 0 0 0 0 0 0 0 0 0 0 0 0 0 0 0 0 0 0 0 0 0 0 0 0 0 0 0 0 0 0 0 0 0 0 0 0 0 0 0 0 0 0 0 0 0 0 0 0 0 0 0 0 0 0 0 0 0 0 
0 0 0 0 0 0 0 0 0 0 0 0 0 0 0 0 0 0 0 0 0 0 0 0 0 0 0 0 0 0 0 0 0 0 0 0 0 0 0 0 0 0 0 0 0 0 0 0 0 0 0 0 0 0 0 0 0 0 0 0 0 0 0 0 0 0 0 0 0 0 0 0 0 0 0 0 0 0 0 0 0 0 0 0 0 0 0 0 0 0 
0 0 0 0 0 0 0 0 0 0 0 0 0 0 0 0 0 0 0 0 0 0 0 0 0 0 0 0 0 0 0 0 0 0 0 0 0 0 0 0 0 0 0 0 0 0 0 0 0 0 0 0 0 0 0 0 0 0 0 0 0 0 0 0 0 0 0 0 0 0 0 0 0 0 0 0 0 0 0 0 0 0 0 0 0 0 0 0 0 0 
0 0 0 0 0 0 0 0 0 0 0 0 0 0 0 0 0 0 0 0 0 0 0 0 0 0 0 0 0 0 0 0 0 0 0 0 0 0 0 0 0 0 0 0 0 0 0 0 0 0 0 0 0 0 0 0 0 0 0 0 0 0 0 0 0 0 0 0 0 0 0 0 0 0 0 0 0 0 0 0 0 0 0 0 0 0 0 0 0 0 
0 0 0 0 0 0 0 0 0 0 0 0 0 0 0 0 0 0 0 0 0 0 0 0 0 0 0 0 0 0 0 0 0 0 0 0 0 0 0 0 0 0 0 0 0 0 0 0 0 0 0 0 0 0 0 0 0 0 0 0 0 0 0 0 0 0 0 0 0 0 0 0 0 0 0 0 0 0 0 0 0 0 0 0 0 0 0 0 0 0 
0 0 0 0 0 0 0 0 0 0 0 0 0 0 0 0 0 0 0 0 0 0 0 0 0 0 0 0 0 0 0 0 0 0 0 0 0 0 0 0 0 0 0 0 0 0 0 0 0 0 0 0 0 0 0 0 0 0 0 0 0 0 0 0 0 0 0 0 0 0 0 0 0 0 0 0 0 0 0 0 0 0 0 0 0 0 0 0 0 0 
0 0 0 0 0 0 0 0 0 0 0 0 0 0 0 0 0 0 0 0 0 0 0 0 0 0 0 0 0 0 0 0 0 0 0 0 0 0 0 0 0 0 0 0 0 0 0 0 0 0 0 0 0 0 0 0 0 0 0 0 0 0 0 0 0 0 0 0 0 0 0 0 0 0 0 0 0 0 0 0 0 0 0 0 0 0 0 0 0 0 
0 0 0 0 0 0 0 0 0 0 0 0 0 0 0 0 0 0 0 0 0 0 0 0 0 0 0 0 0 0 0 0 0 0 0 0 0 0 0 0 0 0 0 0 0 0 0 0 0 0 0 0 0 0 0 0 0 0 0 0 0 0 0 0 0 0 0 0 0 0 0 0 0 0 0 0 0 0 0 0 0 0 0 0 0 0 0 0 0 0 
0 0 0 0 0 0 0 0 0 0 0 0 0 0 0 0 0 0 0 0 0 0 0 0 0 0 0 0 0 0 0 0 0 0 0 0 0 0 0 0 0 0 0 0 0 0 0 0 0 0 0 0 0 0 0 0 0 0 0 0 0 0 0 0 0 0 0 0 0 0 0 0 0 0 0 0 0 0 0 0 0 0 0 0 0 0 0 0 0 0 
0 0 0 0 0 0 0 0 0 0 0 0 0 0 0 0 0 0 0 0 0 0 0 0 0 0 0 0 0 0 0 0 0 0 0 0 0 0 0 0 0 0 0 0 0 0 0 0 0 0 0 0 0 0 0 0 0 0 0 0 0 0 0 0 0 0 0 0 0 0 0 0 0 0 0 0 0 0 0 0 0 0 0 0 0 0 0 0 0 0 
0 0 0 0 0 0 0 0 0 0 0 0 0 0 0 0 0 0 0 0 0 0 0 0 0 0 0 0 0 0 0 0 0 1 0 0 0 0 0 0 0 0 0 0 0 0 0 0 0 0 0 0 0 0 0 0 0 0 0 0 0 0 0 0 0 0 0 0 0 0 0 0 0 0 0 0 0 0 0 0 0 0 0 0 0 0 0 0 0 0 
0 0 0 0 0 0 0 0 0 0 0 0 0 0 0 0 0 0 0 0 0 0 0 0 0 0 0 0 0 0 0 0 0 0 0 0 0 0 0 1 0 0 0 0 0 0 0 0 0 0 0 0 0 0 0 1 0 0 0 0 0 0 0 0 0 0 0 0 0 0 0 0 0 0 0 0 0 0 0 0 0 0 0 0 0 0 0 0 0 0 
0 0 0 0 0 0 0 0 0 0 0 0 0 0 0 0 0 0 0 0 0 0 0 0 0 0 0 0 0 1 0 0 0 0 0 1 0 0 0 0 0 0 0 0 0 1 1 0 0 0 0 0 0 0 0 0 1 0 0 0 0 0 0 0 0 0 0 0 0 0 0 0 0 0 0 0 0 0 0 0 0 0 0 0 0 0 0 0 0 0 
0 0 0 0 0 0 0 0 0 0 0 0 0 0 0 0 0 0 0 0 0 0 0 0 0 0 0 0 0 1 0 2 0 0 0 1 0 1 1 0 3 0 1 2 3 0 2 1 0 0 0 0 0 1 0 0 0 1 0 0 0 0 0 0 0 0 0 0 0 0 0 0 0 0 0 0 0 0 0 0 0 0 0 0 0 0 0 0 0 0 
0 0 0 0 0 0 0 0 0 0 0 0 0 0 0 0 0 0 0 0 0 0 0 0 1 0 0 1 0 0 1 0 1 1 0 0 1 2 3 2 2 3 4 3 1 0 3 2 1 1 1 2 1 2 2 1 0 2 1 1 0 1 1 1 0 2 0 0 0 0 0 0 0 0 0 0 0 0 0 0 0 0 0 0 0 0 0 0 0 0 
0 0 0 0 0 0 0 0 0 0 0 0 0 0 0 0 0 0 0 0 0 0 0 0 0 2 0 5 2 2 0 2 0 2 3 4 1 1 4 3 5 4 9 3 4 2 2 4 5 5 6 6 3 1 4 1 2 0 4 1 1 2 2 0 0 0 0 0 1 0 0 0 0 0 0 0 0 0 0 0 0 0 0 0 0 0 0 0 0 0 
0 0 0 0 0 0 0 0 0 0 0 0 0 0 1 0 0 0 0 0 1 3 0 0 2 2 1 1 2 4 4 1 7 2 4 1 8 7 8 14 5 6 13 12 13 14 10 15 9 12 11 11 3 9 5 6 7 4 2 7 3 3 0 0 1 1 1 0 1 0 0 1 0 0 0 0 0 0 0 0 0 0 0 0 0 0 0 0 0 0 
0 0 0 0 0 0 0 0 0 0 0 0 0 0 0 0 0 0 1 0 2 0 0 2 5 0 3 4 3 7 7 7 8 8 7 8 11 14 10 17 20 15 21 21 21 26 23 22 29 20 16 16 13 16 12 6 7 5 11 8 5 6 0 1 1 1 0 1 2 2 0 0 0 0 0 0 0 0 0 0 0 0 0 0 0 0 0 0 0 0 
0 0 0 0 0 0 0 0 0 0 0 0 0 0 0 0 0 1 0 1 1 1 2 1 4 6 11 8 5 12 13 24 23 18 26 20 28 38 44 38 33 39 39 34 39 47 38 40 40 44 42 37 39 25 30 27 26 16 10 14 7 11 5 4 5 0 5 1 1 0 1 0 0 1 0 0 0 0 0 0 0 0 0 0 0 0 0 0 0 0 
0 0 0 0 0 0 0 0 0 0 0 0 0 0 0 0 1 0 0 4 0 2 3 3 7 8 13 9 11 32 17 30 41 31 40 49 49 68 73 66 62 84 75 84 87 86 93 99 72 70 69 59 58 55 37 47 46 25 16 25 18 17 9 11 13 3 4 6 1 2 0 1 0 0 1 0 0 0 0 0 0 0 0 0 0 0 0 0 0 0 
0 0 0 0 0 0 0 0 0 0 0 0 0 0 1 1 1 0 4 3 4 5 4 5 6 16 18 17 34 36 47 39 53 71 78 72 79 93 116 129 119 145 131 153 161 144 162 136 130 121 136 109 93 95 82 86 66 53 55 51 31 38 29 16 12 11 7 3 3 5 0 3 2 1 0 0 1 0 0 0 0 0 0 0 0 0 0 0 0 0 
0 0 0 0 0 0 0 0 0 0 0 0 0 0 0 2 2 3 3 4 1 11 12 16 20 21 25 44 42 49 63 97 99 77 113 146 175 176 185 183 223 229 223 297 262 261 253 245 266 202 205 193 175 157 139 113 106 97 90 67 45 40 39 37 30 16 15 9 9 5 7 2 4 0 1 2 0 1 0 0 0 1 0 0 0 0 0 0 0 0 
0 0 0 0 0 0 0 0 0 0 1 1 1 0 1 0 4 3 5 12 8 13 25 25 31 34 39 69 70 102 113 145 180 204 215 230 283 317 305 354 382 397 382 448 452 453 408 381 394 398 366 368 298 259 256 203 196 149 136 109 113 67 61 52 35 25 23 29 10 12 8 4 3 2 0 1 2 0 0 0 2 0 0 0 0 0 0 0 0 0 
0 0 0 0 0 0 0 0 0 1 0 0 1 1 0 4 3 11 6 5 14 14 28 41 44 53 81 98 123 125 201 178 279 288 291 362 429 477 534 559 597 643 604 644 703 630 605 667 614 603 559 499 455 438 365 317 314 260 246 182 134 111 99 77 56 39 22 15 22 22 8 5 9 3 1 2 1 0 0 1 0 0 0 0 0 0 0 0 0 0 
0 0 0 0 0 0 0 0 0 1 1 0 1 2 1 3 8 10 19 21 12 30 36 58 85 84 104 134 160 223 256 313 384 407 461 584 652 716 726 835 885 904 993 938 992 957 965 951 925 902 821 721 709 621 543 480 443 382 309 256 229 181 157 129 91 81 55 52 26 27 14 18 9 7 6 3 1 2 3 0 2 0 1 2 1 0 0 0 0 0 
0 0 0 1 0 0 0 0 0 0 3 0 4 4 2 4 6 12 17 23 28 43 67 85 112 134 154 206 225 313 380 470 512 620 731 798 895 946 1082 1176 1254 1319 1292 1343 1379 1367 1349 1343 1264 1241 1150 1074 922 878 772 705 614 584 450 382 290 241 210 145 117 102 88 67 43 33 22 15 10 7 11 4 3 3 0 1 1 0 1 0 0 0 0 0 0 0 
0 0 0 0 0 0 1 0 0 0 2 2 5 5 4 10 10 14 26 33 49 46 78 120 139 179 249 272 348 390 547 634 744 787 946 1037 1235 1334 1408 1534 1652 1748 1781 1890 1923 1858 1900 1809 1748 1591 1528 1431 1298 1167 1073 966 830 687 573 491 412 356 287 229 151 155 114 78 52 32 30 23 18 16 7 7 7 2 0 0 1 2 1 0 0 0 0 0 0 0 
0 0 0 0 0 0 0 0 0 1 1 3 3 3 10 17 17 19 33 43 42 76 92 162 179 225 275 371 446 543 631 756 872 1070 1200 1332 1508 1689 1850 2032 2092 2128 2360 2385 2426 2444 2314 2354 2219 2092 2075 1849 1727 1535 1365 1171 1040 909 772 670 537 417 341 274 220 197 155 105 76 65 46 32 27 14 7 8 4 2 4 0 0 0 0 0 0 1 0 0 0 0 
0 0 0 0 0 0 1 0 1 0 3 1 4 5 8 13 13 18 37 56 59 88 119 173 207 306 347 430 541 651 749 939 1126 1271 1523 1602 1898 1943 2116 2392 2489 2606 2808 2842 2876 2940 2877 2794 2684 2500 2469 2254 2076 1821 1630 1431 1285 1092 957 815 663 528 415 378 261 212 174 118 95 83 57 35 31 22 15 12 5 1 4 3 0 0 0 0 0 0 0 0 0 0 
0 0 0 0 0 0 0 0 2 0 4 4 5 5 6 18 17 34 44 58 79 106 147 203 274 321 390 502 612 703 911 1163 1240 1509 1767 1955 2146 2439 2578 2863 3049 3197 3284 3330 3475 3352 3319 3178 3129 2942 2758 2594 2355 2090 1856 1792 1446 1311 1031 872 757 622 451 411 295 247 157 153 90 86 63 37 29 20 25 10 7 4 3 1 3 1 1 0 0 0 0 0 0 0 
0 0 0 0 1 1 0 0 1 1 2 7 7 7 12 15 25 28 44 61 76 120 164 203 259 326 434 558 676 814 1045 1224 1373 1661 1899 2138 2344 2633 2887 3008 3293 3502 3588 3711 3666 3689 3633 3577 3396 3260 3099 2853 2659 2450 2106 1910 1639 1410 1168 968 884 695 518 457 339 254 190 170 103 78 58 55 23 28 17 8 2 4 2 0 2 0 1 0 0 0 1 0 0 0 
0 0 0 0 0 0 0 0 1 2 1 4 5 11 9 15 26 28 50 80 100 128 174 195 272 349 482 582 711 874 1008 1212 1423 1730 2001 2181 2417 2762 3066 3265 3518 3684 3773 3914 3935 3966 3857 3785 3725 3569 3313 3104 2840 2526 2205 2021 1734 1506 1269 1068 853 725 537 449 388 276 213 166 114 70 59 54 32 30 13 12 5 4 3 6 2 1 0 1 0 0 0 0 0 0 
0 0 1 1 0 1 0 1 1 2 1 2 4 8 15 22 15 33 52 63 106 131 148 219 296 394 442 611 745 892 1059 1249 1527 1784 1897 2303 2472 2741 3017 3262 3533 3751 3866 4008 3917 4036 3899 3824 3616 3456 3236 2983 2846 2569 2297 1993 1688 1563 1221 983 918 684 622 462 359 268 217 167 124 93 83 64 38 28 11 10 7 8 2 2 1 2 0 1 0 0 0 0 0 0 
0 0 0 0 0 0 2 2 1 1 2 3 6 6 13 19 27 43 49 76 74 143 160 223 265 361 458 629 751 832 984 1166 1397 1695 1972 2110 2435 2624 2873 3046 3277 3523 3607 3675 3556 3713 3735 3623 3439 3440 3097 2853 2678 2441 2121 1857 1703 1411 1196 998 812 665 523 413 381 297 210 147 132 75 59 55 26 24 21 16 11 6 6 4 2 1 0 0 0 1 0 0 0 0 
0 0 0 0 1 0 0 0 2 0 3 5 4 6 11 13 19 35 50 61 71 103 166 178 258 367 420 531 616 767 930 1009 1255 1479 1679 1965 2164 2333 2543 2796 3018 3208 3211 3318 3290 3334 3373 3248 3117 2993 2851 2547 2358 2212 1917 1676 1470 1359 1104 915 800 665 474 418 323 259 185 122 109 75 50 40 24 27 9 12 5 8 3 5 0 0 0 0 0 1 0 0 0 0 
0 0 0 0 0 0 0 0 1 0 3 3 4 7 15 24 17 29 36 39 66 96 114 145 190 244 337 416 541 663 832 999 1100 1195 1451 1652 1865 2097 2278 2448 2557 2664 2855 2819 2889 2980 2871 2730 2705 2530 2344 2248 2022 1816 1626 1441 1320 1109 896 749 646 536 499 374 259 232 179 114 94 73 64 44 23 13 11 5 6 2 6 2 1 2 2 0 0 0 0 0 0 0 
0 0 0 0 0 0 0 0 1 1 1 3 3 5 3 6 21 22 42 41 59 88 103 128 170 226 285 371 456 528 645 778 865 1050 1222 1381 1534 1684 1798 2016 2153 2186 2342 2408 2450 2386 2445 2285 2255 2045 1994 1891 1656 1493 1328 1225 1065 909 742 667 556 421 323 271 244 196 127 117 79 59 49 23 16 15 9 9 5 4 2 1 2 0 0 0 0 0 0 0 0 0 
0 0 0 0 0 1 0 0 0 0 0 2 2 1 5 9 8 14 20 32 46 48 67 95 145 163 226 276 359 421 528 619 710 834 970 1109 1263 1311 1404 1573 1731 1722 1797 1823 1852 1889 1834 1790 1732 1687 1546 1432 1307 1167 1042 922 829 731 555 454 398 327 294 225 161 126 88 84 63 40 33 30 12 8 7 8 1 1 2 2 0 0 1 0 0 0 0 0 0 0 
0 0 0 0 0 0 0 0 0 0 1 2 2 4 3 6 5 9 20 21 34 54 65 83 107 127 157 227 248 302 355 462 521 581 712 843 861 938 1095 1172 1191 1334 1320 1391 1354 1371 1407 1330 1327 1218 1087 998 979 1014 774 717 641 520 485 352 329 256 173 168 123 92 94 60 37 39 26 25 16 9 7 4 6 3 2 1 0 0 1 0 0 0 0 0 0 0 
0 0 0 0 0 0 1 0 0 0 0 0 1 2 0 3 3 8 10 22 31 31 43 33 69 101 109 150 178 214 253 294 356 450 493 547 599 714 800 808 845 917 908 938 1016 942 932 951 893 820 772 789 686 645 560 505 405 377 306 262 205 196 134 124 74 73 54 37 30 22 21 13 9 9 6 4 3 3 0 0 0 0 0 0 0 0 0 0 0 0 
0 0 0 0 0 0 0 0 0 0 0 1 2 0 3 3 7 7 7 15 17 25 23 37 36 59 77 88 111 128 174 218 265 288 341 396 403 503 497 563 586 657 618 666 656 649 634 599 604 616 558 511 467 420 330 354 267 211 226 197 143 122 82 92 60 43 29 33 21 13 13 7 3 6 3 2 2 0 0 1 0 0 0 0 0 0 0 0 0 0 
0 0 0 0 0 0 0 1 0 0 0 0 0 4 1 3 3 3 3 8 11 8 15 29 40 45 36 67 76 97 122 137 162 195 226 227 248 282 309 357 382 354 425 434 414 375 385 396 368 354 348 347 320 291 239 241 179 159 138 106 83 71 68 55 27 27 25 14 15 5 4 4 8 5 0 0 0 1 0 0 0 0 0 0 1 0 0 0 0 0 
0 0 0 0 0 0 0 0 0 1 0 0 0 1 1 1 2 0 1 7 6 3 10 14 15 22 30 39 49 54 61 83 96 99 126 155 169 185 194 190 201 234 246 234 270 243 236 233 239 239 208 215 155 159 161 128 110 98 92 63 52 47 45 28 32 19 15 10 11 11 7 3 1 1 0 1 0 0 0 0 0 0 0 0 0 0 0 0 0 0 
0 0 0 0 0 0 0 0 0 0 0 0 0 0 0 0 1 4 2 5 3 8 6 8 9 15 19 20 34 46 41 41 62 58 73 97 93 116 98 138 130 123 134 155 140 158 135 136 138 130 130 103 113 100 79 93 49 52 63 39 32 26 28 13 12 16 7 10 5 2 2 0 0 0 1 1 1 0 0 1 0 0 0 0 0 0 0 0 0 0 
0 0 0 0 0 0 0 0 0 0 0 0 0 1 0 0 0 0 1 4 2 3 2 6 5 2 14 10 13 17 21 28 30 31 37 37 49 65 66 77 67 63 64 91 83 87 94 94 77 65 58 67 44 46 46 34 35 29 29 21 11 14 10 12 10 5 1 1 2 2 2 1 0 4 2 2 1 0 0 0 0 0 0 0 0 0 0 0 0 0 
0 0 0 0 0 0 0 0 0 0 0 0 0 0 0 0 1 0 0 1 2 1 1 1 3 2 3 7 7 10 15 9 11 22 21 30 22 41 35 33 33 38 44 32 44 58 48 43 31 42 40 24 25 26 25 20 18 22 18 15 8 6 9 8 3 3 1 1 3 0 0 0 0 0 1 0 0 0 0 0 0 0 0 0 0 0 0 0 0 0 
0 0 0 0 0 0 0 0 0 0 0 0 0 0 0 0 0 0 0 0 1 1 0 1 1 4 2 4 3 4 7 7 8 9 13 13 11 9 18 18 16 24 27 16 13 22 24 23 19 19 23 8 13 12 11 9 4 9 10 7 3 3 1 3 4 2 2 0 0 1 0 0 0 0 0 0 0 0 0 0 0 0 0 0 0 0 0 0 0 0 
0 0 0 0 0 0 0 0 0 0 0 0 0 0 0 0 0 0 0 0 2 0 0 0 0 0 3 3 0 2 2 7 6 5 7 4 4 10 9 6 8 13 12 13 12 12 10 10 13 8 7 8 6 8 6 6 6 4 7 2 4 1 1 0 0 0 1 2 2 0 0 0 0 0 0 0 0 0 0 0 0 0 0 0 0 0 0 0 0 0 
0 0 0 0 0 0 0 0 0 0 0 0 0 0 0 0 0 0 0 0 0 1 0 1 1 0 0 1 0 2 0 0 0 1 2 3 6 4 2 4 4 4 5 3 3 4 0 6 4 5 3 2 4 1 2 4 2 0 3 2 3 2 1 0 0 0 0 0 0 0 0 0 0 0 0 0 0 0 0 0 0 0 0 0 0 0 0 0 0 0 
0 0 0 0 0 0 0 0 0 0 0 0 0 0 0 0 0 1 0 0 0 0 0 1 0 0 0 1 0 0 1 0 0 0 0 3 0 1 1 2 2 1 2 0 2 0 1 1 3 1 2 0 3 0 0 0 0 1 0 0 1 1 1 0 0 0 0 0 0 0 0 0 0 0 0 0 0 0 0 0 0 0 0 0 0 0 0 0 0 0 
0 0 0 0 0 0 0 0 0 0 0 0 0 0 0 0 0 0 0 0 0 0 0 0 0 0 0 0 0 0 0 0 1 0 1 1 2 1 0 1 2 1 0 3 1 0 0 1 0 0 1 0 0 0 1 2 0 1 1 0 0 1 0 0 0 0 0 0 0 0 0 0 0 0 0 0 0 0 0 0 0 0 0 0 0 0 0 0 0 0 
0 0 0 0 0 0 0 0 0 0 0 0 0 0 0 0 0 0 0 0 0 0 0 0 0 0 0 0 0 0 0 0 0 0 0 0 0 2 0 0 1 0 0 0 0 0 0 0 1 0 0 0 0 1 0 0 1 0 0 0 0 0 0 0 0 0 0 0 0 0 0 0 0 0 0 0 0 0 0 0 0 0 0 0 0 0 0 0 0 0 
0 0 0 0 0 0 0 0 0 0 0 0 0 0 0 0 0 0 0 0 0 0 0 0 0 0 0 0 0 0 1 0 0 0 0 0 0 0 0 0 0 0 0 0 0 0 0 0 0 0 0 0 0 0 0 0 0 0 1 0 0 0 0 0 0 0 0 0 0 0 0 0 0 0 0 0 0 0 0 0 0 0 0 0 0 0 0 0 0 0 
0 0 0 0 0 0 0 0 0 0 0 0 0 0 0 0 0 0 0 0 0 0 0 0 0 0 0 0 0 0 0 0 0 0 0 0 0 0 0 0 0 0 0 0 0 0 0 0 0 0 0 0 0 0 0 0 0 0 0 0 0 0 0 0 0 0 0 0 0 0 0 0 0 0 0 0 0 0 0 0 0 0 0 0 0 0 0 0 0 0 
0 0 0 0 0 0 0 0 0 0 0 0 0 0 0 0 0 0 0 0 0 0 0 0 0 0 0 0 0 0 0 0 0 0 0 0 0 0 0 0 0 0 0 0 0 0 0 0 0 0 0 0 0 0 0 0 0 0 0 0 0 0 0 0 0 0 0 0 0 0 0 0 0 0 0 0 0 0 0 0 0 0 0 0 0 0 0 0 0 0 
0 0 0 0 0 0 0 0 0 0 0 0 0 0 0 0 0 0 0 0 0 0 0 0 0 0 0 0 0 0 0 0 0 0 0 0 0 0 0 0 0 0 0 0 0 0 0 0 0 0 0 0 0 0 0 0 0 0 0 0 0 0 0 0 0 0 0 0 0 0 0 0 0 0 0 0 0 0 0 0 0 0 0 0 0 0 0 0 0 0 
0 0 0 0 0 0 0 0 0 0 0 0 0 0 0 0 0 0 0 0 0 0 0 0 0 0 0 0 0 0 0 0 0 0 0 0 0 0 0 0 0 0 0 0 0 0 0 0 0 0 0 0 0 0 0 0 0 0 0 0 0 0 0 0 0 0 0 0 0 0 0 0 0 0 0 0 0 0 0 0 0 0 0 0 0 0 0 0 0 0 
0 0 0 0 0 0 0 0 0 0 0 0 0 0 0 0 0 0 0 0 0 0 0 0 0 0 0 0 0 0 0 0 0 0 0 0 0 0 0 0 0 0 0 0 0 0 0 0 0 0 0 0 0 0 0 0 0 0 0 0 0 0 0 0 0 0 0 0 0 0 0 0 0 0 0 0 0 0 0 0 0 0 0 0 0 0 0 0 0 0 
0 0 0 0 0 0 0 0 0 0 0 0 0 0 0 0 0 0 0 0 0 0 0 0 0 0 0 0 0 0 0 0 0 0 0 0 0 0 0 0 0 0 0 0 0 0 0 0 0 0 0 0 0 0 0 0 0 0 0 0 0 0 0 0 0 0 0 0 0 0 0 0 0 0 0 0 0 0 0 0 0 0 0 0 0 0 0 0 0 0 
0 0 0 0 0 0 0 0 0 0 0 0 0 0 0 0 0 0 0 0 0 0 0 0 0 0 0 0 0 0 0 0 0 0 0 0 0 0 0 0 0 0 0 0 0 0 0 0 0 0 0 0 0 0 0 0 0 0 0 0 0 0 0 0 0 0 0 0 0 0 0 0 0 0 0 0 0 0 0 0 0 0 0 0 0 0 0 0 0 0 
0 0 0 0 0 0 0 0 0 0 0 0 0 0 0 0 0 0 0 0 0 0 0 0 0 0 0 0 0 0 0 0 0 0 0 0 0 0 0 0 0 0 0 0 0 0 0 0 0 0 0 0 0 0 0 0 0 0 0 0 0 0 0 0 0 0 0 0 0 0 0 0 0 0 0 0 0 0 0 0 0 0 0 0 0 0 0 0 0 0 
0 0 0 0 0 0 0 0 0 0 0 0 0 0 0 0 0 0 0 0 0 0 0 0 0 0 0 0 0 0 0 0 0 0 0 0 0 0 0 0 0 0 0 0 0 0 0 0 0 0 0 0 0 0 0 0 0 0 0 0 0 0 0 0 0 0 0 0 0 0 0 0 0 0 0 0 0 0 0 0 0 0 0 0 0 0 0 0 0 0 
0 0 0 0 0 0 0 0 0 0 0 0 0 0 0 0 0 0 0 0 0 0 0 0 0 0 0 0 0 0 0 0 0 0 0 0 0 0 0 0 0 0 0 0 0 0 0 0 0 0 0 0 0 0 0 0 0 0 0 0 0 0 0 0 0 0 0 0 0 0 0 0 0 0 0 0 0 0 0 0 0 0 0 0 0 0 0 0 0 0 
0 0 0 0 0 0 0 0 0 0 0 0 0 0 0 0 0 0 0 0 0 0 0 0 0 0 0 0 0 0 0 0 0 0 0 0 0 0 0 0 0 0 0 0 0 0 0 0 0 0 0 0 0 0 0 0 0 0 0 0 0 0 0 0 0 0 0 0 0 0 0 0 0 0 0 0 0 0 0 0 0 0 0 0 0 0 0 0 0 0 
0 0 0 0 0 0 0 0 0 0 0 0 0 0 0 0 0 0 0 0 0 0 0 0 0 0 0 0 0 0 0 0 0 0 0 0 0 0 0 0 0 0 0 0 0 0 0 0 0 0 0 0 0 0 0 0 0 0 0 0 0 0 0 0 0 0 0 0 0 0 0 0 0 0 0 0 0 0 0 0 0 0 0 0 0 0 0 0 0 0 
0 0 0 0 0 0 0 0 0 0 0 0 0 0 0 0 0 0 0 0 0 0 0 0 0 0 0 0 0 0 0 0 0 0 0 0 0 0 0 0 0 0 0 0 0 0 0 0 0 0 0 0 0 0 0 0 0 0 0 0 0 0 0 0 0 0 0 0 0 0 0 0 0 0 0 0 0 0 0 0 0 0 0 0 0 0 0 0 0 0 
0 0 0 0 0 0 0 0 0 0 0 0 0 0 0 0 0 0 0 0 0 0 0 0 0 0 0 0 0 0 0 0 0 0 0 0 0 0 0 0 0 0 0 0 0 0 0 0 0 0 0 0 0 0 0 0 0 0 0 0 0 0 0 0 0 0 0 0 0 0 0 0 0 0 0 0 0 0 0 0 0 0 0 0 0 0 0 0 0 0 
0 0 0 0 0 0 0 0 0 0 0 0 0 0 0 0 0 0 0 0 0 0 0 0 0 0 0 0 0 0 0 0 0 0 0 0 0 0 0 0 0 0 0 0 0 0 0 0 0 0 0 0 0 0 0 0 0 0 0 0 0 0 0 0 0 0 0 0 0 0 0 0 0 0 0 0 0 0 0 0 0 0 0 0 0 0 0 0 0 0 
0 0 0 0 0 0 0 0 0 0 0 0 0 0 0 0 0 0 0 0 0 0 0 0 0 0 0 0 0 0 0 0 0 0 0 0 0 0 0 0 0 0 0 0 0 0 0 0 0 0 0 0 0 0 0 0 0 0 0 0 0 0 0 0 0 0 0 0 0 0 0 0 0 0 0 0 0 0 0 0 0 0 0 0 0 0 0 0 0 0 
0 0 0 0 0 0 0 0 0 0 0 0 0 0 0 0 0 0 0 0 0 0 0 0 0 0 0 0 0 0 0 0 0 0 0 0 0 0 0 0 0 0 0 0 0 0 0 0 0 0 0 0 0 0 0 0 0 0 0 0 0 0 0 0 0 0 0 0 0 0 0 0 0 0 0 0 0 0 0 0 0 0 0 0 0 0 0 0 0 0 
0 0 0 0 0 0 0 0 0 0 0 0 0 0 0 0 0 0 0 0 0 0 0 0 0 0 0 0 0 0 0 0 0 0 0 0 0 0 0 0 0 0 0 0 0 0 0 0 0 0 0 0 0 0 0 0 0 0 0 0 0 0 0 0 0 0 0 0 0 0 0 0 0 0 0 0 0 0 0 0 0 0 0 0 0 0 0 0 0 0 
0 0 0 0 0 0 0 0 0 0 0 0 0 0 0 0 0 0 0 0 0 0 0 0 0 0 0 0 0 0 0 0 0 0 0 0 0 0 0 0 0 0 0 0 0 0 0 0 0 0 0 0 0 0 0 0 0 0 0 0 0 0 0 0 0 0 0 0 0 0 0 0 0 0 0 0 0 0 0 0 0 0 0 0 0 0 0 0 0 0 
0 0 0 0 0 0 0 0 0 0 0 0 0 0 0 0 0 0 0 0 0 0 0 0 0 0 0 0 0 0 0 0 0 0 0 0 0 0 0 0 0 0 0 0 0 0 0 0 0 0 0 0 0 0 0 0 0 0 0 0 0 0 0 0 0 0 0 0 0 0 0 0 0 0 0 0 0 0 0 0 0 0 0 0 0 0 0 0 0 0 
0 0 0 0 0 0 0 0 0 0 0 0 0 0 0 0 0 0 0 0 0 0 0 0 0 0 0 0 0 0 0 0 0 0 0 0 0 0 0 0 0 0 0 0 0 0 0 0 0 0 0 0 0 0 0 0 0 0 0 0 0 0 0 0 0 0 0 0 0 0 0 0 0 0 0 0 0 0 0 0 0 0 0 0 0 0 0 0 0 0 
0 0 0 0 0 0 0 0 0 0 0 0 0 0 0 0 0 0 0 0 0 0 0 0 0 0 0 0 0 0 0 0 0 0 0 0 0 0 0 0 0 0 0 0 0 0 0 0 0 0 0 0 0 0 0 0 0 0 0 0 0 0 0 0 0 0 0 0 0 0 0 0 0 0 0 0 0 0 0 0 0 0 0 0 0 0 0 0 0 0 
0 0 0 0 0 0 0 0 0 0 0 0 0 0 0 0 0 0 0 0 0 0 0 0 0 0 0 0 0 0 0 0 0 0 0 0 0 0 0 0 0 0 0 0 0 0 0 0 0 0 0 0 0 0 0 0 0 0 0 0 0 0 0 0 0 0 0 0 0 0 0 0 0 0 0 0 0 0 0 0 0 0 0 0 0 0 0 0 0 0 
0 0 0 0 0 0 0 0 0 0 0 0 0 0 0 0 0 0 0 0 0 0 0 0 0 0 0 0 0 0 0 0 0 0 0 0 0 0 0 0 0 0 0 0 0 0 0 0 0 0 0 0 0 0 0 0 0 0 0 0 0 0 0 0 0 0 0 0 0 0 0 0 0 0 0 0 0 0 0 0 0 0 0 0 0 0 0 0 0 0 
# EndDate:Thu Jan 24 12:24:18 2013
