# Format: McStas with text headers file. Use mcplot/PGPLOT to view.
# URL:    http://www.mccode.org/
# Editor: erkn on localhost
# Creator:Test_src_gaussian (Test_src_gaussian.instr) simulation (McXtrace x.y.z - Jan. 22, 2013)
# Date:   Simulation started (1358946242) Wed Jan 23 14:04:02 2013
# File:   emon1.dat
# Ncount: 250000
# Trace: no
# Gravitation: no
# Seed: 1358946237
# Param: XW=0.01
# Param: YH=0.01
# Param: DIST=10
# Param: SRC=2
# Param: E0=1.4
# type: array_1d(100)
# Source: Test_src_gaussian.instr
# component: emon1
# position: 0 0 9.997
# title: Energy monitor
# Ncount: 250000
# filename: emon1.dat
# format: McStas with text headers
# statistics: X0=6.90812; dX=2.94185;
# signal: Min=0; Max=9.43981e+12; Mean=4.30665e+12;
# values: 4.30665e+14 4.56829e+11 999999
# xvar: E
# yvar: (I,I_err)
# xlabel: Energy [keV]
# ylabel: Intensity
# xlimits: 0 20
# variables: E I I_err N
# Data [emon1_dat/emon1.dat] I: 
0.1 160963196458 1471567679.6 16564 
0.3 551193115177 4393561449.73 16501 
0.5 992975488206 7764727965.41 16634 
0.7 1.45911559688e+12 11343254958.8 16689 
0.9 1.92041806123e+12 14939316724.5 16607 
1.1 2.38912903687e+12 18570950687.6 16604 
1.3 2.88900661745e+12 22318361789.9 16793 
1.5 3.31281578853e+12 25737008526.1 16594 
1.7 3.76361156637e+12 29206869798.4 16624 
1.9 4.24035958115e+12 32734923415.7 16794 
2.1 4.67924283557e+12 36072152456 16838 
2.3 5.01252710648e+12 38913434537.8 16601 
2.5 5.4050806816e+12 41917058870.7 16634 
2.7 5.77568069695e+12 44769026138.9 16649 
2.9 6.10948951137e+12 47406239493.2 16613 
3.1 6.48077252955e+12 50106797948.1 16732 
3.3 6.81503293691e+12 52592713655.5 16794 
3.5 7.01162283176e+12 54466981687.4 16574 
3.7 7.31668143942e+12 56690756987.9 16659 
3.9 7.60059132959e+12 58757812405.1 16734 
4.1 7.81566950373e+12 60479679941 16701 
4.3 8.07493237831e+12 62301100273 16800 
4.5 8.19825942696e+12 63528932344.1 16654 
4.7 8.38416584435e+12 64928313663.1 16675 
4.9 8.50584991465e+12 66011095777.2 16604 
5.1 8.65196733132e+12 67120605467.9 16616 
5.3 8.68334943412e+12 67729704143.4 16437 
5.5 8.78379690081e+12 68542269732.3 16423 
5.7 9.03316166998e+12 69877964228.5 16711 
5.9 9.11746062451e+12 70519465540 16716 
6.1 9.20227936471e+12 71111595220.4 16746 
6.3 9.10522008189e+12 70933578913.8 16477 
6.5 9.26162910735e+12 71698737834.5 16686 
6.7 9.26446343355e+12 71821882162.9 16639 
6.9 9.34327096162e+12 72194569539.7 16749 
7.1 9.39145136914e+12 72404921313.2 16824 
7.3 9.43980849635e+12 72577419863.4 16917 
7.5 9.22951193595e+12 71712720536.8 16564 
7.7 9.25534217013e+12 71725315932 16651 
7.9 9.23889200333e+12 71542015281.6 16677 
8.1 9.1953278975e+12 71221786321.8 16669 
8.3 9.12434138024e+12 70765443912.5 16625 
8.5 9.06810139208e+12 70337759412.4 16621 
8.7 8.97734391823e+12 69749314093.7 16566 
8.9 8.96517499806e+12 69445514989.9 16666 
9.1 8.92417686253e+12 69001810433 16727 
9.3 8.74420282954e+12 68001680979.6 16535 
9.5 8.72529438383e+12 67605727349.8 16657 
9.7 8.62589951849e+12 66879787323.9 16635 
9.9 8.51098542521e+12 66078295815.3 16590 
10.1 8.42459012704e+12 65262077607.2 16665 
10.3 8.33353228943e+12 64566429838.7 16659 
10.5 8.38398356759e+12 64429739169 16933 
10.7 8.11994788561e+12 62996907078.9 16614 
10.9 8.09600087012e+12 62484805015 16788 
11.1 7.94402429981e+12 61467715563 16703 
11.3 7.8251168275e+12 60573062374 16689 
11.5 7.75929149591e+12 59871915741.6 16796 
11.7 7.54805468632e+12 58604283168.9 16589 
11.9 7.50256719032e+12 57931353823.7 16773 
12.1 0 0 0 
12.3 0 0 0 
12.5 0 0 0 
12.7 0 0 0 
12.9 0 0 0 
13.1 0 0 0 
13.3 0 0 0 
13.5 0 0 0 
13.7 0 0 0 
13.9 0 0 0 
14.1 0 0 0 
14.3 0 0 0 
14.5 0 0 0 
14.7 0 0 0 
14.9 0 0 0 
15.1 0 0 0 
15.3 0 0 0 
15.5 0 0 0 
15.7 0 0 0 
15.9 0 0 0 
16.1 0 0 0 
16.3 0 0 0 
16.5 0 0 0 
16.7 0 0 0 
16.9 0 0 0 
17.1 0 0 0 
17.3 0 0 0 
17.5 0 0 0 
17.7 0 0 0 
17.9 0 0 0 
18.1 0 0 0 
18.3 0 0 0 
18.5 0 0 0 
18.7 0 0 0 
18.9 0 0 0 
19.1 0 0 0 
19.3 0 0 0 
19.5 0 0 0 
19.7 0 0 0 
19.9 0 0 0 
# EndDate:Wed Jan 23 14:04:02 2013
