# Format: McStas with text headers file. Use mcplot/PGPLOT to view.
# URL:    http://www.mccode.org/
# Editor: erkn on localhost
# Creator:Test_src_gaussian (Test_src_gaussian.instr) simulation (McXtrace x.y.z - Jan. 22, 2013)
# Date:   Simulation started (1358946242) Wed Jan 23 14:04:02 2013
# File:   emon0.dat
# Ncount: 250000
# Trace: no
# Gravitation: no
# Seed: 1358946237
# Param: XW=0.01
# Param: YH=0.01
# Param: DIST=10
# Param: SRC=2
# Param: E0=1.4
# type: array_1d(100)
# Source: Test_src_gaussian.instr
# component: emon0
# position: 0 0 0.1
# title: Energy monitor
# Ncount: 250000
# filename: emon0.dat
# format: McStas with text headers
# statistics: X0=1.40005; dX=0.000818552;
# signal: Min=0; Max=1.30236e+09; Mean=4.05271e+08;
# values: 4.05271e+10 2.74484e+09 218
# xvar: E
# yvar: (I,I_err)
# xlabel: Energy [keV]
# ylabel: Intensity
# xlimits: 1.3986 1.4014
# variables: E I I_err N
# Data [emon0_dat/emon0.dat] I: 
1.398614 371408245.909 262625289.287 2 
1.398642 185708242.977 185708242.977 1 
1.39867 185712133.19 185712133.19 1 
1.398698 557142561.41 321666407.811 3 
1.398726 185718147.142 185718147.142 1 
1.398754 371445137.943 262651375.878 2 
1.398782 742905856.977 371452928.498 4 
1.39881 371459898.648 262661813.28 2 
1.398838 371469984.949 262668945.368 2 
1.398866 0 0 0 
1.398894 371485083.46 262679621.625 2 
1.398922 928732603.183 415341846.731 5 
1.39895 0 0 0 
1.398978 557264325.943 321736708.596 3 
1.399006 743033673.6 371516836.811 4 
1.399034 557283894.93 321748006.756 3 
1.399062 928829192.244 415385042.674 5 
1.39909 0 0 0 
1.399118 371547010.082 262723410.366 2 
1.399146 185779168.539 185779168.539 1 
1.399174 185782848.986 185782848.986 1 
1.399202 557355573.939 321789390.654 3 
1.39923 557368854.215 321797058.027 3 
1.399258 1114759641.67 455098718 6 
1.399286 185796745.329 185796745.329 1 
1.399314 185799734.209 185799734.209 1 
1.399342 185804353.351 185804353.351 1 
1.39937 557427952.299 321831178.321 3 
1.399398 0 0 0 
1.399426 557449312.279 321843510.514 3 
1.399454 185820989.889 185820989.889 1 
1.399482 185826378.434 185826378.434 1 
1.39951 0 0 0 
1.399538 557497853.937 321871536.052 3 
1.399566 371672223.501 262811949.639 2 
1.399594 0 0 0 
1.399622 743376405.439 371688202.731 4 
1.39965 371697284.554 262829670.462 2 
1.399678 371703623.08 262834152.474 2 
1.399706 557568205.852 321912153.743 3 
1.399734 371716934.101 262843564.788 2 
1.399762 371727672.272 262851157.819 2 
1.39979 185866000.544 185866000.544 1 
1.399818 0 0 0 
1.399846 185874399.373 185874399.373 1 
1.399874 371756164.31 262871304.733 2 
1.399902 371765350.055 262877800.044 2 
1.39993 371775247.993 262884798.935 2 
1.399958 557672176.044 321972180.964 3 
1.399986 185896001.81 185896001.81 1 
1.400014 371798712.253 262901390.671 2 
1.400042 557703709.889 321990387.033 3 
1.40007 371813707.632 262911994.012 2 
1.400098 371818439.635 262915340.038 2 
1.400126 557745166.191 322014321.844 3 
1.400154 185918347.186 185918347.186 1 
1.400182 557768321.055 322027690.312 3 
1.40021 557779552.703 322034174.902 3 
1.400238 1115577044.52 455432421.316 6 
1.400266 185934873.587 185934873.587 1 
1.400294 557811500.632 322052620.057 3 
1.400322 371881253.97 262959756.479 2 
1.40035 185945357.626 185945357.626 1 
1.400378 185947814.501 185947814.501 1 
1.400406 185953813.664 185953813.664 1 
1.400434 557872807.685 322088015.705 3 
1.400462 185960397.761 185960397.761 1 
1.40049 185965842.347 185965842.347 1 
1.400518 185968964.714 185968964.714 1 
1.400546 743890463.111 371945231.561 4 
1.400574 371955577.048 263012310.832 2 
1.400602 557943474.444 322128815.17 3 
1.40063 743938564.999 371969282.51 4 
1.400658 557963343.876 322140286.791 3 
1.400686 557977662.087 322148553.413 3 
1.400714 557987072.387 322153986.452 3 
1.400742 0 0 0 
1.40077 930018901.274 415917096.731 5 
1.400798 372014130.284 263053714.227 2 
1.400826 744048477.535 372024238.771 4 
1.400854 372028946.253 263064190.695 2 
1.400882 558056500.007 322194070.503 3 
1.40091 744092784.169 372046392.094 4 
1.400938 186028424.343 186028424.343 1 
1.400966 0 0 0 
1.400994 372072622.42 263095074.412 2 
1.401022 372076572.566 263097867.59 2 
1.40105 558128634.742 322235717.518 3 
1.401078 186048807.1 186048807.1 1 
1.401106 1302355005.08 492243923.18 7 
1.401134 186053023.054 186053023.054 1 
1.401162 186059839.489 186059839.489 1 
1.40119 186062601.089 186062601.089 1 
1.401218 372133034.366 263137792.125 2 
1.401246 744279130.29 372139565.147 4 
1.401274 186074579.179 186074579.179 1 
1.401302 558237070.741 322298323.071 3 
1.40133 186083907.752 186083907.752 1 
1.401358 744342439.269 372171219.641 4 
1.401386 558271194.948 322318024.684 3 
# EndDate:Wed Jan 23 14:04:02 2013
