# Format: McStas with text headers file. Use mcplot/PGPLOT to view.
# URL:    http://www.mccode.org/
# Editor: erkn on localhost
# Creator:Test_src_gaussian (Test_src_gaussian.instr) simulation (McXtrace x.y.z - Jan. 22, 2013)
# Date:   Simulation started (1360080789) Tue Feb  5 17:13:09 2013
# File:   emon02.dat
# Ncount: 1e+06
# Trace: no
# Gravitation: no
# Seed: 1360080783
# Param: XW=0
# Param: YH=0
# Param: DIST=10
# Param: SRC=3
# Param: E0=11.3
# type: array_1d(100)
# Source: Test_src_gaussian.instr
# component: emon02
# position: 0 0 0.09
# title: Energy monitor
# Ncount: 1e+06
# filename: emon02.dat
# format: McStas with text headers
# statistics: X0=8.95404; dX=0.0875816;
# signal: Min=2.92103e+14; Max=3.29571e+18; Mean=1.49764e+17;
# values: 1.49764e+19 5.44172e+16 999999
# xvar: E
# yvar: (I,I_err)
# xlabel: Energy [keV]
# ylabel: Intensity
# xlimits: 8 10
# variables: E I I_err N
# Data [emon02_dat/emon02.dat] I: 
8.01 2.45610235277e+15 2.45893017038e+13 9981 
8.03 2.69666244426e+15 2.66508298107e+13 10242 
8.05 2.81061791088e+15 2.80797457985e+13 10022 
8.07 2.95512835531e+15 2.96518471398e+13 9935 
8.09 3.15332014961e+15 3.1497777907e+13 10025 
8.11 3.29817213222e+15 3.30545112776e+13 9958 
8.13 3.4527450187e+15 3.46346425682e+13 9940 
8.15 3.60297153952e+15 3.61941020753e+13 9911 
8.17 3.7880988309e+15 3.79275362308e+13 9977 
8.19 3.96097177984e+15 3.96065083785e+13 10003 
8.21 4.08113395446e+15 4.07567079726e+13 10027 
8.23 4.07947723533e+15 4.1040039259e+13 9881 
8.25 4.17156882692e+15 4.17955213873e+13 9962 
8.27 4.26881537654e+15 4.25758209287e+13 10053 
8.29 4.26444654948e+15 4.28466528557e+13 9906 
8.31 4.26496847104e+15 4.27171758656e+13 9969 
8.33 4.18055143025e+15 4.17296651985e+13 10037 
8.35 4.04326442641e+15 4.04845661083e+13 9975 
8.37 3.96214288549e+15 3.95162259465e+13 10054 
8.39 3.82511127622e+15 3.82658756223e+13 9993 
8.41 3.61314947097e+15 3.61835826934e+13 9977 
8.43 3.35528507893e+15 3.33747833778e+13 10114 
8.45 3.05071775062e+15 3.03413519389e+13 10118 
8.47 2.69792836787e+15 2.70596378874e+13 9951 
8.49 2.43246661471e+15 2.42223979065e+13 10098 
8.51 2.33259550752e+15 2.32460899325e+13 10071 
8.53 2.45619933831e+15 2.4450970466e+13 10093 
8.55 2.55153096969e+15 2.55162947819e+13 10001 
8.57 2.63148506827e+15 2.65004846688e+13 9862 
8.59 2.76198345204e+15 2.77428113048e+13 9913 
8.61 4.79559931232e+15 4.96035327563e+13 9869 
8.63 8.7760263268e+15 8.87888665986e+13 9937 
8.65 1.27918824381e+16 1.28807974063e+14 9942 
8.67 1.6882609911e+16 1.68977554282e+14 10029 
8.69 2.1214127318e+16 2.10547512919e+14 10183 
8.71 3.31565655318e+16 3.40095341981e+14 9828 
8.73 5.51966789723e+16 5.56495416301e+14 9965 
8.75 7.68497638177e+16 7.72578046472e+14 9960 
8.77 9.89306251257e+16 9.90083330437e+14 10024 
8.79 1.19580964719e+17 1.20120499509e+15 9937 
8.81 1.63434604995e+17 1.64492209985e+15 10000 
8.83 2.3153946287e+17 2.30335263872e+15 10172 
8.85 2.9798349734e+17 2.99031758863e+15 10005 
8.87 4.07182816714e+17 4.09015916492e+15 9987 
8.89 5.73449936687e+17 5.74071434649e+15 10064 
8.91 7.95727141608e+17 7.99457029213e+15 10013 
8.93 1.13534006097e+18 1.14409773395e+16 9960 
8.95 1.71416886404e+18 1.72272658623e+16 10061 
8.97 2.64157167947e+18 2.66199643451e+16 9981 
8.99 3.29570643295e+18 3.29418187279e+16 10012 
9.01 2.28781979389e+18 2.34034443619e+16 9932 
9.03 5.88777630524e+17 7.45964092663e+15 9952 
9.05 1.34214145264e+17 1.36551160674e+15 10122 
9.07 5.15945078646e+16 5.51455728771e+14 10024 
9.09 2.18529133782e+16 2.20734394266e+14 10011 
9.11 1.4585616437e+16 1.45893852226e+14 10043 
9.13 1.10891094538e+16 1.11000236878e+14 10064 
9.15 7.67393256022e+15 7.78538583618e+13 9793 
9.17 6.23196100717e+15 6.28398806074e+13 9867 
9.19 5.12842933523e+15 5.11350064299e+13 10109 
9.21 4.23872454259e+15 4.2288589672e+13 10057 
9.23 3.77020322398e+15 3.76043754743e+13 10065 
9.25 3.24081829464e+15 3.26450220904e+13 9872 
9.27 2.80616114175e+15 2.81552056722e+13 9956 
9.29 2.34635708704e+15 2.3515981877e+13 9988 
9.31 2.03512171971e+15 2.03288718726e+13 10028 
9.33 1.87327896606e+15 1.86639643044e+13 10081 
9.35 1.68483717301e+15 1.68624495482e+13 9992 
9.37 1.51463875996e+15 1.51493219715e+13 10007 
9.39 1.3352193945e+15 1.33928093046e+13 9953 
9.41 1.22228420704e+15 1.21838639853e+13 10068 
9.43 1.14089913667e+15 1.1363850501e+13 10084 
9.45 1.03723880131e+15 1.04326261731e+13 9890 
9.47 9.80464723489e+14 9.73826366148e+12 10143 
9.49 8.87284955471e+14 8.86054315637e+12 10035 
9.51 8.23988930638e+14 8.22166166849e+12 10047 
9.53 7.62870387232e+14 7.68729593391e+12 9851 
9.55 7.40751972012e+14 7.34834326149e+12 10165 
9.57 6.91529538099e+14 6.87307668624e+12 10127 
9.59 6.36525402405e+14 6.3710816623e+12 9986 
9.61 5.97882717003e+14 5.99375311398e+12 9952 
9.63 5.70260192881e+14 5.71746591229e+12 9950 
9.65 5.40701545179e+14 5.43071669134e+12 9915 
9.67 5.11716267233e+14 5.14771452701e+12 9884 
9.69 4.85538493486e+14 4.87925943958e+12 9905 
9.71 4.65086131701e+14 4.66350964807e+12 9947 
9.73 4.54171173369e+14 4.52035730974e+12 10096 
9.75 4.39669809629e+14 4.3594584499e+12 10173 
9.77 4.12619330653e+14 4.1370632497e+12 9949 
9.79 3.97358061386e+14 3.97212022299e+12 10009 
9.81 3.86625610657e+14 3.84550035582e+12 10109 
9.83 3.67240306776e+14 3.69086684268e+12 9901 
9.85 3.55248490667e+14 3.57288249858e+12 9887 
9.87 3.48903690013e+14 3.48310994176e+12 10035 
9.89 3.34826233377e+14 3.35463992265e+12 9963 
9.91 3.29136234218e+14 3.27770117817e+12 10084 
9.93 3.16814350473e+14 3.17792721589e+12 9939 
9.95 3.12716575754e+14 3.11945513626e+12 10050 
9.97 3.05894869781e+14 3.04641377622e+12 10083 
9.99 2.92103172944e+14 2.93909825528e+12 9878 
# EndDate:Tue Feb  5 17:13:09 2013
