# Format: McStas with text headers file. Use mcplot/PGPLOT to view.
# URL:    http://www.mccode.org/
# Editor: erkn on localhost
# Creator:Test_src_gaussian (Test_src_gaussian.instr) simulation (McXtrace x.y.z - Jan. 22, 2013)
# Date:   Simulation started (1358946507) Wed Jan 23 14:08:27 2013
# File:   emon00.dat
# Ncount: 250000
# Trace: no
# Gravitation: no
# Seed: 1358946502
# Param: XW=0.01
# Param: YH=0.01
# Param: DIST=10
# Param: SRC=2
# Param: E0=11
# type: array_1d(100)
# Source: Test_src_gaussian.instr
# component: emon00
# position: 0 0 0.09
# title: Energy monitor
# Ncount: 250000
# filename: emon00.dat
# format: McStas with text headers
# statistics: X0=6.90344; dX=2.93865;
# signal: Min=0; Max=9.40373e+12; Mean=4.30692e+12;
# values: 4.30692e+14 4.56891e+11 1e+06
# xvar: E
# yvar: (I,I_err)
# xlabel: Energy [keV]
# ylabel: Intensity
# xlimits: 0 20
# variables: E I I_err N
# Data [emon00_dat/emon00.dat] I: 
0.1 162726230589 1481759201.47 16712 
0.3 551985812132 4388654873.83 16596 
0.5 994536970748 7777472614.17 16637 
0.7 1.45456989488e+12 11326468437.9 16634 
0.9 1.92972385862e+12 14975427834.1 16688 
1.1 2.39316234464e+12 18594016359 16618 
1.3 2.83228465149e+12 22096044971.3 16466 
1.5 3.3198415552e+12 25759414850.6 16636 
1.7 3.79713901924e+12 29343581571.9 16764 
1.9 4.19281229061e+12 32557451953.4 16599 
2.1 4.64541695545e+12 35934297090.9 16723 
2.3 5.08256720544e+12 39184375020.9 16833 
2.5 5.39087619329e+12 41862281469.1 16590 
2.7 5.82108134553e+12 44949800063.4 16776 
2.9 6.15163594958e+12 47567469934.2 16729 
3.1 6.46882091928e+12 50066738414 16697 
3.3 6.70723887448e+12 52180472329.5 16525 
3.5 7.02184587706e+12 54510220680.4 16596 
3.7 7.32306124449e+12 56718080966.2 16672 
3.9 7.51527921414e+12 58422125623.9 16549 
4.1 7.77875981232e+12 60335150712.3 16623 
4.3 8.00580590312e+12 62036066168.2 16655 
4.5 8.27233477068e+12 63812392704.4 16806 
4.7 8.47436900511e+12 65273551791.3 16856 
4.9 8.57848307936e+12 66289932125 16747 
5.1 8.70643020197e+12 67334753682.6 16719 
5.3 8.77801481788e+12 68098292677.7 16616 
5.5 8.76690566275e+12 68477206715 16391 
5.7 9.06942445139e+12 70018263931.6 16778 
5.9 9.19940379452e+12 70834045197.6 16867 
6.1 9.33082138563e+12 71606357909.7 16980 
6.3 9.2087158328e+12 71336195050.8 16664 
6.5 9.20994911668e+12 71498185153.6 16593 
6.7 9.39203548475e+12 72314943252 16868 
6.9 9.35002109992e+12 72220860099.2 16761 
7.1 9.40373372476e+12 72452258300.6 16846 
7.3 9.23951985258e+12 71803477724.2 16558 
7.5 9.2194464061e+12 71673465995.3 16546 
7.7 9.29858237099e+12 71892221308.3 16729 
7.9 9.2139694349e+12 71445481847.7 16632 
8.1 9.22528997005e+12 71338397371.1 16723 
8.3 9.05943380123e+12 70512728182.2 16507 
8.5 9.07063463266e+12 70346828198.1 16626 
8.7 8.97473568525e+12 69739574722 16561 
8.9 9.03744527418e+12 69723508921.2 16801 
9.1 8.97566528295e+12 69201621833.3 16823 
9.3 8.80232710415e+12 68227131801.1 16645 
9.5 8.67019715122e+12 67391565874.7 16552 
9.7 8.50816759953e+12 66421722122.3 16408 
9.9 8.42409451611e+12 65739382003.6 16421 
10.1 8.55860838624e+12 65781239879.1 16929 
10.3 8.33714532186e+12 64580851152.6 16666 
10.5 8.24008805253e+12 63875156895 16642 
10.7 8.14432133526e+12 63091137810.3 16664 
10.9 8.06801528359e+12 62378525730.1 16729 
11.1 8.00767692365e+12 61716835131.6 16835 
11.3 7.81608757107e+12 60537640358.9 16670 
11.5 7.58548552903e+12 59198960631.8 16419 
11.7 7.42699372501e+12 58132299300 16323 
11.9 7.50600074808e+12 57944057209.7 16781 
12.1 0 0 0 
12.3 0 0 0 
12.5 0 0 0 
12.7 0 0 0 
12.9 0 0 0 
13.1 0 0 0 
13.3 0 0 0 
13.5 0 0 0 
13.7 0 0 0 
13.9 0 0 0 
14.1 0 0 0 
14.3 0 0 0 
14.5 0 0 0 
14.7 0 0 0 
14.9 0 0 0 
15.1 0 0 0 
15.3 0 0 0 
15.5 0 0 0 
15.7 0 0 0 
15.9 0 0 0 
16.1 0 0 0 
16.3 0 0 0 
16.5 0 0 0 
16.7 0 0 0 
16.9 0 0 0 
17.1 0 0 0 
17.3 0 0 0 
17.5 0 0 0 
17.7 0 0 0 
17.9 0 0 0 
18.1 0 0 0 
18.3 0 0 0 
18.5 0 0 0 
18.7 0 0 0 
18.9 0 0 0 
19.1 0 0 0 
19.3 0 0 0 
19.5 0 0 0 
19.7 0 0 0 
19.9 0 0 0 
# EndDate:Wed Jan 23 14:08:27 2013
