# Format: McStas with text headers file. Use mcplot/PGPLOT to view.
# URL:    http://www.mccode.org/
# Editor: erkn on localhost
# Creator:Test_src_gaussian (Test_src_gaussian.instr) simulation (McXtrace x.y.z - Jan. 22, 2013)
# Date:   Simulation started (1359024178) Thu Jan 24 11:42:58 2013
# File:   lmon0.dat
# Ncount: 1e+06
# Trace: no
# Gravitation: no
# Seed: 1359024167
# Param: XW=0
# Param: YH=0
# Param: DIST=10
# Param: SRC=2
# Param: E0=0.9
# type: array_1d(100)
# Source: Test_src_gaussian.instr
# component: lmon0
# position: 0 0 0.101
# title: Wavelength monitor
# Ncount: 1e+06
# filename: lmon0.dat
# format: McStas with text headers
# statistics: X0=1.42813; dX=0.270394;
# signal: Min=0; Max=8.34609e+12; Mean=2.52236e+12;
# values: 2.52236e+14 3.63617e+11 483418
# xvar: L
# yvar: (I,I_err)
# xlabel: Wavelength [AA]
# ylabel: Intensity
# xlimits: 0 2
# variables: L I I_err N
# Data [lmon0_dat/lmon0.dat] I: 
0.01 0 0 0 
0.03 0 0 0 
0.05 0 0 0 
0.07 0 0 0 
0.09 0 0 0 
0.11 0 0 0 
0.13 0 0 0 
0.15 0 0 0 
0.17 0 0 0 
0.19 0 0 0 
0.21 0 0 0 
0.23 0 0 0 
0.25 0 0 0 
0.27 0 0 0 
0.29 0 0 0 
0.31 0 0 0 
0.33 0 0 0 
0.35 0 0 0 
0.37 0 0 0 
0.39 0 0 0 
0.41 0 0 0 
0.43 0 0 0 
0.45 0 0 0 
0.47 0 0 0 
0.49 0 0 0 
0.51 0 0 0 
0.53 0 0 0 
0.55 0 0 0 
0.57 0 0 0 
0.59 0 0 0 
0.61 0 0 0 
0.63 0 0 0 
0.65 0 0 0 
0.67 0 0 0 
0.69 0 0 0 
0.71 0 0 0 
0.73 0 0 0 
0.75 0 0 0 
0.77 0 0 0 
0.79 0 0 0 
0.81 0 0 0 
0.83 0 0 0 
0.85 0 0 0 
0.87 0 0 0 
0.89 0 0 0 
0.91 0 0 0 
0.93 0 0 0 
0.95 0 0 0 
0.97 0 0 0 
0.99 0 0 0 
1.01 0 0 0 
1.03 2.90172271279e+12 35900665558.5 6533 
1.05 8.34609474361e+12 61364142297.8 18499 
1.07 8.14470889807e+12 61137231282.2 17748 
1.09 8.18862514483e+12 61789679889.1 17563 
1.11 7.95048266632e+12 61338000461.1 16801 
1.13 7.78113165662e+12 61106511897 16215 
1.15 7.58305777337e+12 60713443846.9 15600 
1.17 7.52229482546e+12 60838366664.2 15288 
1.19 7.26196930646e+12 60115194438.1 14593 
1.21 7.03933096045e+12 59379268001.1 14054 
1.23 6.89148724511e+12 59084785320 13605 
1.25 6.84805872745e+12 59240246231.2 13363 
1.27 6.60278805624e+12 58415903450.1 12776 
1.29 6.38708192678e+12 57679685933.6 12262 
1.31 6.34879890931e+12 57718858572.3 12099 
1.33 6.03476167827e+12 56463892507.4 11423 
1.35 6.09860814851e+12 56936776400 11473 
1.37 5.95290980859e+12 56416255074.5 11134 
1.39 5.74481361589e+12 55568439402.6 10688 
1.41 5.66572177397e+12 55318180218.9 10490 
1.43 5.59508807604e+12 55092655042.5 10314 
1.45 5.42784253316e+12 54373693526 9965 
1.47 5.28619576008e+12 53759187040.5 9669 
1.49 5.05672737109e+12 52665692524.2 9219 
1.51 4.96277611121e+12 52251346828.2 9021 
1.53 4.83577068828e+12 51646430712 8767 
1.55 4.8011590197e+12 51524202647.2 8683 
1.57 4.63889828257e+12 50696078034.1 8373 
1.59 4.55605216901e+12 50285597180.2 8209 
1.61 4.43512244399e+12 49651390873.3 7979 
1.63 4.29153498368e+12 48871686758.2 7711 
1.65 4.19538243439e+12 48347507344.1 7530 
1.67 4.17746648344e+12 48262975921.6 7492 
1.69 4.12640150698e+12 47981413127 7396 
1.71 3.87626278201e+12 46513293179.7 6945 
1.73 3.79705200069e+12 46039249091.4 6802 
1.75 3.80389414071e+12 46081579715.6 6814 
1.77 3.62831314142e+12 45000224430.4 6501 
1.79 3.58657475609e+12 44734434955.4 6428 
1.81 3.47767012634e+12 44038786072.9 6236 
1.83 3.51211373547e+12 44241452890.5 6302 
1.85 3.33887056142e+12 43119010558.7 5996 
1.87 3.26534628979e+12 42619682967.4 5870 
1.89 3.20282794307e+12 42186320593.7 5764 
1.91 3.15010287988e+12 41812253190.4 5676 
1.93 3.06510244233e+12 41217577552.3 5530 
1.95 2.99467904335e+12 40710980406.8 5411 
1.97 2.96928998163e+12 40504552303.3 5374 
1.99 2.88696424637e+12 39904750406.2 5234 
# EndDate:Thu Jan 24 11:42:58 2013
