# Format: McStas with text headers file. Use mcplot/PGPLOT to view.
# URL:    http://www.mccode.org/
# Editor: erkn on localhost
# Creator:Test_src_gaussian (Test_src_gaussian.instr) simulation (McXtrace x.y.z - Jan. 22, 2013)
# Date:   Simulation started (1359024386) Thu Jan 24 11:46:26 2013
# File:   lmon1.dat
# Ncount: 1e+06
# Trace: no
# Gravitation: no
# Seed: 1359024375
# Param: XW=0
# Param: YH=0
# Param: DIST=10
# Param: SRC=2
# Param: E0=4.7
# type: array_1d(100)
# Source: Test_src_gaussian.instr
# component: lmon1
# position: 0 0 9.998
# title: Wavelength monitor
# Ncount: 1e+06
# filename: lmon1.dat
# format: McStas with text headers
# statistics: X0=1.42783; dX=0.270647;
# signal: Min=0; Max=8.52918e+12; Mean=2.52521e+12;
# values: 2.52521e+14 3.63792e+11 484055
# xvar: L
# yvar: (I,I_err)
# xlabel: Wavelength [AA]
# ylabel: Intensity
# xlimits: 0 2
# variables: L I I_err N
# Data [lmon1_dat/lmon1.dat] I: 
0.01 0 0 0 
0.03 0 0 0 
0.05 0 0 0 
0.07 0 0 0 
0.09 0 0 0 
0.11 0 0 0 
0.13 0 0 0 
0.15 0 0 0 
0.17 0 0 0 
0.19 0 0 0 
0.21 0 0 0 
0.23 0 0 0 
0.25 0 0 0 
0.27 0 0 0 
0.29 0 0 0 
0.31 0 0 0 
0.33 0 0 0 
0.35 0 0 0 
0.37 0 0 0 
0.39 0 0 0 
0.41 0 0 0 
0.43 0 0 0 
0.45 0 0 0 
0.47 0 0 0 
0.49 0 0 0 
0.51 0 0 0 
0.53 0 0 0 
0.55 0 0 0 
0.57 0 0 0 
0.59 0 0 0 
0.61 0 0 0 
0.63 0 0 0 
0.65 0 0 0 
0.67 0 0 0 
0.69 0 0 0 
0.71 0 0 0 
0.73 0 0 0 
0.75 0 0 0 
0.77 0 0 0 
0.79 0 0 0 
0.81 0 0 0 
0.83 0 0 0 
0.85 0 0 0 
0.87 0 0 0 
0.89 0 0 0 
0.91 0 0 0 
0.93 0 0 0 
0.95 0 0 0 
0.97 0 0 0 
0.99 0 0 0 
1.01 0 0 0 
1.03 2.93780167343e+12 36121056285.1 6615 
1.05 8.52917616061e+12 62033213428.1 18905 
1.07 8.22753882364e+12 61448160536.2 17928 
1.09 8.210776688e+12 61875845613.5 17609 
1.11 7.9469556761e+12 61325401138.7 16793 
1.13 7.79197660878e+12 61148337056.7 16238 
1.15 7.64211885882e+12 60948456388.1 15722 
1.17 7.43330928391e+12 60475748496.2 15108 
1.19 7.24509234957e+12 60043412735.4 14560 
1.21 7.09455320792e+12 59612267490.1 14164 
1.23 6.82814570094e+12 58810368135.9 13481 
1.25 6.77768308817e+12 58934332063.4 13226 
1.27 6.66820212696e+12 58705856039.7 12902 
1.29 6.57010080685e+12 58498760299.4 12614 
1.31 6.28369451334e+12 57421986772.8 11975 
1.33 6.07696829535e+12 56660731329.1 11503 
1.35 5.99940159461e+12 56472701371.3 11286 
1.37 5.91657951542e+12 56243965557.7 11066 
1.39 5.77645421087e+12 55720907851 10747 
1.41 5.69652804637e+12 55468465522.7 10547 
1.43 5.48754392291e+12 54559947227.9 10116 
1.45 5.39400819618e+12 54203641687.3 9903 
1.47 5.20911511274e+12 53365836022.8 9528 
1.49 5.03043941582e+12 52528831687.1 9171 
1.51 4.98363357542e+12 52360781317.3 9059 
1.53 4.77019945573e+12 51295446821.2 8648 
1.55 4.7314952854e+12 51149069004.1 8557 
1.57 4.68982418415e+12 50973345580.7 8465 
1.59 4.53053364391e+12 50144639429.4 8163 
1.61 4.44175822691e+12 49688328375.4 7991 
1.63 4.33992175497e+12 49146241069 7798 
1.65 4.30288187508e+12 48962820448.7 7723 
1.67 4.15180617558e+12 48114454000.4 7446 
1.69 3.98582037463e+12 47157090511.7 7144 
1.71 3.97952947035e+12 47128863065.2 7130 
1.73 3.94609956229e+12 46934159863.8 7069 
1.75 3.75365237152e+12 45776248530.4 6724 
1.77 3.69361680152e+12 45403408444.1 6618 
1.79 3.52743527362e+12 44364113773 6322 
1.81 3.53899360995e+12 44425236903.6 6346 
1.83 3.4898322633e+12 44100958668.9 6262 
1.85 3.34997345068e+12 43190423946.2 6016 
1.87 3.31260808857e+12 42926867217.2 5955 
1.89 3.26061762976e+12 42565216408 5868 
1.91 3.15507953083e+12 41845147590.5 5685 
1.93 3.06844260386e+12 41240127432.5 5536 
1.95 2.97367784925e+12 40568181710.4 5373 
1.97 2.91291700993e+12 40118109974.2 5272 
1.99 2.8561142845e+12 39691234917.7 5178 
# EndDate:Thu Jan 24 11:46:26 2013
