# Format: McStas with text headers file. Use mcplot/PGPLOT to view.
# URL:    http://www.mccode.org/
# Editor: erkn on localhost
# Creator:Test_src_gaussian (Test_src_gaussian.instr) simulation (McXtrace x.y.z - Jan. 22, 2013)
# Date:   Simulation started (1358947070) Wed Jan 23 14:17:50 2013
# File:   emon00.dat
# Ncount: 250000
# Trace: no
# Gravitation: no
# Seed: 1358947065
# Param: XW=0.01
# Param: YH=0.01
# Param: DIST=10
# Param: SRC=2
# Param: E0=7.24
# type: array_1d(100)
# Source: Test_src_gaussian.instr
# component: emon00
# position: 0 0 0.09
# title: Energy monitor
# Ncount: 250000
# filename: emon00.dat
# format: McStas with text headers
# statistics: X0=6.90564; dX=2.9397;
# signal: Min=0; Max=9.34051e+12; Mean=4.30717e+12;
# values: 4.30717e+14 4.56895e+11 1e+06
# xvar: E
# yvar: (I,I_err)
# xlabel: Energy [keV]
# ylabel: Intensity
# xlimits: 0 20
# variables: E I I_err N
# Data [emon00_dat/emon00.dat] I: 
0.1 160784582236 1473900921.18 16419 
0.3 560963661658 4427445893.85 16825 
0.5 994869079588 7776348594.73 16654 
0.7 1.45130052877e+12 11315362067.5 16592 
0.9 1.94095913331e+12 15026934155.9 16767 
1.1 2.40199918667e+12 18628686531.6 16679 
1.3 2.8670068685e+12 22234329211.5 16663 
1.5 3.28808559924e+12 25644777891.2 16465 
1.7 3.76387092301e+12 29215127187.8 16617 
1.9 4.23666097205e+12 32724934654.5 16775 
2.1 4.5595520298e+12 35600621218.6 16414 
2.3 5.08551717368e+12 39198843227.3 16840 
2.5 5.41669132494e+12 41962907560.5 16669 
2.7 5.743672213e+12 44648437932.5 16554 
2.9 6.15994864673e+12 47601931589 16750 
3.1 6.43430591332e+12 49932854804 16608 
3.3 6.79290637049e+12 52503314626.8 16742 
3.5 6.95394432171e+12 54243513802 16437 
3.7 7.29164244345e+12 56593671387.7 16602 
3.9 7.61368887218e+12 58804586186.3 16765 
4.1 7.86555015959e+12 60669822846 16809 
4.3 8.11183080393e+12 62442837288 16877 
4.5 8.1524289494e+12 63349002703.3 16562 
4.7 8.42809479092e+12 65096950637.4 16763 
4.9 8.59566939926e+12 66355421708.5 16781 
5.1 8.62736569685e+12 67028664878.2 16567 
5.3 8.80908655766e+12 68216295169.7 16676 
5.5 9.03136974493e+12 69501258243.1 16886 
5.7 8.96666802832e+12 69620283146.3 16588 
5.9 9.07956772856e+12 70371769016.6 16647 
6.1 9.18786271611e+12 71055371619.8 16720 
6.3 9.14763844583e+12 71098103010.5 16554 
6.5 9.32945004319e+12 71961178539.5 16808 
6.7 9.29738218667e+12 71949632078.3 16698 
6.9 9.34050757203e+12 72183992215.1 16744 
7.1 9.2915287579e+12 72018699947.1 16645 
7.3 9.30476709605e+12 72056406712.7 16675 
7.5 9.27469208657e+12 71888210657.7 16645 
7.7 9.27754148668e+12 71811149093.9 16691 
7.9 9.28715245936e+12 71728870717.1 16764 
8.1 9.1886861245e+12 71195974934.1 16657 
8.3 9.16042113954e+12 70904663255.9 16691 
8.5 9.12051909893e+12 70540919299.6 16717 
8.7 8.99324269662e+12 69811757650.8 16595 
8.9 8.82781921969e+12 68910758612.8 16411 
9.1 8.95558338705e+12 69122847089 16786 
9.3 8.65506251558e+12 67655088625 16366 
9.5 8.79230985851e+12 67864725970.4 16785 
9.7 8.71402517728e+12 67220459493.4 16805 
9.9 8.4881782382e+12 65988791201.6 16546 
10.1 8.423602905e+12 65256403946.4 16664 
10.3 8.33424384324e+12 64569998352.7 16660 
10.5 8.25572861378e+12 63934961130.8 16674 
10.7 8.16933080272e+12 63188262026.4 16715 
10.9 8.02798299527e+12 62221689525.1 16647 
11.1 7.94839346607e+12 61484953266.3 16712 
11.3 7.79957020655e+12 60471410140 16636 
11.5 7.72671962622e+12 59746996883 16725 
11.7 7.60799111656e+12 58836011292.4 16721 
11.9 7.40273588977e+12 57544300410.6 16550 
12.1 0 0 0 
12.3 0 0 0 
12.5 0 0 0 
12.7 0 0 0 
12.9 0 0 0 
13.1 0 0 0 
13.3 0 0 0 
13.5 0 0 0 
13.7 0 0 0 
13.9 0 0 0 
14.1 0 0 0 
14.3 0 0 0 
14.5 0 0 0 
14.7 0 0 0 
14.9 0 0 0 
15.1 0 0 0 
15.3 0 0 0 
15.5 0 0 0 
15.7 0 0 0 
15.9 0 0 0 
16.1 0 0 0 
16.3 0 0 0 
16.5 0 0 0 
16.7 0 0 0 
16.9 0 0 0 
17.1 0 0 0 
17.3 0 0 0 
17.5 0 0 0 
17.7 0 0 0 
17.9 0 0 0 
18.1 0 0 0 
18.3 0 0 0 
18.5 0 0 0 
18.7 0 0 0 
18.9 0 0 0 
19.1 0 0 0 
19.3 0 0 0 
19.5 0 0 0 
19.7 0 0 0 
19.9 0 0 0 
# EndDate:Wed Jan 23 14:17:50 2013
