# Format: McStas with text headers file. Use mcplot/PGPLOT to view.
# URL:    http://www.mccode.org/
# Editor: erkn on localhost
# Creator:Test_src_gaussian (Test_src_gaussian.instr) simulation (McXtrace x.y.z - Jan. 22, 2013)
# Date:   Simulation started (1358947070) Wed Jan 23 14:17:50 2013
# File:   psd1.dat
# Ncount: 250000
# Trace: no
# Gravitation: no
# Seed: 1358947065
# Param: XW=0.01
# Param: YH=0.01
# Param: DIST=10
# Param: SRC=2
# Param: E0=7.24
# type: array_2d(90, 90)
# Source: Test_src_gaussian.instr
# component: psd1
# position: 0 0 9.999
# title: PSD monitor
# Ncount: 250000
# filename: psd1.dat
# format: McStas with text headers
# statistics: X0=6.97771e-06; dX=0.0100617; Y0=-1.71075e-06; dY=0.00502958;
# signal: Min=0; Max=1.68501e+12; Mean=5.31748e+10;
# values: 4.30716e+14 4.56894e+11 999999
# xvar: X 
# yvar: Y 
# xlabel: X position [m]
# ylabel: Y position [m]
# zvar: I
# zlabel: Signal per bin
# xylimits: -0.05 0.05 -0.05 0.05
# variables: I I_err N
# Data [psd1_dat/psd1.dat] I: 
0 0 0 0 0 0 0 0 0 0 0 0 0 0 0 0 0 0 0 0 0 0 0 0 0 0 0 0 0 0 0 0 0 0 0 0 0 0 0 0 0 0 0 0 0 0 0 0 0 0 0 0 0 0 0 0 0 0 0 0 0 0 0 0 0 0 0 0 0 0 0 0 0 0 0 0 0 0 0 0 0 0 0 0 0 0 0 0 0 0 
0 0 0 0 0 0 0 0 0 0 0 0 0 0 0 0 0 0 0 0 0 0 0 0 0 0 0 0 0 0 0 0 0 0 0 0 0 0 0 0 0 0 0 0 0 0 0 0 0 0 0 0 0 0 0 0 0 0 0 0 0 0 0 0 0 0 0 0 0 0 0 0 0 0 0 0 0 0 0 0 0 0 0 0 0 0 0 0 0 0 
0 0 0 0 0 0 0 0 0 0 0 0 0 0 0 0 0 0 0 0 0 0 0 0 0 0 0 0 0 0 0 0 0 0 0 0 0 0 0 0 0 0 0 0 0 0 0 0 0 0 0 0 0 0 0 0 0 0 0 0 0 0 0 0 0 0 0 0 0 0 0 0 0 0 0 0 0 0 0 0 0 0 0 0 0 0 0 0 0 0 
0 0 0 0 0 0 0 0 0 0 0 0 0 0 0 0 0 0 0 0 0 0 0 0 0 0 0 0 0 0 0 0 0 0 0 0 0 0 0 0 0 0 0 0 0 0 0 0 0 0 0 0 0 0 0 0 0 0 0 0 0 0 0 0 0 0 0 0 0 0 0 0 0 0 0 0 0 0 0 0 0 0 0 0 0 0 0 0 0 0 
0 0 0 0 0 0 0 0 0 0 0 0 0 0 0 0 0 0 0 0 0 0 0 0 0 0 0 0 0 0 0 0 0 0 0 0 0 0 0 0 0 0 0 0 0 0 0 0 0 0 0 0 0 0 0 0 0 0 0 0 0 0 0 0 0 0 0 0 0 0 0 0 0 0 0 0 0 0 0 0 0 0 0 0 0 0 0 0 0 0 
0 0 0 0 0 0 0 0 0 0 0 0 0 0 0 0 0 0 0 0 0 0 0 0 0 0 0 0 0 0 0 0 0 0 0 0 0 0 0 0 0 0 0 0 0 0 0 0 0 0 0 0 0 0 0 0 0 0 0 0 0 0 0 0 0 0 0 0 0 0 0 0 0 0 0 0 0 0 0 0 0 0 0 0 0 0 0 0 0 0 
0 0 0 0 0 0 0 0 0 0 0 0 0 0 0 0 0 0 0 0 0 0 0 0 0 0 0 0 0 0 0 0 0 0 0 0 0 0 0 0 0 0 0 0 0 0 0 0 0 0 0 0 0 0 0 0 0 0 0 0 0 0 0 0 0 0 0 0 0 0 0 0 0 0 0 0 0 0 0 0 0 0 0 0 0 0 0 0 0 0 
0 0 0 0 0 0 0 0 0 0 0 0 0 0 0 0 0 0 0 0 0 0 0 0 0 0 0 0 0 0 0 0 0 0 0 0 0 0 0 0 0 0 0 0 0 0 0 0 0 0 0 0 0 0 0 0 0 0 0 0 0 0 0 0 0 0 0 0 0 0 0 0 0 0 0 0 0 0 0 0 0 0 0 0 0 0 0 0 0 0 
0 0 0 0 0 0 0 0 0 0 0 0 0 0 0 0 0 0 0 0 0 0 0 0 0 0 0 0 0 0 0 0 0 0 0 0 0 0 0 0 0 0 0 0 0 0 0 0 0 0 0 0 0 0 0 0 0 0 0 0 0 0 0 0 0 0 0 0 0 0 0 0 0 0 0 0 0 0 0 0 0 0 0 0 0 0 0 0 0 0 
0 0 0 0 0 0 0 0 0 0 0 0 0 0 0 0 0 0 0 0 0 0 0 0 0 0 0 0 0 0 0 0 0 0 0 0 0 0 0 0 0 0 0 0 0 0 0 0 0 0 0 0 0 0 0 0 0 0 0 0 0 0 0 0 0 0 0 0 0 0 0 0 0 0 0 0 0 0 0 0 0 0 0 0 0 0 0 0 0 0 
0 0 0 0 0 0 0 0 0 0 0 0 0 0 0 0 0 0 0 0 0 0 0 0 0 0 0 0 0 0 0 0 0 0 0 0 0 0 0 0 0 0 0 0 0 0 0 0 0 0 0 0 0 0 0 0 0 0 0 0 0 0 0 0 0 0 0 0 0 0 0 0 0 0 0 0 0 0 0 0 0 0 0 0 0 0 0 0 0 0 
0 0 0 0 0 0 0 0 0 0 0 0 0 0 0 0 0 0 0 0 0 0 0 0 0 0 0 0 0 0 0 0 0 0 0 0 0 0 0 0 0 0 0 0 0 0 0 0 0 0 0 0 0 0 0 0 0 0 0 0 0 0 0 0 0 0 0 0 0 0 0 0 0 0 0 0 0 0 0 0 0 0 0 0 0 0 0 0 0 0 
0 0 0 0 0 0 0 0 0 0 0 0 0 0 0 0 0 0 0 0 0 0 0 0 0 0 0 0 0 0 0 0 0 0 0 0 0 0 0 0 0 0 0 0 0 0 0 0 0 0 0 0 0 0 0 0 0 0 0 0 0 0 0 0 0 0 0 0 0 0 0 0 0 0 0 0 0 0 0 0 0 0 0 0 0 0 0 0 0 0 
0 0 0 0 0 0 0 0 0 0 0 0 0 0 0 0 0 0 0 0 0 0 0 0 0 0 0 0 0 0 0 0 0 0 0 0 0 0 0 0 0 0 0 0 0 0 0 0 0 0 0 0 0 0 0 0 0 0 0 0 0 0 0 0 0 0 0 0 0 0 0 0 0 0 0 0 0 0 0 0 0 0 0 0 0 0 0 0 0 0 
0 0 0 0 0 0 0 0 0 0 0 0 0 0 0 0 0 0 0 0 0 0 0 0 0 0 0 0 0 0 0 0 0 0 0 0 0 0 0 0 0 0 0 0 0 0 0 0 0 0 0 0 0 0 0 0 0 0 0 0 0 0 0 0 0 0 0 0 0 0 0 0 0 0 0 0 0 0 0 0 0 0 0 0 0 0 0 0 0 0 
0 0 0 0 0 0 0 0 0 0 0 0 0 0 0 0 0 0 0 0 0 0 0 0 0 0 0 0 0 0 0 0 0 0 0 0 0 0 0 0 0 0 0 0 0 0 0 0 0 0 0 0 0 0 0 0 0 0 0 0 0 0 0 0 0 0 0 0 0 0 0 0 0 0 0 0 0 0 0 0 0 0 0 0 0 0 0 0 0 0 
0 0 0 0 0 0 0 0 0 0 0 0 0 0 0 0 0 0 0 0 0 0 0 0 0 0 0 0 0 0 0 0 0 0 0 0 0 0 0 0 0 0 0 0 0 0 0 0 0 0 0 0 0 0 0 0 0 0 0 0 0 0 0 0 0 0 0 0 0 0 0 0 0 0 0 0 0 0 0 0 0 0 0 0 0 0 0 0 0 0 
0 0 0 0 0 0 0 0 0 0 0 0 0 0 0 0 0 0 0 0 0 0 0 0 0 0 0 0 0 0 0 0 0 0 0 0 0 0 0 0 0 0 0 0 0 0 0 0 0 0 0 0 0 0 0 0 0 0 0 0 0 0 0 0 0 0 0 0 0 0 0 0 0 0 0 0 0 0 0 0 0 0 0 0 0 0 0 0 0 0 
0 0 0 0 0 0 0 0 0 0 0 0 0 0 0 0 0 0 0 0 0 0 0 0 0 0 0 0 0 0 0 0 0 0 0 0 0 0 0 0 0 0 0 0 0 0 0 0 0 0 0 0 0 0 0 0 0 0 0 0 0 0 0 0 0 0 0 0 0 0 0 0 0 0 0 0 0 0 0 0 0 0 0 0 0 0 0 0 0 0 
0 0 0 0 0 0 0 0 0 0 0 0 0 0 0 0 0 0 0 0 0 0 0 0 0 0 0 0 0 0 0 0 0 0 0 0 0 0 0 0 0 0 0 0 0 0 0 0 0 0 0 0 0 0 0 0 0 0 0 0 0 0 0 0 0 0 0 0 0 0 0 0 0 0 0 0 0 0 0 0 0 0 0 0 0 0 0 0 0 0 
0 0 0 0 0 0 0 0 0 0 0 0 0 0 0 0 0 0 0 0 0 0 0 0 0 0 0 0 0 0 0 0 0 0 0 0 0 0 0 0 0 0 0 0 0 0 0 0 0 0 0 0 0 0 0 0 0 0 0 0 0 0 0 0 0 0 0 0 0 0 0 0 0 0 0 0 0 0 0 0 0 0 0 0 0 0 0 0 0 0 
0 0 0 0 0 0 0 0 0 0 0 0 0 0 0 0 0 0 0 0 0 0 0 0 0 0 0 0 0 0 0 0 0 0 0 0 0 0 0 0 0 0 0 0 0 0 0 0 0 0 0 0 0 0 0 0 0 0 0 0 0 0 0 0 0 0 0 0 0 0 0 0 0 0 0 0 0 0 0 0 0 0 0 0 0 0 0 0 0 0 
0 0 0 0 0 0 0 0 0 0 0 0 0 0 0 0 0 0 0 0 0 0 0 0 0 0 0 0 0 0 0 0 0 0 0 0 0 0 0 0 0 0 0 0 0 0 538902052.216 0 0 0 0 0 0 0 0 0 0 0 0 0 0 0 0 0 0 0 0 0 0 0 0 0 0 0 0 0 0 0 0 0 0 0 0 0 0 0 0 0 0 0 
0 0 0 0 0 0 0 0 0 0 0 0 0 0 0 0 0 0 0 0 0 0 0 0 0 0 0 0 0 0 0 0 0 0 0 0 0 0 0 0 0 0 0 0 0 0 0 0 0 0 0 0 0 0 0 0 0 0 0 0 0 0 0 0 0 0 0 0 0 0 0 0 0 0 0 0 0 0 0 0 0 0 0 0 0 0 0 0 0 0 
0 0 0 0 0 0 0 0 0 0 0 0 0 0 0 0 0 0 0 0 0 0 0 0 0 0 0 0 0 0 0 0 0 0 0 526287834.496 0 0 0 0 0 0 522235655.941 0 0 0 0 0 0 0 0 0 0 0 0 0 0 0 0 0 0 0 0 0 0 0 0 0 0 0 0 0 0 0 0 0 0 0 0 0 0 0 0 0 0 0 0 0 0 0 
0 0 0 0 0 0 0 0 0 0 0 0 0 0 0 0 0 0 0 0 0 553090218.282 0 0 0 0 0 0 0 261130691.745 0 0 0 0 0 0 0 0 0 0 0 0 0 923450018.672 0 493036568.905 0 92587256.9697 0 0 0 536663505.359 1082016024.62 0 0 0 0 0 347274723.4 0 0 553311805.371 0 0 0 0 0 0 0 0 0 0 0 0 0 0 0 0 0 0 0 0 0 0 0 0 0 0 0 0 
0 0 0 0 0 0 0 0 0 0 0 0 0 0 0 0 0 0 0 0 0 0 0 0 0 0 0 0 0 409063211.044 0 0 0 0 554729428.286 0 0 709154166.402 1231043975.97 0 0 519043885.271 1095269122.64 513241451.999 463590197.332 542506636.163 0 0 0 461550074.47 1072989908.83 526306857.606 0 159032161.076 0 458320541.577 0 0 490317152.958 0 0 0 0 0 0 554891857.562 0 0 0 0 0 0 0 0 0 0 0 0 0 0 0 0 0 0 0 0 0 0 0 0 
0 0 0 0 0 0 0 0 0 0 0 0 0 0 0 0 0 0 0 0 0 0 545218239.448 0 0 0 0 0 0 822204406.391 1052153230.03 0 989204841.387 1433842688.14 295918401.736 106143143.708 1590622965.23 1058814891 576377643.361 921424717.84 0 558014547.92 1467269166.2 979949511.844 0 1763432616.14 139246879.658 201169815.393 985830323.196 519191921.71 1055384560.2 537960215.078 815187557.244 1656449824 557569098.38 0 0 0 0 0 0 0 0 0 0 0 0 0 0 0 0 0 0 0 0 0 0 0 0 0 0 0 0 0 0 0 0 0 0 0 
0 0 0 0 0 0 0 0 0 0 0 0 0 0 0 0 0 0 383422186.783 557940448.094 0 0 0 0 511609176.171 0 476213745.135 0 0 0 597484267.234 0 1054084111.87 0 2035259797.23 340163476.864 2075845842.53 2112605756.35 2095530870.68 1819105549.66 1905034939.25 971162300.227 3390969847.38 3192543725.6 1118991523.09 2606757681.82 1805673087.22 1939280519.73 2234486017.42 2952520901.51 0 1778202788.33 2966082036.93 1383739918.29 665271669.843 2192767531.2 840891610.261 561425326.275 1022839320.32 1028418995.94 225494100.327 323205489.188 0 1047428100.22 0 0 557690206.152 377197145.022 0 543140501.682 0 0 554557448.676 0 0 0 0 0 0 0 0 0 0 0 0 0 0 0 0 0 
0 0 0 0 0 0 0 0 0 0 0 0 0 0 0 517585294.412 0 0 0 0 0 0 545944911.4 927256727.48 558200000 479592216.154 947130490.512 673453961.577 991592164.503 781524479.866 2065749307.6 946111556.402 889218324.912 2644410793.86 3644630493.08 4491155359.84 1513899754.24 3151174143.98 5101561007.77 3983072664.78 1514595646.72 4604261556.24 1092507844.1 4003002710.25 5983932814.57 5397448754.9 6303689060.91 6260542377.12 2951781162.14 4841253302.12 5937162499.52 6062265061.25 5435931689.71 2098080698.42 3783378046.81 2387601911.31 2081805782.18 0 2383503672.51 860256618.457 959849895.281 1879591351.25 1587048950.98 0 507600952.222 0 0 509470319.486 0 0 0 0 0 0 0 0 0 0 442604926.157 0 0 0 0 0 0 0 0 0 0 0 
0 0 0 0 0 0 0 0 0 0 0 0 0 0 0 989227400.307 0 0 0 0 1044859131.22 480287581.11 382105139.187 0 558200000 553075269.423 1629620641.6 2188538876.88 5148289241.01 914606284.318 2916768492.34 3399096180.26 4794757160.1 2204293528.62 2345949040.75 3530415386.78 4376348613.19 5742082430.97 7938351445.88 6526112361.76 6806852613.08 9830613558.43 5510902514.2 9207707992.9 9207148776.46 6549956378.76 7985784569.89 8950295511.38 9104469730.35 5933761505.67 7454115788.15 6279638385.11 5809483783.94 2592683008.14 4425054452.83 6256118917.53 2687886977.69 4974995546.23 3220844476.78 3864838573.03 2915701266.51 2398397257.46 965137499.505 1109193764.26 96239759.1234 514472793.276 0 0 518194736.88 0 0 0 0 500289257.207 0 0 0 0 0 0 0 0 0 0 0 0 0 0 0 0 
0 0 0 0 0 0 0 0 0 0 0 0 0 0 0 0 0 492809540.463 557472604.849 0 1032379796.94 830006144.908 418885368.758 451368281.802 2470588976.42 2220904292.68 3584991159.24 4366477137.27 3248182142.9 4278581311.32 6533351873.89 4601248529.52 9287936459.57 7056669903.19 12925856373 13445557045.8 9573768906.87 11283798665.3 15700516813.7 19689013203 17306326434.7 15362545864.5 14606039364.9 19905095045.3 21104659401.3 18430032648.9 21143852977.3 17512865593.6 17297799984.5 16611194555.4 13812238615.6 18031885728.9 14295280174.9 12563670114.3 15733639065.2 7705972769.93 12296792239.3 9309632832.67 7301446074.66 5300907607.83 4842003262.23 3411813153.56 1870949184.73 4278650038.88 617462768.181 947127986.709 3090869060.09 1500799178.11 308848287.042 658947083.065 0 514787227.009 0 0 0 409166716.164 0 0 0 0 0 0 0 0 0 0 0 0 0 0 
0 0 0 0 0 0 0 0 0 0 0 0 0 451955624.812 0 0 0 556007781.419 0 1248149448.73 447817322.974 2136813130.54 4805310060.37 1410270542.59 5533329953.63 2011214317.95 5216087962.81 6304378632.67 10712710121.5 7921298936.88 9680393101.7 9987561728.97 18665800149.9 16078156735 19453174235.7 14170955856.7 23095328506 24334816800.6 36888446440.8 37560687914 27573019770.9 33828658672.3 31904762436.2 33256916811.5 29837184495.4 41708639054.9 42421798622.8 30145528278.1 37444266259.6 33495324767.2 26264076663 24850688861.4 25184775310.9 24773591660.9 17304727369.9 16742935026.2 22265798622.3 17150511923.3 12682583508.8 8706062968.73 12512088950 8270339846.8 6177418122.06 7331716543 4752392556.24 1861007243.07 1075311429.99 2348407617.06 179248624.879 1880723444.05 665899552.619 53274331.9349 1052420396.21 502106006.387 557123104.709 0 89288729.5098 0 0 0 0 0 0 0 0 0 0 0 0 0 
0 0 0 0 0 0 0 0 481119571.499 0 0 0 0 0 0 786074840.597 992036483.306 0 0 1317183029.5 2436686619.58 2662016743.47 3313197049.71 4649723253.93 5051619091.83 5337781270.55 6148115084.34 10222636403.7 16673907189.4 16143329627.2 27074924279.2 22037204320.2 21402889310.5 26402000635.6 32251927218.2 38644977197.8 45713811734.8 50014699255.7 58124296200 49137098770.9 56529688597.8 67677800801.4 75386172674.2 53143409462.4 68080190299.5 63260524920.7 61849762389.1 61324526744.4 62494465668.1 64947613091.4 54439603533.7 51279775451.8 41327431631.8 38227143023 30892594515.9 30221095091 32028880848.7 22429271739.5 27519619846.1 20354012274.2 16589431637.4 12528506262.8 5927084979.94 6867996528.93 9864530901.91 6675215074.62 2672020803.34 1452910465.7 1913426559.06 1665151332.98 1019438695.4 1065940261.48 0 1641224775.21 532665746.831 544586187.414 0 0 16905748.8086 0 0 0 0 0 0 0 0 0 0 0 
0 0 0 0 0 0 0 0 0 0 0 0 0 241934322.408 313023764.358 2704048076.36 457974297.318 1170425632.05 1671060905.56 2029936293.18 1808218053.49 4251822808.09 6230533157 6067489294.77 10737759838.1 15652852154.3 9767031921.25 21901863589.7 17486249225.9 26612028724.3 33613245156.1 34365408712.3 46790230753.3 46435617666.2 54977593837.1 60867094987.4 66657330022.4 85812115070.8 78585406046.8 75523375067.3 94900247061 99930654327.9 110638214226 116959875900 115659282351 122565053791 114879888087 117043963680 107351067441 106277819759 92352078107.1 82278071093.4 71897352465.7 80070799700.6 66991892136.7 65196865755.2 54672327574.1 42563975398.1 36657337651.5 31951714625.4 26571175176.9 16571164472.5 20276396857.7 16834040526.4 9971173935.1 7347253635.77 7435867364.8 2748486150.5 5398853478.94 1937995787.85 1790569786.88 1507771751.43 0 2078886906.04 526723994.389 454152531.56 0 0 0 0 0 0 0 0 0 0 0 0 0 0 
0 0 0 0 0 0 0 0 0 0 557776024.1 0 169032581.831 0 1070544018.49 0 2209653409.39 2039312258.38 3522741260.78 3285351396.23 4909581407.45 4274480879.86 11434058804 11299539943 18655750555.4 18028064375.4 23355117226.4 28573008313.5 33692861815.7 34075130537.7 35868586301.3 62462477348.7 62680523458.6 88329784885.8 95129992746.4 117345109075 112881020570 145093582945 150366783286 150074715188 177268097914 168884106214 194253174659 179875154105 185171095607 177627213120 182656954526 177916445444 172512250182 166646972003 149158256826 145372581187 121234281244 120388730514 110242670849 95122840418.1 95721774433.1 71477696022.8 65189038179.7 43748728748.6 53658459867.5 37772892869 26279094695.8 21860641073.7 14723378545.7 12477492736.6 9607195251.37 8306602402.3 7253502186.64 7144960697.02 5000783219.27 1717116280.66 496694058.793 1563158615.21 2290847079.4 2022991532.53 0 1205675527.83 0 526723778.826 460443230.305 0 0 491000731.942 0 0 0 0 0 0 
0 0 0 0 0 0 0 90478924.1078 0 517174478.565 0 660397647.932 432759271.353 509621532.389 1614513832.25 2034346230.72 2810662482.6 3149470408.89 3731777082.45 4083467279.27 8430391671.82 9058577164.03 10121321441.2 14999898150.8 23165915260.5 34101743137.9 40938451136.8 42600713947.4 53740958453.5 62799729529.7 83674362862.2 97833171422.9 96358839466.3 136938490341 141659846923 164383276081 186773624437 205345130971 229083613196 234777144738 258992783055 270277414640 254490112156 282392784421 291380403781 280078508110 271947369751 282950007586 251842374529 260469147860 238421008233 223238793681 195661739202 170652751049 170297770997 168913896435 119847826561 111611868731 83406373283.3 77416351609.2 66523226732.3 60607297458.8 34245066056.6 37283428862.1 29094645279 23777400071.3 18204118191.2 16324610441.8 8527396402.95 5693800402.44 5476555818.69 5356235314.96 2694918767.12 358896107.897 1645337913.04 1353840112.46 557874246.176 1046018290.96 0 0 0 0 0 0 0 0 0 0 0 0 
0 0 0 0 0 0 0 0 0 0 0 0 773064964.724 0 1389787722.08 3467682127.25 3382180727.23 3895237003.67 5362085845.15 10749183403.6 14458447912.5 13721269201.2 20893201688.8 23725867664.3 31902586760.1 46972898850.5 51950806884.4 63015964933.8 68164998765.3 100711123532 113004881720 136018175828 173901201357 193384213284 232558115365 241773226677 263727884861 298931304076 302138113930 336931730766 359690109063 383755582348 410477463888 433111459743 424227399584 412240092298 434033294174 415561980430 400648746860 376734890936 342621301753 326938729252 318731908598 268718781495 242561343469 208056086680 187147189881 172345351571 150295487561 113953245776 87671859919 86210126440.8 66787808904.8 49222018293.2 34504775467.1 36104585759.3 28675742943 20004067261.2 12304376885.3 9766542567 7290603633.18 5284102392.6 4750557502.92 2805179851.8 1636730336.95 0 1058838728.92 399262420.905 0 1911609438.17 0 0 242556305.284 0 0 0 0 0 0 0 
0 0 0 0 521250756.07 0 0 470676195.56 0 1009676639.02 0 1017713591.71 383549735.139 1370239055.13 1078022662.87 4905221379.06 3941794321.22 4336373337.96 5697823878.01 12199317710.7 15611145985 18328897265.6 29763535301.2 37433358930.5 43062091220.5 57774661610.6 89603752557.9 81347879454 113367524426 148854697466 165211231171 176796512467 220448567653 268751474501 292777626274 325046572660 385656260536 421162409043 450149546746 491406191444 516103009344 574150099664 562665519444 605519070025 598292409581 597706482513 601066509772 587688772213 579502936662 526581784194 509079824044 445954130729 447015460644 388754149616 351036065063 300916714105 268786565525 219146016317 188779355504 153223290214 135801808107 97345682576.9 87065167221.4 77678796238.4 53882452232.9 49941967041.2 42435017275.3 26917927280.8 21044784154.1 17280064901.1 7970587470.62 9071123050.44 6560143115.47 3739209512 3310841375.03 3061353710.71 557169711.12 941646350.784 470896697.504 0 467173275.726 0 0 0 0 256466603.311 0 0 0 0 
0 0 0 0 0 0 0 147206380.794 0 0 66362884.7239 0 1173699495.83 1604126408.1 1040286354.26 5228616373.87 5902041875.98 11740644680.4 11970546825.8 13371885436.6 21832834553.6 27380120971.3 38039940843.1 47456066537.1 61861679160.1 81542396231.5 106594755203 123814731409 155523395617 191788056568 225396053325 257903293106 310299641012 352646948860 409774409130 429739525260 494057742372 571460277771 621054733917 683150779332 693682371720 765410480663 778657016823 808917752121 795764669652 828636302960 792495260160 783461950900 758263979267 721413956710 668598728074 624359706785 555418877292 515256208393 453540079660 379089888458 373288901696 308690383906 279083058934 228900157255 184799263471 163350532797 121868916613 88504824389.9 89297622702 55124089866.2 54135723117 41637922279.6 27349861031.7 22111595210.7 11519591244 14616190866.9 5500332050.64 6317329352.51 5322903678.61 997038418.405 805572843.283 1473987008.84 1810780451.5 185805723.643 0 0 0 0 0 0 0 0 0 0 
0 0 0 0 0 0 0 557035191.456 0 457251403.765 31663547.2536 0 1216048772.02 4650175407.63 1229362938.72 6246846446.95 5726548901.84 8109211532.22 9999876623.36 22456549522.5 25190098413.4 32282001938.3 31107312516.6 61611418834.8 86103274996.1 96005671273.7 145050569060 143547535676 177116076286 233284681648 282158562181 339184087010 396475422867 421879937375 503873720289 573926888964 662953962963 725241238862 798190609366 851325370843 936954956195 966643777098 969342979530 1.01232593338e+12 995977991046 1.02818964332e+12 1.00985492357e+12 987811491251 962997048772 915698748629 865681418534 799825822322 692959103465 682418089081 579679287240 528928789750 460172451926 389295158409 339438922410 296041684844 246345994390 188114875666 166359829290 123250334622 101117014654 91087781016.1 63650088884.1 44653930665 28542966063 30630329980.6 21162094990.1 14642207583.3 12392296636.5 5442755303.05 5388880873.96 4420451493.83 1578935294.23 1755047101.58 1562443172.59 2294555972.57 467987662.457 0 0 0 0 0 0 0 0 0 
0 0 0 0 0 0 0 0 1113808863.74 444211297.555 478193909.329 444058851.81 1265279722 2745391745.47 3911591007.83 7474874545.75 9304195728.16 12736584692.6 18593523069.5 32385518160.4 28664913212.5 44342791600.7 56088172787.2 71337175851 94996187155.8 141277147993 160773964803 181930719394 247120762961 280051486211 357193199141 414208748226 470203871465 583027656123 629064975381 750467040918 811683322207 901532468762 945115491584 1.01092085968e+12 1.08053287577e+12 1.12981000648e+12 1.15864196338e+12 1.26934634414e+12 1.22590438451e+12 1.20233950442e+12 1.21866435023e+12 1.18559274675e+12 1.15241252249e+12 1.1218883581e+12 1.02677871078e+12 955437767862 906784356627 807917250526 727359853350 671368435148 560078259215 489676644202 397648694926 344284687608 295464930132 232210201270 199168527471 157403949518 123795874885 107318419406 65769480821.3 58534658068 41397068941.3 37802188858.4 20749509988.2 14718910476.5 9830486798.86 4946762416.22 7153021264.98 4638393528.38 4927098115.79 3344233017.25 3164817893.21 960506413.298 0 718433220.961 0 0 479012226.956 0 521727366.573 0 0 0 
0 0 0 0 485119325.408 0 0 0 482958280.959 1104743688.03 611128890.483 2659665735.71 3360211606.48 2574754398.84 6376406366.84 7241304678.85 8600330431.3 16842995339 18410114551.2 24592093574 30445179585.3 47698123712.3 59157122065.2 82399912138.8 112396642755 150277474012 169890693657 236353984621 264368408635 336831840616 406160061539 470423309282 548810946203 614219792175 721641691611 838459685648 908095513181 1.03597609081e+12 1.0781678933e+12 1.21672647464e+12 1.2338825695e+12 1.33763677675e+12 1.35806301381e+12 1.34836927558e+12 1.45013979541e+12 1.40403268433e+12 1.418048863e+12 1.39811574539e+12 1.3592390013e+12 1.28971052671e+12 1.24052455918e+12 1.11499425795e+12 987597465658 924508267703 829183419318 722432676323 661244094386 567227506954 462152969627 409874099336 340920315856 278614389772 223249069623 178894282065 141616175040 117010949661 86362284594.1 59625035681.3 41989701041.4 35498775795 27920439987.3 17156456059.9 12546934715.4 10444132833.4 4347184603.05 5024648966 4887537836.4 943696992.459 281778312.912 199514423.945 23002730.7387 0 0 0 0 540790940.562 0 0 0 0 
0 0 0 0 0 407834031.434 0 208343089.775 975204697.309 772746772.345 1039781773.6 1451239736.11 2914716769.77 2058747646.03 4812254806.1 9544642591.55 13682870153.9 16311759412.3 21594721623.8 25266875559.4 42641018827.4 61746854564.7 69791245906.5 96509860004.1 115636434497 160065683330 189272887927 254421065653 335890280485 358964415095 436879927801 522107662210 616197742355 702680688836 809566895593 894119850757 1.02042367115e+12 1.11251177836e+12 1.23970498966e+12 1.24672556613e+12 1.41408193347e+12 1.48271464135e+12 1.53072569368e+12 1.50597633149e+12 1.5402348558e+12 1.57161264842e+12 1.53083340406e+12 1.5368013954e+12 1.45855550533e+12 1.40686789146e+12 1.33359287976e+12 1.20961200526e+12 1.10535032991e+12 1.05237269849e+12 945388370008 802568993455 711342015703 601517637887 488402844021 445639729818 367111468152 313841522854 240687805078 191922198189 148720418230 121642526236 94140051941.7 64990413431.7 56564502636.7 36792157642.7 24981799901 20619899769.7 20806603907.8 10498561989.4 3483678977.77 4936779640.79 4173215872.35 4247823944.3 745119363.061 1619428221.09 859098104.423 281372591.476 0 0 0 0 0 458005333.698 0 0 
0 0 0 0 554646661.825 0 507548234.759 0 0 555981207.875 2222756456.76 2153437914.13 2240977305.74 4126754890.3 4585963843.78 5349095857.3 7934766639.04 17644696946 23367340623.9 32084764017.4 47650886113 57503744823.8 66992871313.2 118277608419 128754811239 170154219653 205330735540 272910412718 335299044706 396682252213 456416813413 529049199288 641688460843 731703725630 844336145549 955905084195 1.06133317101e+12 1.26260458471e+12 1.29079544886e+12 1.34412636074e+12 1.48550326483e+12 1.55588759287e+12 1.5958394627e+12 1.59650044377e+12 1.60959701261e+12 1.57546079069e+12 1.63233627915e+12 1.60668803879e+12 1.52565983119e+12 1.44421690992e+12 1.38087981118e+12 1.29678403574e+12 1.19907198246e+12 1.06605287034e+12 973040710976 834981355851 710415211269 630861772728 535074679551 481232543394 389805885171 330648211211 251512558633 208913541784 149603059676 122603485825 80117573713.6 76620035276 65007422898.3 48903522488.5 32895736180.3 25508163014.1 17948254859 9286611451.78 6596037140.48 6663473822.06 2579975827.74 1544474906.41 2659271321.87 765876570.737 542665666.748 1309152025.97 508450005.583 550881981.473 0 0 0 0 0 0 
0 0 0 0 0 0 996403101.906 464544648.294 553877573.674 367970844.725 2142484796.44 761790835.889 4156627335.32 4370870911.26 5792036553.93 8480235873.71 9784730195.73 22470179563 22083938922.5 27771366556.8 41948704145.3 52590936492.1 75300073152.7 97868574456.5 143741910905 160133722699 210669898809 241966520208 332505782089 370210014342 481042353865 525090268944 663135954301 743587753531 879469366214 932146431050 1.04979293791e+12 1.19166971895e+12 1.35149713062e+12 1.38431743668e+12 1.46635625553e+12 1.58091962186e+12 1.56801820429e+12 1.58550571608e+12 1.63053431256e+12 1.60022078442e+12 1.6850052916e+12 1.56492162436e+12 1.57908506175e+12 1.42227511131e+12 1.38290051035e+12 1.29455159638e+12 1.17166742386e+12 1.05166385925e+12 953355468647 834273014332 742209049501 659480482196 566668659309 488093429644 372278123347 303022718856 246011006700 190634844535 161803157373 141082362155 95305270201.6 68020815691.4 57748389053 49704160609.9 36575060747.9 22975549378.7 15362502552.9 15304703423.1 10201339934.9 4529826749.29 3002314549.66 3637456457.24 3265215634.82 1023973434.3 1014017045.74 0 0 0 0 0 0 0 0 0 
0 0 497759655.886 0 0 0 111769171.771 0 533895542.097 0 1227752564.75 2292961865.15 2641693948.73 3031735402.87 6537166063.68 7109895970.45 7292216572.72 13877453055.3 20065218233.3 28670262145.3 40029895290.5 50665883576.9 73197048210.6 92077555107.8 122135518654 145634339941 181070568363 222839387725 297502662469 369524177487 438482284239 523186695441 621938392683 705855520666 810450039553 926527213688 1.02730682012e+12 1.11652474445e+12 1.22211629546e+12 1.27507225185e+12 1.4151704387e+12 1.50831934428e+12 1.56419964502e+12 1.53801410281e+12 1.52989575342e+12 1.55546454333e+12 1.60465208904e+12 1.52081468063e+12 1.43719795463e+12 1.41844888866e+12 1.36855552053e+12 1.19676453411e+12 1.16527026025e+12 1.01915807972e+12 911908228173 801441300100 678120854051 601725328269 505720700023 437925729842 356160381614 301554552832 240326324223 191172838332 153646599686 123133645823 82313885169.8 64968104878.3 46382466234.7 38914437433 33404228191.5 25829980667.6 14151699285.5 9957834684.65 7543105665.73 3274716665.59 4467773226.93 2046908920.67 1463197134.74 1465993382.64 899272584.178 0 0 539710412.027 0 0 0 0 493707120.299 0 
0 0 0 0 0 0 0 612294258.389 425435080.458 823805509.245 1663271029.77 0 2314874309.97 4710921809.36 2865724973.96 7099240821.79 10780209223.3 11232047003.4 19218326025 22329987321.5 36002073293.4 53597172814.3 71712183066.2 84434089802.9 115864519568 143398228450 167411506973 220749382385 269090776071 311718752589 412290667191 456088662459 536002229476 633373476802 732773108389 852780792651 933099191192 1.02116992612e+12 1.11086339397e+12 1.22407778306e+12 1.30234603367e+12 1.40120885191e+12 1.37677706572e+12 1.3743536593e+12 1.41350165737e+12 1.44124099555e+12 1.44046089176e+12 1.41386944143e+12 1.32159880506e+12 1.23906511311e+12 1.22905041013e+12 1.16843797024e+12 1.03844212894e+12 886502229399 822842234603 712630573487 661381903710 558258991647 461814332121 426869421828 357799635098 260207445442 227126070814 176366345684 136797943434 93395218504.4 83628031334.9 69159154255.4 47206908980.8 31951087941.7 25931853019 20661358256 14304283719 6780512708.76 8118003822.74 3318181063.57 4144505167.07 2516275383.22 1381784588.59 1275995393.43 564307809.154 1179040615.31 555062513.068 0 369686029.798 0 0 0 0 0 
0 0 0 426106625.468 0 0 0 0 1289644770.23 408230065.922 543076574.04 204000833.776 804535884.633 2058049930.25 3745525674.42 8881645904.49 6469677879.23 15659577100 24456364787.6 19330342307.8 33134827685.8 55830195415.3 66996086965 71947514414.1 94818365422.3 128436722994 159095683078 182305321261 244359223986 290270129926 355833393204 401333476132 503417846220 551140511606 654453013770 698236323173 807131302083 880186932965 955852552398 1.01209088017e+12 1.0903982678e+12 1.18286987755e+12 1.15772433651e+12 1.2378085052e+12 1.23815639702e+12 1.26372834017e+12 1.14500126831e+12 1.1943601802e+12 1.1488093298e+12 1.09666380252e+12 1.02606976547e+12 987427160130 885737874050 801290940859 725069732489 638242873541 561850624367 472118610058 409359786473 330191731302 278867078864 245513537330 185054322197 150147702162 132015901880 96138046163.3 75167036035.5 57793767999.8 40201276782.5 35025218232 25739289890.8 16189734065.1 12081583767.5 6262226926.78 9955877994.87 4921538485.8 3620905276.31 1323535049.88 2075504367.43 3266108261.5 1017584738.36 1385933042.74 0 0 1518375973.19 0 0 0 0 0 
0 0 0 0 0 0 0 0 0 0 1277907082.84 511589493.848 931040644.895 777118244.211 4039010436.04 3818355009.82 6449925047.19 7693036385.07 13792005928.1 18194994185.9 29911587829.8 31631729895.5 48416056045.7 62776280831.5 85838919952.2 107033532250 129471041047 160741175976 197184521802 240669046963 276917351723 337357336085 393657388736 471845906455 529812267666 584173667261 666613691549 719631956420 748601392335 884829590101 904439038485 919977176297 1.00117002547e+12 996967885115 1.05363395995e+12 1.03918043166e+12 1.02192243087e+12 941960011097 916389956274 910179159669 844882659666 781368136574 731557975969 623596696705 593952147725 523208797194 444922364698 402942902155 340200080317 278519119812 238117595304 198769745566 158939829782 122694352993 109826008873 71868618119.6 62984250861.6 51020893867.8 36970495985.5 28748312061.7 20054335873.6 14373533421.8 9652552463.39 7466661656.59 5205854042.74 2517876989.36 2006413559.56 1391002211.87 1372901000.01 519820219.737 383861848.667 0 0 0 0 0 0 0 0 0 
0 0 0 0 0 0 0 0 0 129081668.821 0 1466594059.22 500866955.882 1031842340.43 2290847310.73 4007021530.72 5680719184.75 11223877045.6 12160312049 15250468463.9 19847458509.6 32618346445.9 32906699113 39781940411.7 60649303125.1 72378557618.4 93682849234.3 123130212198 153151067926 188445572493 222965058447 270709271637 292552473966 332132632859 416623290093 469234202387 484320903263 588187128340 629032295289 676062558102 724773380831 763752143585 747603698210 793890292109 788794257907 800948822363 807650715237 755322833708 724812580635 695515679649 657030081145 601213741769 559634179287 540490317446 481816713682 437669563569 378100891264 317357705894 249081920716 227055095328 195810718039 150627538838 119174089982 90245001693.1 81686979012.9 65277944045.9 46290343291.8 32826814906.6 31710843292.5 19148229981.1 18879066700.3 11840220892.4 9720595122.41 6935521883.39 4267942894.63 4964596372.81 655311445.447 1479123619.34 1279512434.52 1005495640.24 721015291.995 0 0 0 0 0 0 0 0 0 
0 0 0 0 0 0 0 0 0 0 485729807.231 1489881389.59 629773786.847 1019324524.92 999591555.205 1909790040.25 4381263366.22 4543368011.27 7701051147.29 7127295486.41 15518014448.8 19797344286.4 28828799118.1 38796436073.8 42049380694.9 51859973014 78442076972.7 89894079699.7 113894644784 142129513081 173548266579 193334400930 233859645467 273391381154 288688561736 357105273841 378837852320 421663907546 486742512730 472448085694 542200833410 576802160663 584562835973 536131512410 593756683420 579681660729 588568028521 555280292659 554119590696 560768204934 504800238059 455995877578 437464072172 385274654385 343532513746 301369649720 257143658659 220037755712 198143614934 165409670767 140335612891 126295160622 96002504855.8 72275703231.1 57247098738.9 36183583986.3 29171654571.6 19065461603.5 19897407966.1 15637010247.5 10404284866.2 5542294748.25 9788771069.2 2495546156.25 4794243734.51 1580201615.8 901641246.85 1413879377.68 0 0 448547625.238 0 0 550179591.56 0 0 0 0 0 0 
0 0 0 0 0 0 0 0 0 0 537983421.614 892342100.925 919217985.365 1520854316.92 1029973968.52 3015393102.85 1912662435.75 3720082653.97 3619179614.87 6627009997.47 9870919839.82 15334490271.2 13890057232 19286890630.6 26320118313.8 40805331579.4 52195318454.7 71808748977.8 78350712118.9 81493566485.2 128689888811 158899447420 169198075190 165426634581 205553557172 223521186293 275287105846 305843635518 370134821570 330091728408 374118123979 386990242082 401840765631 406871900222 451270416600 423863503737 400090150712 408198088172 401569794673 377540642466 360018583020 307977996463 294242050003 273062689528 241485771221 214675393932 201725275810 175815959918 151366663518 120347330169 94062716367 84654250326.2 66694347190.3 54102125438.1 45602516798.3 31379484920.4 17963880063.8 19216835982 15137960749.5 11125819275.3 10235186746.6 3079987635.93 4871677921.27 2668277357.26 1501249495.3 1380480447.11 1667802545 552544960.79 0 0 516948742.412 0 0 0 0 0 0 0 0 0 
0 0 0 0 0 0 0 0 0 557001209.243 294579629.298 442434715.049 0 882739013.293 121137477.774 435377223.034 1276615175.08 2289897698.19 2588230785.6 5430829329.86 4566213120.53 10827615232.5 10698055507.9 17997346678.8 24428129880.8 28720728832.9 37995954599.8 45786044210.2 49099290457.6 64432751564.3 79693938205.9 92538437533.3 105780537210 120193578738 151248082086 165206618570 174923058120 220875336471 225491641171 246432225782 232249106621 259731420063 275483836254 301230426419 287812219164 278961785518 290369478601 270289154717 263026831229 247862403113 243959600245 211831970293 207274378341 182339663656 177285507201 144096038150 134617549198 104273687956 94195708581.6 90829514562.8 71043757069.8 49508807986 41608926337.2 34020906982.9 25614668643.1 22790490756.5 16045798385.8 15106147659.7 9377017653.49 8031886350.97 2507257898.18 4438320153.82 2606127973 429303356.772 1426016522.4 189100566.955 1009924320.73 0 0 0 292205211.062 0 0 0 0 0 0 0 0 0 
0 0 0 0 0 0 0 0 0 0 0 0 0 288098147.205 0 549660180.079 984359013.917 1573977362.19 2854937384.87 4360838822.92 3870137524.42 4826419476.26 9129164782.59 11512083727.2 9299964145.37 21172721018.5 22458136190.6 35294262038.6 30079821366.1 42150283122.5 48803302028.5 66905420073 73575060124 91111410952 105273982441 101082290008 122788677897 117163953717 140355197195 140967757354 150804010728 174485617198 184206262625 179163153413 190647981530 177963323099 184698216242 186329707664 173004452201 157463668257 158978593835 142901063023 138516448435 124410487949 104938824342 91091736630.5 82078551736.8 73208970061.2 62013028285.9 53296823209.9 43577107188.1 36036121118.1 31381941862.4 22608883409.7 18113416683 16936068625 9084216607.89 10701872496.2 6434066349.23 3941759860.49 1795412554.23 3444911878.03 2402078182.63 1267373310.01 0 0 0 549149835.117 0 0 0 295710770.024 0 0 0 0 0 0 0 0 
0 0 0 0 0 0 0 0 0 0 488555700.753 0 481011825.159 0 0 0 479773406.795 511086105.203 1972228745.81 4279203891.65 1547126811.78 2626451234.58 5445241327.93 6707795191.22 10063891527.4 18457463411 13221804117 20551817899.6 23408039829.8 27906523010.2 36401051142 32213101238.5 45924406294.3 44214037176.4 52508666649.1 67641608759.6 66709829730.1 66956600619.1 85624066159.8 90250561942.2 95209719893.5 98223059754.6 119299263660 94251654548.3 122706130460 112490027754 101946263775 108385072782 98849413371.1 111330773968 94956917678.3 70874097088 80558402739.1 76750678830.8 72394795016.7 65459375161 52972706866 51724724418.9 40240284791.7 31354757631.3 26941373350.1 22440546378.9 21944373245.7 13640066564.5 11221913594.2 5270002336.52 4417050266.69 3702411588.39 4743743746.6 3797563695.24 3619874500.51 1227800779.34 1439676702.84 509986675.821 554096169.186 1358777265.82 0 0 493703293.132 0 0 0 0 0 0 0 0 0 0 0 
0 0 0 483117153.66 0 0 0 0 0 0 0 0 159407762.934 0 0 0 985937525.668 0 45413260.7697 1082012711.37 2546130083.39 3224112082.34 2938978596.22 3492296028.82 5234017479.76 5917072833.4 7989148051.3 10056204473.9 15466990706.7 12970609846.4 21316034125.3 24096636690.9 31896864328.9 27128852953.6 31445125646 45130260220.1 38062893690.5 46813847064 48030787128.3 56135841194.8 56954548904.5 64982011259.4 58292526765.2 67693909966.7 77431493947.3 74956549974.9 65210342100.2 60080283399.8 58430728473 61152681881 48554730743.3 50550120596 42730650179.7 50022931229.8 43286927974.8 29091463510.4 24916767823.6 20645355867.5 22037163948.2 18331370110.9 12889985936.2 12689002361.3 13439393577.6 9772115821.78 4784959084.2 5138822353.25 2842612539.82 2870344410.25 3156105650.03 1849221936.48 1750867052.03 1119176135.5 0 525116367.764 0 289786948.778 0 0 0 0 0 0 0 0 0 0 0 0 0 0 
0 0 0 0 0 0 0 0 0 0 0 0 0 0 48577847.6697 0 0 0 0 916256457.939 546289801.833 986903699.875 2030541728.17 1099538153.16 1732297193.23 2159292368.38 5709081633.23 5008342904.26 9310027960.22 6348794827.64 8543989300.25 10308131005.7 14983990788.5 14064241643.7 16589679616.2 20149060942.5 23486908172.5 22596345592.7 27619544459.9 27684175767.3 27844189612.7 38117834175.8 39044166235.3 30676784919.9 38917317488.8 35983427994.1 39113447945 36406295590.7 35647037862 35993960171.2 27821385284.1 25056423827.5 27268211387.6 21835629050.5 17561886378.8 14021028812.7 17285862131.7 17893593683.3 11109951517.7 7924736604.2 7928497212.75 7338680930.76 7422421866.09 3016990536.44 3995887288.43 3085957370.71 2670788483.95 863069465.4 0 0 3913381.17524 0 1105667312.81 1108150570.29 0 0 557543373.86 0 0 537113378.857 0 0 0 0 0 0 0 0 0 0 
0 0 0 0 0 0 0 0 0 0 0 0 0 0 0 534128450.716 0 0 0 0 1193622749.45 1471171726.21 1100952840.72 1811555124.34 1440935180.31 2507375831.24 3453410418.88 3968962280.45 4034291769.73 2314212809.11 4615190996.32 7430184020.43 5807394277.86 7559572903.36 6368012840.07 9903402825.89 10295052604.1 15190439114.6 18615484271.3 12691394790.4 18455253985.3 18171745724.1 22177966981.8 18666926383.5 19526879719.1 23704313813.7 12104487670.8 17400985592.5 14911732649.6 16793386138.4 17969873311.9 16652304327 17633744298.4 12085408943.2 8639861257.28 10948053824.6 6569841078.67 5134317026.19 7992157165.65 6000960852.91 5816700931.02 2572436528.39 3213456412.81 2461954782.45 1144564619.51 1349855067.06 465349178.159 961260276.709 446931086.852 1405157248.95 1003309950.49 0 0 0 0 476014591.774 58374564.1903 0 0 0 0 0 0 0 0 0 0 0 0 0 
0 0 0 0 0 0 0 0 0 0 0 0 0 0 0 0 0 429359263.529 538552811.137 0 485695516.356 0 0 537421254.127 320510609.751 1483241632.98 2035333461.84 2374826811.55 2282858864.17 5839792703.46 1675325971.69 642473579.617 2686051335.29 3953645443.16 5269091540.49 3504213203.74 5063380490.57 10857676713.1 10343705642 7584670671.33 5011663115.15 7486776087.3 11232476592.1 11583574556.8 8492618339.85 9946140194.49 7545859243.23 8930106804.52 10368825536.6 6301289278.66 6820149859.49 6267295438.37 7000556911.93 9357937048.74 6289689619.67 5282917327.71 5502152846.42 5127693686.87 2312595905.38 2757926957.29 1600764486.21 1162407336.35 1569402336.97 864516959.865 1038846064.77 906854233.231 1049451978.28 475493289.22 656152500.124 244805846.862 0 0 0 0 0 0 0 0 0 0 0 555135411.588 0 0 0 0 0 0 0 0 
0 0 0 0 0 0 0 0 0 0 0 0 0 0 0 0 0 477301957.379 0 0 558247804.894 487642284.815 0 0 0 540004189.067 599355135.45 0 320912171.739 1199550364.62 967597600.356 2094300257.84 1102833592.71 2925186096.24 2188967091.36 1816501571.29 3020275338.93 4587235485.59 3588441940.05 3176742925.38 2115730067.8 6279953502.61 5259056030.25 2098549922.79 3481260825.07 4146175259.77 3775828996.89 2805750367.45 3020025082.38 5147206928.42 3479209211.01 5968841561.41 1910706615.37 3406746363.46 3381622703.03 2041798677.5 2943062207.07 1632810344.94 499443071.852 701231802.73 1501928984.9 1661520220.14 878108660.631 1193949640.79 1245233259.74 1788149036.88 551105203.055 0 0 0 0 0 0 0 0 0 0 0 0 0 0 0 0 0 0 0 0 0 0 0 
0 0 0 0 0 0 0 0 0 0 0 0 0 0 0 0 0 0 506748667.231 0 0 0 0 0 0 0 1106197654.02 45469743.7702 538967043.599 798297055.045 494298351.336 937267330.79 1008257522.49 1063954678.79 1606509157.83 2305083352.32 2125352997.46 2520617327.97 2874911974.64 2857560440.18 1093391378.5 5796215772.02 4180731129.28 3876844445.08 2039069870.49 3241526411.38 4023835480.9 2666710065.94 3971064421.95 399240867.611 2988416027.55 1242832863.46 1990907761.69 2594595802.98 1254486211.61 209852336.236 0 1453833155.43 331693162.897 692864581.233 548461460.472 0 0 0 0 537307810.17 0 556393883.315 0 0 0 0 0 0 0 0 0 0 0 0 0 0 0 0 0 0 0 0 0 0 
0 0 0 0 0 0 0 0 0 0 0 0 0 0 0 0 0 0 0 0 0 0 395527846.348 0 498345636.295 0 0 0 0 398721464.643 0 0 1025892693.83 0 1112875038.72 497952355.639 0 1506349339.23 1261726912.51 506736271.508 1010084855.67 1627207273.35 1202983650.76 1400945756.79 914883218.315 1184692233.23 0 1585476260.96 1778728063.8 1449885343.88 1018997006.26 790049746.625 488973557.169 712180054.556 0 0 0 0 0 759859204.115 0 211285828.605 0 0 555265508.146 0 0 0 0 0 0 0 0 0 0 0 0 0 0 0 0 0 0 0 0 0 0 0 0 0 
0 0 0 0 0 0 0 0 0 0 0 0 0 0 0 0 0 0 0 0 0 0 0 0 0 0 0 0 65959837.8028 0 308379794.025 0 0 511207430.118 0 0 0 548065565.512 1038971785.98 0 0 0 162493338.393 553657702.569 0 839411287.168 0 155871669.362 1046684315.33 0 286754765.012 556909498.945 542738312.347 0 1063104850.69 0 0 0 0 0 0 0 0 0 0 547151565.4 0 0 0 0 0 0 0 0 0 0 0 0 0 0 0 0 0 0 0 0 0 0 0 0 
0 0 0 0 0 0 0 0 0 0 0 0 0 0 0 0 0 0 0 0 0 0 0 0 0 0 432658106.056 0 520887734.541 0 0 0 0 435638795.211 0 556229206.947 557078764.473 0 0 0 167551583.511 549384899.66 111761650.288 138268400.281 0 0 542820373.36 0 450886180.621 0 0 0 404119245.022 0 556657910.587 0 0 0 0 0 0 0 0 0 0 0 0 0 0 0 0 0 0 0 0 0 0 0 0 0 0 0 0 0 0 0 0 0 0 0 
0 0 0 0 0 0 0 0 0 0 0 0 0 0 0 0 0 0 0 0 0 0 0 0 0 0 0 0 0 0 0 0 0 0 0 0 0 0 0 0 0 0 0 0 0 0 369105116.117 0 353977672.105 0 0 0 0 0 0 0 0 551105662.231 0 0 0 0 0 0 0 0 0 0 0 0 0 0 0 0 0 0 0 0 0 0 0 0 0 0 0 0 0 0 0 0 
0 0 0 0 0 0 0 0 0 0 0 0 0 0 0 0 0 0 0 0 0 0 0 0 0 0 0 0 0 0 0 0 0 0 0 0 0 0 0 506457121.216 0 0 0 0 0 0 0 0 0 0 0 0 0 0 0 0 0 0 0 0 0 0 0 0 0 0 0 0 0 0 0 0 0 0 0 0 0 0 0 0 0 0 0 0 0 0 0 0 0 0 
0 0 0 0 0 0 0 0 0 0 0 0 0 0 0 0 0 0 0 0 0 0 0 0 0 0 0 0 0 0 0 0 0 0 0 0 0 0 0 0 0 0 0 0 0 0 0 0 0 0 0 0 0 0 0 0 0 0 0 0 0 70127570.0613 0 0 0 0 0 0 0 0 0 0 0 0 0 0 0 0 0 0 0 0 0 0 0 0 0 0 0 0 
0 0 0 0 0 0 0 0 0 0 0 0 0 0 0 0 0 0 0 0 0 0 0 0 0 0 0 0 0 0 0 0 0 0 0 0 0 0 0 0 0 0 0 0 0 0 0 0 0 0 0 0 0 0 0 0 0 0 0 0 0 0 0 0 0 0 0 0 0 0 0 0 0 0 0 0 0 0 0 0 0 0 0 0 0 0 0 0 0 0 
0 0 0 0 0 0 0 0 0 0 0 0 0 0 0 0 0 0 0 0 0 0 0 0 0 0 0 0 0 0 0 0 0 0 0 0 0 0 0 0 0 0 0 0 0 0 0 0 0 0 0 0 0 0 0 0 0 0 0 0 0 0 0 0 0 0 0 0 0 0 0 0 0 0 0 0 0 0 0 0 0 0 0 0 0 0 0 0 0 0 
0 0 0 0 0 0 0 0 0 0 0 0 0 0 0 0 0 0 0 0 0 0 0 0 0 0 0 0 0 0 0 0 0 0 0 0 0 0 0 0 0 0 0 0 0 0 0 0 0 0 0 0 0 0 0 0 0 0 0 0 0 0 0 0 0 0 0 0 0 0 0 0 0 0 0 0 0 0 0 0 0 0 0 0 0 0 0 0 0 0 
0 0 0 0 0 0 0 0 0 0 0 0 0 0 0 0 0 0 0 0 0 0 0 0 0 0 0 0 0 0 0 0 0 0 0 0 0 0 0 0 0 0 0 0 0 0 0 0 0 0 0 0 0 0 0 0 0 0 0 0 0 0 0 0 0 0 0 0 0 0 0 0 0 0 0 0 0 0 0 0 0 0 0 0 0 0 0 0 0 0 
0 0 0 0 0 0 0 0 0 0 0 0 0 0 0 0 0 0 0 0 0 0 0 0 0 0 0 0 0 0 0 0 0 0 0 0 0 0 0 0 0 0 0 0 0 0 0 0 0 0 0 0 0 0 0 0 0 0 0 0 0 0 0 0 0 0 0 0 0 0 0 0 0 0 0 0 0 0 0 0 0 0 0 0 0 0 0 0 0 0 
0 0 0 0 0 0 0 0 0 0 0 0 0 0 0 0 0 0 0 0 0 0 0 0 0 0 0 0 0 0 0 0 0 0 0 0 0 0 0 0 0 0 0 0 0 0 0 0 0 0 0 0 0 0 0 0 0 0 0 0 0 0 0 0 0 0 0 0 0 0 0 0 0 0 0 0 0 0 0 0 0 0 0 0 0 0 0 0 0 0 
0 0 0 0 0 0 0 0 0 0 0 0 0 0 0 0 0 0 0 0 0 0 0 0 0 0 0 0 0 0 0 0 0 0 0 0 0 0 0 0 0 0 0 0 0 0 0 0 0 0 0 0 0 0 0 0 0 0 0 0 0 0 0 0 0 0 0 0 0 0 0 0 0 0 0 0 0 0 0 0 0 0 0 0 0 0 0 0 0 0 
0 0 0 0 0 0 0 0 0 0 0 0 0 0 0 0 0 0 0 0 0 0 0 0 0 0 0 0 0 0 0 0 0 0 0 0 0 0 0 0 0 0 0 0 0 0 0 0 0 0 0 0 0 0 0 0 0 0 0 0 0 0 0 0 0 0 0 0 0 0 0 0 0 0 0 0 0 0 0 0 0 0 0 0 0 0 0 0 0 0 
0 0 0 0 0 0 0 0 0 0 0 0 0 0 0 0 0 0 0 0 0 0 0 0 0 0 0 0 0 0 0 0 0 0 0 0 0 0 0 0 0 0 0 0 0 0 0 0 0 0 0 0 0 0 0 0 0 0 0 0 0 0 0 0 0 0 0 0 0 0 0 0 0 0 0 0 0 0 0 0 0 0 0 0 0 0 0 0 0 0 
0 0 0 0 0 0 0 0 0 0 0 0 0 0 0 0 0 0 0 0 0 0 0 0 0 0 0 0 0 0 0 0 0 0 0 0 0 0 0 0 0 0 0 0 0 0 0 0 0 0 0 0 0 0 0 0 0 0 0 0 0 0 0 0 0 0 0 0 0 0 0 0 0 0 0 0 0 0 0 0 0 0 0 0 0 0 0 0 0 0 
0 0 0 0 0 0 0 0 0 0 0 0 0 0 0 0 0 0 0 0 0 0 0 0 0 0 0 0 0 0 0 0 0 0 0 0 0 0 0 0 0 0 0 0 0 0 0 0 0 0 0 0 0 0 0 0 0 0 0 0 0 0 0 0 0 0 0 0 0 0 0 0 0 0 0 0 0 0 0 0 0 0 0 0 0 0 0 0 0 0 
0 0 0 0 0 0 0 0 0 0 0 0 0 0 0 0 0 0 0 0 0 0 0 0 0 0 0 0 0 0 0 0 0 0 0 0 0 0 0 0 0 0 0 0 0 0 0 0 0 0 0 0 0 0 0 0 0 0 0 0 0 0 0 0 0 0 0 0 0 0 0 0 0 0 0 0 0 0 0 0 0 0 0 0 0 0 0 0 0 0 
0 0 0 0 0 0 0 0 0 0 0 0 0 0 0 0 0 0 0 0 0 0 0 0 0 0 0 0 0 0 0 0 0 0 0 0 0 0 0 0 0 0 0 0 0 0 0 0 0 0 0 0 0 0 0 0 0 0 0 0 0 0 0 0 0 0 0 0 0 0 0 0 0 0 0 0 0 0 0 0 0 0 0 0 0 0 0 0 0 0 
0 0 0 0 0 0 0 0 0 0 0 0 0 0 0 0 0 0 0 0 0 0 0 0 0 0 0 0 0 0 0 0 0 0 0 0 0 0 0 0 0 0 0 0 0 0 0 0 0 0 0 0 0 0 0 0 0 0 0 0 0 0 0 0 0 0 0 0 0 0 0 0 0 0 0 0 0 0 0 0 0 0 0 0 0 0 0 0 0 0 
0 0 0 0 0 0 0 0 0 0 0 0 0 0 0 0 0 0 0 0 0 0 0 0 0 0 0 0 0 0 0 0 0 0 0 0 0 0 0 0 0 0 0 0 0 0 0 0 0 0 0 0 0 0 0 0 0 0 0 0 0 0 0 0 0 0 0 0 0 0 0 0 0 0 0 0 0 0 0 0 0 0 0 0 0 0 0 0 0 0 
0 0 0 0 0 0 0 0 0 0 0 0 0 0 0 0 0 0 0 0 0 0 0 0 0 0 0 0 0 0 0 0 0 0 0 0 0 0 0 0 0 0 0 0 0 0 0 0 0 0 0 0 0 0 0 0 0 0 0 0 0 0 0 0 0 0 0 0 0 0 0 0 0 0 0 0 0 0 0 0 0 0 0 0 0 0 0 0 0 0 
0 0 0 0 0 0 0 0 0 0 0 0 0 0 0 0 0 0 0 0 0 0 0 0 0 0 0 0 0 0 0 0 0 0 0 0 0 0 0 0 0 0 0 0 0 0 0 0 0 0 0 0 0 0 0 0 0 0 0 0 0 0 0 0 0 0 0 0 0 0 0 0 0 0 0 0 0 0 0 0 0 0 0 0 0 0 0 0 0 0 
0 0 0 0 0 0 0 0 0 0 0 0 0 0 0 0 0 0 0 0 0 0 0 0 0 0 0 0 0 0 0 0 0 0 0 0 0 0 0 0 0 0 0 0 0 0 0 0 0 0 0 0 0 0 0 0 0 0 0 0 0 0 0 0 0 0 0 0 0 0 0 0 0 0 0 0 0 0 0 0 0 0 0 0 0 0 0 0 0 0 
0 0 0 0 0 0 0 0 0 0 0 0 0 0 0 0 0 0 0 0 0 0 0 0 0 0 0 0 0 0 0 0 0 0 0 0 0 0 0 0 0 0 0 0 0 0 0 0 0 0 0 0 0 0 0 0 0 0 0 0 0 0 0 0 0 0 0 0 0 0 0 0 0 0 0 0 0 0 0 0 0 0 0 0 0 0 0 0 0 0 
0 0 0 0 0 0 0 0 0 0 0 0 0 0 0 0 0 0 0 0 0 0 0 0 0 0 0 0 0 0 0 0 0 0 0 0 0 0 0 0 0 0 0 0 0 0 0 0 0 0 0 0 0 0 0 0 0 0 0 0 0 0 0 0 0 0 0 0 0 0 0 0 0 0 0 0 0 0 0 0 0 0 0 0 0 0 0 0 0 0 
0 0 0 0 0 0 0 0 0 0 0 0 0 0 0 0 0 0 0 0 0 0 0 0 0 0 0 0 0 0 0 0 0 0 0 0 0 0 0 0 0 0 0 0 0 0 0 0 0 0 0 0 0 0 0 0 0 0 0 0 0 0 0 0 0 0 0 0 0 0 0 0 0 0 0 0 0 0 0 0 0 0 0 0 0 0 0 0 0 0 
0 0 0 0 0 0 0 0 0 0 0 0 0 0 0 0 0 0 0 0 0 0 0 0 0 0 0 0 0 0 0 0 0 0 0 0 0 0 0 0 0 0 0 0 0 0 0 0 0 0 0 0 0 0 0 0 0 0 0 0 0 0 0 0 0 0 0 0 0 0 0 0 0 0 0 0 0 0 0 0 0 0 0 0 0 0 0 0 0 0 
# Errors [psd1_dat/psd1.dat] E: 
0 0 0 0 0 0 0 0 0 0 0 0 0 0 0 0 0 0 0 0 0 0 0 0 0 0 0 0 0 0 0 0 0 0 0 0 0 0 0 0 0 0 0 0 0 0 0 0 0 0 0 0 0 0 0 0 0 0 0 0 0 0 0 0 0 0 0 0 0 0 0 0 0 0 0 0 0 0 0 0 0 0 0 0 0 0 0 0 0 0 
0 0 0 0 0 0 0 0 0 0 0 0 0 0 0 0 0 0 0 0 0 0 0 0 0 0 0 0 0 0 0 0 0 0 0 0 0 0 0 0 0 0 0 0 0 0 0 0 0 0 0 0 0 0 0 0 0 0 0 0 0 0 0 0 0 0 0 0 0 0 0 0 0 0 0 0 0 0 0 0 0 0 0 0 0 0 0 0 0 0 
0 0 0 0 0 0 0 0 0 0 0 0 0 0 0 0 0 0 0 0 0 0 0 0 0 0 0 0 0 0 0 0 0 0 0 0 0 0 0 0 0 0 0 0 0 0 0 0 0 0 0 0 0 0 0 0 0 0 0 0 0 0 0 0 0 0 0 0 0 0 0 0 0 0 0 0 0 0 0 0 0 0 0 0 0 0 0 0 0 0 
0 0 0 0 0 0 0 0 0 0 0 0 0 0 0 0 0 0 0 0 0 0 0 0 0 0 0 0 0 0 0 0 0 0 0 0 0 0 0 0 0 0 0 0 0 0 0 0 0 0 0 0 0 0 0 0 0 0 0 0 0 0 0 0 0 0 0 0 0 0 0 0 0 0 0 0 0 0 0 0 0 0 0 0 0 0 0 0 0 0 
0 0 0 0 0 0 0 0 0 0 0 0 0 0 0 0 0 0 0 0 0 0 0 0 0 0 0 0 0 0 0 0 0 0 0 0 0 0 0 0 0 0 0 0 0 0 0 0 0 0 0 0 0 0 0 0 0 0 0 0 0 0 0 0 0 0 0 0 0 0 0 0 0 0 0 0 0 0 0 0 0 0 0 0 0 0 0 0 0 0 
0 0 0 0 0 0 0 0 0 0 0 0 0 0 0 0 0 0 0 0 0 0 0 0 0 0 0 0 0 0 0 0 0 0 0 0 0 0 0 0 0 0 0 0 0 0 0 0 0 0 0 0 0 0 0 0 0 0 0 0 0 0 0 0 0 0 0 0 0 0 0 0 0 0 0 0 0 0 0 0 0 0 0 0 0 0 0 0 0 0 
0 0 0 0 0 0 0 0 0 0 0 0 0 0 0 0 0 0 0 0 0 0 0 0 0 0 0 0 0 0 0 0 0 0 0 0 0 0 0 0 0 0 0 0 0 0 0 0 0 0 0 0 0 0 0 0 0 0 0 0 0 0 0 0 0 0 0 0 0 0 0 0 0 0 0 0 0 0 0 0 0 0 0 0 0 0 0 0 0 0 
0 0 0 0 0 0 0 0 0 0 0 0 0 0 0 0 0 0 0 0 0 0 0 0 0 0 0 0 0 0 0 0 0 0 0 0 0 0 0 0 0 0 0 0 0 0 0 0 0 0 0 0 0 0 0 0 0 0 0 0 0 0 0 0 0 0 0 0 0 0 0 0 0 0 0 0 0 0 0 0 0 0 0 0 0 0 0 0 0 0 
0 0 0 0 0 0 0 0 0 0 0 0 0 0 0 0 0 0 0 0 0 0 0 0 0 0 0 0 0 0 0 0 0 0 0 0 0 0 0 0 0 0 0 0 0 0 0 0 0 0 0 0 0 0 0 0 0 0 0 0 0 0 0 0 0 0 0 0 0 0 0 0 0 0 0 0 0 0 0 0 0 0 0 0 0 0 0 0 0 0 
0 0 0 0 0 0 0 0 0 0 0 0 0 0 0 0 0 0 0 0 0 0 0 0 0 0 0 0 0 0 0 0 0 0 0 0 0 0 0 0 0 0 0 0 0 0 0 0 0 0 0 0 0 0 0 0 0 0 0 0 0 0 0 0 0 0 0 0 0 0 0 0 0 0 0 0 0 0 0 0 0 0 0 0 0 0 0 0 0 0 
0 0 0 0 0 0 0 0 0 0 0 0 0 0 0 0 0 0 0 0 0 0 0 0 0 0 0 0 0 0 0 0 0 0 0 0 0 0 0 0 0 0 0 0 0 0 0 0 0 0 0 0 0 0 0 0 0 0 0 0 0 0 0 0 0 0 0 0 0 0 0 0 0 0 0 0 0 0 0 0 0 0 0 0 0 0 0 0 0 0 
0 0 0 0 0 0 0 0 0 0 0 0 0 0 0 0 0 0 0 0 0 0 0 0 0 0 0 0 0 0 0 0 0 0 0 0 0 0 0 0 0 0 0 0 0 0 0 0 0 0 0 0 0 0 0 0 0 0 0 0 0 0 0 0 0 0 0 0 0 0 0 0 0 0 0 0 0 0 0 0 0 0 0 0 0 0 0 0 0 0 
0 0 0 0 0 0 0 0 0 0 0 0 0 0 0 0 0 0 0 0 0 0 0 0 0 0 0 0 0 0 0 0 0 0 0 0 0 0 0 0 0 0 0 0 0 0 0 0 0 0 0 0 0 0 0 0 0 0 0 0 0 0 0 0 0 0 0 0 0 0 0 0 0 0 0 0 0 0 0 0 0 0 0 0 0 0 0 0 0 0 
0 0 0 0 0 0 0 0 0 0 0 0 0 0 0 0 0 0 0 0 0 0 0 0 0 0 0 0 0 0 0 0 0 0 0 0 0 0 0 0 0 0 0 0 0 0 0 0 0 0 0 0 0 0 0 0 0 0 0 0 0 0 0 0 0 0 0 0 0 0 0 0 0 0 0 0 0 0 0 0 0 0 0 0 0 0 0 0 0 0 
0 0 0 0 0 0 0 0 0 0 0 0 0 0 0 0 0 0 0 0 0 0 0 0 0 0 0 0 0 0 0 0 0 0 0 0 0 0 0 0 0 0 0 0 0 0 0 0 0 0 0 0 0 0 0 0 0 0 0 0 0 0 0 0 0 0 0 0 0 0 0 0 0 0 0 0 0 0 0 0 0 0 0 0 0 0 0 0 0 0 
0 0 0 0 0 0 0 0 0 0 0 0 0 0 0 0 0 0 0 0 0 0 0 0 0 0 0 0 0 0 0 0 0 0 0 0 0 0 0 0 0 0 0 0 0 0 0 0 0 0 0 0 0 0 0 0 0 0 0 0 0 0 0 0 0 0 0 0 0 0 0 0 0 0 0 0 0 0 0 0 0 0 0 0 0 0 0 0 0 0 
0 0 0 0 0 0 0 0 0 0 0 0 0 0 0 0 0 0 0 0 0 0 0 0 0 0 0 0 0 0 0 0 0 0 0 0 0 0 0 0 0 0 0 0 0 0 0 0 0 0 0 0 0 0 0 0 0 0 0 0 0 0 0 0 0 0 0 0 0 0 0 0 0 0 0 0 0 0 0 0 0 0 0 0 0 0 0 0 0 0 
0 0 0 0 0 0 0 0 0 0 0 0 0 0 0 0 0 0 0 0 0 0 0 0 0 0 0 0 0 0 0 0 0 0 0 0 0 0 0 0 0 0 0 0 0 0 0 0 0 0 0 0 0 0 0 0 0 0 0 0 0 0 0 0 0 0 0 0 0 0 0 0 0 0 0 0 0 0 0 0 0 0 0 0 0 0 0 0 0 0 
0 0 0 0 0 0 0 0 0 0 0 0 0 0 0 0 0 0 0 0 0 0 0 0 0 0 0 0 0 0 0 0 0 0 0 0 0 0 0 0 0 0 0 0 0 0 0 0 0 0 0 0 0 0 0 0 0 0 0 0 0 0 0 0 0 0 0 0 0 0 0 0 0 0 0 0 0 0 0 0 0 0 0 0 0 0 0 0 0 0 
0 0 0 0 0 0 0 0 0 0 0 0 0 0 0 0 0 0 0 0 0 0 0 0 0 0 0 0 0 0 0 0 0 0 0 0 0 0 0 0 0 0 0 0 0 0 0 0 0 0 0 0 0 0 0 0 0 0 0 0 0 0 0 0 0 0 0 0 0 0 0 0 0 0 0 0 0 0 0 0 0 0 0 0 0 0 0 0 0 0 
0 0 0 0 0 0 0 0 0 0 0 0 0 0 0 0 0 0 0 0 0 0 0 0 0 0 0 0 0 0 0 0 0 0 0 0 0 0 0 0 0 0 0 0 0 0 0 0 0 0 0 0 0 0 0 0 0 0 0 0 0 0 0 0 0 0 0 0 0 0 0 0 0 0 0 0 0 0 0 0 0 0 0 0 0 0 0 0 0 0 
0 0 0 0 0 0 0 0 0 0 0 0 0 0 0 0 0 0 0 0 0 0 0 0 0 0 0 0 0 0 0 0 0 0 0 0 0 0 0 0 0 0 0 0 0 0 0 0 0 0 0 0 0 0 0 0 0 0 0 0 0 0 0 0 0 0 0 0 0 0 0 0 0 0 0 0 0 0 0 0 0 0 0 0 0 0 0 0 0 0 
0 0 0 0 0 0 0 0 0 0 0 0 0 0 0 0 0 0 0 0 0 0 0 0 0 0 0 0 0 0 0 0 0 0 0 0 0 0 0 0 0 0 0 0 0 0 0 0 0 0 0 0 0 0 0 0 0 0 0 0 0 0 0 0 0 0 0 0 0 0 0 0 0 0 0 0 0 0 0 0 0 0 0 0 0 0 0 0 0 0 
0 0 0 0 0 0 0 0 0 0 0 0 0 0 0 0 0 0 0 0 0 0 0 0 0 0 0 0 0 0 0 0 0 0 0 0 0 0 0 0 0 0 0 0 0 0 0 0 0 0 0 0 0 0 0 0 0 0 0 0 0 0 0 0 0 0 0 0 0 0 0 0 0 0 0 0 0 0 0 0 0 0 0 0 0 0 0 0 0 0 
0 0 0 0 0 0 0 0 0 0 0 0 0 0 0 0 0 0 0 0 0 0 0 0 0 0 0 0 0 0 0 0 0 0 0 0 0 0 0 0 0 0 0 0 0 0 0 0 0 0 0 0 0 0 0 0 0 0 0 0 0 0 0 0 0 0 0 0 0 0 0 0 0 0 0 0 0 0 0 0 0 0 0 0 0 0 0 0 0 0 
0 0 0 0 0 0 0 0 0 0 0 0 0 0 0 0 0 0 0 0 0 0 0 0 0 0 0 0 0 0 0 0 0 0 0 0 0 0 0 0 0 0 0 0 0 0 0 0 0 0 0 0 0 0 0 0 0 0 0 0 0 0 0 0 0 0 0 0 0 0 0 0 0 0 0 0 0 0 0 0 0 0 0 0 0 0 0 0 0 0 
0 0 0 0 0 0 0 0 0 0 0 0 0 0 0 0 0 0 0 0 0 0 0 0 0 0 0 0 0 0 0 0 0 0 0 0 0 0 0 0 0 0 0 0 0 0 0 0 0 0 0 0 0 0 0 0 0 0 0 0 0 0 0 0 0 0 0 0 0 0 0 0 0 0 0 0 0 0 0 0 0 0 0 0 0 0 0 0 0 0 
0 0 0 0 0 0 0 0 0 0 0 0 0 0 0 0 0 0 0 0 0 0 0 0 0 0 0 0 0 0 0 0 0 0 0 0 0 0 0 0 0 0 0 0 0 0 0 0 0 0 0 0 0 0 0 0 0 0 0 0 0 0 0 0 0 0 0 0 0 0 0 0 0 0 0 0 0 0 0 0 0 0 0 0 0 0 0 0 0 0 
0 0 0 0 0 0 0 0 0 0 0 0 0 0 0 0 0 0 0 0 0 0 0 0 0 0 0 0 0 0 0 0 0 0 0 0 0 0 0 0 0 0 0 0 0 0 0 0 0 0 0 0 0 0 0 0 0 0 0 0 0 0 0 0 0 0 0 0 0 0 0 0 0 0 0 0 0 0 0 0 0 0 0 0 0 0 0 0 0 0 
0 0 0 0 0 0 0 0 0 0 0 0 0 0 0 0 0 0 0 0 0 0 0 0 0 0 0 0 0 0 0 0 0 0 0 0 0 0 0 0 0 0 0 0 0 0 0 0 0 0 0 0 0 0 0 0 0 0 0 0 0 0 0 0 0 0 0 0 0 0 0 0 0 0 0 0 0 0 0 0 0 0 0 0 0 0 0 0 0 0 
0 0 0 0 0 0 0 0 0 0 0 0 0 0 0 0 0 0 0 0 0 0 0 0 0 0 0 0 0 0 0 0 0 0 0 0 0 0 0 0 0 0 0 0 0 0 0 0 0 0 0 0 0 0 0 0 0 0 0 0 0 0 0 0 0 0 0 0 0 0 0 0 0 0 0 0 0 0 0 0 0 0 0 0 0 0 0 0 0 0 
0 0 0 0 0 0 0 0 0 0 0 0 0 0 0 0 0 0 0 0 0 0 0 0 0 0 0 0 0 0 0 0 0 0 0 0 0 0 0 0 0 0 0 0 0 0 0 0 0 0 0 0 0 0 0 0 0 0 0 0 0 0 0 0 0 0 0 0 0 0 0 0 0 0 0 0 0 0 0 0 0 0 0 0 0 0 0 0 0 0 
0 0 0 0 0 0 0 0 0 0 0 0 0 0 0 0 0 0 0 0 0 0 0 0 0 0 0 0 0 0 0 0 0 0 0 0 0 0 0 0 0 0 0 0 0 0 0 0 0 0 0 0 0 0 0 0 0 0 0 0 0 0 0 0 0 0 0 0 0 0 0 0 0 0 0 0 0 0 0 0 0 0 0 0 0 0 0 0 0 0 
0 0 0 0 0 0 0 0 0 0 0 0 0 0 0 0 0 0 0 0 0 0 0 0 0 0 0 0 0 0 0 0 0 0 0 0 0 0 0 0 0 0 0 0 0 0 0 0 0 0 0 0 0 0 0 0 0 0 0 0 0 0 0 0 0 0 0 0 0 0 0 0 0 0 0 0 0 0 0 0 0 0 0 0 0 0 0 0 0 0 
0 0 0 0 0 0 0 0 0 0 0 0 0 0 0 0 0 0 0 0 0 0 0 0 0 0 0 0 0 0 0 0 0 0 0 0 0 0 0 0 0 0 0 0 0 0 0 0 0 0 0 0 0 0 0 0 0 0 0 0 0 0 0 0 0 0 0 0 0 0 0 0 0 0 0 0 0 0 0 0 0 0 0 0 0 0 0 0 0 0 
0 0 0 0 0 0 0 0 0 0 0 0 0 0 0 0 0 0 0 0 0 0 0 0 0 0 0 0 0 0 0 0 0 0 0 0 0 0 0 0 0 0 0 0 0 0 0 0 0 0 0 0 0 0 0 0 0 0 0 0 0 0 0 0 0 0 0 0 0 0 0 0 0 0 0 0 0 0 0 0 0 0 0 0 0 0 0 0 0 0 
0 0 0 0 0 0 0 0 0 0 0 0 0 0 0 0 0 0 0 0 0 0 0 0 0 0 0 0 0 0 0 0 0 0 0 0 0 0 0 0 0 0 0 0 0 0 0 0 0 0 0 0 0 0 0 0 0 0 0 0 0 0 0 0 0 0 0 0 0 0 0 0 0 0 0 0 0 0 0 0 0 0 0 0 0 0 0 0 0 0 
0 0 0 0 0 0 0 0 0 0 0 0 0 0 0 0 0 0 0 0 0 0 0 0 0 0 0 0 0 0 0 0 0 0 0 0 0 0 0 0 0 0 0 0 0 0 0 0 0 0 0 0 0 0 0 0 0 0 0 0 0 0 0 0 0 0 0 0 0 0 0 0 0 0 0 0 0 0 0 0 0 0 0 0 0 0 0 0 0 0 
0 0 0 0 0 0 0 0 0 0 0 0 0 0 0 0 0 0 0 0 0 0 0 0 0 0 0 0 0 0 0 0 0 0 0 0 0 0 0 0 0 0 0 0 0 0 0 0 0 0 0 0 0 0 0 0 0 0 0 0 0 0 0 0 0 0 0 0 0 0 0 0 0 0 0 0 0 0 0 0 0 0 0 0 0 0 0 0 0 0 
0 0 0 0 0 0 0 0 0 0 0 0 0 0 0 0 0 0 0 0 0 0 0 0 0 0 0 0 0 0 0 0 0 0 0 0 0 0 0 0 0 0 0 0 0 0 0 0 0 0 0 0 0 0 0 0 0 0 0 0 0 0 0 0 0 0 0 0 0 0 0 0 0 0 0 0 0 0 0 0 0 0 0 0 0 0 0 0 0 0 
0 0 0 0 0 0 0 0 0 0 0 0 0 0 0 0 0 0 0 0 0 0 0 0 0 0 0 0 0 0 0 0 0 0 0 0 0 0 0 0 0 0 0 0 0 0 0 0 0 0 0 0 0 0 0 0 0 0 0 0 0 0 0 0 0 0 0 0 0 0 0 0 0 0 0 0 0 0 0 0 0 0 0 0 0 0 0 0 0 0 
0 0 0 0 0 0 0 0 0 0 0 0 0 0 0 0 0 0 0 0 0 0 0 0 0 0 0 0 0 0 0 0 0 0 0 0 0 0 0 0 0 0 0 0 0 0 0 0 0 0 0 0 0 0 0 0 0 0 0 0 0 0 0 0 0 0 0 0 0 0 0 0 0 0 0 0 0 0 0 0 0 0 0 0 0 0 0 0 0 0 
0 0 0 0 0 0 0 0 0 0 0 0 0 0 0 0 0 0 0 0 0 0 0 0 0 0 0 0 0 0 0 0 0 0 0 0 0 0 0 0 0 0 0 0 0 0 0 0 0 0 0 0 0 0 0 0 0 0 0 0 0 0 0 0 0 0 0 0 0 0 0 0 0 0 0 0 0 0 0 0 0 0 0 0 0 0 0 0 0 0 
0 0 0 0 0 0 0 0 0 0 0 0 0 0 0 0 0 0 0 0 0 0 0 0 0 0 0 0 0 0 0 0 0 0 0 0 0 0 0 0 0 0 0 0 0 0 0 0 0 0 0 0 0 0 0 0 0 0 0 0 0 0 0 0 0 0 0 0 0 0 0 0 0 0 0 0 0 0 0 0 0 0 0 0 0 0 0 0 0 0 
0 0 0 0 0 0 0 0 0 0 0 0 0 0 0 0 0 0 0 0 0 0 0 0 0 0 0 0 0 0 0 0 0 0 0 0 0 0 0 0 0 0 0 0 0 0 0 0 0 0 0 0 0 0 0 0 0 0 0 0 0 0 0 0 0 0 0 0 0 0 0 0 0 0 0 0 0 0 0 0 0 0 0 0 0 0 0 0 0 0 
0 0 0 0 0 0 0 0 0 0 0 0 0 0 0 0 0 0 0 0 0 0 0 0 0 0 0 0 0 0 0 0 0 0 0 0 0 0 0 0 0 0 0 0 0 0 0 0 0 0 0 0 0 0 0 0 0 0 0 0 0 0 0 0 0 0 0 0 0 0 0 0 0 0 0 0 0 0 0 0 0 0 0 0 0 0 0 0 0 0 
0 0 0 0 0 0 0 0 0 0 0 0 0 0 0 0 0 0 0 0 0 0 0 0 0 0 0 0 0 0 0 0 0 0 0 0 0 0 0 0 0 0 0 0 0 0 0 0 0 0 0 0 0 0 0 0 0 0 0 0 0 0 0 0 0 0 0 0 0 0 0 0 0 0 0 0 0 0 0 0 0 0 0 0 0 0 0 0 0 0 
0 0 0 0 0 0 0 0 0 0 0 0 0 0 0 0 0 0 0 0 0 0 0 0 0 0 0 0 0 0 0 0 0 0 0 0 0 0 0 0 0 0 0 0 0 0 0 0 0 0 0 0 0 0 0 0 0 0 0 0 0 0 0 0 0 0 0 0 0 0 0 0 0 0 0 0 0 0 0 0 0 0 0 0 0 0 0 0 0 0 
0 0 0 0 0 0 0 0 0 0 0 0 0 0 0 0 0 0 0 0 0 0 0 0 0 0 0 0 0 0 0 0 0 0 0 0 0 0 0 0 0 0 0 0 0 0 0 0 0 0 0 0 0 0 0 0 0 0 0 0 0 0 0 0 0 0 0 0 0 0 0 0 0 0 0 0 0 0 0 0 0 0 0 0 0 0 0 0 0 0 
0 0 0 0 0 0 0 0 0 0 0 0 0 0 0 0 0 0 0 0 0 0 0 0 0 0 0 0 0 0 0 0 0 0 0 0 0 0 0 0 0 0 0 0 0 0 0 0 0 0 0 0 0 0 0 0 0 0 0 0 0 0 0 0 0 0 0 0 0 0 0 0 0 0 0 0 0 0 0 0 0 0 0 0 0 0 0 0 0 0 
0 0 0 0 0 0 0 0 0 0 0 0 0 0 0 0 0 0 0 0 0 0 0 0 0 0 0 0 0 0 0 0 0 0 0 0 0 0 0 0 0 0 0 0 0 0 0 0 0 0 0 0 0 0 0 0 0 0 0 0 0 0 0 0 0 0 0 0 0 0 0 0 0 0 0 0 0 0 0 0 0 0 0 0 0 0 0 0 0 0 
0 0 0 0 0 0 0 0 0 0 0 0 0 0 0 0 0 0 0 0 0 0 0 0 0 0 0 0 0 0 0 0 0 0 0 0 0 0 0 0 0 0 0 0 0 0 0 0 0 0 0 0 0 0 0 0 0 0 0 0 0 0 0 0 0 0 0 0 0 0 0 0 0 0 0 0 0 0 0 0 0 0 0 0 0 0 0 0 0 0 
0 0 0 0 0 0 0 0 0 0 0 0 0 0 0 0 0 0 0 0 0 0 0 0 0 0 0 0 0 0 0 0 0 0 0 0 0 0 0 0 0 0 0 0 0 0 0 0 0 0 0 0 0 0 0 0 0 0 0 0 0 0 0 0 0 0 0 0 0 0 0 0 0 0 0 0 0 0 0 0 0 0 0 0 0 0 0 0 0 0 
0 0 0 0 0 0 0 0 0 0 0 0 0 0 0 0 0 0 0 0 0 0 0 0 0 0 0 0 0 0 0 0 0 0 0 0 0 0 0 0 0 0 0 0 0 0 0 0 0 0 0 0 0 0 0 0 0 0 0 0 0 0 0 0 0 0 0 0 0 0 0 0 0 0 0 0 0 0 0 0 0 0 0 0 0 0 0 0 0 0 
0 0 0 0 0 0 0 0 0 0 0 0 0 0 0 0 0 0 0 0 0 0 0 0 0 0 0 0 0 0 0 0 0 0 0 0 0 0 0 0 0 0 0 0 0 0 0 0 0 0 0 0 0 0 0 0 0 0 0 0 0 0 0 0 0 0 0 0 0 0 0 0 0 0 0 0 0 0 0 0 0 0 0 0 0 0 0 0 0 0 
0 0 0 0 0 0 0 0 0 0 0 0 0 0 0 0 0 0 0 0 0 0 0 0 0 0 0 0 0 0 0 0 0 0 0 0 0 0 0 0 0 0 0 0 0 0 0 0 0 0 0 0 0 0 0 0 0 0 0 0 0 0 0 0 0 0 0 0 0 0 0 0 0 0 0 0 0 0 0 0 0 0 0 0 0 0 0 0 0 0 
0 0 0 0 0 0 0 0 0 0 0 0 0 0 0 0 0 0 0 0 0 0 0 0 0 0 0 0 0 0 0 0 0 0 0 0 0 0 0 0 0 0 0 0 0 0 0 0 0 0 0 0 0 0 0 0 0 0 0 0 0 0 0 0 0 0 0 0 0 0 0 0 0 0 0 0 0 0 0 0 0 0 0 0 0 0 0 0 0 0 
0 0 0 0 0 0 0 0 0 0 0 0 0 0 0 0 0 0 0 0 0 0 0 0 0 0 0 0 0 0 0 0 0 0 0 0 0 0 0 0 0 0 0 0 0 0 0 0 0 0 0 0 0 0 0 0 0 0 0 0 0 0 0 0 0 0 0 0 0 0 0 0 0 0 0 0 0 0 0 0 0 0 0 0 0 0 0 0 0 0 
0 0 0 0 0 0 0 0 0 0 0 0 0 0 0 0 0 0 0 0 0 0 0 0 0 0 0 0 0 0 0 0 0 0 0 0 0 0 0 0 0 0 0 0 0 0 0 0 0 0 0 0 0 0 0 0 0 0 0 0 0 0 0 0 0 0 0 0 0 0 0 0 0 0 0 0 0 0 0 0 0 0 0 0 0 0 0 0 0 0 
0 0 0 0 0 0 0 0 0 0 0 0 0 0 0 0 0 0 0 0 0 0 0 0 0 0 0 0 0 0 0 0 0 0 0 0 0 0 0 0 0 0 0 0 0 0 0 0 0 0 0 0 0 0 0 0 0 0 0 0 0 0 0 0 0 0 0 0 0 0 0 0 0 0 0 0 0 0 0 0 0 0 0 0 0 0 0 0 0 0 
0 0 0 0 0 0 0 0 0 0 0 0 0 0 0 0 0 0 0 0 0 0 0 0 0 0 0 0 0 0 0 0 0 0 0 0 0 0 0 0 0 0 0 0 0 0 0 0 0 0 0 0 0 0 0 0 0 0 0 0 0 0 0 0 0 0 0 0 0 0 0 0 0 0 0 0 0 0 0 0 0 0 0 0 0 0 0 0 0 0 
0 0 0 0 0 0 0 0 0 0 0 0 0 0 0 0 0 0 0 0 0 0 0 0 0 0 0 0 0 0 0 0 0 0 0 0 0 0 0 0 0 0 0 0 0 0 0 0 0 0 0 0 0 0 0 0 0 0 0 0 0 0 0 0 0 0 0 0 0 0 0 0 0 0 0 0 0 0 0 0 0 0 0 0 0 0 0 0 0 0 
0 0 0 0 0 0 0 0 0 0 0 0 0 0 0 0 0 0 0 0 0 0 0 0 0 0 0 0 0 0 0 0 0 0 0 0 0 0 0 0 0 0 0 0 0 0 0 0 0 0 0 0 0 0 0 0 0 0 0 0 0 0 0 0 0 0 0 0 0 0 0 0 0 0 0 0 0 0 0 0 0 0 0 0 0 0 0 0 0 0 
0 0 0 0 0 0 0 0 0 0 0 0 0 0 0 0 0 0 0 0 0 0 0 0 0 0 0 0 0 0 0 0 0 0 0 0 0 0 0 0 0 0 0 0 0 0 0 0 0 0 0 0 0 0 0 0 0 0 0 0 0 0 0 0 0 0 0 0 0 0 0 0 0 0 0 0 0 0 0 0 0 0 0 0 0 0 0 0 0 0 
0 0 0 0 0 0 0 0 0 0 0 0 0 0 0 0 0 0 0 0 0 0 0 0 0 0 0 0 0 0 0 0 0 0 0 0 0 0 0 0 0 0 0 0 0 0 0 0 0 0 0 0 0 0 0 0 0 0 0 0 0 0 0 0 0 0 0 0 0 0 0 0 0 0 0 0 0 0 0 0 0 0 0 0 0 0 0 0 0 0 
0 0 0 0 0 0 0 0 0 0 0 0 0 0 0 0 0 0 0 0 0 0 0 0 0 0 0 0 0 0 0 0 0 0 0 0 0 0 0 0 0 0 0 0 0 0 0 0 0 0 0 0 0 0 0 0 0 0 0 0 0 0 0 0 0 0 0 0 0 0 0 0 0 0 0 0 0 0 0 0 0 0 0 0 0 0 0 0 0 0 
0 0 0 0 0 0 0 0 0 0 0 0 0 0 0 0 0 0 0 0 0 0 0 0 0 0 0 0 0 0 0 0 0 0 0 0 0 0 0 0 0 0 0 0 0 0 0 0 0 0 0 0 0 0 0 0 0 0 0 0 0 0 0 0 0 0 0 0 0 0 0 0 0 0 0 0 0 0 0 0 0 0 0 0 0 0 0 0 0 0 
0 0 0 0 0 0 0 0 0 0 0 0 0 0 0 0 0 0 0 0 0 0 0 0 0 0 0 0 0 0 0 0 0 0 0 0 0 0 0 0 0 0 0 0 0 0 0 0 0 0 0 0 0 0 0 0 0 0 0 0 0 0 0 0 0 0 0 0 0 0 0 0 0 0 0 0 0 0 0 0 0 0 0 0 0 0 0 0 0 0 
0 0 0 0 0 0 0 0 0 0 0 0 0 0 0 0 0 0 0 0 0 0 0 0 0 0 0 0 0 0 0 0 0 0 0 0 0 0 0 0 0 0 0 0 0 0 0 0 0 0 0 0 0 0 0 0 0 0 0 0 0 0 0 0 0 0 0 0 0 0 0 0 0 0 0 0 0 0 0 0 0 0 0 0 0 0 0 0 0 0 
0 0 0 0 0 0 0 0 0 0 0 0 0 0 0 0 0 0 0 0 0 0 0 0 0 0 0 0 0 0 0 0 0 0 0 0 0 0 0 0 0 0 0 0 0 0 0 0 0 0 0 0 0 0 0 0 0 0 0 0 0 0 0 0 0 0 0 0 0 0 0 0 0 0 0 0 0 0 0 0 0 0 0 0 0 0 0 0 0 0 
0 0 0 0 0 0 0 0 0 0 0 0 0 0 0 0 0 0 0 0 0 0 0 0 0 0 0 0 0 0 0 0 0 0 0 0 0 0 0 0 0 0 0 0 0 0 0 0 0 0 0 0 0 0 0 0 0 0 0 0 0 0 0 0 0 0 0 0 0 0 0 0 0 0 0 0 0 0 0 0 0 0 0 0 0 0 0 0 0 0 
0 0 0 0 0 0 0 0 0 0 0 0 0 0 0 0 0 0 0 0 0 0 0 0 0 0 0 0 0 0 0 0 0 0 0 0 0 0 0 0 0 0 0 0 0 0 0 0 0 0 0 0 0 0 0 0 0 0 0 0 0 0 0 0 0 0 0 0 0 0 0 0 0 0 0 0 0 0 0 0 0 0 0 0 0 0 0 0 0 0 
0 0 0 0 0 0 0 0 0 0 0 0 0 0 0 0 0 0 0 0 0 0 0 0 0 0 0 0 0 0 0 0 0 0 0 0 0 0 0 0 0 0 0 0 0 0 0 0 0 0 0 0 0 0 0 0 0 0 0 0 0 0 0 0 0 0 0 0 0 0 0 0 0 0 0 0 0 0 0 0 0 0 0 0 0 0 0 0 0 0 
0 0 0 0 0 0 0 0 0 0 0 0 0 0 0 0 0 0 0 0 0 0 0 0 0 0 0 0 0 0 0 0 0 0 0 0 0 0 0 0 0 0 0 0 0 0 0 0 0 0 0 0 0 0 0 0 0 0 0 0 0 0 0 0 0 0 0 0 0 0 0 0 0 0 0 0 0 0 0 0 0 0 0 0 0 0 0 0 0 0 
0 0 0 0 0 0 0 0 0 0 0 0 0 0 0 0 0 0 0 0 0 0 0 0 0 0 0 0 0 0 0 0 0 0 0 0 0 0 0 0 0 0 0 0 0 0 0 0 0 0 0 0 0 0 0 0 0 0 0 0 0 0 0 0 0 0 0 0 0 0 0 0 0 0 0 0 0 0 0 0 0 0 0 0 0 0 0 0 0 0 
0 0 0 0 0 0 0 0 0 0 0 0 0 0 0 0 0 0 0 0 0 0 0 0 0 0 0 0 0 0 0 0 0 0 0 0 0 0 0 0 0 0 0 0 0 0 0 0 0 0 0 0 0 0 0 0 0 0 0 0 0 0 0 0 0 0 0 0 0 0 0 0 0 0 0 0 0 0 0 0 0 0 0 0 0 0 0 0 0 0 
0 0 0 0 0 0 0 0 0 0 0 0 0 0 0 0 0 0 0 0 0 0 0 0 0 0 0 0 0 0 0 0 0 0 0 0 0 0 0 0 0 0 0 0 0 0 0 0 0 0 0 0 0 0 0 0 0 0 0 0 0 0 0 0 0 0 0 0 0 0 0 0 0 0 0 0 0 0 0 0 0 0 0 0 0 0 0 0 0 0 
0 0 0 0 0 0 0 0 0 0 0 0 0 0 0 0 0 0 0 0 0 0 0 0 0 0 0 0 0 0 0 0 0 0 0 0 0 0 0 0 0 0 0 0 0 0 0 0 0 0 0 0 0 0 0 0 0 0 0 0 0 0 0 0 0 0 0 0 0 0 0 0 0 0 0 0 0 0 0 0 0 0 0 0 0 0 0 0 0 0 
0 0 0 0 0 0 0 0 0 0 0 0 0 0 0 0 0 0 0 0 0 0 0 0 0 0 0 0 0 0 0 0 0 0 0 0 0 0 0 0 0 0 0 0 0 0 0 0 0 0 0 0 0 0 0 0 0 0 0 0 0 0 0 0 0 0 0 0 0 0 0 0 0 0 0 0 0 0 0 0 0 0 0 0 0 0 0 0 0 0 
0 0 0 0 0 0 0 0 0 0 0 0 0 0 0 0 0 0 0 0 0 0 0 0 0 0 0 0 0 0 0 0 0 0 0 0 0 0 0 0 0 0 0 0 0 0 0 0 0 0 0 0 0 0 0 0 0 0 0 0 0 0 0 0 0 0 0 0 0 0 0 0 0 0 0 0 0 0 0 0 0 0 0 0 0 0 0 0 0 0 
0 0 0 0 0 0 0 0 0 0 0 0 0 0 0 0 0 0 0 0 0 0 0 0 0 0 0 0 0 0 0 0 0 0 0 0 0 0 0 0 0 0 0 0 0 0 0 0 0 0 0 0 0 0 0 0 0 0 0 0 0 0 0 0 0 0 0 0 0 0 0 0 0 0 0 0 0 0 0 0 0 0 0 0 0 0 0 0 0 0 
0 0 0 0 0 0 0 0 0 0 0 0 0 0 0 0 0 0 0 0 0 0 0 0 0 0 0 0 0 0 0 0 0 0 0 0 0 0 0 0 0 0 0 0 0 0 0 0 0 0 0 0 0 0 0 0 0 0 0 0 0 0 0 0 0 0 0 0 0 0 0 0 0 0 0 0 0 0 0 0 0 0 0 0 0 0 0 0 0 0 
0 0 0 0 0 0 0 0 0 0 0 0 0 0 0 0 0 0 0 0 0 0 0 0 0 0 0 0 0 0 0 0 0 0 0 0 0 0 0 0 0 0 0 0 0 0 0 0 0 0 0 0 0 0 0 0 0 0 0 0 0 0 0 0 0 0 0 0 0 0 0 0 0 0 0 0 0 0 0 0 0 0 0 0 0 0 0 0 0 0 
0 0 0 0 0 0 0 0 0 0 0 0 0 0 0 0 0 0 0 0 0 0 0 0 0 0 0 0 0 0 0 0 0 0 0 0 0 0 0 0 0 0 0 0 0 0 0 0 0 0 0 0 0 0 0 0 0 0 0 0 0 0 0 0 0 0 0 0 0 0 0 0 0 0 0 0 0 0 0 0 0 0 0 0 0 0 0 0 0 0 
0 0 0 0 0 0 0 0 0 0 0 0 0 0 0 0 0 0 0 0 0 0 0 0 0 0 0 0 0 0 0 0 0 0 0 0 0 0 0 0 0 0 0 0 0 0 0 0 0 0 0 0 0 0 0 0 0 0 0 0 0 0 0 0 0 0 0 0 0 0 0 0 0 0 0 0 0 0 0 0 0 0 0 0 0 0 0 0 0 0 
0 0 0 0 0 0 0 0 0 0 0 0 0 0 0 0 0 0 0 0 0 0 0 0 0 0 0 0 0 0 0 0 0 0 0 0 0 0 0 0 0 0 0 0 0 0 0 0 0 0 0 0 0 0 0 0 0 0 0 0 0 0 0 0 0 0 0 0 0 0 0 0 0 0 0 0 0 0 0 0 0 0 0 0 0 0 0 0 0 0 
0 0 0 0 0 0 0 0 0 0 0 0 0 0 0 0 0 0 0 0 0 0 0 0 0 0 0 0 0 0 0 0 0 0 0 0 0 0 0 0 0 0 0 0 0 0 0 0 0 0 0 0 0 0 0 0 0 0 0 0 0 0 0 0 0 0 0 0 0 0 0 0 0 0 0 0 0 0 0 0 0 0 0 0 0 0 0 0 0 0 
0 0 0 0 0 0 0 0 0 0 0 0 0 0 0 0 0 0 0 0 0 0 0 0 0 0 0 0 0 0 0 0 0 0 0 0 0 0 0 0 0 0 0 0 0 0 0 0 0 0 0 0 0 0 0 0 0 0 0 0 0 0 0 0 0 0 0 0 0 0 0 0 0 0 0 0 0 0 0 0 0 0 0 0 0 0 0 0 0 0 
0 0 0 0 0 0 0 0 0 0 0 0 0 0 0 0 0 0 0 0 0 0 0 0 0 0 0 0 0 0 0 0 0 0 0 0 0 0 0 0 0 0 0 0 0 0 0 0 0 0 0 0 0 0 0 0 0 0 0 0 0 0 0 0 0 0 0 0 0 0 0 0 0 0 0 0 0 0 0 0 0 0 0 0 0 0 0 0 0 0 
0 0 0 0 0 0 0 0 0 0 0 0 0 0 0 0 0 0 0 0 0 0 0 0 0 0 0 0 0 0 0 0 0 0 0 0 0 0 0 0 0 0 0 0 0 0 0 0 0 0 0 0 0 0 0 0 0 0 0 0 0 0 0 0 0 0 0 0 0 0 0 0 0 0 0 0 0 0 0 0 0 0 0 0 0 0 0 0 0 0 
# Events [psd1_dat/psd1.dat] N: 
0 0 0 0 0 0 0 0 0 0 0 0 0 0 0 0 0 0 0 0 0 0 0 0 0 0 0 0 0 0 0 0 0 0 0 0 0 0 0 0 0 0 0 0 0 0 0 0 0 0 0 0 0 0 0 0 0 0 0 0 0 0 0 0 0 0 0 0 0 0 0 0 0 0 0 0 0 0 0 0 0 0 0 0 0 0 0 0 0 0 
0 0 0 0 0 0 0 0 0 0 0 0 0 0 0 0 0 0 0 0 0 0 0 0 0 0 0 0 0 0 0 0 0 0 0 0 0 0 0 0 0 0 0 0 0 0 0 0 0 0 0 0 0 0 0 0 0 0 0 0 0 0 0 0 0 0 0 0 0 0 0 0 0 0 0 0 0 0 0 0 0 0 0 0 0 0 0 0 0 0 
0 0 0 0 0 0 0 0 0 0 0 0 0 0 0 0 0 0 0 0 0 0 0 0 0 0 0 0 0 0 0 0 0 0 0 0 0 0 0 0 0 0 0 0 0 0 0 0 0 0 0 0 0 0 0 0 0 0 0 0 0 0 0 0 0 0 0 0 0 0 0 0 0 0 0 0 0 0 0 0 0 0 0 0 0 0 0 0 0 0 
0 0 0 0 0 0 0 0 0 0 0 0 0 0 0 0 0 0 0 0 0 0 0 0 0 0 0 0 0 0 0 0 0 0 0 0 0 0 0 0 0 0 0 0 0 0 0 0 0 0 0 0 0 0 0 0 0 0 0 0 0 0 0 0 0 0 0 0 0 0 0 0 0 0 0 0 0 0 0 0 0 0 0 0 0 0 0 0 0 0 
0 0 0 0 0 0 0 0 0 0 0 0 0 0 0 0 0 0 0 0 0 0 0 0 0 0 0 0 0 0 0 0 0 0 0 0 0 0 0 0 0 0 0 0 0 0 0 0 0 0 0 0 0 0 0 0 0 0 0 0 0 0 0 0 0 0 0 0 0 0 0 0 0 0 0 0 0 0 0 0 0 0 0 0 0 0 0 0 0 0 
0 0 0 0 0 0 0 0 0 0 0 0 0 0 0 0 0 0 0 0 0 0 0 0 0 0 0 0 0 0 0 0 0 0 0 0 0 0 0 0 0 0 0 0 0 0 0 0 0 0 0 0 0 0 0 0 0 0 0 0 0 0 0 0 0 0 0 0 0 0 0 0 0 0 0 0 0 0 0 0 0 0 0 0 0 0 0 0 0 0 
0 0 0 0 0 0 0 0 0 0 0 0 0 0 0 0 0 0 0 0 0 0 0 0 0 0 0 0 0 0 0 0 0 0 0 0 0 0 0 0 0 0 0 0 0 0 0 0 0 0 0 0 0 0 0 0 0 0 0 0 0 0 0 0 0 0 0 0 0 0 0 0 0 0 0 0 0 0 0 0 0 0 0 0 0 0 0 0 0 0 
0 0 0 0 0 0 0 0 0 0 0 0 0 0 0 0 0 0 0 0 0 0 0 0 0 0 0 0 0 0 0 0 0 0 0 0 0 0 0 0 0 0 0 0 0 0 0 0 0 0 0 0 0 0 0 0 0 0 0 0 0 0 0 0 0 0 0 0 0 0 0 0 0 0 0 0 0 0 0 0 0 0 0 0 0 0 0 0 0 0 
0 0 0 0 0 0 0 0 0 0 0 0 0 0 0 0 0 0 0 0 0 0 0 0 0 0 0 0 0 0 0 0 0 0 0 0 0 0 0 0 0 0 0 0 0 0 0 0 0 0 0 0 0 0 0 0 0 0 0 0 0 0 0 0 0 0 0 0 0 0 0 0 0 0 0 0 0 0 0 0 0 0 0 0 0 0 0 0 0 0 
0 0 0 0 0 0 0 0 0 0 0 0 0 0 0 0 0 0 0 0 0 0 0 0 0 0 0 0 0 0 0 0 0 0 0 0 0 0 0 0 0 0 0 0 0 0 0 0 0 0 0 0 0 0 0 0 0 0 0 0 0 0 0 0 0 0 0 0 0 0 0 0 0 0 0 0 0 0 0 0 0 0 0 0 0 0 0 0 0 0 
0 0 0 0 0 0 0 0 0 0 0 0 0 0 0 0 0 0 0 0 0 0 0 0 0 0 0 0 0 0 0 0 0 0 0 0 0 0 0 0 0 0 0 0 0 0 0 0 0 0 0 0 0 0 0 0 0 0 0 0 0 0 0 0 0 0 0 0 0 0 0 0 0 0 0 0 0 0 0 0 0 0 0 0 0 0 0 0 0 0 
0 0 0 0 0 0 0 0 0 0 0 0 0 0 0 0 0 0 0 0 0 0 0 0 0 0 0 0 0 0 0 0 0 0 0 0 0 0 0 0 0 0 0 0 0 0 0 0 0 0 0 0 0 0 0 0 0 0 0 0 0 0 0 0 0 0 0 0 0 0 0 0 0 0 0 0 0 0 0 0 0 0 0 0 0 0 0 0 0 0 
0 0 0 0 0 0 0 0 0 0 0 0 0 0 0 0 0 0 0 0 0 0 0 0 0 0 0 0 0 0 0 0 0 0 0 0 0 0 0 0 0 0 0 0 0 0 0 0 0 0 0 0 0 0 0 0 0 0 0 0 0 0 0 0 0 0 0 0 0 0 0 0 0 0 0 0 0 0 0 0 0 0 0 0 0 0 0 0 0 0 
0 0 0 0 0 0 0 0 0 0 0 0 0 0 0 0 0 0 0 0 0 0 0 0 0 0 0 0 0 0 0 0 0 0 0 0 0 0 0 0 0 0 0 0 0 0 0 0 0 0 0 0 0 0 0 0 0 0 0 0 0 0 0 0 0 0 0 0 0 0 0 0 0 0 0 0 0 0 0 0 0 0 0 0 0 0 0 0 0 0 
0 0 0 0 0 0 0 0 0 0 0 0 0 0 0 0 0 0 0 0 0 0 0 0 0 0 0 0 0 0 0 0 0 0 0 0 0 0 0 0 0 0 0 0 0 0 0 0 0 0 0 0 0 0 0 0 0 0 0 0 0 0 0 0 0 0 0 0 0 0 0 0 0 0 0 0 0 0 0 0 0 0 0 0 0 0 0 0 0 0 
0 0 0 0 0 0 0 0 0 0 0 0 0 0 0 0 0 0 0 0 0 0 0 0 0 0 0 0 0 0 0 0 0 0 0 0 0 0 0 0 0 0 0 0 0 0 0 0 0 0 0 0 0 0 0 0 0 0 0 0 0 0 0 0 0 0 0 0 0 0 0 0 0 0 0 0 0 0 0 0 0 0 0 0 0 0 0 0 0 0 
0 0 0 0 0 0 0 0 0 0 0 0 0 0 0 0 0 0 0 0 0 0 0 0 0 0 0 0 0 0 0 0 0 0 0 0 0 0 0 0 0 0 0 0 0 0 0 0 0 0 0 0 0 0 0 0 0 0 0 0 0 0 0 0 0 0 0 0 0 0 0 0 0 0 0 0 0 0 0 0 0 0 0 0 0 0 0 0 0 0 
0 0 0 0 0 0 0 0 0 0 0 0 0 0 0 0 0 0 0 0 0 0 0 0 0 0 0 0 0 0 0 0 0 0 0 0 0 0 0 0 0 0 0 0 0 0 0 0 0 0 0 0 0 0 0 0 0 0 0 0 0 0 0 0 0 0 0 0 0 0 0 0 0 0 0 0 0 0 0 0 0 0 0 0 0 0 0 0 0 0 
0 0 0 0 0 0 0 0 0 0 0 0 0 0 0 0 0 0 0 0 0 0 0 0 0 0 0 0 0 0 0 0 0 0 0 0 0 0 0 0 0 0 0 0 0 0 0 0 0 0 0 0 0 0 0 0 0 0 0 0 0 0 0 0 0 0 0 0 0 0 0 0 0 0 0 0 0 0 0 0 0 0 0 0 0 0 0 0 0 0 
0 0 0 0 0 0 0 0 0 0 0 0 0 0 0 0 0 0 0 0 0 0 0 0 0 0 0 0 0 0 0 0 0 0 0 0 0 0 0 0 0 0 0 0 0 0 0 0 0 0 0 0 0 0 0 0 0 0 0 0 0 0 0 0 0 0 0 0 0 0 0 0 0 0 0 0 0 0 0 0 0 0 0 0 0 0 0 0 0 0 
0 0 0 0 0 0 0 0 0 0 0 0 0 0 0 0 0 0 0 0 0 0 0 0 0 0 0 0 0 0 0 0 0 0 0 0 0 0 0 0 0 0 0 0 0 0 0 0 0 0 0 0 0 0 0 0 0 0 0 0 0 0 0 0 0 0 0 0 0 0 0 0 0 0 0 0 0 0 0 0 0 0 0 0 0 0 0 0 0 0 
0 0 0 0 0 0 0 0 0 0 0 0 0 0 0 0 0 0 0 0 0 0 0 0 0 0 0 0 0 0 0 0 0 0 0 0 0 0 0 0 0 0 0 0 0 0 0 0 0 0 0 0 0 0 0 0 0 0 0 0 0 0 0 0 0 0 0 0 0 0 0 0 0 0 0 0 0 0 0 0 0 0 0 0 0 0 0 0 0 0 
0 0 0 0 0 0 0 0 0 0 0 0 0 0 0 0 0 0 0 0 0 0 0 0 0 0 0 0 0 0 0 0 0 0 0 0 0 0 0 0 0 0 0 0 0 0 1 0 0 0 0 0 0 0 0 0 0 0 0 0 0 0 0 0 0 0 0 0 0 0 0 0 0 0 0 0 0 0 0 0 0 0 0 0 0 0 0 0 0 0 
0 0 0 0 0 0 0 0 0 0 0 0 0 0 0 0 0 0 0 0 0 0 0 0 0 0 0 0 0 0 0 0 0 0 0 0 0 0 0 0 0 0 0 0 0 0 0 0 0 0 0 0 0 0 0 0 0 0 0 0 0 0 0 0 0 0 0 0 0 0 0 0 0 0 0 0 0 0 0 0 0 0 0 0 0 0 0 0 0 0 
0 0 0 0 0 0 0 0 0 0 0 0 0 0 0 0 0 0 0 0 0 0 0 0 0 0 0 0 0 0 0 0 0 0 0 1 0 0 0 0 0 0 1 0 0 0 0 0 0 0 0 0 0 0 0 0 0 0 0 0 0 0 0 0 0 0 0 0 0 0 0 0 0 0 0 0 0 0 0 0 0 0 0 0 0 0 0 0 0 0 
0 0 0 0 0 0 0 0 0 0 0 0 0 0 0 0 0 0 0 0 0 1 0 0 0 0 0 0 0 1 0 0 0 0 0 0 0 0 0 0 0 0 0 3 0 1 0 1 0 0 0 1 2 0 0 0 0 0 1 0 0 1 0 0 0 0 0 0 0 0 0 0 0 0 0 0 0 0 0 0 0 0 0 0 0 0 0 0 0 0 
0 0 0 0 0 0 0 0 0 0 0 0 0 0 0 0 0 0 0 0 0 0 0 0 0 0 0 0 0 1 0 0 0 0 1 0 0 2 3 0 0 1 2 1 1 1 0 0 0 1 2 1 0 1 0 1 0 0 1 0 0 0 0 0 0 1 0 0 0 0 0 0 0 0 0 0 0 0 0 0 0 0 0 0 0 0 0 0 0 0 
0 0 0 0 0 0 0 0 0 0 0 0 0 0 0 0 0 0 0 0 0 0 1 0 0 0 0 0 0 2 2 0 2 3 1 1 3 2 2 2 0 1 3 2 0 5 1 1 2 1 2 1 2 4 1 0 0 0 0 0 0 0 0 0 0 0 0 0 0 0 0 0 0 0 0 0 0 0 0 0 0 0 0 0 0 0 0 0 0 0 
0 0 0 0 0 0 0 0 0 0 0 0 0 0 0 0 0 0 1 1 0 0 0 0 1 0 1 0 0 0 2 0 2 0 4 2 4 4 5 5 4 2 7 7 3 6 6 5 5 7 0 4 7 3 2 4 2 2 2 2 1 1 0 2 0 0 1 1 0 1 0 0 1 0 0 0 0 0 0 0 0 0 0 0 0 0 0 0 0 0 
0 0 0 0 0 0 0 0 0 0 0 0 0 0 0 1 0 0 0 0 0 0 1 2 1 1 2 2 2 2 4 2 2 6 8 10 5 7 13 9 4 13 3 9 13 12 13 14 8 10 12 12 11 4 8 6 5 0 6 3 2 4 4 0 1 0 0 1 0 0 0 0 0 0 0 0 0 0 1 0 0 0 0 0 0 0 0 0 0 0 
0 0 0 0 0 0 0 0 0 0 0 0 0 0 0 2 0 0 0 0 2 1 1 0 1 1 3 4 11 2 7 9 10 5 6 7 10 15 20 15 20 22 16 21 20 14 20 22 21 16 16 15 14 5 11 14 8 10 7 9 8 7 3 3 1 1 0 0 2 0 0 0 0 1 0 0 0 0 0 0 0 0 0 0 0 0 0 0 0 0 
0 0 0 0 0 0 0 0 0 0 0 0 0 0 0 0 0 1 1 0 2 2 1 1 6 5 8 9 8 9 13 10 22 16 26 33 24 27 36 42 42 39 36 46 45 41 50 38 44 40 34 42 32 31 34 17 28 21 16 11 11 8 4 11 2 2 7 3 2 2 0 1 0 0 0 1 0 0 0 0 0 0 0 0 0 0 0 0 0 0 
0 0 0 0 0 0 0 0 0 0 0 0 0 1 0 0 0 1 0 4 1 5 9 3 12 5 12 13 27 18 22 25 42 36 49 34 53 53 86 80 63 74 68 72 67 96 100 69 80 80 66 56 57 55 41 38 49 39 29 19 26 18 15 17 9 5 2 7 1 4 2 1 2 1 1 0 1 0 0 0 0 0 0 0 0 0 0 0 0 0 
0 0 0 0 0 0 0 0 1 0 0 0 0 0 0 2 2 0 0 4 6 5 8 10 12 13 16 28 38 35 59 47 55 63 76 95 101 118 134 112 126 153 183 133 157 146 139 143 143 147 129 117 104 96 73 69 74 56 66 53 40 30 15 17 20 17 5 4 4 3 2 2 0 3 1 1 0 0 1 0 0 0 0 0 0 0 0 0 0 0 
0 0 0 0 0 0 0 0 0 0 0 0 0 1 1 5 1 4 4 4 4 11 14 13 22 32 22 52 41 57 76 80 111 111 125 147 155 201 182 178 223 238 252 279 280 290 267 271 242 246 214 193 166 184 165 144 130 94 93 73 59 44 46 36 24 16 17 6 12 5 4 4 0 5 1 1 0 0 0 0 0 0 0 0 0 0 0 0 0 0 
0 0 0 0 0 0 0 0 0 0 1 0 1 0 2 0 5 6 7 6 10 10 25 25 42 48 56 64 78 81 91 150 148 202 221 272 267 337 344 352 401 390 448 428 440 426 419 414 404 387 356 332 286 280 262 222 218 162 148 104 123 86 58 49 34 28 23 20 16 14 14 6 1 3 5 4 0 4 0 1 1 0 0 1 0 0 0 0 0 0 
0 0 0 0 0 0 0 1 0 1 0 2 1 1 4 4 6 6 9 11 21 20 22 35 54 78 93 103 120 152 188 233 230 311 331 376 430 471 527 544 589 628 590 646 669 639 625 656 607 604 543 530 459 396 393 397 281 251 191 178 164 134 84 85 70 57 44 38 20 11 11 13 7 2 3 3 1 2 0 0 0 0 0 0 0 0 0 0 0 0 
0 0 0 0 0 0 0 0 0 0 0 0 2 0 4 7 7 9 12 23 31 31 47 55 76 115 120 148 163 235 263 324 403 453 523 558 622 695 704 808 855 908 948 1006 972 964 1006 946 931 875 796 749 737 618 555 492 440 388 345 266 207 198 158 124 87 84 67 48 29 22 15 14 12 6 4 0 3 1 0 4 0 0 1 0 0 0 0 0 0 0 
0 0 0 0 1 0 0 1 0 2 0 2 1 4 3 12 9 10 15 28 33 44 70 85 100 134 198 200 258 334 372 406 525 626 690 777 903 972 1056 1148 1195 1338 1311 1403 1389 1388 1397 1356 1343 1231 1161 1036 1035 900 815 696 634 513 438 349 319 224 202 173 131 119 98 60 50 42 19 23 16 8 9 7 1 3 1 0 1 0 0 0 0 1 0 0 0 0 
0 0 0 0 0 0 0 1 0 0 1 0 3 5 2 11 15 26 27 29 52 66 90 106 146 188 246 299 345 450 526 587 725 824 959 1000 1160 1293 1470 1576 1631 1783 1802 1850 1829 1904 1836 1814 1750 1658 1562 1453 1305 1188 1052 875 867 713 643 538 436 369 289 206 201 133 118 97 64 46 28 32 14 14 12 4 2 3 4 1 0 0 0 0 0 0 0 0 0 0 
0 0 0 0 0 0 0 1 0 1 1 0 4 10 3 14 13 16 25 52 60 73 79 142 192 236 330 334 416 547 644 796 918 991 1171 1339 1531 1686 1880 1970 2166 2248 2240 2310 2305 2380 2355 2265 2253 2111 2003 1865 1641 1565 1354 1255 1078 915 794 686 571 448 382 290 240 206 144 103 66 70 45 31 28 13 12 14 4 4 4 5 1 0 0 0 0 0 0 0 0 0 
0 0 0 0 0 0 0 0 2 1 1 1 4 6 10 18 22 33 41 74 67 109 129 164 219 318 368 423 557 654 823 963 1088 1345 1466 1742 1885 2098 2175 2378 2502 2625 2670 2944 2851 2820 2859 2782 2658 2581 2389 2225 2117 1855 1697 1562 1316 1115 940 802 688 539 455 359 284 250 154 136 98 83 47 38 22 12 15 9 11 8 7 2 0 2 0 0 1 0 1 0 0 0 
0 0 0 0 1 0 0 0 2 2 2 5 9 8 14 19 20 38 41 61 72 103 143 190 259 331 396 539 627 789 936 1089 1272 1424 1687 1941 2118 2412 2521 2835 2896 3100 3186 3192 3373 3251 3275 3223 3148 2986 2880 2623 2291 2173 1933 1695 1531 1314 1059 958 791 636 528 407 337 268 194 138 96 87 61 36 31 21 12 13 11 3 1 1 1 0 0 0 0 1 0 0 0 0 
0 0 0 0 0 1 0 1 2 3 2 3 7 5 13 20 33 37 49 56 103 139 166 222 281 369 441 582 762 829 1015 1213 1446 1626 1892 2080 2372 2597 2873 2907 3274 3431 3569 3496 3585 3680 3574 3557 3385 3279 3075 2789 2572 2421 2196 1847 1648 1405 1106 1004 838 729 580 438 348 282 212 152 130 84 57 48 46 24 9 11 9 9 2 3 3 1 0 0 0 0 0 1 0 0 
0 0 0 0 1 0 1 0 0 1 5 5 5 10 11 14 18 43 55 79 110 133 160 264 300 385 484 624 769 919 1038 1241 1502 1718 1943 2213 2457 2921 2984 3116 3435 3624 3695 3723 3732 3688 3783 3735 3514 3344 3207 3013 2762 2469 2273 1916 1681 1475 1234 1098 889 765 582 482 353 276 192 179 148 114 80 63 42 21 15 21 6 3 6 2 1 3 1 1 0 0 0 0 0 0 
0 0 0 0 0 0 2 1 1 1 4 3 9 9 14 19 21 49 53 63 97 121 184 225 339 361 496 554 756 866 1104 1231 1530 1764 2026 2192 2482 2759 3164 3224 3393 3659 3659 3732 3814 3771 3898 3621 3719 3330 3202 2988 2734 2453 2181 1921 1723 1533 1325 1105 871 717 575 431 380 320 229 153 142 111 83 55 39 33 24 11 7 8 6 2 2 0 0 0 0 0 0 0 0 0 
0 0 1 0 0 0 1 0 1 0 3 5 6 6 13 16 17 32 45 67 88 114 181 206 286 331 419 529 689 862 1001 1222 1428 1665 1883 2120 2407 2552 2835 2977 3250 3492 3641 3568 3544 3613 3692 3529 3358 3250 3164 2783 2701 2350 2133 1863 1577 1400 1183 1004 827 702 551 443 361 294 194 156 108 96 78 57 33 25 20 7 9 4 4 4 2 0 0 1 0 0 0 0 1 0 
0 0 0 0 0 0 0 2 1 3 4 0 7 11 7 16 25 26 44 51 88 117 165 196 269 334 390 520 642 727 951 1057 1235 1472 1698 1970 2164 2375 2607 2804 3035 3220 3187 3185 3293 3299 3314 3246 3058 2922 2846 2693 2390 2079 1911 1642 1550 1294 1081 996 844 601 527 412 318 224 195 156 107 75 61 48 33 15 19 7 9 6 3 3 2 3 1 0 1 0 0 0 0 0 
0 0 0 1 0 0 0 0 3 1 1 1 2 7 8 20 14 33 52 46 75 125 148 169 228 292 365 418 557 666 829 921 1182 1283 1503 1627 1879 2046 2241 2333 2545 2749 2706 2872 2855 2935 2682 2790 2665 2574 2380 2285 2046 1872 1691 1463 1287 1101 930 781 658 573 428 346 305 226 171 129 92 78 60 37 27 16 20 12 8 4 4 6 3 3 0 0 3 0 0 0 0 0 
0 0 0 0 0 0 0 0 0 0 3 1 2 2 9 10 17 19 38 42 67 68 112 142 203 241 298 363 457 561 638 771 930 1081 1232 1366 1559 1656 1755 2049 2107 2143 2293 2297 2423 2413 2354 2187 2153 2094 1945 1813 1682 1453 1359 1209 1055 940 795 650 567 462 373 281 252 168 141 114 87 65 47 30 21 16 12 6 4 3 4 1 1 0 0 0 0 0 0 0 0 0 
0 0 0 0 0 0 0 0 0 1 0 3 1 2 6 10 12 23 27 33 46 72 77 93 144 173 222 283 362 434 514 617 709 785 966 1096 1106 1379 1465 1563 1682 1760 1717 1877 1838 1848 1892 1745 1706 1636 1524 1399 1306 1242 1091 1027 867 741 587 518 450 360 276 214 187 155 106 80 73 46 42 29 19 13 11 10 2 3 3 2 2 0 0 0 0 0 0 0 0 0 
0 0 0 0 0 0 0 0 0 0 1 3 2 2 2 4 11 10 22 20 35 44 68 90 94 118 186 206 268 319 399 448 541 630 683 822 885 982 1126 1107 1246 1327 1354 1257 1382 1357 1357 1270 1295 1290 1163 1058 1022 904 804 706 597 512 448 377 330 293 215 173 135 86 69 48 47 34 24 12 19 6 12 4 4 3 0 0 1 0 0 1 0 0 0 0 0 0 
0 0 0 0 0 0 0 0 0 0 1 2 2 3 4 8 4 9 8 15 24 35 30 48 62 99 124 165 180 191 302 356 385 373 476 533 634 709 849 782 887 902 938 949 1023 986 939 960 916 893 839 724 688 631 553 487 456 398 337 278 212 198 154 119 105 76 44 43 34 27 22 6 12 6 5 3 5 1 0 0 1 0 0 0 0 0 0 0 0 0 
0 0 0 0 0 0 0 0 0 1 1 1 0 2 1 1 4 6 8 12 13 26 24 45 53 62 85 107 113 151 179 223 236 278 352 379 400 505 532 564 545 609 640 684 668 654 667 641 615 586 566 490 483 436 413 338 303 235 220 211 161 114 92 81 60 53 36 35 22 20 7 10 6 2 3 1 2 0 0 0 1 0 0 0 0 0 0 0 0 0 
0 0 0 0 0 0 0 0 0 0 0 0 0 2 0 1 3 4 6 11 11 10 20 28 22 44 48 84 74 100 115 154 178 215 245 234 283 270 319 323 360 400 436 416 440 417 438 422 407 378 363 330 322 288 247 215 196 168 138 125 100 86 71 53 41 37 22 26 14 8 4 7 5 3 0 0 0 1 0 0 0 1 0 0 0 0 0 0 0 0 
0 0 0 0 0 0 0 0 0 0 1 0 1 0 0 0 1 1 4 8 4 9 11 20 23 42 28 46 52 67 83 77 105 110 121 159 154 154 207 206 229 227 268 221 282 257 249 254 230 262 229 170 186 183 162 153 124 120 90 68 62 51 49 32 26 12 14 9 12 10 7 3 4 1 1 4 0 0 1 0 0 0 0 0 0 0 0 0 0 0 
0 0 0 1 0 0 0 0 0 0 0 0 1 0 0 0 2 0 1 2 6 7 7 11 14 14 18 23 32 34 48 54 68 62 74 106 90 108 118 128 128 155 138 153 174 168 156 152 141 147 111 118 97 111 97 68 58 46 51 41 29 32 28 28 12 12 7 7 8 4 4 3 0 1 0 1 0 0 0 0 0 0 0 0 0 0 0 0 0 0 
0 0 0 0 0 0 0 0 0 0 0 0 0 0 1 0 0 0 0 2 1 2 4 3 5 5 12 11 20 17 18 25 36 30 36 48 54 54 64 68 69 87 93 72 90 79 89 83 89 79 67 59 71 49 42 36 41 39 25 19 17 16 17 7 11 7 6 2 0 0 1 0 3 2 0 0 1 0 0 1 0 0 0 0 0 0 0 0 0 0 
0 0 0 0 0 0 0 0 0 0 0 0 0 0 0 1 0 0 0 0 3 3 2 4 5 5 8 9 9 5 10 17 15 16 15 21 23 37 43 28 46 45 54 41 48 55 32 42 36 42 40 39 38 30 22 25 17 12 20 13 14 5 6 6 3 3 1 3 1 4 2 0 0 0 0 1 1 0 0 0 0 0 0 0 0 0 0 0 0 0 
0 0 0 0 0 0 0 0 0 0 0 0 0 0 0 0 0 1 1 0 1 0 0 1 1 4 5 6 6 12 4 4 6 10 12 9 11 25 25 18 11 18 23 25 19 25 18 22 26 14 16 17 15 22 15 11 15 11 8 9 4 4 3 2 2 2 2 1 2 1 0 0 0 0 0 0 0 0 0 0 0 1 0 0 0 0 0 0 0 0 
0 0 0 0 0 0 0 0 0 0 0 0 0 0 0 0 0 1 0 0 1 1 0 0 0 1 3 0 1 3 4 6 3 8 5 5 6 10 7 7 5 13 12 7 8 9 9 7 8 11 7 14 5 9 8 4 6 4 1 3 3 5 2 3 3 4 1 0 0 0 0 0 0 0 0 0 0 0 0 0 0 0 0 0 0 0 0 0 0 0 
0 0 0 0 0 0 0 0 0 0 0 0 0 0 0 0 0 0 1 0 0 0 0 0 0 0 2 1 1 2 1 2 3 2 4 5 4 6 7 7 2 12 8 8 4 7 8 6 9 1 6 3 4 5 3 2 0 4 1 2 1 0 0 0 0 1 0 1 0 0 0 0 0 0 0 0 0 0 0 0 0 0 0 0 0 0 0 0 0 0 
0 0 0 0 0 0 0 0 0 0 0 0 0 0 0 0 0 0 0 0 0 0 1 0 1 0 0 0 0 1 0 0 2 0 2 1 0 3 3 1 3 3 4 3 2 3 0 4 4 3 2 3 1 2 0 0 0 0 0 2 0 1 0 0 1 0 0 0 0 0 0 0 0 0 0 0 0 0 0 0 0 0 0 0 0 0 0 0 0 0 
0 0 0 0 0 0 0 0 0 0 0 0 0 0 0 0 0 0 0 0 0 0 0 0 0 0 0 0 1 0 1 0 0 1 0 0 0 1 2 0 0 0 1 1 0 2 0 1 2 0 1 1 2 0 2 0 0 0 0 0 0 0 0 0 0 1 0 0 0 0 0 0 0 0 0 0 0 0 0 0 0 0 0 0 0 0 0 0 0 0 
0 0 0 0 0 0 0 0 0 0 0 0 0 0 0 0 0 0 0 0 0 0 0 0 0 0 1 0 1 0 0 0 0 1 0 1 1 0 0 0 1 1 1 1 0 0 1 0 1 0 0 0 1 0 2 0 0 0 0 0 0 0 0 0 0 0 0 0 0 0 0 0 0 0 0 0 0 0 0 0 0 0 0 0 0 0 0 0 0 0 
0 0 0 0 0 0 0 0 0 0 0 0 0 0 0 0 0 0 0 0 0 0 0 0 0 0 0 0 0 0 0 0 0 0 0 0 0 0 0 0 0 0 0 0 0 0 1 0 1 0 0 0 0 0 0 0 0 1 0 0 0 0 0 0 0 0 0 0 0 0 0 0 0 0 0 0 0 0 0 0 0 0 0 0 0 0 0 0 0 0 
0 0 0 0 0 0 0 0 0 0 0 0 0 0 0 0 0 0 0 0 0 0 0 0 0 0 0 0 0 0 0 0 0 0 0 0 0 0 0 1 0 0 0 0 0 0 0 0 0 0 0 0 0 0 0 0 0 0 0 0 0 0 0 0 0 0 0 0 0 0 0 0 0 0 0 0 0 0 0 0 0 0 0 0 0 0 0 0 0 0 
0 0 0 0 0 0 0 0 0 0 0 0 0 0 0 0 0 0 0 0 0 0 0 0 0 0 0 0 0 0 0 0 0 0 0 0 0 0 0 0 0 0 0 0 0 0 0 0 0 0 0 0 0 0 0 0 0 0 0 0 0 1 0 0 0 0 0 0 0 0 0 0 0 0 0 0 0 0 0 0 0 0 0 0 0 0 0 0 0 0 
0 0 0 0 0 0 0 0 0 0 0 0 0 0 0 0 0 0 0 0 0 0 0 0 0 0 0 0 0 0 0 0 0 0 0 0 0 0 0 0 0 0 0 0 0 0 0 0 0 0 0 0 0 0 0 0 0 0 0 0 0 0 0 0 0 0 0 0 0 0 0 0 0 0 0 0 0 0 0 0 0 0 0 0 0 0 0 0 0 0 
0 0 0 0 0 0 0 0 0 0 0 0 0 0 0 0 0 0 0 0 0 0 0 0 0 0 0 0 0 0 0 0 0 0 0 0 0 0 0 0 0 0 0 0 0 0 0 0 0 0 0 0 0 0 0 0 0 0 0 0 0 0 0 0 0 0 0 0 0 0 0 0 0 0 0 0 0 0 0 0 0 0 0 0 0 0 0 0 0 0 
0 0 0 0 0 0 0 0 0 0 0 0 0 0 0 0 0 0 0 0 0 0 0 0 0 0 0 0 0 0 0 0 0 0 0 0 0 0 0 0 0 0 0 0 0 0 0 0 0 0 0 0 0 0 0 0 0 0 0 0 0 0 0 0 0 0 0 0 0 0 0 0 0 0 0 0 0 0 0 0 0 0 0 0 0 0 0 0 0 0 
0 0 0 0 0 0 0 0 0 0 0 0 0 0 0 0 0 0 0 0 0 0 0 0 0 0 0 0 0 0 0 0 0 0 0 0 0 0 0 0 0 0 0 0 0 0 0 0 0 0 0 0 0 0 0 0 0 0 0 0 0 0 0 0 0 0 0 0 0 0 0 0 0 0 0 0 0 0 0 0 0 0 0 0 0 0 0 0 0 0 
0 0 0 0 0 0 0 0 0 0 0 0 0 0 0 0 0 0 0 0 0 0 0 0 0 0 0 0 0 0 0 0 0 0 0 0 0 0 0 0 0 0 0 0 0 0 0 0 0 0 0 0 0 0 0 0 0 0 0 0 0 0 0 0 0 0 0 0 0 0 0 0 0 0 0 0 0 0 0 0 0 0 0 0 0 0 0 0 0 0 
0 0 0 0 0 0 0 0 0 0 0 0 0 0 0 0 0 0 0 0 0 0 0 0 0 0 0 0 0 0 0 0 0 0 0 0 0 0 0 0 0 0 0 0 0 0 0 0 0 0 0 0 0 0 0 0 0 0 0 0 0 0 0 0 0 0 0 0 0 0 0 0 0 0 0 0 0 0 0 0 0 0 0 0 0 0 0 0 0 0 
0 0 0 0 0 0 0 0 0 0 0 0 0 0 0 0 0 0 0 0 0 0 0 0 0 0 0 0 0 0 0 0 0 0 0 0 0 0 0 0 0 0 0 0 0 0 0 0 0 0 0 0 0 0 0 0 0 0 0 0 0 0 0 0 0 0 0 0 0 0 0 0 0 0 0 0 0 0 0 0 0 0 0 0 0 0 0 0 0 0 
0 0 0 0 0 0 0 0 0 0 0 0 0 0 0 0 0 0 0 0 0 0 0 0 0 0 0 0 0 0 0 0 0 0 0 0 0 0 0 0 0 0 0 0 0 0 0 0 0 0 0 0 0 0 0 0 0 0 0 0 0 0 0 0 0 0 0 0 0 0 0 0 0 0 0 0 0 0 0 0 0 0 0 0 0 0 0 0 0 0 
0 0 0 0 0 0 0 0 0 0 0 0 0 0 0 0 0 0 0 0 0 0 0 0 0 0 0 0 0 0 0 0 0 0 0 0 0 0 0 0 0 0 0 0 0 0 0 0 0 0 0 0 0 0 0 0 0 0 0 0 0 0 0 0 0 0 0 0 0 0 0 0 0 0 0 0 0 0 0 0 0 0 0 0 0 0 0 0 0 0 
0 0 0 0 0 0 0 0 0 0 0 0 0 0 0 0 0 0 0 0 0 0 0 0 0 0 0 0 0 0 0 0 0 0 0 0 0 0 0 0 0 0 0 0 0 0 0 0 0 0 0 0 0 0 0 0 0 0 0 0 0 0 0 0 0 0 0 0 0 0 0 0 0 0 0 0 0 0 0 0 0 0 0 0 0 0 0 0 0 0 
0 0 0 0 0 0 0 0 0 0 0 0 0 0 0 0 0 0 0 0 0 0 0 0 0 0 0 0 0 0 0 0 0 0 0 0 0 0 0 0 0 0 0 0 0 0 0 0 0 0 0 0 0 0 0 0 0 0 0 0 0 0 0 0 0 0 0 0 0 0 0 0 0 0 0 0 0 0 0 0 0 0 0 0 0 0 0 0 0 0 
0 0 0 0 0 0 0 0 0 0 0 0 0 0 0 0 0 0 0 0 0 0 0 0 0 0 0 0 0 0 0 0 0 0 0 0 0 0 0 0 0 0 0 0 0 0 0 0 0 0 0 0 0 0 0 0 0 0 0 0 0 0 0 0 0 0 0 0 0 0 0 0 0 0 0 0 0 0 0 0 0 0 0 0 0 0 0 0 0 0 
0 0 0 0 0 0 0 0 0 0 0 0 0 0 0 0 0 0 0 0 0 0 0 0 0 0 0 0 0 0 0 0 0 0 0 0 0 0 0 0 0 0 0 0 0 0 0 0 0 0 0 0 0 0 0 0 0 0 0 0 0 0 0 0 0 0 0 0 0 0 0 0 0 0 0 0 0 0 0 0 0 0 0 0 0 0 0 0 0 0 
0 0 0 0 0 0 0 0 0 0 0 0 0 0 0 0 0 0 0 0 0 0 0 0 0 0 0 0 0 0 0 0 0 0 0 0 0 0 0 0 0 0 0 0 0 0 0 0 0 0 0 0 0 0 0 0 0 0 0 0 0 0 0 0 0 0 0 0 0 0 0 0 0 0 0 0 0 0 0 0 0 0 0 0 0 0 0 0 0 0 
0 0 0 0 0 0 0 0 0 0 0 0 0 0 0 0 0 0 0 0 0 0 0 0 0 0 0 0 0 0 0 0 0 0 0 0 0 0 0 0 0 0 0 0 0 0 0 0 0 0 0 0 0 0 0 0 0 0 0 0 0 0 0 0 0 0 0 0 0 0 0 0 0 0 0 0 0 0 0 0 0 0 0 0 0 0 0 0 0 0 
0 0 0 0 0 0 0 0 0 0 0 0 0 0 0 0 0 0 0 0 0 0 0 0 0 0 0 0 0 0 0 0 0 0 0 0 0 0 0 0 0 0 0 0 0 0 0 0 0 0 0 0 0 0 0 0 0 0 0 0 0 0 0 0 0 0 0 0 0 0 0 0 0 0 0 0 0 0 0 0 0 0 0 0 0 0 0 0 0 0 
0 0 0 0 0 0 0 0 0 0 0 0 0 0 0 0 0 0 0 0 0 0 0 0 0 0 0 0 0 0 0 0 0 0 0 0 0 0 0 0 0 0 0 0 0 0 0 0 0 0 0 0 0 0 0 0 0 0 0 0 0 0 0 0 0 0 0 0 0 0 0 0 0 0 0 0 0 0 0 0 0 0 0 0 0 0 0 0 0 0 
0 0 0 0 0 0 0 0 0 0 0 0 0 0 0 0 0 0 0 0 0 0 0 0 0 0 0 0 0 0 0 0 0 0 0 0 0 0 0 0 0 0 0 0 0 0 0 0 0 0 0 0 0 0 0 0 0 0 0 0 0 0 0 0 0 0 0 0 0 0 0 0 0 0 0 0 0 0 0 0 0 0 0 0 0 0 0 0 0 0 
0 0 0 0 0 0 0 0 0 0 0 0 0 0 0 0 0 0 0 0 0 0 0 0 0 0 0 0 0 0 0 0 0 0 0 0 0 0 0 0 0 0 0 0 0 0 0 0 0 0 0 0 0 0 0 0 0 0 0 0 0 0 0 0 0 0 0 0 0 0 0 0 0 0 0 0 0 0 0 0 0 0 0 0 0 0 0 0 0 0 
0 0 0 0 0 0 0 0 0 0 0 0 0 0 0 0 0 0 0 0 0 0 0 0 0 0 0 0 0 0 0 0 0 0 0 0 0 0 0 0 0 0 0 0 0 0 0 0 0 0 0 0 0 0 0 0 0 0 0 0 0 0 0 0 0 0 0 0 0 0 0 0 0 0 0 0 0 0 0 0 0 0 0 0 0 0 0 0 0 0 
0 0 0 0 0 0 0 0 0 0 0 0 0 0 0 0 0 0 0 0 0 0 0 0 0 0 0 0 0 0 0 0 0 0 0 0 0 0 0 0 0 0 0 0 0 0 0 0 0 0 0 0 0 0 0 0 0 0 0 0 0 0 0 0 0 0 0 0 0 0 0 0 0 0 0 0 0 0 0 0 0 0 0 0 0 0 0 0 0 0 
0 0 0 0 0 0 0 0 0 0 0 0 0 0 0 0 0 0 0 0 0 0 0 0 0 0 0 0 0 0 0 0 0 0 0 0 0 0 0 0 0 0 0 0 0 0 0 0 0 0 0 0 0 0 0 0 0 0 0 0 0 0 0 0 0 0 0 0 0 0 0 0 0 0 0 0 0 0 0 0 0 0 0 0 0 0 0 0 0 0 
# EndDate:Wed Jan 23 14:17:50 2013
