# Format: McStas with text headers file. Use mcplot/PGPLOT to view.
# URL:    http://www.mccode.org/
# Editor: erkn on localhost
# Creator:Test_src_gaussian (Test_src_gaussian.instr) simulation (McXtrace x.y.z - Jan. 22, 2013)
# Date:   Simulation started (1359622610) Thu Jan 31 09:56:50 2013
# File:   lmon1.dat
# Ncount: 1e+06
# Trace: no
# Gravitation: no
# Seed: 1359622597
# Param: XW=0
# Param: YH=0
# Param: DIST=10
# Param: SRC=2
# Param: E0=6.1
# type: array_1d(100)
# Source: Test_src_gaussian.instr
# component: lmon1
# position: 0 0 9.998
# title: Wavelength monitor
# Ncount: 1e+06
# filename: lmon1.dat
# format: McStas with text headers
# statistics: X0=1.45448; dX=0.274179;
# signal: Min=0; Max=4.98248e+14; Mean=1.72512e+14;
# values: 1.72512e+16 2.51147e+13 484075
# xvar: L
# yvar: (I,I_err)
# xlabel: Wavelength [AA]
# ylabel: Intensity
# xlimits: 0 2
# variables: L I I_err N
# Data [lmon1_dat/lmon1.dat] I: 
0.01 0 0 0 
0.03 0 0 0 
0.05 0 0 0 
0.07 0 0 0 
0.09 0 0 0 
0.11 0 0 0 
0.13 0 0 0 
0.15 0 0 0 
0.17 0 0 0 
0.19 0 0 0 
0.21 0 0 0 
0.23 0 0 0 
0.25 0 0 0 
0.27 0 0 0 
0.29 0 0 0 
0.31 0 0 0 
0.33 0 0 0 
0.35 0 0 0 
0.37 0 0 0 
0.39 0 0 0 
0.41 0 0 0 
0.43 0 0 0 
0.45 0 0 0 
0.47 0 0 0 
0.49 0 0 0 
0.51 0 0 0 
0.53 0 0 0 
0.55 0 0 0 
0.57 0 0 0 
0.59 0 0 0 
0.61 0 0 0 
0.63 0 0 0 
0.65 0 0 0 
0.67 0 0 0 
0.69 0 0 0 
0.71 0 0 0 
0.73 0 0 0 
0.75 0 0 0 
0.77 0 0 0 
0.79 0 0 0 
0.81 0 0 0 
0.83 0 0 0 
0.85 0 0 0 
0.87 0 0 0 
0.89 0 0 0 
0.91 0 0 0 
0.93 0 0 0 
0.95 0 0 0 
0.97 0 0 0 
0.99 0 0 0 
1.01 0 0 0 
1.03 1.72082778498e+14 2.10786997129e+12 6665 
1.05 4.98247783848e+14 3.63019481219e+12 18839 
1.07 4.90504259944e+14 3.64952060438e+12 18065 
1.09 4.90998205003e+14 3.69756087621e+12 17634 
1.11 4.77209365159e+14 3.68930747795e+12 16732 
1.13 4.69472635069e+14 3.70118815346e+12 16090 
1.15 4.63107285661e+14 3.71624206874e+12 15530 
1.17 4.62131708498e+14 3.75128604872e+12 15177 
1.19 4.49793382865e+14 3.73745086259e+12 14484 
1.21 4.43598871105e+14 3.73388689006e+12 14115 
1.23 4.42865285847e+14 3.76958988666e+12 13805 
1.25 4.31956186381e+14 3.76401997505e+12 13170 
1.27 4.32577523484e+14 3.79809052118e+12 12972 
1.29 4.25016604975e+14 3.79482889218e+12 12544 
1.31 4.13837119304e+14 3.77311888715e+12 12030 
1.33 4.11149742541e+14 3.78818383767e+12 11780 
1.35 4.02163665708e+14 3.77276514745e+12 11363 
1.37 3.94810534015e+14 3.76302956985e+12 11008 
1.39 3.86611651803e+14 3.7477118119e+12 10642 
1.41 3.82324039663e+14 3.74973870512e+12 10396 
1.43 3.73735602437e+14 3.72936728072e+12 10043 
1.45 3.66163183433e+14 3.71210609099e+12 9730 
1.47 3.61197008609e+14 3.70699181489e+12 9494 
1.49 3.57617218573e+14 3.7077356868e+12 9303 
1.51 3.5296344553e+14 3.70190823096e+12 9091 
1.53 3.42852399441e+14 3.66609791323e+12 8746 
1.55 3.38697668412e+14 3.66037833274e+12 8562 
1.57 3.38780038337e+14 3.6769774459e+12 8489 
1.59 3.26292422485e+14 3.62391586507e+12 8107 
1.61 3.28268589919e+14 3.64946676379e+12 8091 
1.63 3.1533402015e+14 3.59100907881e+12 7711 
1.65 3.17884746264e+14 3.61888316296e+12 7716 
1.67 3.0513941372e+14 3.55849969002e+12 7353 
1.69 3.04266143357e+14 3.56557102212e+12 7282 
1.71 2.93893824151e+14 3.51597599166e+12 6987 
1.73 2.95133121206e+14 3.53459739821e+12 6972 
1.75 2.90832558601e+14 3.51937155106e+12 6829 
1.77 2.77904435968e+14 3.45043730456e+12 6487 
1.79 2.80562092392e+14 3.4767408882e+12 6512 
1.81 2.77490865864e+14 3.46701543106e+12 6406 
1.83 2.68998628033e+14 3.42264400518e+12 6177 
1.85 2.65570732448e+14 3.40924216909e+12 6068 
1.87 2.61268305825e+14 3.38938427705e+12 5942 
1.89 2.48495950182e+14 3.31328213536e+12 5625 
1.91 2.53177437745e+14 3.35165610608e+12 5706 
1.93 2.5408057035e+14 3.36479159985e+12 5702 
1.95 2.44240083091e+14 3.30567890145e+12 5459 
1.97 2.37355980046e+14 3.26496054888e+12 5285 
1.99 2.32561913194e+14 3.237845108e+12 5159 
# EndDate:Thu Jan 31 09:56:50 2013
