# Format: McStas with text headers file. Use mcplot/PGPLOT to view.
# URL:    http://www.mccode.org/
# Editor: erkn on localhost
# Creator:Test_src_gaussian (Test_src_gaussian.instr) simulation (McXtrace x.y.z - Jan. 22, 2013)
# Date:   Simulation started (1358950717) Wed Jan 23 15:18:37 2013
# File:   lmon2.dat
# Ncount: 250000
# Trace: no
# Gravitation: no
# Seed: 1358950712
# Param: XW=0.01
# Param: YH=0.01
# Param: DIST=10
# Param: SRC=2
# Param: E0=1.9
# type: array_1d(100)
# Source: Test_src_gaussian.instr
# component: lmon2
# position: 0 0 10.002
# title: Wavelength monitor
# Ncount: 250000
# filename: lmon2.dat
# format: McStas with text headers
# statistics: X0=1.42941; dX=0.270154;
# signal: Min=0; Max=1.09277e+11; Mean=3.2717e+10;
# values: 3.2717e+12 4.14223e+10 6267
# xvar: L
# yvar: (I,I_err)
# xlabel: Wavelength [AA]
# ylabel: Intensity
# xlimits: 0 2
# variables: L I I_err N
# Data [lmon2_dat/lmon2.dat] I: 
0.01 0 0 0 
0.03 0 0 0 
0.05 0 0 0 
0.07 0 0 0 
0.09 0 0 0 
0.11 0 0 0 
0.13 0 0 0 
0.15 0 0 0 
0.17 0 0 0 
0.19 0 0 0 
0.21 0 0 0 
0.23 0 0 0 
0.25 0 0 0 
0.27 0 0 0 
0.29 0 0 0 
0.31 0 0 0 
0.33 0 0 0 
0.35 0 0 0 
0.37 0 0 0 
0.39 0 0 0 
0.41 0 0 0 
0.43 0 0 0 
0.45 0 0 0 
0.47 0 0 0 
0.49 0 0 0 
0.51 0 0 0 
0.53 0 0 0 
0.55 0 0 0 
0.57 0 0 0 
0.59 0 0 0 
0.61 0 0 0 
0.63 0 0 0 
0.65 0 0 0 
0.67 0 0 0 
0.69 0 0 0 
0.71 0 0 0 
0.73 0 0 0 
0.75 0 0 0 
0.77 0 0 0 
0.79 0 0 0 
0.81 0 0 0 
0.83 0 0 0 
0.85 0 0 0 
0.87 0 0 0 
0.89 0 0 0 
0.91 0 0 0 
0.93 0 0 0 
0.95 0 0 0 
0.97 0 0 0 
0.99 0 0 0 
1.01 0 0 0 
1.03 40407050140.9 4235839500.08 91 
1.05 105573223690 6901623287.28 234 
1.07 102306342924 6851010181.73 223 
1.09 104878644089 6991977359.35 225 
1.11 98901102378.1 6841197546.17 209 
1.13 97439295143.9 6838956394.61 203 
1.15 101152010969 7013674844.87 208 
1.17 109277282915 7334250045.68 222 
1.19 85583834545.2 6525739400.48 172 
1.21 80133001755.2 6335125738.43 160 
1.23 86644822639.7 6626070332.64 171 
1.25 83036146412.8 6523954301.97 162 
1.27 95070381152.6 7008700076.72 184 
1.29 74989955803.2 6249177101.59 144 
1.31 84494197654.5 6659089963.37 161 
1.33 94033329474.7 7048108585.06 178 
1.35 86663189290 6787994273.85 163 
1.37 67382347361.1 6002904231.01 126 
1.39 86019719063.9 6800463425.48 160 
1.41 70223802742.7 6159040464.41 130 
1.43 73233592544.9 6302949002.53 135 
1.45 72435210018.5 6280933102.28 133 
1.47 74908744506.3 6399889204.21 137 
1.49 65279704547 5984182901.92 119 
1.51 60517108077 5770081481.3 110 
1.53 60677012041.2 5785327475.77 110 
1.55 66904946156.1 6082269086.48 121 
1.57 52080943681.3 5371739907.57 94 
1.59 52727270024.8 5409704349.41 95 
1.61 64480353061.2 5986850928 116 
1.63 60661532046.4 5810321297.02 109 
1.65 56274070038.4 5599479530.16 101 
1.67 49068112720.8 5230678478.76 88 
1.69 48539039935 5203931342.12 87 
1.71 47999360910.5 5175904235.82 86 
1.73 41866582388.5 4834336528.06 75 
1.75 52474946224.9 5412377457.06 94 
1.77 56369898721.6 5609014575.08 101 
1.79 49657848067.4 5263721397.44 89 
1.81 47403309432.4 5141610881.07 85 
1.83 41796878430.3 4826287895.18 75 
1.85 38979379737.8 4658927136.44 70 
1.87 45057683357.4 5006409478.11 81 
1.89 35561014998.1 4445127202.09 64 
1.91 39959925790.3 4709322679.16 72 
1.93 42124469704.7 4832008449.95 76 
1.95 38739969239.4 4630312427.56 70 
1.97 41991805310.8 4816790979.44 76 
1.99 39715882947.4 4680562204.64 72 
# EndDate:Wed Jan 23 15:18:37 2013
