# Format: McStas with text headers file. Use mcplot/PGPLOT to view.
# URL:    http://www.mccode.org/
# Editor: erkn on localhost
# Creator:Test_src_gaussian (Test_src_gaussian.instr) simulation (McXtrace x.y.z - Jan. 22, 2013)
# Date:   Simulation started (1358946340) Wed Jan 23 14:05:40 2013
# File:   emon2.dat
# Ncount: 250000
# Trace: no
# Gravitation: no
# Seed: 1358946335
# Param: XW=0.01
# Param: YH=0.01
# Param: DIST=10
# Param: SRC=2
# Param: E0=5
# type: array_1d(100)
# Source: Test_src_gaussian.instr
# component: emon2
# position: 0 0 10.001
# title: Energy monitor
# Ncount: 250000
# filename: emon2.dat
# format: McStas with text headers
# statistics: X0=6.92675; dX=2.93449;
# signal: Min=0; Max=1.26783e+11; Mean=5.39651e+10;
# values: 5.39651e+12 5.11643e+10 12474
# xvar: E
# yvar: (I,I_err)
# xlabel: Energy [keV]
# ylabel: Intensity
# xlimits: 0 20
# variables: E I I_err N
# Data [emon2_dat/emon2.dat] I: 
0.1 1724020774.16 148849077.573 188 
0.3 6085620789.4 461191492.104 183 
0.5 12180859964.5 864296329.669 202 
0.7 19960504280.7 1329840174.48 227 
0.9 22376268315.4 1614842731.33 193 
1.1 33033902429.2 2191054432.59 228 
1.3 36724460041.6 2519105759.12 213 
1.5 34622983575.7 2634666466.21 173 
1.7 46242720298.3 3247581296.11 203 
1.9 50019886602.9 3547338277.36 199 
2.1 61044800455 4116958035.82 220 
2.3 59155565393.6 4226337921.45 196 
2.5 70125226308.2 4772456946.19 216 
2.7 74941298232.7 5099891606.97 216 
2.9 80505175580.9 5440732170.77 219 
3.1 87916674624.5 5835866742.28 227 
3.3 78721943665.6 5652356867.41 194 
3.5 87540009561.3 6084884054.56 207 
3.7 88670430543.1 6239130758.86 202 
3.9 93576723904.3 6520049410.75 206 
4.1 98292753941.8 6783082106.22 210 
4.3 96656828451.1 6817829600.03 201 
4.5 96525487057.3 6894815381.73 196 
4.7 106091840647 7303791027.26 211 
4.9 103495248607 7281999071.71 202 
5.1 99498166018.9 7199509320.24 191 
5.3 106664654404 7504948315.86 202 
5.5 103255357892 7432528123.88 193 
5.7 125394891210 8232609819.94 232 
5.9 113440590677 7865709670.78 208 
6.1 118136716381 8056867790.38 215 
6.3 114383172198 7950189031.22 207 
6.5 117685094996 8082649820.46 212 
6.7 110807089444 7854908507.04 199 
6.9 122166796542 8255267631.75 219 
7.1 112201076641 7914053782.94 201 
7.3 123319411961 8295361623.88 221 
7.5 119802275184 8170448677.01 215 
7.7 123949468031 8300273387.58 223 
7.9 109129355260 7775148508.36 197 
8.1 111979746001 7859445043.54 203 
8.3 126783387564 8341744603.92 231 
8.5 112893608064 7846660831.46 207 
8.7 112174085562 7796654223.5 207 
8.9 112954632215 7794628399.36 210 
9.1 121071820395 8035843342.55 227 
9.3 97884434771.8 7196630102.86 185 
9.5 103719167658 7371031822.02 198 
9.7 109968904921 7552729369.44 212 
9.9 112865080275 7609403524.5 220 
10.1 107157029282 7359815394.26 212 
10.3 111026108539 7451622183.27 222 
10.5 97046994801.5 6931975104.45 196 
10.7 111448618354 7380919027.33 228 
10.9 106051583830 7150054973.48 220 
11.1 100352295592 6908592503.46 211 
11.3 96583840022.1 6729376920.44 206 
11.5 104840978787 6958604313.14 227 
11.7 89621589389.8 6385337912.1 197 
11.9 84023572947.7 6128174904.28 188 
12.1 0 0 0 
12.3 0 0 0 
12.5 0 0 0 
12.7 0 0 0 
12.9 0 0 0 
13.1 0 0 0 
13.3 0 0 0 
13.5 0 0 0 
13.7 0 0 0 
13.9 0 0 0 
14.1 0 0 0 
14.3 0 0 0 
14.5 0 0 0 
14.7 0 0 0 
14.9 0 0 0 
15.1 0 0 0 
15.3 0 0 0 
15.5 0 0 0 
15.7 0 0 0 
15.9 0 0 0 
16.1 0 0 0 
16.3 0 0 0 
16.5 0 0 0 
16.7 0 0 0 
16.9 0 0 0 
17.1 0 0 0 
17.3 0 0 0 
17.5 0 0 0 
17.7 0 0 0 
17.9 0 0 0 
18.1 0 0 0 
18.3 0 0 0 
18.5 0 0 0 
18.7 0 0 0 
18.9 0 0 0 
19.1 0 0 0 
19.3 0 0 0 
19.5 0 0 0 
19.7 0 0 0 
19.9 0 0 0 
# EndDate:Wed Jan 23 14:05:40 2013
