# Format: McStas with text headers file. Use mcplot/PGPLOT to view.
# URL:    http://www.mccode.org/
# Editor: erkn on localhost
# Creator:Test_src_gaussian (Test_src_gaussian.instr) simulation (McXtrace x.y.z - Jan. 22, 2013)
# Date:   Simulation started (1358950264) Wed Jan 23 15:11:04 2013
# File:   psd1.dat
# Ncount: 250000
# Trace: no
# Gravitation: no
# Seed: 1358950259
# Param: XW=0.01
# Param: YH=0.01
# Param: DIST=10
# Param: SRC=2
# Param: E0=8.57119
# type: array_2d(90, 90)
# Source: Test_src_gaussian.instr
# component: psd1
# position: 0 0 9.999
# title: PSD monitor
# Ncount: 250000
# filename: psd1.dat
# format: McStas with text headers
# statistics: X0=-1.26734e-05; dX=0.0100465; Y0=3.06729e-06; dY=0.00503835;
# signal: Min=0; Max=1.68344e+12; Mean=5.31318e+10;
# values: 4.30368e+14 4.56634e+11 999999
# xvar: X 
# yvar: Y 
# xlabel: X position [m]
# ylabel: Y position [m]
# zvar: I
# zlabel: Signal per bin
# xylimits: -0.05 0.05 -0.05 0.05
# variables: I I_err N
# Data [psd1_dat/psd1.dat] I: 
0 0 0 0 0 0 0 0 0 0 0 0 0 0 0 0 0 0 0 0 0 0 0 0 0 0 0 0 0 0 0 0 0 0 0 0 0 0 0 0 0 0 0 0 0 0 0 0 0 0 0 0 0 0 0 0 0 0 0 0 0 0 0 0 0 0 0 0 0 0 0 0 0 0 0 0 0 0 0 0 0 0 0 0 0 0 0 0 0 0 
0 0 0 0 0 0 0 0 0 0 0 0 0 0 0 0 0 0 0 0 0 0 0 0 0 0 0 0 0 0 0 0 0 0 0 0 0 0 0 0 0 0 0 0 0 0 0 0 0 0 0 0 0 0 0 0 0 0 0 0 0 0 0 0 0 0 0 0 0 0 0 0 0 0 0 0 0 0 0 0 0 0 0 0 0 0 0 0 0 0 
0 0 0 0 0 0 0 0 0 0 0 0 0 0 0 0 0 0 0 0 0 0 0 0 0 0 0 0 0 0 0 0 0 0 0 0 0 0 0 0 0 0 0 0 0 0 0 0 0 0 0 0 0 0 0 0 0 0 0 0 0 0 0 0 0 0 0 0 0 0 0 0 0 0 0 0 0 0 0 0 0 0 0 0 0 0 0 0 0 0 
0 0 0 0 0 0 0 0 0 0 0 0 0 0 0 0 0 0 0 0 0 0 0 0 0 0 0 0 0 0 0 0 0 0 0 0 0 0 0 0 0 0 0 0 0 0 0 0 0 0 0 0 0 0 0 0 0 0 0 0 0 0 0 0 0 0 0 0 0 0 0 0 0 0 0 0 0 0 0 0 0 0 0 0 0 0 0 0 0 0 
0 0 0 0 0 0 0 0 0 0 0 0 0 0 0 0 0 0 0 0 0 0 0 0 0 0 0 0 0 0 0 0 0 0 0 0 0 0 0 0 0 0 0 0 0 0 0 0 0 0 0 0 0 0 0 0 0 0 0 0 0 0 0 0 0 0 0 0 0 0 0 0 0 0 0 0 0 0 0 0 0 0 0 0 0 0 0 0 0 0 
0 0 0 0 0 0 0 0 0 0 0 0 0 0 0 0 0 0 0 0 0 0 0 0 0 0 0 0 0 0 0 0 0 0 0 0 0 0 0 0 0 0 0 0 0 0 0 0 0 0 0 0 0 0 0 0 0 0 0 0 0 0 0 0 0 0 0 0 0 0 0 0 0 0 0 0 0 0 0 0 0 0 0 0 0 0 0 0 0 0 
0 0 0 0 0 0 0 0 0 0 0 0 0 0 0 0 0 0 0 0 0 0 0 0 0 0 0 0 0 0 0 0 0 0 0 0 0 0 0 0 0 0 0 0 0 0 0 0 0 0 0 0 0 0 0 0 0 0 0 0 0 0 0 0 0 0 0 0 0 0 0 0 0 0 0 0 0 0 0 0 0 0 0 0 0 0 0 0 0 0 
0 0 0 0 0 0 0 0 0 0 0 0 0 0 0 0 0 0 0 0 0 0 0 0 0 0 0 0 0 0 0 0 0 0 0 0 0 0 0 0 0 0 0 0 0 0 0 0 0 0 0 0 0 0 0 0 0 0 0 0 0 0 0 0 0 0 0 0 0 0 0 0 0 0 0 0 0 0 0 0 0 0 0 0 0 0 0 0 0 0 
0 0 0 0 0 0 0 0 0 0 0 0 0 0 0 0 0 0 0 0 0 0 0 0 0 0 0 0 0 0 0 0 0 0 0 0 0 0 0 0 0 0 0 0 0 0 0 0 0 0 0 0 0 0 0 0 0 0 0 0 0 0 0 0 0 0 0 0 0 0 0 0 0 0 0 0 0 0 0 0 0 0 0 0 0 0 0 0 0 0 
0 0 0 0 0 0 0 0 0 0 0 0 0 0 0 0 0 0 0 0 0 0 0 0 0 0 0 0 0 0 0 0 0 0 0 0 0 0 0 0 0 0 0 0 0 0 0 0 0 0 0 0 0 0 0 0 0 0 0 0 0 0 0 0 0 0 0 0 0 0 0 0 0 0 0 0 0 0 0 0 0 0 0 0 0 0 0 0 0 0 
0 0 0 0 0 0 0 0 0 0 0 0 0 0 0 0 0 0 0 0 0 0 0 0 0 0 0 0 0 0 0 0 0 0 0 0 0 0 0 0 0 0 0 0 0 0 0 0 0 0 0 0 0 0 0 0 0 0 0 0 0 0 0 0 0 0 0 0 0 0 0 0 0 0 0 0 0 0 0 0 0 0 0 0 0 0 0 0 0 0 
0 0 0 0 0 0 0 0 0 0 0 0 0 0 0 0 0 0 0 0 0 0 0 0 0 0 0 0 0 0 0 0 0 0 0 0 0 0 0 0 0 0 0 0 0 0 0 0 0 0 0 0 0 0 0 0 0 0 0 0 0 0 0 0 0 0 0 0 0 0 0 0 0 0 0 0 0 0 0 0 0 0 0 0 0 0 0 0 0 0 
0 0 0 0 0 0 0 0 0 0 0 0 0 0 0 0 0 0 0 0 0 0 0 0 0 0 0 0 0 0 0 0 0 0 0 0 0 0 0 0 0 0 0 0 0 0 0 0 0 0 0 0 0 0 0 0 0 0 0 0 0 0 0 0 0 0 0 0 0 0 0 0 0 0 0 0 0 0 0 0 0 0 0 0 0 0 0 0 0 0 
0 0 0 0 0 0 0 0 0 0 0 0 0 0 0 0 0 0 0 0 0 0 0 0 0 0 0 0 0 0 0 0 0 0 0 0 0 0 0 0 0 0 0 0 0 0 0 0 0 0 0 0 0 0 0 0 0 0 0 0 0 0 0 0 0 0 0 0 0 0 0 0 0 0 0 0 0 0 0 0 0 0 0 0 0 0 0 0 0 0 
0 0 0 0 0 0 0 0 0 0 0 0 0 0 0 0 0 0 0 0 0 0 0 0 0 0 0 0 0 0 0 0 0 0 0 0 0 0 0 0 0 0 0 0 0 0 0 0 0 0 0 0 0 0 0 0 0 0 0 0 0 0 0 0 0 0 0 0 0 0 0 0 0 0 0 0 0 0 0 0 0 0 0 0 0 0 0 0 0 0 
0 0 0 0 0 0 0 0 0 0 0 0 0 0 0 0 0 0 0 0 0 0 0 0 0 0 0 0 0 0 0 0 0 0 0 0 0 0 0 0 0 0 0 0 0 0 0 0 0 0 0 0 0 0 0 0 0 0 0 0 0 0 0 0 0 0 0 0 0 0 0 0 0 0 0 0 0 0 0 0 0 0 0 0 0 0 0 0 0 0 
0 0 0 0 0 0 0 0 0 0 0 0 0 0 0 0 0 0 0 0 0 0 0 0 0 0 0 0 0 0 0 0 0 0 0 0 0 0 0 0 0 0 0 0 0 0 0 0 0 0 0 0 0 0 0 0 0 0 0 0 0 0 0 0 0 0 0 0 0 0 0 0 0 0 0 0 0 0 0 0 0 0 0 0 0 0 0 0 0 0 
0 0 0 0 0 0 0 0 0 0 0 0 0 0 0 0 0 0 0 0 0 0 0 0 0 0 0 0 0 0 0 0 0 0 0 0 0 0 0 0 0 0 0 0 0 0 0 0 0 0 0 0 0 0 0 0 0 0 0 0 0 0 0 0 0 0 0 0 0 0 0 0 0 0 0 0 0 0 0 0 0 0 0 0 0 0 0 0 0 0 
0 0 0 0 0 0 0 0 0 0 0 0 0 0 0 0 0 0 0 0 0 0 0 0 0 0 0 0 0 0 0 0 0 0 0 0 0 0 0 0 0 0 0 0 0 0 0 0 0 0 0 0 0 0 0 0 0 0 0 0 0 0 0 0 0 0 0 0 0 0 0 0 0 0 0 0 0 0 0 0 0 0 0 0 0 0 0 0 0 0 
0 0 0 0 0 0 0 0 0 0 0 0 0 0 0 0 0 0 0 0 0 0 0 0 0 0 0 0 0 0 0 0 0 0 0 0 0 0 0 0 0 0 0 0 0 0 0 0 0 0 0 0 0 0 0 0 0 0 0 0 0 0 0 0 0 0 0 0 0 0 0 0 0 0 0 0 0 0 0 0 0 0 0 0 0 0 0 0 0 0 
0 0 0 0 0 0 0 0 0 0 0 0 0 0 0 0 0 0 0 0 0 0 0 0 0 0 0 0 0 0 0 0 0 0 0 0 0 0 0 0 0 0 0 0 0 0 0 0 0 0 0 0 0 0 0 0 0 0 0 0 0 0 0 0 0 0 0 0 0 0 0 0 0 0 0 0 0 0 0 0 0 0 0 0 0 0 0 0 0 0 
0 0 0 0 0 0 0 0 0 0 0 0 0 0 0 0 0 0 0 0 0 0 0 0 0 0 0 0 0 0 0 0 0 0 0 0 0 0 0 0 0 0 0 0 0 0 0 0 0 0 0 0 0 0 0 0 0 0 0 0 0 0 0 0 0 0 0 0 0 0 0 0 0 0 0 0 0 0 0 0 0 0 0 0 0 0 0 0 0 0 
0 0 0 0 0 0 0 0 0 0 0 0 0 0 0 0 0 0 0 0 0 0 0 0 0 0 0 0 0 0 0 0 0 0 0 0 0 0 0 0 0 0 0 0 0 0 0 0 0 0 0 0 0 0 0 0 0 0 0 0 0 0 0 0 0 0 0 0 0 0 0 0 0 0 0 0 0 0 0 0 0 0 0 0 0 0 0 0 0 0 
0 0 0 0 0 0 0 0 0 0 0 0 0 0 0 0 0 0 0 0 0 0 0 0 0 0 0 0 0 0 0 0 0 0 0 0 0 0 0 0 0 0 0 0 0 0 0 0 0 0 0 0 0 0 0 0 0 0 0 0 0 0 0 0 0 0 0 0 0 0 0 0 0 0 0 0 0 0 0 0 0 0 0 0 0 0 0 0 0 0 
0 0 0 0 0 0 0 0 0 0 0 0 0 0 0 0 0 0 0 0 0 0 0 0 0 0 0 0 0 0 0 0 499237836.164 0 0 0 0 204675466.601 0 0 0 0 0 294347029.435 0 552378967.57 552484742.543 0 0 0 0 0 0 0 0 0 0 0 0 0 0 0 0 0 0 0 0 0 0 0 0 0 0 0 0 0 0 0 0 0 0 0 0 0 0 0 0 0 0 0 
0 0 0 0 0 0 0 0 0 0 0 0 0 0 0 0 0 0 0 0 0 0 0 0 0 0 0 0 0 0 0 0 0 0 439137419.973 0 0 0 0 287477595.25 0 468100158.933 0 0 358045156.964 0 1106422431.25 0 0 0 83633799.3921 0 0 0 0 0 0 0 0 0 0 0 0 0 0 0 0 0 0 38469474.9487 0 0 0 0 0 0 0 0 0 0 0 0 0 0 0 0 0 0 0 0 
0 0 0 0 0 0 0 0 0 0 0 0 0 0 0 0 0 0 0 0 0 0 0 0 0 0 0 0 0 0 0 0 0 74940526.5773 0 0 551652582.022 0 474425804.401 541390949.798 0 0 494851417.613 0 0 464489281.451 0 551774758.675 419172975.175 541046839.466 477903968.089 542947578.848 1051716868.43 0 0 0 478101374.045 516087164.776 267531103.619 0 0 0 0 0 0 0 0 0 0 0 0 0 0 0 0 0 0 0 0 0 0 0 0 0 0 0 0 0 0 0 
0 0 0 0 0 0 0 0 0 0 0 0 0 0 0 0 0 0 0 0 0 467293381.196 558189758.213 0 463067627.923 0 541396838.487 0 0 0 0 0 565834556.423 211717809.78 811461057.474 506963319.346 520084530.926 137991708.546 1113607576.51 0 352843861.179 1040702182.37 471357651.159 1026656301.98 0 549722563.987 555842199.056 1987314036.93 1486367056.95 539088579.491 0 0 1029560729.46 553238263.564 455460948.08 0 1008918050.18 0 0 494118850.538 0 1012440189.55 0 0 0 1112950623.91 0 0 0 0 0 0 0 0 0 0 0 0 0 0 0 0 0 0 0 0 0 0 0 0 
0 0 0 0 0 0 0 0 0 0 0 0 0 457932091.754 0 0 0 0 0 0 0 0 101735818.86 0 0 0 558202929.86 0 940323255.047 466529191.39 1080096056.71 1080742966.42 0 1109281970.13 962772714.756 2309759835.18 1690768035.6 2019516866.05 950881440.285 1479655362.06 2218630597.62 1890185513.96 1593829041.46 1928760967.22 3015250495.91 1644232253.31 1837395944.73 3246064132.2 545618027.15 413099493.798 1580229555.34 1497945212.75 513488034.665 0 3520653607.16 520224600.991 0 517568487.169 1475462190.51 460804291.569 564582203.148 0 513676182.789 0 556460854.622 0 0 0 0 0 0 0 0 0 0 0 0 0 0 0 0 0 0 0 0 0 0 0 0 0 
0 0 0 0 0 0 0 0 0 0 0 0 0 0 0 0 0 0 0 0 0 0 484582397.183 526350956.766 974255841.804 1044231055.4 2187241864.38 736664808.462 1539577421.59 1591723299.47 1091017299.24 1097676572.45 1274222560.38 3799319417.68 2936440980.8 4575393748.56 3262637280.57 3391059153.2 3015407620.32 3015213321.92 5099554827.22 4640694710.67 5301305142.26 4352458312.7 4883843445.54 5187683050.02 3686273332.27 5930692592.28 7100315739.83 5777399785.41 3608071045.27 2230281334.59 2694240320.43 3446780222.07 1898734968.67 2363353178.34 2244650839.67 499928875.087 1010346913.07 1550569271.14 2085939103.59 355220040.883 0 1079177743.32 0 0 630064993.024 549025359.157 1106640129.35 0 0 0 0 0 0 0 0 0 0 0 0 0 0 0 0 0 0 0 0 0 
0 0 0 0 0 0 0 0 0 0 0 0 0 0 0 0 0 478688269.269 0 0 0 0 0 552695960.201 2710631383.54 991300171.248 1432040019.71 218644097.149 2083719429.85 2033636885.34 2283564273.08 4690069523.82 6042250680.27 4890306847.8 4922481030.48 6395673284.2 8205957674.06 8448329059.24 8121950409.46 7935277808.36 7542339613.96 7762170765.74 7588734027.97 12651419911.5 12304901737.9 10277981422.6 11473164826.6 10484688041 10552542023.8 7918239065.12 11165680408.8 5807726852.61 10940491206.4 9452872883.22 6320125462.43 9260042114.27 5353364734.64 6337823311.69 2501018926.41 627790040.658 1434101662.29 827348963.197 1069083241.81 0 434606264.625 977217060.809 0 36053730.4777 338688876.926 0 1001722627.12 0 0 0 0 0 0 0 0 0 0 0 0 0 0 0 0 0 0 0 
0 0 0 0 0 0 0 0 0 0 0 0 0 554630020.526 0 0 0 0 0 0 1490674881.64 780241323.273 596730735.355 0 754966004.691 891917909.88 2990776778.59 2332223344.7 3083668868.77 3752739318.31 7502979502.35 5584284412.96 7385943768.45 8186874232.58 10518949857.3 8453725066.22 12344724397.3 16200664890.2 15414729048.4 10533877278.8 22306720545.5 24022837750.9 21332519552.9 14265768311.6 15580426981.4 17951199647.1 21139216014.5 15252324775.9 19779468262.1 14161972162.2 15865706078 15504004741.9 13835028090.4 12494115549.6 12162257569 8512279886.56 7990587566.99 14086134659.4 7209469135.43 6708647613.42 3190630364.39 4444086329.57 480630711.132 1737034050.82 1823881881.75 1343178176.28 0 1299133481.59 993819366.272 308709833.31 553327674.878 648788620.345 1443916410.08 0 0 0 0 0 0 0 0 0 0 0 0 0 0 0 0 0 
0 0 0 0 0 0 0 0 0 0 0 0 495365584.052 0 609751951.184 0 0 0 534521986.499 997934753.266 279707607.499 1199286991.1 2491386393.15 2946037836.94 3640092473.22 3694340937.33 3096349957.83 7184425853.7 7044313904.4 10793325824.5 11555439709.8 11284886169.4 12274779034.5 19484528984.3 14653735507.2 17268274438.6 25934516335.7 21495122553.9 29943618468.4 23871295418.6 35705293227.3 34851032313.3 37084760127.8 38725028951.4 45312594619.7 29077614822.4 32828193258.8 34532264232.3 26747718363.4 33547634079.5 28257725302.4 26098178397.3 25141810833.8 23819662821.7 20995262155.5 18074366756.1 19238358202.9 17226157346 11793348189.1 7891254570.91 12592488994.5 7385782511.61 3860942758.23 6681195001.98 4646258236.62 2224093814.47 691259147.788 2109786025.67 1484683351.43 509107269.093 517987910.362 1143252344.63 0 548196052.613 0 0 0 0 0 0 0 0 0 0 0 0 0 0 0 0 
0 0 0 0 0 0 0 0 0 0 474241097.238 0 0 481398281.071 454696162.293 0 459824445.303 599091230.104 430558072.106 665982278.374 1082014990.29 453786927.474 2792116575.07 3105179094.21 6444085639.74 3338484703.33 11631797376.6 9865243894.67 15959870535.2 24001631914.6 20799245115.6 21690936368.7 22748262061.5 28164168370.7 38894499673.2 36336122634.5 37843641781 48659115088.3 40190866451.6 58326051895.8 61814996325 63399540643.6 62871529607.1 60898160208.2 70217385181.2 70062926156.4 63433809323.2 74181237468 73705525641.9 55174341466.9 49358461298.9 52663971377.9 43261725108.4 44107165498.3 36284724668.5 34850419508 32655169388.9 21436169630.4 24011314474 21329476715.9 20218166998.8 18121798515.3 5682256753.57 8555964558.7 5584599054.81 6067046828.73 5604144965.35 3333460236.59 1430935815.09 1143278112.65 935432898.134 2359091442.81 1067143.61691 0 0 0 553435515.721 0 0 0 0 0 0 0 0 0 0 0 0 0 
0 0 0 0 0 0 0 0 0 0 0 541435769.326 0 555812155.658 0 765562982.063 1053812226.51 935409853.113 2053726435.28 2472285516.96 5606667287.32 4205650306.87 5104653479.23 7409259548.95 10199012208.3 10753238719.4 15976690963.8 15572628807.9 19892301774.1 28400259910.5 30790266486.5 37136250452.1 45950559541.9 46730245484.9 47783567144.6 61426847535.2 73724117143 89505583427.4 89636639113.5 100313309774 92649566960.3 116891904762 109179302749 118454300824 104439697644 127207284082 117327942932 106041097521 105510702892 92958726477.4 103672624913 75894456261.1 79452200854.7 80228313885.7 75144638445.6 59455297220.5 58654127800.4 41903450668.2 39104121747.3 31452542439.1 22023061388.8 25978198756.9 16021352409.6 14335630376.3 14001077489.1 9358435562.98 5560523852.81 6258995918.97 2265647023.97 2262926437.22 470215554.135 883349778.2 1015984162.29 486193813.795 467202833.251 459797357.738 515338641.206 509361887.249 0 0 0 62447414.8077 0 0 0 0 0 0 0 0 
0 0 0 0 0 0 0 0 0 0 1450637572.48 0 527914237.398 549596370.382 1055224107.51 639282636.411 548210526.411 2427365462.01 6478686218.55 5946171307.94 4816039125.97 3697289243.45 9356721329.1 9313669235.05 7844787132.87 16638517755 22307869415.2 27688344342.6 34391432960.8 42375712090.4 61999241142.8 58526553882.8 73136680147.6 88904735308.9 87415645938.3 107154799982 114317191988 129264988892 142296188528 154932059238 145941828667 172106017444 178354648148 178954964934 181378747647 191189599063 198359010132 174233869749 163639858495 178346037320 150813243304 150308572289 150219959550 118697529838 105194837762 96184213581.1 89144324288.3 63643057397.7 64977747399.1 57201525086.7 39812727913.2 44305990369.8 23565583258 21226781419.6 19826591043 14514860475.6 15892833140.9 4718682992.78 5221296141.4 6927465276.24 3642987352.23 2326673533.46 2754722039.69 2002283763.9 947498378.973 0 0 532218457.213 550937778.695 552844317.964 0 0 0 0 0 0 0 0 0 0 
0 0 0 0 0 0 0 0 0 0 790248263.699 0 0 1271233032.67 502195197.266 386328793.101 499675158.083 3182891502.43 2422673323.46 8228676920.49 5293724346.56 10803081934.4 11490109830.2 15515001023.1 22924930789.3 27606434656.7 35586339381.3 37345859005.1 51772502481.7 73995722866 88555695614.4 96190341163.5 114870443265 126111278936 139778466916 170679298084 172826846035 196901080509 232456011189 232007217188 240164317095 274694549487 290619257397 274713882084 274605790530 313429532821 275583077606 270237454021 279218281795 237589889631 240215601078 209239073130 204153622293 176899357261 143958518602 150923506709 139513099951 99133410909.9 98153277473.1 79677320930 72752552065.3 59817855245.6 37239230035.1 34445223036.4 29659694246.7 19957344111.8 20995222277.3 10652631424.5 7161393333.27 6078938535.43 6262392359.28 5031168868.33 2440421336.58 554833869.757 2528264944.9 1384487269.6 1588150802.66 473034159.594 0 0 0 0 0 0 0 0 0 529301871.689 0 0 
0 0 0 0 0 0 0 0 98355972.0912 0 551221609.287 0 0 1056756530.94 0 1789196804.91 4539017375.2 5066883472.81 7475350314.18 4686314138.02 10903266558.5 11685933267.9 16923600916 28291399934.6 25721902438.9 42919441226.6 52248258727.7 61881923553.9 72059847237.6 96018843030.4 115184314197 154747040268 156318229860 190929253682 204609550384 235008906721 273618569599 295893853752 329791816086 350401451641 358443074784 399461613939 387075469064 434918137795 435406128372 408092065005 415629878493 416049809438 365563607487 371723370236 363955618976 341881431909 311150494912 283061368770 254898461403 210388469655 189187015514 154439845704 130833033781 122007896640 99891271584.8 77725666629.6 65173802407 51945867397.5 32218214724.9 27275798188.5 20953261792.9 25619730359.6 14532668443.7 8880880151.13 3775084280.58 5724089242.17 4820865194.41 3166670103.55 1123065584.6 599105242.233 0 1038347189.42 187384105.299 108581926.025 0 0 0 0 0 0 0 0 0 0 
0 0 0 0 0 0 0 0 0 536638073.549 556137848.391 480462612.52 567565760.575 1040317477.29 1809598934.86 3789113213.12 4996086198.5 4528306778.4 7722502210.5 15729784153.5 17112458091.2 18620224012.8 26834234008.2 34929266476.5 49315728068.4 59991363982.3 65787899438.2 87996384420 118530849053 142546514810 163800184713 201788481975 232142871500 263902197680 292017807548 358052397807 403398315572 402843248450 462626893309 504174481849 529663129930 572164143893 597255617391 615886483063 616190884056 589571321674 564684530220 564545048663 555881242973 558963123253 512031813540 474770271546 425502817729 387875814060 357654867065 315197081057 249147454247 243420996113 198812894918 166531031222 139184056133 103220898625 95228096837 77464798114.6 60447102976.1 50375376464.6 42058407069.8 28137476162 22225120275.4 10845886571.8 14659970342.5 8879236311.67 7361923074.04 4103236403.84 3749561352.28 1945183430.46 447101630.732 0 0 552193763.178 0 0 0 0 0 0 0 0 0 0 
0 0 0 0 0 0 71702291.3522 0 0 465071312.889 1026443560.6 945533580.347 1227307417.21 3262780959.3 846200058.888 4990404346.36 9146174052.89 7189729811.71 10121410716 15505902808.5 17952683058.5 21997266602.9 37996882228 56453954530.8 59188660580.4 76991950857.2 99788325560.7 125917780497 140455705458 186054250403 212810817113 258051084694 317209527460 386169843216 437966937549 480952889140 498729868245 562612138045 623748442589 659451175331 714286593768 740463109533 746838087153 804603296425 765516617584 793334532053 752232753030 764151050467 717684758208 700254041353 637739605921 620935098587 565963346083 471324326124 466331146702 400195326068 350594356570 312372933549 261479514950 226086840412 168438798806 148438152988 130961418029 91171588876.7 79117762416.1 64995140816 45707053418.7 40920754348.7 31605854842.6 18941861471.5 13746239788 9125998090.12 8490878586.64 4541295680.63 3812981681.64 4678492050.42 3135409209.93 2108702533.07 77707096.2657 594677346.285 0 791460160.918 0 0 0 0 0 0 0 0 
0 0 0 0 0 0 557957938.265 0 717983371.719 0 0 1576297995.7 1478973330.89 1952220386.79 3105523824.55 4442662386.93 5310851715.41 12894473083.8 14301604073.9 23862867783.7 27163823028.7 35645407749.2 43515972231.5 64985386258.6 81748489088.4 98598270126.3 136850933148 169249275059 186126272661 240940994844 288720837583 373199121391 384615568033 440093676348 532235976774 555237375262 653541618390 710927871500 787238173201 832941758916 894048057597 962574214611 1.02516584259e+12 966923904953 1.01006450472e+12 1.01913771572e+12 998985320844 999521687244 966202155521 918749827316 864768907330 775604779579 744051151662 661793479686 617847732961 509379431601 442343256404 381917437653 333838322639 285796038797 235267565767 204010885737 173626934339 116800553919 96115825930.4 86026329847.2 66516377110.9 39893683636.6 33572578078.7 28406259796 23606611784.5 15336834885.7 9202146311.51 3593433428.22 5438557660.5 6017162247.97 938102221.663 288235242.184 847112446.124 442781892.715 252014002.845 1100983789.58 0 0 0 0 0 0 0 0 
0 0 0 0 0 0 0 0 550964399.829 0 554631819.767 1602359620.33 2553861869.64 1519981061.11 3627834702.13 6419547098.72 8980919238.5 12366224312.7 18877505324 21494852294.5 34787912260.4 45235595783.3 49342983100.5 76525221046.6 94926358208.8 124558935864 161347948575 216410771285 250325808991 270830139747 351413120890 401776202523 465544668996 554772947122 656044731681 690538196997 796015453755 885175979281 968916179715 1.02565788103e+12 1.14385512233e+12 1.13994787791e+12 1.18804780085e+12 1.25425264619e+12 1.19754269254e+12 1.1869239367e+12 1.1650640506e+12 1.18310791684e+12 1.13660251531e+12 1.13813187809e+12 1.03324084519e+12 905415967805 893774982613 792501937138 739024801231 635219543163 561934317464 506985695615 404777150426 327610861442 275142674942 245574077440 181824455689 156229366433 110046670801 84802033898 81117163139.3 46266952873.4 48342234536.8 34009370668.7 29539020384.9 13956524899.5 12355483560.9 7024864841.08 5870547013.44 3602655748.09 1410842523.02 1046003859.08 257312574.293 1546507905.21 1115154727.26 66327732.8911 701124868.433 0 0 0 0 0 0 0 
0 0 0 0 0 475890520.664 0 0 0 2068504357.42 2102712842.1 550077197.424 1383773937.9 2968157629.24 6339902061.11 7488863030.79 9036414836.77 10437399435.1 18720890587 20608902453.7 31640361310.6 41388234372.8 63128619208 81098486423.5 102113084741 146468726850 180721678684 227318228935 279899800761 333540479037 409935395056 437925430500 545723090163 664864332425 707793320821 790320000616 893838680207 1.0582349275e+12 1.14546953642e+12 1.21685746702e+12 1.2626140554e+12 1.3295490397e+12 1.36968115901e+12 1.3924416985e+12 1.42515327229e+12 1.43870074651e+12 1.42826503283e+12 1.38086313884e+12 1.30556642406e+12 1.2703139559e+12 1.16202472442e+12 1.10749106302e+12 1.03018727282e+12 891901264004 830476112218 769194099351 652607392548 549544173939 476076762223 405583681725 320468333318 267683052692 215380573512 166318780982 142116695736 116866638045 86318714243.8 73377882032.5 48474819774.8 31180610043.7 30836052719.1 23482426142 15043352684 13298411843.5 6164085086.89 5809787931.45 1729888479.96 1986197338.93 1889491803.2 1542947911.25 534464994.251 0 533095525.922 0 0 0 0 0 0 0 
0 0 0 0 510806125.622 0 0 804456128.824 557216566.437 1220100248.59 1284125289.79 1529931702.46 2442413840.72 4737506955.69 4774958308.98 7660731942.24 13743186904.3 13339447889.6 23105349844 25070217439.9 40787493085.6 48485545302.6 65429429091.4 91671971861.7 122101064744 161088509743 196601946348 230040934875 310830564686 359372349449 450978852777 548734304930 594637474903 725428759635 774919391287 921768716484 1.02616608218e+12 1.16061356594e+12 1.21349402977e+12 1.31765235305e+12 1.39996102301e+12 1.46589389338e+12 1.49409228254e+12 1.5631034781e+12 1.56150041777e+12 1.5678113637e+12 1.54974132833e+12 1.51040149196e+12 1.48046037407e+12 1.37950261235e+12 1.35290814952e+12 1.21250726583e+12 1.09738498051e+12 1.04141836383e+12 876795194876 769825175461 706961651060 595304172347 532075138203 423008137611 370643827590 283410757117 259099945656 191654554713 152315500835 124743490879 94701520699.4 65948643226.4 51118985126.6 45218015889.4 29692095063.9 20338793602.5 10527483453 10764568980.2 9112868025.93 2859218844.06 4020405936.85 1797730375.95 1549763532.25 0 1098165653.67 1570055997.17 0 0 0 0 0 0 0 0 
0 0 0 0 0 0 494433848.673 0 0 465828484.743 0 556310987.551 2447518015.81 7841846440.54 4348548928.75 6874421757.91 12566364029.2 13330890867.1 25457887924.9 26987772465.9 36206847291.6 54060773457.1 68964993417.8 108739385023 129107070238 153056136955 196212867170 272820329395 313619769715 365338334662 440115989811 559022082068 623551577117 750782105613 846037515065 962666728044 1.07087021067e+12 1.1696176182e+12 1.31170978997e+12 1.37717125634e+12 1.4682610872e+12 1.56771137917e+12 1.57522734126e+12 1.66852645843e+12 1.67265450772e+12 1.65988508644e+12 1.62822586625e+12 1.5520972347e+12 1.53894097353e+12 1.48865820286e+12 1.39564036876e+12 1.29608647065e+12 1.14776084838e+12 1.03752000842e+12 943669941097 862292334416 744849941254 632670364762 555298054080 484210826121 369678661525 335720567460 231304878326 215206674318 160547662021 125901904030 94155582581.3 75346279382.5 55574753064.2 42804783194.2 30246528642.1 19596275112.7 14174335157.6 12295954278.1 7370403728.33 6404234295.37 2404342701.24 3053459470.66 3471612214.86 540758190.039 1644035265.56 0 1605651982.16 1442529747.76 0 0 0 0 0 0 
0 0 0 0 0 885582970.442 549767470.507 558169129.95 0 2164934082.33 1753756636.31 1114575555.06 2583600649.56 7411783064.9 5115419119.4 8344184980.28 12514715432.6 11804506294.2 28515181608.3 33319170895.3 38289636717.3 52740131265 69123350713.1 96805570039.9 130524034618 163589010192 190880694915 277226221160 312866579711 390848702489 447634703724 547158889975 616796433511 773068968034 863042266189 964215666692 1.06375439961e+12 1.19976948523e+12 1.27110278719e+12 1.39079609062e+12 1.45999576108e+12 1.57244941352e+12 1.62322883663e+12 1.65031559722e+12 1.64354948264e+12 1.68343566835e+12 1.6054914345e+12 1.64758373757e+12 1.57148623205e+12 1.44120456719e+12 1.33728958312e+12 1.25575745554e+12 1.20986764221e+12 1.04201476403e+12 1.01016314396e+12 825624947736 743445616911 638680585139 558344756201 436476108570 375890052686 328529676399 272093503434 202209156536 160597597435 123707277761 87722665791.1 73395276877.7 54369284706.5 46090328921.5 24907213367.8 20430178607.3 17689136228.6 12494802174.1 6737323298.14 11126462500.1 3845332309.71 2802183320.07 191038479.276 1026165642.51 1622478859.79 1090696800.56 558028213.85 967378971.846 0 540965384.149 0 0 0 0 
0 0 0 0 0 0 0 0 972750140.498 0 1076169121.31 1612770230.8 917004818.462 3581078739.14 5663336792.12 7393946709.56 8842688346.94 18121014456.6 21999377235 24644608053.3 51531722379.2 64004220678 66334457224.2 94212114856.9 125850330130 160220085387 198344823898 243893902887 264071973134 353586229620 447654047055 549132829008 610215195389 735995020139 809948942010 923660321436 1.0153915418e+12 1.11779000647e+12 1.21574999327e+12 1.31481277992e+12 1.37707517077e+12 1.49529911233e+12 1.51574024165e+12 1.47505233777e+12 1.61007122566e+12 1.58876286047e+12 1.56782010493e+12 1.50448498e+12 1.45800651251e+12 1.41376906732e+12 1.30925929166e+12 1.1923613124e+12 1.16182813972e+12 1.04886237375e+12 891516390148 760172381294 721321385396 605765014204 515066846260 436951596659 357985407756 295089245080 218546242708 200781474529 143509782299 123930931468 105405429900 68138902171.3 56919703057.7 40335625453.6 26585038008.9 23653049565.2 13267758997.2 9229433143.9 6809544200.67 5792387688.5 3366158796.32 1648659443.93 1517821062.78 1085609675.25 925201931.535 389543838.63 0 0 0 0 0 0 0 0 
0 0 0 0 0 0 507170501.744 467730193.813 450845435.054 704261047.357 2050322193.49 2507502350.22 2379280980.31 3758748832.93 3912256317.73 4881081885.73 11661732297.7 11699066207.9 17759028505.1 29518100243.9 33897572689.1 46765162896.6 62511145546.6 87781807036.7 110876513102 131647679958 166234275282 219535371286 258124003171 329824613584 384819362392 456995297015 550539016809 622817417764 768140137220 827603213481 924576115305 1.00790927027e+12 1.09659748643e+12 1.17506794805e+12 1.21273877801e+12 1.29212558335e+12 1.36788147288e+12 1.42495118006e+12 1.38229799659e+12 1.45804685451e+12 1.45856233302e+12 1.34997217855e+12 1.33023239326e+12 1.32561589542e+12 1.17222623692e+12 1.09931573153e+12 1.09853727547e+12 903874543868 825959377036 710285238566 613670317491 549954343267 491456296437 387525030999 347694398074 260498232981 217840492084 175698385408 131921454736 106708654106 84425381712.8 62077348613.2 56635239149 34328799151.7 25802053024.3 17255176563.3 13510876013.1 9726028474.12 7774622258.23 5940643489.24 3135320163.52 1828191870.21 0 745244120.827 669767458.232 0 0 0 0 0 0 0 0 0 
0 272571163.06 0 0 0 0 378521506.513 0 457316386.108 526030285.566 821082820.186 3272770097.82 1778775819.41 2126466958.27 2587000668.64 6819304176.88 7255559957.66 9144658218.44 17716724190.5 26702916229.1 35046241292.9 43205466546.3 59187552309.8 76488667243.6 94286012539.9 123347713625 142092240928 211580408351 220761664395 284016805302 349174048431 388611672839 500048322751 571927408741 614160419235 743631984883 802154262674 911302476771 980722522321 1.02869832672e+12 1.1011730768e+12 1.12379433902e+12 1.16332818686e+12 1.18905585265e+12 1.23993967146e+12 1.24635672019e+12 1.23008859599e+12 1.23034510386e+12 1.14372525769e+12 1.11517770817e+12 1.06344742264e+12 1.02637141799e+12 863576510255 791161641191 723110070369 620292383637 555751420083 467779921280 429825267108 323411468224 292614683091 224163339720 190372606041 133877892569 110661420189 90895131016.3 86148378008.6 54539565115.2 34894670460.5 26913042914.1 24216251216.3 17177806377.6 8194114553.54 12008319887.3 4707172005.08 3365357445.2 3807977098.17 1352199083.64 2139382835.86 1011703053.68 541531562.772 539017080.99 543817139.592 88850381.9801 0 0 0 0 0 0 
0 0 0 0 0 0 0 0 0 0 1051285606.7 531302467.861 1073755482.44 1040540420.41 2436042816.4 5545015713.22 5917574271.04 9504782151.24 16284917006.3 23967453512.9 26069203759.9 34879689085.3 41919408585 67124216755.9 80061933201.8 97685402541.1 132127407538 168246607525 202484104841 248291349141 274838500483 338741011945 372467474053 449404043225 527747763194 580650811278 686005411262 705290879466 772936754166 844872662085 916895570587 954398819728 951051315018 969322895592 1.04049567567e+12 999914657492 1.0104826613e+12 992936345177 947043157592 913016124673 866634297219 798108212072 724195429940 686900612075 592599225466 534040777169 458408775187 382468013640 344811019810 306642163310 247215143875 207300293223 143401419460 116465975665 101878289439 73835606797.6 65590055336.1 48317174281.8 39095239449.3 28525216815 16966189203.4 17753926575.4 10061075367.6 5229420657.42 5178556702.08 4674591052.51 932115420.626 1550520020.31 611225196.899 1068355624.29 0 556175503.142 0 0 0 0 0 0 0 0 
0 0 0 0 556733183.486 0 0 0 52759573.6625 0 950891847.507 462773201.156 1026564983.35 3632215881.09 3857021928.76 2748382256.56 4887932489.43 7329471577.54 11170244215.5 13062326045.7 21600869852.2 31480056891.4 36959363174.7 48403045038.6 61391949407.8 72793455391.9 88078429811.7 135844872335 159418158633 187288616708 212395689124 276138954103 306994561817 333294471882 406583940177 442105567042 500239163626 571013011427 627821514654 643660344701 709911413001 753241149410 828014288116 786087689010 781471110569 819132148634 793131788236 743084121735 782219859263 697597462339 622725821250 618868229658 558179767933 511578594199 460389685613 408744342828 354271880160 297434886626 272669059590 226295960443 187612921198 152938746769 111265500290 92699958842.6 89256408652.1 62525656100 44177249554.8 39847760769.6 26694561270.7 21975097064.3 13584003581.8 14152373565.9 6603582619.64 6959465309.27 3440428021.43 2268612659.3 1651741436.35 658567481.432 581242378.725 0 1021759748.98 0 413014534.161 0 0 0 0 0 0 0 
0 0 0 0 0 0 555461864.783 0 0 0 953692975.076 468429993.738 1617275940.1 487549512.523 554588242.594 2703075340.29 4891860931.81 5349484943.76 11958908172.9 9064022359.11 15081335151.9 25412139284.4 34664120490.5 39243538711.9 45219906863.3 61331176436.7 70704477408.7 95888178360.7 117585513034 151959669410 152325052552 192842968071 238562888658 274068906661 310464877764 353604330658 393809571960 431187335227 458973602387 495207843963 537539631351 567196832682 574111368288 617439927681 559919876671 614079574271 584524559387 603658360102 570478342068 536102624180 491349333064 453358904572 411598896694 406051727256 332791959030 304822419975 271526475243 216859861643 191936278545 168412284851 124696501746 111059467147 87423157890.2 71847770889.5 52659669973.4 37282152551.3 26129639033.3 22363561754.1 15082962324 12283542121.6 11804329550.4 13893249407.5 6722352591.71 3507001876.37 1114738854.46 1179131909.95 553343660.627 1473590067.53 532246428.689 0 0 0 0 0 0 0 0 0 0 0 
0 0 0 0 0 462529291.184 0 0 456468945.602 0 0 0 1458224821.57 823230083.903 1571964157.22 1547390102.59 1647818234.94 4935371489.37 7524725615.13 8678282403.94 8939145698.97 13625375369.6 22243264962.8 21158144751.4 34040935368.3 43047231478.9 46791214539.2 64384422136.6 89595914845.5 101752703900 119733535153 141760398901 164105471724 199428018005 245405468992 248346642803 269223828607 284262742900 303469459390 370216132350 360067127670 385117625297 410372058153 428163656530 412353833742 425661188619 399992259959 406457105131 401657915527 354070260681 344152017017 315710443031 323403365363 261893697275 243854902419 203986709315 186712838291 155315865338 135014489354 118025928301 106095140720 82084991133.4 67378872145.1 57489895499.4 39600918525.8 29578020012.2 26505380820.8 18337647235.8 17500530740.1 11842781784.7 6380155092.28 6037384101.35 3894398705.45 2027461080.5 1154698385.16 2668444713.04 530234854.456 523769619.47 1079733131 519429550.893 0 0 0 0 0 0 0 0 0 0 
0 0 0 0 0 0 0 0 0 0 0 481449604.436 0 2008746412.48 1096302892.13 1275444467.79 2960591047.64 1910727899.07 5362220016.56 4699260705.03 6742214985.67 10857509630.1 15876123326.6 18524553970.1 23460930791.2 23926194114.3 32023031034.9 43553421890.8 53443477647.8 67199970327 74250243172 89203541214.3 105688181008 126884398805 131177752833 163482232676 189887104684 197359940131 220845121987 241527415814 250985771698 250000282497 282423865508 299230001526 289079441135 293328493078 277880213177 268117912935 248292651653 276883932958 235944983976 226694211423 189937124599 182821729687 168132675979 152026856978 133979337993 100065874117 98195131484.6 90393552403.9 72056964546 57362368727 42516888438.1 36550170109.4 31081844604.6 22549353108.4 17250367493.6 13300387119.5 9792922657.69 6609524732.91 5601127830.69 4288554280.49 1635937680.41 3091003227.64 536201674.528 1259235122.38 0 0 0 0 206749332.356 0 0 0 0 0 0 0 0 0 
0 0 0 0 0 0 0 0 0 533926034.578 476695994.371 0 0 0 537158149.455 1129306044.78 1598262237 1977783869.44 1073732659.94 1274235282.7 2715787075.22 3919920832.12 13717340694.4 6559006779.78 13981038363.3 19484148407.8 20328915782 33293405946.4 44295931325.1 41226172004.3 49718936360.6 56973410427.7 71182129569.5 75811244171.3 87964170821.5 110593635325 117728551931 130892380822 147386261720 137660959923 179898723754 168680441529 201547367216 198457667294 187156069545 196168093978 199297363280 200465971198 171145856472 141736478605 137429567639 150710860572 131124712616 116169114875 103894396820 80477161967 88922340362.3 68004015097.7 65211096928.3 50072294490.9 44674885612.7 39468841085.8 28888086597.2 22336013444.3 21541134269.7 17335991311.4 9982235088.22 7328149073 7307403807.86 5016248761.62 2930357935.72 686634590.617 2135141763.46 1140273848.32 2230278982.02 428112444.266 0 0 0 0 443229557.867 0 0 0 0 0 0 0 0 0 
0 0 0 0 0 0 0 0 0 0 531990662.493 531812157.615 557443262.379 0 0 474010780.272 547880100.901 2475415333.09 1994480380.67 3288469215.61 1010089275.32 4316170863.7 4468532673.59 8355871418.81 13467381250.6 7949481279.52 11903935480.4 17987106053.5 24410329705.7 23013341737.7 38085022036.4 40772610941.1 35026039272.1 50776019842.1 57059546686.1 63753156046.2 79425676396.7 76419450173.7 84647470199.3 84197959187.3 108640067093 114652714073 106531060879 121609815304 116103716891 114101300605 113739017966 115122584890 114502270039 104108365426 87466397753.3 97762637735.1 79949103601.4 76883034995.2 66211781925.5 56130028097.6 45297534924.5 40732741304.6 35705904601.3 30777042244.5 31101151426.6 23426641047.6 16926754654.2 15555337018.4 10738445962.2 5599621874.42 9881131447.7 3535913417.78 3213877667.73 1768524474.63 2540389311.94 775306604.836 548874637.458 0 455185395.032 352325891.945 57056257.4132 933378668.804 0 0 0 0 0 0 0 0 0 0 0 0 
0 0 0 0 0 0 0 0 0 0 0 0 0 396310154.916 0 1068563691.96 166981526.663 1481922406.51 1589219834.91 449231157.365 0 4541726686.59 4129540819.13 4007574436.18 6991662322.77 8962271285.78 10038531620.3 11882797301.5 12467250257.9 15286230487.6 14712482695.6 22108020466.6 26123798017 26057175750.5 34569871792.4 39197779290.3 46575606198.8 47277115696.4 49788173642.6 53294969706.8 57800377540.3 63957292280.2 65011574379.6 60914014309.9 69241349543.8 65876248688.4 59399523260.8 54424478534.2 52695483079.1 55989083522 51673986877.4 56473153449.3 51033001386.5 46258758328.3 36753565157.1 33984950419.9 24655313028.9 24772370365.2 19309731766.1 20289742394 12966893867 19688873054.8 10061557303.2 5997904355.42 8824575364.57 5970636102.19 2401311783.18 2395712347.66 1642159445.24 527076471.868 2369371745.3 1393418639.23 0 0 508542459.125 0 0 29306424.3844 0 0 0 0 0 0 0 0 0 0 0 0 
0 0 0 0 0 0 0 0 0 0 0 165799347.852 0 0 0 0 555244753.679 0 0 513491602.467 219143666.808 1517099774.22 497474766.187 1045892341.25 4664838782.89 4195031449.4 3602398946.31 5063108981.88 10267865399.7 8481752375.2 12480242850.1 8643487419.79 11791804787.5 13269381555.2 17198304638.4 31292762297.7 25474781473.4 25748664325.2 26098375883 29504012425.1 37891289570.6 40804042483.9 43812721107.1 39150732513.9 39826779266 39386316941.6 32922688746.3 35760847757 32382676010.1 25467144078.8 32108300765.6 31247513123.7 29871952111.6 21913925273.4 18925900177.1 19597865587.6 16413238521.2 17826716192.6 16294143255.2 15853258287.9 8520721939.43 5954663069.77 6229780162.89 5271219876.88 3661555305.4 2057254580.39 2624805238.78 1214309532.62 975205306.361 553884501.863 553862531.261 130556063.893 517462016.602 0 358575736.463 0 0 0 0 0 0 0 0 0 0 0 0 0 0 0 
0 0 0 0 0 0 0 0 0 0 0 0 0 0 0 0 0 0 447855958.201 0 824798312.543 933517557.131 506336390.441 1396977843.25 2820499788.92 672425449.649 3040117835.19 2439774978.68 5056506526.81 5514965909.54 8283116771.46 6245202287.39 4773099797.43 9337873733.77 7963825980.98 12835624963.6 19317495618 13570712877.1 17548080248.5 10881377585.6 20313425636.8 16338538805.4 18630537885.2 24147949520.2 15120943893.3 18900276659.2 20552785603.7 19913656901.6 21023067227 16703457596.6 16014737373.2 13583980840.6 17372906913.4 7719313644.47 10332322144.1 13014048221 10818863309.4 7497567955.39 3927085953.8 3440508824.9 5019564506.29 2120522274.01 6272718222.67 2745805697.78 2070300506.14 3026204246.53 493930904.495 985824624.418 548354018.181 0 1547751345.48 473795342.743 558200000 530083817.864 0 0 0 0 0 0 0 0 0 0 0 0 0 0 0 0 
0 0 0 0 0 0 0 0 0 0 0 507227538.845 0 417600280.733 462902485.853 0 0 0 0 1036236991.36 926705433.423 874565194.41 1691341540.39 1327063005.97 294936553.532 1500302621.81 466609261.82 2145054146.98 2336862453.84 2999668422.03 1773829407.41 4821806602.55 3774864709.53 3032593629.76 4549899918 6747148201.11 5814250464.28 5979927082.56 11232181332.8 6565321556.54 10283207745.9 9370068580.42 5535673416.96 11222382904.6 12120824926.2 8868829723.1 14711303691.3 6769619880.83 10326214296.5 8802851735.69 7329334061.91 7557842053.04 9337827759.41 5476799757.56 5082132549.7 4321417118.4 4198150216.99 4706415022.85 2657861228.38 1670748443.19 749196527.835 1814077261.39 2501388834.22 886857554.388 0 1063363725.06 0 1100588333.57 456013375.881 523880411.116 0 0 0 393573991.554 0 309283731.227 0 0 0 0 0 0 0 0 0 0 0 0 0 0 
0 0 0 0 0 0 0 0 0 0 0 0 0 0 0 0 0 0 0 552189821.988 0 0 479822792.356 1057502844.86 1114928764.34 582495817.769 70223220.0362 400770171.713 473445537.242 1058699399.59 578217120.426 0 1934458489.37 2623775994.05 3157347390.02 3925984385.18 2602820690.75 4523348357.73 7018048871.44 4633762524.34 4194646490.18 4009304333.71 3927348983.2 4548642898.4 6782186926.98 4273105815.91 6420697927.62 5163376574.77 5194013711.12 1263828147.52 1870719257.04 4568877407.61 4682963524.68 4299935899.33 2233266694.66 2067514773.8 4113464853.48 1893448914.95 2434913418.92 0 481772756.539 1521446986.11 1057976133.04 0 833915616.39 953088482.435 0 953652258.93 556363639.701 0 327912939.619 528400784.723 0 0 0 0 0 0 0 0 0 0 0 0 0 0 0 0 0 0 
0 0 0 0 0 0 0 0 0 0 0 0 0 0 0 0 0 0 0 0 0 0 120004437.637 0 0 0 0 537390859.834 735621744.084 0 1551790138.67 486252656.987 1036461376.52 65375743.9417 1305266703.08 1621304584.37 994910294.094 2319924356.71 1770004210.55 2423014647.95 2165677444.52 1247891463.59 2135083646.79 1882250512.11 769956117.169 1904899371.03 3574708901.72 5039583740.93 1471010470.45 1224634460.55 2075746147.78 2426585926.62 984140139.737 1072920165.09 1479183241.75 1782737285.63 417319324.723 592759060.331 557451072.816 1570024681.91 0 0 1063685301.14 0 4672914.23065 530290686.52 0 0 0 0 0 0 0 0 0 0 0 0 0 0 0 0 0 0 0 0 0 0 0 0 
0 0 0 0 0 0 0 0 0 0 0 0 0 0 0 0 0 0 0 0 0 0 0 0 0 0 520288061.898 999571573.797 487330803.71 0 503117505.661 0 0 553730521.431 1667439022.4 1019728684.74 0 1316785111.61 0 1046172016.18 525268905.67 424872051.823 489167665.602 1058671454.86 2013288710.53 187196879.25 884264964.703 1261992178.95 1600559239.59 515163131.987 0 1595771190.31 1056808320.93 465272353.72 0 1064555355.93 551033999.26 489047871.904 557479226.362 0 0 524152490.737 0 0 0 0 0 0 0 0 0 0 0 0 0 0 0 0 0 0 0 0 0 0 0 0 0 0 0 0 
0 0 0 0 0 0 0 0 0 0 0 0 0 0 0 0 0 0 0 0 0 0 0 0 0 0 77291338.0655 0 0 0 529272551.619 0 552850520.658 0 0 557230760.889 552378826.985 0 0 554909975.699 493451224.86 0 0 0 1347191932.63 645050050.345 561320424.602 0 506175183.771 0 540458925.824 44196884.6388 551198502.286 0 674154206.721 507375258.731 0 283506499.792 0 0 251398456.123 0 0 0 0 0 0 0 0 0 0 0 0 0 0 0 0 0 0 0 0 0 0 0 0 0 0 0 0 0 
0 0 0 0 0 0 0 0 0 0 0 0 0 0 0 0 0 0 0 0 0 0 0 0 0 0 0 0 0 319692069.153 0 0 0 0 0 0 0 0 0 0 0 554627441.633 523351985.737 0 0 0 199732253.48 0 0 0 0 0 0 0 0 213103100.948 0 0 0 0 0 0 0 0 0 0 0 0 0 0 0 0 0 0 0 0 0 0 0 0 0 0 0 0 0 0 0 0 0 0 
0 0 0 0 0 0 0 0 0 0 0 0 0 0 0 0 0 0 0 0 0 0 0 0 0 0 0 0 0 0 0 0 0 0 0 0 0 0 0 506255104.122 0 0 529397315.773 0 0 470111030.404 0 0 0 0 0 0 0 0 0 0 0 0 0 0 0 0 0 0 0 0 0 0 0 0 0 0 0 0 0 0 0 0 0 0 0 0 0 0 0 0 0 0 0 0 
0 0 0 0 0 0 0 0 0 0 0 0 0 0 0 0 0 0 0 0 0 0 0 0 0 0 0 0 0 0 0 0 0 0 0 0 0 0 0 0 0 0 481858797.087 0 0 0 0 0 0 0 0 0 0 0 0 0 0 0 0 0 0 0 0 0 0 0 0 0 0 0 0 0 0 0 0 0 0 0 0 0 0 0 0 0 0 0 0 0 0 0 
0 0 0 0 0 0 0 0 0 0 0 0 0 0 0 0 0 0 0 0 0 0 0 0 0 0 0 0 0 0 0 0 0 537010970.874 0 0 0 0 0 0 0 0 0 0 0 0 0 0 0 0 0 0 0 0 0 0 0 0 0 0 0 0 0 0 0 0 0 0 0 0 0 0 0 0 0 0 0 0 0 0 0 0 0 0 0 0 0 0 0 0 
0 0 0 0 0 0 0 0 0 0 0 0 0 0 0 0 0 0 0 0 0 0 0 0 0 0 0 0 0 0 0 0 0 0 0 0 0 0 0 0 0 0 0 0 0 0 0 0 0 0 0 0 0 0 0 0 0 0 0 0 0 0 0 0 0 0 0 0 0 0 0 0 0 0 0 0 0 0 0 0 0 0 0 0 0 0 0 0 0 0 
0 0 0 0 0 0 0 0 0 0 0 0 0 0 0 0 0 0 0 0 0 0 0 0 0 0 0 0 0 0 0 0 0 0 0 0 0 0 0 0 0 0 0 0 0 0 0 0 0 0 0 0 0 0 0 0 0 0 0 0 0 0 0 0 0 0 0 0 0 0 0 0 0 0 0 0 0 0 0 0 0 0 0 0 0 0 0 0 0 0 
0 0 0 0 0 0 0 0 0 0 0 0 0 0 0 0 0 0 0 0 0 0 0 0 0 0 0 0 0 0 0 0 0 0 0 0 0 0 0 0 0 0 0 0 0 0 0 0 0 0 0 0 0 0 0 0 0 0 0 0 0 0 0 0 0 0 0 0 0 0 0 0 0 0 0 0 0 0 0 0 0 0 0 0 0 0 0 0 0 0 
0 0 0 0 0 0 0 0 0 0 0 0 0 0 0 0 0 0 0 0 0 0 0 0 0 0 0 0 0 0 0 0 0 0 0 0 0 0 0 0 0 0 0 0 0 0 0 0 0 0 0 0 0 0 0 0 0 0 0 0 0 0 0 0 0 0 0 0 0 0 0 0 0 0 0 0 0 0 0 0 0 0 0 0 0 0 0 0 0 0 
0 0 0 0 0 0 0 0 0 0 0 0 0 0 0 0 0 0 0 0 0 0 0 0 0 0 0 0 0 0 0 0 0 0 0 0 0 0 0 0 0 0 0 0 0 0 0 0 0 0 0 0 0 0 0 0 0 0 0 0 0 0 0 0 0 0 0 0 0 0 0 0 0 0 0 0 0 0 0 0 0 0 0 0 0 0 0 0 0 0 
0 0 0 0 0 0 0 0 0 0 0 0 0 0 0 0 0 0 0 0 0 0 0 0 0 0 0 0 0 0 0 0 0 0 0 0 0 0 0 0 0 0 0 0 0 0 0 0 0 0 0 0 0 0 0 0 0 0 0 0 0 0 0 0 0 0 0 0 0 0 0 0 0 0 0 0 0 0 0 0 0 0 0 0 0 0 0 0 0 0 
0 0 0 0 0 0 0 0 0 0 0 0 0 0 0 0 0 0 0 0 0 0 0 0 0 0 0 0 0 0 0 0 0 0 0 0 0 0 0 0 0 0 0 0 0 0 0 0 0 0 0 0 0 0 0 0 0 0 0 0 0 0 0 0 0 0 0 0 0 0 0 0 0 0 0 0 0 0 0 0 0 0 0 0 0 0 0 0 0 0 
0 0 0 0 0 0 0 0 0 0 0 0 0 0 0 0 0 0 0 0 0 0 0 0 0 0 0 0 0 0 0 0 0 0 0 0 0 0 0 0 0 0 0 0 0 0 0 0 0 0 0 0 0 0 0 0 0 0 0 0 0 0 0 0 0 0 0 0 0 0 0 0 0 0 0 0 0 0 0 0 0 0 0 0 0 0 0 0 0 0 
0 0 0 0 0 0 0 0 0 0 0 0 0 0 0 0 0 0 0 0 0 0 0 0 0 0 0 0 0 0 0 0 0 0 0 0 0 0 0 0 0 0 0 0 0 0 0 0 0 0 0 0 0 0 0 0 0 0 0 0 0 0 0 0 0 0 0 0 0 0 0 0 0 0 0 0 0 0 0 0 0 0 0 0 0 0 0 0 0 0 
0 0 0 0 0 0 0 0 0 0 0 0 0 0 0 0 0 0 0 0 0 0 0 0 0 0 0 0 0 0 0 0 0 0 0 0 0 0 0 0 0 0 0 0 0 0 0 0 0 0 0 0 0 0 0 0 0 0 0 0 0 0 0 0 0 0 0 0 0 0 0 0 0 0 0 0 0 0 0 0 0 0 0 0 0 0 0 0 0 0 
0 0 0 0 0 0 0 0 0 0 0 0 0 0 0 0 0 0 0 0 0 0 0 0 0 0 0 0 0 0 0 0 0 0 0 0 0 0 0 0 0 0 0 0 0 0 0 0 0 0 0 0 0 0 0 0 0 0 0 0 0 0 0 0 0 0 0 0 0 0 0 0 0 0 0 0 0 0 0 0 0 0 0 0 0 0 0 0 0 0 
0 0 0 0 0 0 0 0 0 0 0 0 0 0 0 0 0 0 0 0 0 0 0 0 0 0 0 0 0 0 0 0 0 0 0 0 0 0 0 0 0 0 0 0 0 0 0 0 0 0 0 0 0 0 0 0 0 0 0 0 0 0 0 0 0 0 0 0 0 0 0 0 0 0 0 0 0 0 0 0 0 0 0 0 0 0 0 0 0 0 
0 0 0 0 0 0 0 0 0 0 0 0 0 0 0 0 0 0 0 0 0 0 0 0 0 0 0 0 0 0 0 0 0 0 0 0 0 0 0 0 0 0 0 0 0 0 0 0 0 0 0 0 0 0 0 0 0 0 0 0 0 0 0 0 0 0 0 0 0 0 0 0 0 0 0 0 0 0 0 0 0 0 0 0 0 0 0 0 0 0 
0 0 0 0 0 0 0 0 0 0 0 0 0 0 0 0 0 0 0 0 0 0 0 0 0 0 0 0 0 0 0 0 0 0 0 0 0 0 0 0 0 0 0 0 0 0 0 0 0 0 0 0 0 0 0 0 0 0 0 0 0 0 0 0 0 0 0 0 0 0 0 0 0 0 0 0 0 0 0 0 0 0 0 0 0 0 0 0 0 0 
0 0 0 0 0 0 0 0 0 0 0 0 0 0 0 0 0 0 0 0 0 0 0 0 0 0 0 0 0 0 0 0 0 0 0 0 0 0 0 0 0 0 0 0 0 0 0 0 0 0 0 0 0 0 0 0 0 0 0 0 0 0 0 0 0 0 0 0 0 0 0 0 0 0 0 0 0 0 0 0 0 0 0 0 0 0 0 0 0 0 
0 0 0 0 0 0 0 0 0 0 0 0 0 0 0 0 0 0 0 0 0 0 0 0 0 0 0 0 0 0 0 0 0 0 0 0 0 0 0 0 0 0 0 0 0 0 0 0 0 0 0 0 0 0 0 0 0 0 0 0 0 0 0 0 0 0 0 0 0 0 0 0 0 0 0 0 0 0 0 0 0 0 0 0 0 0 0 0 0 0 
0 0 0 0 0 0 0 0 0 0 0 0 0 0 0 0 0 0 0 0 0 0 0 0 0 0 0 0 0 0 0 0 0 0 0 0 0 0 0 0 0 0 0 0 0 0 0 0 0 0 0 0 0 0 0 0 0 0 0 0 0 0 0 0 0 0 0 0 0 0 0 0 0 0 0 0 0 0 0 0 0 0 0 0 0 0 0 0 0 0 
0 0 0 0 0 0 0 0 0 0 0 0 0 0 0 0 0 0 0 0 0 0 0 0 0 0 0 0 0 0 0 0 0 0 0 0 0 0 0 0 0 0 0 0 0 0 0 0 0 0 0 0 0 0 0 0 0 0 0 0 0 0 0 0 0 0 0 0 0 0 0 0 0 0 0 0 0 0 0 0 0 0 0 0 0 0 0 0 0 0 
0 0 0 0 0 0 0 0 0 0 0 0 0 0 0 0 0 0 0 0 0 0 0 0 0 0 0 0 0 0 0 0 0 0 0 0 0 0 0 0 0 0 0 0 0 0 0 0 0 0 0 0 0 0 0 0 0 0 0 0 0 0 0 0 0 0 0 0 0 0 0 0 0 0 0 0 0 0 0 0 0 0 0 0 0 0 0 0 0 0 
0 0 0 0 0 0 0 0 0 0 0 0 0 0 0 0 0 0 0 0 0 0 0 0 0 0 0 0 0 0 0 0 0 0 0 0 0 0 0 0 0 0 0 0 0 0 0 0 0 0 0 0 0 0 0 0 0 0 0 0 0 0 0 0 0 0 0 0 0 0 0 0 0 0 0 0 0 0 0 0 0 0 0 0 0 0 0 0 0 0 
0 0 0 0 0 0 0 0 0 0 0 0 0 0 0 0 0 0 0 0 0 0 0 0 0 0 0 0 0 0 0 0 0 0 0 0 0 0 0 0 0 0 0 0 0 0 0 0 0 0 0 0 0 0 0 0 0 0 0 0 0 0 0 0 0 0 0 0 0 0 0 0 0 0 0 0 0 0 0 0 0 0 0 0 0 0 0 0 0 0 
0 0 0 0 0 0 0 0 0 0 0 0 0 0 0 0 0 0 0 0 0 0 0 0 0 0 0 0 0 0 0 0 0 0 0 0 0 0 0 0 0 0 0 0 0 0 0 0 0 0 0 0 0 0 0 0 0 0 0 0 0 0 0 0 0 0 0 0 0 0 0 0 0 0 0 0 0 0 0 0 0 0 0 0 0 0 0 0 0 0 
# Errors [psd1_dat/psd1.dat] E: 
0 0 0 0 0 0 0 0 0 0 0 0 0 0 0 0 0 0 0 0 0 0 0 0 0 0 0 0 0 0 0 0 0 0 0 0 0 0 0 0 0 0 0 0 0 0 0 0 0 0 0 0 0 0 0 0 0 0 0 0 0 0 0 0 0 0 0 0 0 0 0 0 0 0 0 0 0 0 0 0 0 0 0 0 0 0 0 0 0 0 
0 0 0 0 0 0 0 0 0 0 0 0 0 0 0 0 0 0 0 0 0 0 0 0 0 0 0 0 0 0 0 0 0 0 0 0 0 0 0 0 0 0 0 0 0 0 0 0 0 0 0 0 0 0 0 0 0 0 0 0 0 0 0 0 0 0 0 0 0 0 0 0 0 0 0 0 0 0 0 0 0 0 0 0 0 0 0 0 0 0 
0 0 0 0 0 0 0 0 0 0 0 0 0 0 0 0 0 0 0 0 0 0 0 0 0 0 0 0 0 0 0 0 0 0 0 0 0 0 0 0 0 0 0 0 0 0 0 0 0 0 0 0 0 0 0 0 0 0 0 0 0 0 0 0 0 0 0 0 0 0 0 0 0 0 0 0 0 0 0 0 0 0 0 0 0 0 0 0 0 0 
0 0 0 0 0 0 0 0 0 0 0 0 0 0 0 0 0 0 0 0 0 0 0 0 0 0 0 0 0 0 0 0 0 0 0 0 0 0 0 0 0 0 0 0 0 0 0 0 0 0 0 0 0 0 0 0 0 0 0 0 0 0 0 0 0 0 0 0 0 0 0 0 0 0 0 0 0 0 0 0 0 0 0 0 0 0 0 0 0 0 
0 0 0 0 0 0 0 0 0 0 0 0 0 0 0 0 0 0 0 0 0 0 0 0 0 0 0 0 0 0 0 0 0 0 0 0 0 0 0 0 0 0 0 0 0 0 0 0 0 0 0 0 0 0 0 0 0 0 0 0 0 0 0 0 0 0 0 0 0 0 0 0 0 0 0 0 0 0 0 0 0 0 0 0 0 0 0 0 0 0 
0 0 0 0 0 0 0 0 0 0 0 0 0 0 0 0 0 0 0 0 0 0 0 0 0 0 0 0 0 0 0 0 0 0 0 0 0 0 0 0 0 0 0 0 0 0 0 0 0 0 0 0 0 0 0 0 0 0 0 0 0 0 0 0 0 0 0 0 0 0 0 0 0 0 0 0 0 0 0 0 0 0 0 0 0 0 0 0 0 0 
0 0 0 0 0 0 0 0 0 0 0 0 0 0 0 0 0 0 0 0 0 0 0 0 0 0 0 0 0 0 0 0 0 0 0 0 0 0 0 0 0 0 0 0 0 0 0 0 0 0 0 0 0 0 0 0 0 0 0 0 0 0 0 0 0 0 0 0 0 0 0 0 0 0 0 0 0 0 0 0 0 0 0 0 0 0 0 0 0 0 
0 0 0 0 0 0 0 0 0 0 0 0 0 0 0 0 0 0 0 0 0 0 0 0 0 0 0 0 0 0 0 0 0 0 0 0 0 0 0 0 0 0 0 0 0 0 0 0 0 0 0 0 0 0 0 0 0 0 0 0 0 0 0 0 0 0 0 0 0 0 0 0 0 0 0 0 0 0 0 0 0 0 0 0 0 0 0 0 0 0 
0 0 0 0 0 0 0 0 0 0 0 0 0 0 0 0 0 0 0 0 0 0 0 0 0 0 0 0 0 0 0 0 0 0 0 0 0 0 0 0 0 0 0 0 0 0 0 0 0 0 0 0 0 0 0 0 0 0 0 0 0 0 0 0 0 0 0 0 0 0 0 0 0 0 0 0 0 0 0 0 0 0 0 0 0 0 0 0 0 0 
0 0 0 0 0 0 0 0 0 0 0 0 0 0 0 0 0 0 0 0 0 0 0 0 0 0 0 0 0 0 0 0 0 0 0 0 0 0 0 0 0 0 0 0 0 0 0 0 0 0 0 0 0 0 0 0 0 0 0 0 0 0 0 0 0 0 0 0 0 0 0 0 0 0 0 0 0 0 0 0 0 0 0 0 0 0 0 0 0 0 
0 0 0 0 0 0 0 0 0 0 0 0 0 0 0 0 0 0 0 0 0 0 0 0 0 0 0 0 0 0 0 0 0 0 0 0 0 0 0 0 0 0 0 0 0 0 0 0 0 0 0 0 0 0 0 0 0 0 0 0 0 0 0 0 0 0 0 0 0 0 0 0 0 0 0 0 0 0 0 0 0 0 0 0 0 0 0 0 0 0 
0 0 0 0 0 0 0 0 0 0 0 0 0 0 0 0 0 0 0 0 0 0 0 0 0 0 0 0 0 0 0 0 0 0 0 0 0 0 0 0 0 0 0 0 0 0 0 0 0 0 0 0 0 0 0 0 0 0 0 0 0 0 0 0 0 0 0 0 0 0 0 0 0 0 0 0 0 0 0 0 0 0 0 0 0 0 0 0 0 0 
0 0 0 0 0 0 0 0 0 0 0 0 0 0 0 0 0 0 0 0 0 0 0 0 0 0 0 0 0 0 0 0 0 0 0 0 0 0 0 0 0 0 0 0 0 0 0 0 0 0 0 0 0 0 0 0 0 0 0 0 0 0 0 0 0 0 0 0 0 0 0 0 0 0 0 0 0 0 0 0 0 0 0 0 0 0 0 0 0 0 
0 0 0 0 0 0 0 0 0 0 0 0 0 0 0 0 0 0 0 0 0 0 0 0 0 0 0 0 0 0 0 0 0 0 0 0 0 0 0 0 0 0 0 0 0 0 0 0 0 0 0 0 0 0 0 0 0 0 0 0 0 0 0 0 0 0 0 0 0 0 0 0 0 0 0 0 0 0 0 0 0 0 0 0 0 0 0 0 0 0 
0 0 0 0 0 0 0 0 0 0 0 0 0 0 0 0 0 0 0 0 0 0 0 0 0 0 0 0 0 0 0 0 0 0 0 0 0 0 0 0 0 0 0 0 0 0 0 0 0 0 0 0 0 0 0 0 0 0 0 0 0 0 0 0 0 0 0 0 0 0 0 0 0 0 0 0 0 0 0 0 0 0 0 0 0 0 0 0 0 0 
0 0 0 0 0 0 0 0 0 0 0 0 0 0 0 0 0 0 0 0 0 0 0 0 0 0 0 0 0 0 0 0 0 0 0 0 0 0 0 0 0 0 0 0 0 0 0 0 0 0 0 0 0 0 0 0 0 0 0 0 0 0 0 0 0 0 0 0 0 0 0 0 0 0 0 0 0 0 0 0 0 0 0 0 0 0 0 0 0 0 
0 0 0 0 0 0 0 0 0 0 0 0 0 0 0 0 0 0 0 0 0 0 0 0 0 0 0 0 0 0 0 0 0 0 0 0 0 0 0 0 0 0 0 0 0 0 0 0 0 0 0 0 0 0 0 0 0 0 0 0 0 0 0 0 0 0 0 0 0 0 0 0 0 0 0 0 0 0 0 0 0 0 0 0 0 0 0 0 0 0 
0 0 0 0 0 0 0 0 0 0 0 0 0 0 0 0 0 0 0 0 0 0 0 0 0 0 0 0 0 0 0 0 0 0 0 0 0 0 0 0 0 0 0 0 0 0 0 0 0 0 0 0 0 0 0 0 0 0 0 0 0 0 0 0 0 0 0 0 0 0 0 0 0 0 0 0 0 0 0 0 0 0 0 0 0 0 0 0 0 0 
0 0 0 0 0 0 0 0 0 0 0 0 0 0 0 0 0 0 0 0 0 0 0 0 0 0 0 0 0 0 0 0 0 0 0 0 0 0 0 0 0 0 0 0 0 0 0 0 0 0 0 0 0 0 0 0 0 0 0 0 0 0 0 0 0 0 0 0 0 0 0 0 0 0 0 0 0 0 0 0 0 0 0 0 0 0 0 0 0 0 
0 0 0 0 0 0 0 0 0 0 0 0 0 0 0 0 0 0 0 0 0 0 0 0 0 0 0 0 0 0 0 0 0 0 0 0 0 0 0 0 0 0 0 0 0 0 0 0 0 0 0 0 0 0 0 0 0 0 0 0 0 0 0 0 0 0 0 0 0 0 0 0 0 0 0 0 0 0 0 0 0 0 0 0 0 0 0 0 0 0 
0 0 0 0 0 0 0 0 0 0 0 0 0 0 0 0 0 0 0 0 0 0 0 0 0 0 0 0 0 0 0 0 0 0 0 0 0 0 0 0 0 0 0 0 0 0 0 0 0 0 0 0 0 0 0 0 0 0 0 0 0 0 0 0 0 0 0 0 0 0 0 0 0 0 0 0 0 0 0 0 0 0 0 0 0 0 0 0 0 0 
0 0 0 0 0 0 0 0 0 0 0 0 0 0 0 0 0 0 0 0 0 0 0 0 0 0 0 0 0 0 0 0 0 0 0 0 0 0 0 0 0 0 0 0 0 0 0 0 0 0 0 0 0 0 0 0 0 0 0 0 0 0 0 0 0 0 0 0 0 0 0 0 0 0 0 0 0 0 0 0 0 0 0 0 0 0 0 0 0 0 
0 0 0 0 0 0 0 0 0 0 0 0 0 0 0 0 0 0 0 0 0 0 0 0 0 0 0 0 0 0 0 0 0 0 0 0 0 0 0 0 0 0 0 0 0 0 0 0 0 0 0 0 0 0 0 0 0 0 0 0 0 0 0 0 0 0 0 0 0 0 0 0 0 0 0 0 0 0 0 0 0 0 0 0 0 0 0 0 0 0 
0 0 0 0 0 0 0 0 0 0 0 0 0 0 0 0 0 0 0 0 0 0 0 0 0 0 0 0 0 0 0 0 0 0 0 0 0 0 0 0 0 0 0 0 0 0 0 0 0 0 0 0 0 0 0 0 0 0 0 0 0 0 0 0 0 0 0 0 0 0 0 0 0 0 0 0 0 0 0 0 0 0 0 0 0 0 0 0 0 0 
0 0 0 0 0 0 0 0 0 0 0 0 0 0 0 0 0 0 0 0 0 0 0 0 0 0 0 0 0 0 0 0 0 0 0 0 0 0 0 0 0 0 0 0 0 0 0 0 0 0 0 0 0 0 0 0 0 0 0 0 0 0 0 0 0 0 0 0 0 0 0 0 0 0 0 0 0 0 0 0 0 0 0 0 0 0 0 0 0 0 
0 0 0 0 0 0 0 0 0 0 0 0 0 0 0 0 0 0 0 0 0 0 0 0 0 0 0 0 0 0 0 0 0 0 0 0 0 0 0 0 0 0 0 0 0 0 0 0 0 0 0 0 0 0 0 0 0 0 0 0 0 0 0 0 0 0 0 0 0 0 0 0 0 0 0 0 0 0 0 0 0 0 0 0 0 0 0 0 0 0 
0 0 0 0 0 0 0 0 0 0 0 0 0 0 0 0 0 0 0 0 0 0 0 0 0 0 0 0 0 0 0 0 0 0 0 0 0 0 0 0 0 0 0 0 0 0 0 0 0 0 0 0 0 0 0 0 0 0 0 0 0 0 0 0 0 0 0 0 0 0 0 0 0 0 0 0 0 0 0 0 0 0 0 0 0 0 0 0 0 0 
0 0 0 0 0 0 0 0 0 0 0 0 0 0 0 0 0 0 0 0 0 0 0 0 0 0 0 0 0 0 0 0 0 0 0 0 0 0 0 0 0 0 0 0 0 0 0 0 0 0 0 0 0 0 0 0 0 0 0 0 0 0 0 0 0 0 0 0 0 0 0 0 0 0 0 0 0 0 0 0 0 0 0 0 0 0 0 0 0 0 
0 0 0 0 0 0 0 0 0 0 0 0 0 0 0 0 0 0 0 0 0 0 0 0 0 0 0 0 0 0 0 0 0 0 0 0 0 0 0 0 0 0 0 0 0 0 0 0 0 0 0 0 0 0 0 0 0 0 0 0 0 0 0 0 0 0 0 0 0 0 0 0 0 0 0 0 0 0 0 0 0 0 0 0 0 0 0 0 0 0 
0 0 0 0 0 0 0 0 0 0 0 0 0 0 0 0 0 0 0 0 0 0 0 0 0 0 0 0 0 0 0 0 0 0 0 0 0 0 0 0 0 0 0 0 0 0 0 0 0 0 0 0 0 0 0 0 0 0 0 0 0 0 0 0 0 0 0 0 0 0 0 0 0 0 0 0 0 0 0 0 0 0 0 0 0 0 0 0 0 0 
0 0 0 0 0 0 0 0 0 0 0 0 0 0 0 0 0 0 0 0 0 0 0 0 0 0 0 0 0 0 0 0 0 0 0 0 0 0 0 0 0 0 0 0 0 0 0 0 0 0 0 0 0 0 0 0 0 0 0 0 0 0 0 0 0 0 0 0 0 0 0 0 0 0 0 0 0 0 0 0 0 0 0 0 0 0 0 0 0 0 
0 0 0 0 0 0 0 0 0 0 0 0 0 0 0 0 0 0 0 0 0 0 0 0 0 0 0 0 0 0 0 0 0 0 0 0 0 0 0 0 0 0 0 0 0 0 0 0 0 0 0 0 0 0 0 0 0 0 0 0 0 0 0 0 0 0 0 0 0 0 0 0 0 0 0 0 0 0 0 0 0 0 0 0 0 0 0 0 0 0 
0 0 0 0 0 0 0 0 0 0 0 0 0 0 0 0 0 0 0 0 0 0 0 0 0 0 0 0 0 0 0 0 0 0 0 0 0 0 0 0 0 0 0 0 0 0 0 0 0 0 0 0 0 0 0 0 0 0 0 0 0 0 0 0 0 0 0 0 0 0 0 0 0 0 0 0 0 0 0 0 0 0 0 0 0 0 0 0 0 0 
0 0 0 0 0 0 0 0 0 0 0 0 0 0 0 0 0 0 0 0 0 0 0 0 0 0 0 0 0 0 0 0 0 0 0 0 0 0 0 0 0 0 0 0 0 0 0 0 0 0 0 0 0 0 0 0 0 0 0 0 0 0 0 0 0 0 0 0 0 0 0 0 0 0 0 0 0 0 0 0 0 0 0 0 0 0 0 0 0 0 
0 0 0 0 0 0 0 0 0 0 0 0 0 0 0 0 0 0 0 0 0 0 0 0 0 0 0 0 0 0 0 0 0 0 0 0 0 0 0 0 0 0 0 0 0 0 0 0 0 0 0 0 0 0 0 0 0 0 0 0 0 0 0 0 0 0 0 0 0 0 0 0 0 0 0 0 0 0 0 0 0 0 0 0 0 0 0 0 0 0 
0 0 0 0 0 0 0 0 0 0 0 0 0 0 0 0 0 0 0 0 0 0 0 0 0 0 0 0 0 0 0 0 0 0 0 0 0 0 0 0 0 0 0 0 0 0 0 0 0 0 0 0 0 0 0 0 0 0 0 0 0 0 0 0 0 0 0 0 0 0 0 0 0 0 0 0 0 0 0 0 0 0 0 0 0 0 0 0 0 0 
0 0 0 0 0 0 0 0 0 0 0 0 0 0 0 0 0 0 0 0 0 0 0 0 0 0 0 0 0 0 0 0 0 0 0 0 0 0 0 0 0 0 0 0 0 0 0 0 0 0 0 0 0 0 0 0 0 0 0 0 0 0 0 0 0 0 0 0 0 0 0 0 0 0 0 0 0 0 0 0 0 0 0 0 0 0 0 0 0 0 
0 0 0 0 0 0 0 0 0 0 0 0 0 0 0 0 0 0 0 0 0 0 0 0 0 0 0 0 0 0 0 0 0 0 0 0 0 0 0 0 0 0 0 0 0 0 0 0 0 0 0 0 0 0 0 0 0 0 0 0 0 0 0 0 0 0 0 0 0 0 0 0 0 0 0 0 0 0 0 0 0 0 0 0 0 0 0 0 0 0 
0 0 0 0 0 0 0 0 0 0 0 0 0 0 0 0 0 0 0 0 0 0 0 0 0 0 0 0 0 0 0 0 0 0 0 0 0 0 0 0 0 0 0 0 0 0 0 0 0 0 0 0 0 0 0 0 0 0 0 0 0 0 0 0 0 0 0 0 0 0 0 0 0 0 0 0 0 0 0 0 0 0 0 0 0 0 0 0 0 0 
0 0 0 0 0 0 0 0 0 0 0 0 0 0 0 0 0 0 0 0 0 0 0 0 0 0 0 0 0 0 0 0 0 0 0 0 0 0 0 0 0 0 0 0 0 0 0 0 0 0 0 0 0 0 0 0 0 0 0 0 0 0 0 0 0 0 0 0 0 0 0 0 0 0 0 0 0 0 0 0 0 0 0 0 0 0 0 0 0 0 
0 0 0 0 0 0 0 0 0 0 0 0 0 0 0 0 0 0 0 0 0 0 0 0 0 0 0 0 0 0 0 0 0 0 0 0 0 0 0 0 0 0 0 0 0 0 0 0 0 0 0 0 0 0 0 0 0 0 0 0 0 0 0 0 0 0 0 0 0 0 0 0 0 0 0 0 0 0 0 0 0 0 0 0 0 0 0 0 0 0 
0 0 0 0 0 0 0 0 0 0 0 0 0 0 0 0 0 0 0 0 0 0 0 0 0 0 0 0 0 0 0 0 0 0 0 0 0 0 0 0 0 0 0 0 0 0 0 0 0 0 0 0 0 0 0 0 0 0 0 0 0 0 0 0 0 0 0 0 0 0 0 0 0 0 0 0 0 0 0 0 0 0 0 0 0 0 0 0 0 0 
0 0 0 0 0 0 0 0 0 0 0 0 0 0 0 0 0 0 0 0 0 0 0 0 0 0 0 0 0 0 0 0 0 0 0 0 0 0 0 0 0 0 0 0 0 0 0 0 0 0 0 0 0 0 0 0 0 0 0 0 0 0 0 0 0 0 0 0 0 0 0 0 0 0 0 0 0 0 0 0 0 0 0 0 0 0 0 0 0 0 
0 0 0 0 0 0 0 0 0 0 0 0 0 0 0 0 0 0 0 0 0 0 0 0 0 0 0 0 0 0 0 0 0 0 0 0 0 0 0 0 0 0 0 0 0 0 0 0 0 0 0 0 0 0 0 0 0 0 0 0 0 0 0 0 0 0 0 0 0 0 0 0 0 0 0 0 0 0 0 0 0 0 0 0 0 0 0 0 0 0 
0 0 0 0 0 0 0 0 0 0 0 0 0 0 0 0 0 0 0 0 0 0 0 0 0 0 0 0 0 0 0 0 0 0 0 0 0 0 0 0 0 0 0 0 0 0 0 0 0 0 0 0 0 0 0 0 0 0 0 0 0 0 0 0 0 0 0 0 0 0 0 0 0 0 0 0 0 0 0 0 0 0 0 0 0 0 0 0 0 0 
0 0 0 0 0 0 0 0 0 0 0 0 0 0 0 0 0 0 0 0 0 0 0 0 0 0 0 0 0 0 0 0 0 0 0 0 0 0 0 0 0 0 0 0 0 0 0 0 0 0 0 0 0 0 0 0 0 0 0 0 0 0 0 0 0 0 0 0 0 0 0 0 0 0 0 0 0 0 0 0 0 0 0 0 0 0 0 0 0 0 
0 0 0 0 0 0 0 0 0 0 0 0 0 0 0 0 0 0 0 0 0 0 0 0 0 0 0 0 0 0 0 0 0 0 0 0 0 0 0 0 0 0 0 0 0 0 0 0 0 0 0 0 0 0 0 0 0 0 0 0 0 0 0 0 0 0 0 0 0 0 0 0 0 0 0 0 0 0 0 0 0 0 0 0 0 0 0 0 0 0 
0 0 0 0 0 0 0 0 0 0 0 0 0 0 0 0 0 0 0 0 0 0 0 0 0 0 0 0 0 0 0 0 0 0 0 0 0 0 0 0 0 0 0 0 0 0 0 0 0 0 0 0 0 0 0 0 0 0 0 0 0 0 0 0 0 0 0 0 0 0 0 0 0 0 0 0 0 0 0 0 0 0 0 0 0 0 0 0 0 0 
0 0 0 0 0 0 0 0 0 0 0 0 0 0 0 0 0 0 0 0 0 0 0 0 0 0 0 0 0 0 0 0 0 0 0 0 0 0 0 0 0 0 0 0 0 0 0 0 0 0 0 0 0 0 0 0 0 0 0 0 0 0 0 0 0 0 0 0 0 0 0 0 0 0 0 0 0 0 0 0 0 0 0 0 0 0 0 0 0 0 
0 0 0 0 0 0 0 0 0 0 0 0 0 0 0 0 0 0 0 0 0 0 0 0 0 0 0 0 0 0 0 0 0 0 0 0 0 0 0 0 0 0 0 0 0 0 0 0 0 0 0 0 0 0 0 0 0 0 0 0 0 0 0 0 0 0 0 0 0 0 0 0 0 0 0 0 0 0 0 0 0 0 0 0 0 0 0 0 0 0 
0 0 0 0 0 0 0 0 0 0 0 0 0 0 0 0 0 0 0 0 0 0 0 0 0 0 0 0 0 0 0 0 0 0 0 0 0 0 0 0 0 0 0 0 0 0 0 0 0 0 0 0 0 0 0 0 0 0 0 0 0 0 0 0 0 0 0 0 0 0 0 0 0 0 0 0 0 0 0 0 0 0 0 0 0 0 0 0 0 0 
0 0 0 0 0 0 0 0 0 0 0 0 0 0 0 0 0 0 0 0 0 0 0 0 0 0 0 0 0 0 0 0 0 0 0 0 0 0 0 0 0 0 0 0 0 0 0 0 0 0 0 0 0 0 0 0 0 0 0 0 0 0 0 0 0 0 0 0 0 0 0 0 0 0 0 0 0 0 0 0 0 0 0 0 0 0 0 0 0 0 
0 0 0 0 0 0 0 0 0 0 0 0 0 0 0 0 0 0 0 0 0 0 0 0 0 0 0 0 0 0 0 0 0 0 0 0 0 0 0 0 0 0 0 0 0 0 0 0 0 0 0 0 0 0 0 0 0 0 0 0 0 0 0 0 0 0 0 0 0 0 0 0 0 0 0 0 0 0 0 0 0 0 0 0 0 0 0 0 0 0 
0 0 0 0 0 0 0 0 0 0 0 0 0 0 0 0 0 0 0 0 0 0 0 0 0 0 0 0 0 0 0 0 0 0 0 0 0 0 0 0 0 0 0 0 0 0 0 0 0 0 0 0 0 0 0 0 0 0 0 0 0 0 0 0 0 0 0 0 0 0 0 0 0 0 0 0 0 0 0 0 0 0 0 0 0 0 0 0 0 0 
0 0 0 0 0 0 0 0 0 0 0 0 0 0 0 0 0 0 0 0 0 0 0 0 0 0 0 0 0 0 0 0 0 0 0 0 0 0 0 0 0 0 0 0 0 0 0 0 0 0 0 0 0 0 0 0 0 0 0 0 0 0 0 0 0 0 0 0 0 0 0 0 0 0 0 0 0 0 0 0 0 0 0 0 0 0 0 0 0 0 
0 0 0 0 0 0 0 0 0 0 0 0 0 0 0 0 0 0 0 0 0 0 0 0 0 0 0 0 0 0 0 0 0 0 0 0 0 0 0 0 0 0 0 0 0 0 0 0 0 0 0 0 0 0 0 0 0 0 0 0 0 0 0 0 0 0 0 0 0 0 0 0 0 0 0 0 0 0 0 0 0 0 0 0 0 0 0 0 0 0 
0 0 0 0 0 0 0 0 0 0 0 0 0 0 0 0 0 0 0 0 0 0 0 0 0 0 0 0 0 0 0 0 0 0 0 0 0 0 0 0 0 0 0 0 0 0 0 0 0 0 0 0 0 0 0 0 0 0 0 0 0 0 0 0 0 0 0 0 0 0 0 0 0 0 0 0 0 0 0 0 0 0 0 0 0 0 0 0 0 0 
0 0 0 0 0 0 0 0 0 0 0 0 0 0 0 0 0 0 0 0 0 0 0 0 0 0 0 0 0 0 0 0 0 0 0 0 0 0 0 0 0 0 0 0 0 0 0 0 0 0 0 0 0 0 0 0 0 0 0 0 0 0 0 0 0 0 0 0 0 0 0 0 0 0 0 0 0 0 0 0 0 0 0 0 0 0 0 0 0 0 
0 0 0 0 0 0 0 0 0 0 0 0 0 0 0 0 0 0 0 0 0 0 0 0 0 0 0 0 0 0 0 0 0 0 0 0 0 0 0 0 0 0 0 0 0 0 0 0 0 0 0 0 0 0 0 0 0 0 0 0 0 0 0 0 0 0 0 0 0 0 0 0 0 0 0 0 0 0 0 0 0 0 0 0 0 0 0 0 0 0 
0 0 0 0 0 0 0 0 0 0 0 0 0 0 0 0 0 0 0 0 0 0 0 0 0 0 0 0 0 0 0 0 0 0 0 0 0 0 0 0 0 0 0 0 0 0 0 0 0 0 0 0 0 0 0 0 0 0 0 0 0 0 0 0 0 0 0 0 0 0 0 0 0 0 0 0 0 0 0 0 0 0 0 0 0 0 0 0 0 0 
0 0 0 0 0 0 0 0 0 0 0 0 0 0 0 0 0 0 0 0 0 0 0 0 0 0 0 0 0 0 0 0 0 0 0 0 0 0 0 0 0 0 0 0 0 0 0 0 0 0 0 0 0 0 0 0 0 0 0 0 0 0 0 0 0 0 0 0 0 0 0 0 0 0 0 0 0 0 0 0 0 0 0 0 0 0 0 0 0 0 
0 0 0 0 0 0 0 0 0 0 0 0 0 0 0 0 0 0 0 0 0 0 0 0 0 0 0 0 0 0 0 0 0 0 0 0 0 0 0 0 0 0 0 0 0 0 0 0 0 0 0 0 0 0 0 0 0 0 0 0 0 0 0 0 0 0 0 0 0 0 0 0 0 0 0 0 0 0 0 0 0 0 0 0 0 0 0 0 0 0 
0 0 0 0 0 0 0 0 0 0 0 0 0 0 0 0 0 0 0 0 0 0 0 0 0 0 0 0 0 0 0 0 0 0 0 0 0 0 0 0 0 0 0 0 0 0 0 0 0 0 0 0 0 0 0 0 0 0 0 0 0 0 0 0 0 0 0 0 0 0 0 0 0 0 0 0 0 0 0 0 0 0 0 0 0 0 0 0 0 0 
0 0 0 0 0 0 0 0 0 0 0 0 0 0 0 0 0 0 0 0 0 0 0 0 0 0 0 0 0 0 0 0 0 0 0 0 0 0 0 0 0 0 0 0 0 0 0 0 0 0 0 0 0 0 0 0 0 0 0 0 0 0 0 0 0 0 0 0 0 0 0 0 0 0 0 0 0 0 0 0 0 0 0 0 0 0 0 0 0 0 
0 0 0 0 0 0 0 0 0 0 0 0 0 0 0 0 0 0 0 0 0 0 0 0 0 0 0 0 0 0 0 0 0 0 0 0 0 0 0 0 0 0 0 0 0 0 0 0 0 0 0 0 0 0 0 0 0 0 0 0 0 0 0 0 0 0 0 0 0 0 0 0 0 0 0 0 0 0 0 0 0 0 0 0 0 0 0 0 0 0 
0 0 0 0 0 0 0 0 0 0 0 0 0 0 0 0 0 0 0 0 0 0 0 0 0 0 0 0 0 0 0 0 0 0 0 0 0 0 0 0 0 0 0 0 0 0 0 0 0 0 0 0 0 0 0 0 0 0 0 0 0 0 0 0 0 0 0 0 0 0 0 0 0 0 0 0 0 0 0 0 0 0 0 0 0 0 0 0 0 0 
0 0 0 0 0 0 0 0 0 0 0 0 0 0 0 0 0 0 0 0 0 0 0 0 0 0 0 0 0 0 0 0 0 0 0 0 0 0 0 0 0 0 0 0 0 0 0 0 0 0 0 0 0 0 0 0 0 0 0 0 0 0 0 0 0 0 0 0 0 0 0 0 0 0 0 0 0 0 0 0 0 0 0 0 0 0 0 0 0 0 
0 0 0 0 0 0 0 0 0 0 0 0 0 0 0 0 0 0 0 0 0 0 0 0 0 0 0 0 0 0 0 0 0 0 0 0 0 0 0 0 0 0 0 0 0 0 0 0 0 0 0 0 0 0 0 0 0 0 0 0 0 0 0 0 0 0 0 0 0 0 0 0 0 0 0 0 0 0 0 0 0 0 0 0 0 0 0 0 0 0 
0 0 0 0 0 0 0 0 0 0 0 0 0 0 0 0 0 0 0 0 0 0 0 0 0 0 0 0 0 0 0 0 0 0 0 0 0 0 0 0 0 0 0 0 0 0 0 0 0 0 0 0 0 0 0 0 0 0 0 0 0 0 0 0 0 0 0 0 0 0 0 0 0 0 0 0 0 0 0 0 0 0 0 0 0 0 0 0 0 0 
0 0 0 0 0 0 0 0 0 0 0 0 0 0 0 0 0 0 0 0 0 0 0 0 0 0 0 0 0 0 0 0 0 0 0 0 0 0 0 0 0 0 0 0 0 0 0 0 0 0 0 0 0 0 0 0 0 0 0 0 0 0 0 0 0 0 0 0 0 0 0 0 0 0 0 0 0 0 0 0 0 0 0 0 0 0 0 0 0 0 
0 0 0 0 0 0 0 0 0 0 0 0 0 0 0 0 0 0 0 0 0 0 0 0 0 0 0 0 0 0 0 0 0 0 0 0 0 0 0 0 0 0 0 0 0 0 0 0 0 0 0 0 0 0 0 0 0 0 0 0 0 0 0 0 0 0 0 0 0 0 0 0 0 0 0 0 0 0 0 0 0 0 0 0 0 0 0 0 0 0 
0 0 0 0 0 0 0 0 0 0 0 0 0 0 0 0 0 0 0 0 0 0 0 0 0 0 0 0 0 0 0 0 0 0 0 0 0 0 0 0 0 0 0 0 0 0 0 0 0 0 0 0 0 0 0 0 0 0 0 0 0 0 0 0 0 0 0 0 0 0 0 0 0 0 0 0 0 0 0 0 0 0 0 0 0 0 0 0 0 0 
0 0 0 0 0 0 0 0 0 0 0 0 0 0 0 0 0 0 0 0 0 0 0 0 0 0 0 0 0 0 0 0 0 0 0 0 0 0 0 0 0 0 0 0 0 0 0 0 0 0 0 0 0 0 0 0 0 0 0 0 0 0 0 0 0 0 0 0 0 0 0 0 0 0 0 0 0 0 0 0 0 0 0 0 0 0 0 0 0 0 
0 0 0 0 0 0 0 0 0 0 0 0 0 0 0 0 0 0 0 0 0 0 0 0 0 0 0 0 0 0 0 0 0 0 0 0 0 0 0 0 0 0 0 0 0 0 0 0 0 0 0 0 0 0 0 0 0 0 0 0 0 0 0 0 0 0 0 0 0 0 0 0 0 0 0 0 0 0 0 0 0 0 0 0 0 0 0 0 0 0 
0 0 0 0 0 0 0 0 0 0 0 0 0 0 0 0 0 0 0 0 0 0 0 0 0 0 0 0 0 0 0 0 0 0 0 0 0 0 0 0 0 0 0 0 0 0 0 0 0 0 0 0 0 0 0 0 0 0 0 0 0 0 0 0 0 0 0 0 0 0 0 0 0 0 0 0 0 0 0 0 0 0 0 0 0 0 0 0 0 0 
0 0 0 0 0 0 0 0 0 0 0 0 0 0 0 0 0 0 0 0 0 0 0 0 0 0 0 0 0 0 0 0 0 0 0 0 0 0 0 0 0 0 0 0 0 0 0 0 0 0 0 0 0 0 0 0 0 0 0 0 0 0 0 0 0 0 0 0 0 0 0 0 0 0 0 0 0 0 0 0 0 0 0 0 0 0 0 0 0 0 
0 0 0 0 0 0 0 0 0 0 0 0 0 0 0 0 0 0 0 0 0 0 0 0 0 0 0 0 0 0 0 0 0 0 0 0 0 0 0 0 0 0 0 0 0 0 0 0 0 0 0 0 0 0 0 0 0 0 0 0 0 0 0 0 0 0 0 0 0 0 0 0 0 0 0 0 0 0 0 0 0 0 0 0 0 0 0 0 0 0 
0 0 0 0 0 0 0 0 0 0 0 0 0 0 0 0 0 0 0 0 0 0 0 0 0 0 0 0 0 0 0 0 0 0 0 0 0 0 0 0 0 0 0 0 0 0 0 0 0 0 0 0 0 0 0 0 0 0 0 0 0 0 0 0 0 0 0 0 0 0 0 0 0 0 0 0 0 0 0 0 0 0 0 0 0 0 0 0 0 0 
0 0 0 0 0 0 0 0 0 0 0 0 0 0 0 0 0 0 0 0 0 0 0 0 0 0 0 0 0 0 0 0 0 0 0 0 0 0 0 0 0 0 0 0 0 0 0 0 0 0 0 0 0 0 0 0 0 0 0 0 0 0 0 0 0 0 0 0 0 0 0 0 0 0 0 0 0 0 0 0 0 0 0 0 0 0 0 0 0 0 
0 0 0 0 0 0 0 0 0 0 0 0 0 0 0 0 0 0 0 0 0 0 0 0 0 0 0 0 0 0 0 0 0 0 0 0 0 0 0 0 0 0 0 0 0 0 0 0 0 0 0 0 0 0 0 0 0 0 0 0 0 0 0 0 0 0 0 0 0 0 0 0 0 0 0 0 0 0 0 0 0 0 0 0 0 0 0 0 0 0 
0 0 0 0 0 0 0 0 0 0 0 0 0 0 0 0 0 0 0 0 0 0 0 0 0 0 0 0 0 0 0 0 0 0 0 0 0 0 0 0 0 0 0 0 0 0 0 0 0 0 0 0 0 0 0 0 0 0 0 0 0 0 0 0 0 0 0 0 0 0 0 0 0 0 0 0 0 0 0 0 0 0 0 0 0 0 0 0 0 0 
0 0 0 0 0 0 0 0 0 0 0 0 0 0 0 0 0 0 0 0 0 0 0 0 0 0 0 0 0 0 0 0 0 0 0 0 0 0 0 0 0 0 0 0 0 0 0 0 0 0 0 0 0 0 0 0 0 0 0 0 0 0 0 0 0 0 0 0 0 0 0 0 0 0 0 0 0 0 0 0 0 0 0 0 0 0 0 0 0 0 
0 0 0 0 0 0 0 0 0 0 0 0 0 0 0 0 0 0 0 0 0 0 0 0 0 0 0 0 0 0 0 0 0 0 0 0 0 0 0 0 0 0 0 0 0 0 0 0 0 0 0 0 0 0 0 0 0 0 0 0 0 0 0 0 0 0 0 0 0 0 0 0 0 0 0 0 0 0 0 0 0 0 0 0 0 0 0 0 0 0 
0 0 0 0 0 0 0 0 0 0 0 0 0 0 0 0 0 0 0 0 0 0 0 0 0 0 0 0 0 0 0 0 0 0 0 0 0 0 0 0 0 0 0 0 0 0 0 0 0 0 0 0 0 0 0 0 0 0 0 0 0 0 0 0 0 0 0 0 0 0 0 0 0 0 0 0 0 0 0 0 0 0 0 0 0 0 0 0 0 0 
0 0 0 0 0 0 0 0 0 0 0 0 0 0 0 0 0 0 0 0 0 0 0 0 0 0 0 0 0 0 0 0 0 0 0 0 0 0 0 0 0 0 0 0 0 0 0 0 0 0 0 0 0 0 0 0 0 0 0 0 0 0 0 0 0 0 0 0 0 0 0 0 0 0 0 0 0 0 0 0 0 0 0 0 0 0 0 0 0 0 
0 0 0 0 0 0 0 0 0 0 0 0 0 0 0 0 0 0 0 0 0 0 0 0 0 0 0 0 0 0 0 0 0 0 0 0 0 0 0 0 0 0 0 0 0 0 0 0 0 0 0 0 0 0 0 0 0 0 0 0 0 0 0 0 0 0 0 0 0 0 0 0 0 0 0 0 0 0 0 0 0 0 0 0 0 0 0 0 0 0 
0 0 0 0 0 0 0 0 0 0 0 0 0 0 0 0 0 0 0 0 0 0 0 0 0 0 0 0 0 0 0 0 0 0 0 0 0 0 0 0 0 0 0 0 0 0 0 0 0 0 0 0 0 0 0 0 0 0 0 0 0 0 0 0 0 0 0 0 0 0 0 0 0 0 0 0 0 0 0 0 0 0 0 0 0 0 0 0 0 0 
0 0 0 0 0 0 0 0 0 0 0 0 0 0 0 0 0 0 0 0 0 0 0 0 0 0 0 0 0 0 0 0 0 0 0 0 0 0 0 0 0 0 0 0 0 0 0 0 0 0 0 0 0 0 0 0 0 0 0 0 0 0 0 0 0 0 0 0 0 0 0 0 0 0 0 0 0 0 0 0 0 0 0 0 0 0 0 0 0 0 
0 0 0 0 0 0 0 0 0 0 0 0 0 0 0 0 0 0 0 0 0 0 0 0 0 0 0 0 0 0 0 0 0 0 0 0 0 0 0 0 0 0 0 0 0 0 0 0 0 0 0 0 0 0 0 0 0 0 0 0 0 0 0 0 0 0 0 0 0 0 0 0 0 0 0 0 0 0 0 0 0 0 0 0 0 0 0 0 0 0 
0 0 0 0 0 0 0 0 0 0 0 0 0 0 0 0 0 0 0 0 0 0 0 0 0 0 0 0 0 0 0 0 0 0 0 0 0 0 0 0 0 0 0 0 0 0 0 0 0 0 0 0 0 0 0 0 0 0 0 0 0 0 0 0 0 0 0 0 0 0 0 0 0 0 0 0 0 0 0 0 0 0 0 0 0 0 0 0 0 0 
# Events [psd1_dat/psd1.dat] N: 
0 0 0 0 0 0 0 0 0 0 0 0 0 0 0 0 0 0 0 0 0 0 0 0 0 0 0 0 0 0 0 0 0 0 0 0 0 0 0 0 0 0 0 0 0 0 0 0 0 0 0 0 0 0 0 0 0 0 0 0 0 0 0 0 0 0 0 0 0 0 0 0 0 0 0 0 0 0 0 0 0 0 0 0 0 0 0 0 0 0 
0 0 0 0 0 0 0 0 0 0 0 0 0 0 0 0 0 0 0 0 0 0 0 0 0 0 0 0 0 0 0 0 0 0 0 0 0 0 0 0 0 0 0 0 0 0 0 0 0 0 0 0 0 0 0 0 0 0 0 0 0 0 0 0 0 0 0 0 0 0 0 0 0 0 0 0 0 0 0 0 0 0 0 0 0 0 0 0 0 0 
0 0 0 0 0 0 0 0 0 0 0 0 0 0 0 0 0 0 0 0 0 0 0 0 0 0 0 0 0 0 0 0 0 0 0 0 0 0 0 0 0 0 0 0 0 0 0 0 0 0 0 0 0 0 0 0 0 0 0 0 0 0 0 0 0 0 0 0 0 0 0 0 0 0 0 0 0 0 0 0 0 0 0 0 0 0 0 0 0 0 
0 0 0 0 0 0 0 0 0 0 0 0 0 0 0 0 0 0 0 0 0 0 0 0 0 0 0 0 0 0 0 0 0 0 0 0 0 0 0 0 0 0 0 0 0 0 0 0 0 0 0 0 0 0 0 0 0 0 0 0 0 0 0 0 0 0 0 0 0 0 0 0 0 0 0 0 0 0 0 0 0 0 0 0 0 0 0 0 0 0 
0 0 0 0 0 0 0 0 0 0 0 0 0 0 0 0 0 0 0 0 0 0 0 0 0 0 0 0 0 0 0 0 0 0 0 0 0 0 0 0 0 0 0 0 0 0 0 0 0 0 0 0 0 0 0 0 0 0 0 0 0 0 0 0 0 0 0 0 0 0 0 0 0 0 0 0 0 0 0 0 0 0 0 0 0 0 0 0 0 0 
0 0 0 0 0 0 0 0 0 0 0 0 0 0 0 0 0 0 0 0 0 0 0 0 0 0 0 0 0 0 0 0 0 0 0 0 0 0 0 0 0 0 0 0 0 0 0 0 0 0 0 0 0 0 0 0 0 0 0 0 0 0 0 0 0 0 0 0 0 0 0 0 0 0 0 0 0 0 0 0 0 0 0 0 0 0 0 0 0 0 
0 0 0 0 0 0 0 0 0 0 0 0 0 0 0 0 0 0 0 0 0 0 0 0 0 0 0 0 0 0 0 0 0 0 0 0 0 0 0 0 0 0 0 0 0 0 0 0 0 0 0 0 0 0 0 0 0 0 0 0 0 0 0 0 0 0 0 0 0 0 0 0 0 0 0 0 0 0 0 0 0 0 0 0 0 0 0 0 0 0 
0 0 0 0 0 0 0 0 0 0 0 0 0 0 0 0 0 0 0 0 0 0 0 0 0 0 0 0 0 0 0 0 0 0 0 0 0 0 0 0 0 0 0 0 0 0 0 0 0 0 0 0 0 0 0 0 0 0 0 0 0 0 0 0 0 0 0 0 0 0 0 0 0 0 0 0 0 0 0 0 0 0 0 0 0 0 0 0 0 0 
0 0 0 0 0 0 0 0 0 0 0 0 0 0 0 0 0 0 0 0 0 0 0 0 0 0 0 0 0 0 0 0 0 0 0 0 0 0 0 0 0 0 0 0 0 0 0 0 0 0 0 0 0 0 0 0 0 0 0 0 0 0 0 0 0 0 0 0 0 0 0 0 0 0 0 0 0 0 0 0 0 0 0 0 0 0 0 0 0 0 
0 0 0 0 0 0 0 0 0 0 0 0 0 0 0 0 0 0 0 0 0 0 0 0 0 0 0 0 0 0 0 0 0 0 0 0 0 0 0 0 0 0 0 0 0 0 0 0 0 0 0 0 0 0 0 0 0 0 0 0 0 0 0 0 0 0 0 0 0 0 0 0 0 0 0 0 0 0 0 0 0 0 0 0 0 0 0 0 0 0 
0 0 0 0 0 0 0 0 0 0 0 0 0 0 0 0 0 0 0 0 0 0 0 0 0 0 0 0 0 0 0 0 0 0 0 0 0 0 0 0 0 0 0 0 0 0 0 0 0 0 0 0 0 0 0 0 0 0 0 0 0 0 0 0 0 0 0 0 0 0 0 0 0 0 0 0 0 0 0 0 0 0 0 0 0 0 0 0 0 0 
0 0 0 0 0 0 0 0 0 0 0 0 0 0 0 0 0 0 0 0 0 0 0 0 0 0 0 0 0 0 0 0 0 0 0 0 0 0 0 0 0 0 0 0 0 0 0 0 0 0 0 0 0 0 0 0 0 0 0 0 0 0 0 0 0 0 0 0 0 0 0 0 0 0 0 0 0 0 0 0 0 0 0 0 0 0 0 0 0 0 
0 0 0 0 0 0 0 0 0 0 0 0 0 0 0 0 0 0 0 0 0 0 0 0 0 0 0 0 0 0 0 0 0 0 0 0 0 0 0 0 0 0 0 0 0 0 0 0 0 0 0 0 0 0 0 0 0 0 0 0 0 0 0 0 0 0 0 0 0 0 0 0 0 0 0 0 0 0 0 0 0 0 0 0 0 0 0 0 0 0 
0 0 0 0 0 0 0 0 0 0 0 0 0 0 0 0 0 0 0 0 0 0 0 0 0 0 0 0 0 0 0 0 0 0 0 0 0 0 0 0 0 0 0 0 0 0 0 0 0 0 0 0 0 0 0 0 0 0 0 0 0 0 0 0 0 0 0 0 0 0 0 0 0 0 0 0 0 0 0 0 0 0 0 0 0 0 0 0 0 0 
0 0 0 0 0 0 0 0 0 0 0 0 0 0 0 0 0 0 0 0 0 0 0 0 0 0 0 0 0 0 0 0 0 0 0 0 0 0 0 0 0 0 0 0 0 0 0 0 0 0 0 0 0 0 0 0 0 0 0 0 0 0 0 0 0 0 0 0 0 0 0 0 0 0 0 0 0 0 0 0 0 0 0 0 0 0 0 0 0 0 
0 0 0 0 0 0 0 0 0 0 0 0 0 0 0 0 0 0 0 0 0 0 0 0 0 0 0 0 0 0 0 0 0 0 0 0 0 0 0 0 0 0 0 0 0 0 0 0 0 0 0 0 0 0 0 0 0 0 0 0 0 0 0 0 0 0 0 0 0 0 0 0 0 0 0 0 0 0 0 0 0 0 0 0 0 0 0 0 0 0 
0 0 0 0 0 0 0 0 0 0 0 0 0 0 0 0 0 0 0 0 0 0 0 0 0 0 0 0 0 0 0 0 0 0 0 0 0 0 0 0 0 0 0 0 0 0 0 0 0 0 0 0 0 0 0 0 0 0 0 0 0 0 0 0 0 0 0 0 0 0 0 0 0 0 0 0 0 0 0 0 0 0 0 0 0 0 0 0 0 0 
0 0 0 0 0 0 0 0 0 0 0 0 0 0 0 0 0 0 0 0 0 0 0 0 0 0 0 0 0 0 0 0 0 0 0 0 0 0 0 0 0 0 0 0 0 0 0 0 0 0 0 0 0 0 0 0 0 0 0 0 0 0 0 0 0 0 0 0 0 0 0 0 0 0 0 0 0 0 0 0 0 0 0 0 0 0 0 0 0 0 
0 0 0 0 0 0 0 0 0 0 0 0 0 0 0 0 0 0 0 0 0 0 0 0 0 0 0 0 0 0 0 0 0 0 0 0 0 0 0 0 0 0 0 0 0 0 0 0 0 0 0 0 0 0 0 0 0 0 0 0 0 0 0 0 0 0 0 0 0 0 0 0 0 0 0 0 0 0 0 0 0 0 0 0 0 0 0 0 0 0 
0 0 0 0 0 0 0 0 0 0 0 0 0 0 0 0 0 0 0 0 0 0 0 0 0 0 0 0 0 0 0 0 0 0 0 0 0 0 0 0 0 0 0 0 0 0 0 0 0 0 0 0 0 0 0 0 0 0 0 0 0 0 0 0 0 0 0 0 0 0 0 0 0 0 0 0 0 0 0 0 0 0 0 0 0 0 0 0 0 0 
0 0 0 0 0 0 0 0 0 0 0 0 0 0 0 0 0 0 0 0 0 0 0 0 0 0 0 0 0 0 0 0 0 0 0 0 0 0 0 0 0 0 0 0 0 0 0 0 0 0 0 0 0 0 0 0 0 0 0 0 0 0 0 0 0 0 0 0 0 0 0 0 0 0 0 0 0 0 0 0 0 0 0 0 0 0 0 0 0 0 
0 0 0 0 0 0 0 0 0 0 0 0 0 0 0 0 0 0 0 0 0 0 0 0 0 0 0 0 0 0 0 0 0 0 0 0 0 0 0 0 0 0 0 0 0 0 0 0 0 0 0 0 0 0 0 0 0 0 0 0 0 0 0 0 0 0 0 0 0 0 0 0 0 0 0 0 0 0 0 0 0 0 0 0 0 0 0 0 0 0 
0 0 0 0 0 0 0 0 0 0 0 0 0 0 0 0 0 0 0 0 0 0 0 0 0 0 0 0 0 0 0 0 0 0 0 0 0 0 0 0 0 0 0 0 0 0 0 0 0 0 0 0 0 0 0 0 0 0 0 0 0 0 0 0 0 0 0 0 0 0 0 0 0 0 0 0 0 0 0 0 0 0 0 0 0 0 0 0 0 0 
0 0 0 0 0 0 0 0 0 0 0 0 0 0 0 0 0 0 0 0 0 0 0 0 0 0 0 0 0 0 0 0 0 0 0 0 0 0 0 0 0 0 0 0 0 0 0 0 0 0 0 0 0 0 0 0 0 0 0 0 0 0 0 0 0 0 0 0 0 0 0 0 0 0 0 0 0 0 0 0 0 0 0 0 0 0 0 0 0 0 
0 0 0 0 0 0 0 0 0 0 0 0 0 0 0 0 0 0 0 0 0 0 0 0 0 0 0 0 0 0 0 0 1 0 0 0 0 1 0 0 0 0 0 1 0 1 1 0 0 0 0 0 0 0 0 0 0 0 0 0 0 0 0 0 0 0 0 0 0 0 0 0 0 0 0 0 0 0 0 0 0 0 0 0 0 0 0 0 0 0 
0 0 0 0 0 0 0 0 0 0 0 0 0 0 0 0 0 0 0 0 0 0 0 0 0 0 0 0 0 0 0 0 0 0 1 0 0 0 0 1 0 1 0 0 2 0 2 0 0 0 1 0 0 0 0 0 0 0 0 0 0 0 0 0 0 0 0 0 0 1 0 0 0 0 0 0 0 0 0 0 0 0 0 0 0 0 0 0 0 0 
0 0 0 0 0 0 0 0 0 0 0 0 0 0 0 0 0 0 0 0 0 0 0 0 0 0 0 0 0 0 0 0 0 1 0 0 1 0 1 1 0 0 1 0 0 1 0 1 1 1 1 1 2 0 0 0 1 1 1 0 0 0 0 0 0 0 0 0 0 0 0 0 0 0 0 0 0 0 0 0 0 0 0 0 0 0 0 0 0 0 
0 0 0 0 0 0 0 0 0 0 0 0 0 0 0 0 0 0 0 0 0 1 1 0 1 0 1 0 0 0 0 0 2 1 2 1 1 1 2 0 1 2 1 2 0 2 1 5 3 1 0 0 2 1 1 0 2 0 0 1 0 2 0 0 0 2 0 0 0 0 0 0 0 0 0 0 0 0 0 0 0 0 0 0 0 0 0 0 0 0 
0 0 0 0 0 0 0 0 0 0 0 0 0 1 0 0 0 0 0 0 0 0 1 0 0 0 1 0 2 1 2 3 0 2 2 5 4 4 4 4 5 4 3 5 6 4 5 8 1 1 4 3 2 0 8 1 0 1 4 1 2 0 1 0 1 0 0 0 0 0 0 0 0 0 0 0 0 0 0 0 0 0 0 0 0 0 0 0 0 0 
0 0 0 0 0 0 0 0 0 0 0 0 0 0 0 0 0 0 0 0 0 0 1 1 3 2 4 3 3 3 2 2 3 9 6 10 7 7 8 8 12 10 12 9 11 13 8 12 18 13 11 5 6 9 4 6 5 2 2 3 4 2 0 2 0 0 2 1 2 0 0 0 0 0 0 0 0 0 0 0 0 0 0 0 0 0 0 0 0 0 
0 0 0 0 0 0 0 0 0 0 0 0 0 0 0 0 0 1 0 0 0 0 0 1 6 2 4 1 4 5 6 12 12 11 12 14 19 19 17 18 17 18 17 30 30 26 27 25 27 16 24 12 27 22 17 19 13 14 6 3 3 3 2 0 1 2 0 1 1 0 2 0 0 0 0 0 0 0 0 0 0 0 0 0 0 0 0 0 0 0 
0 0 0 0 0 0 0 0 0 0 0 0 0 1 0 0 0 0 0 0 3 2 2 0 2 2 7 7 7 9 16 15 14 20 23 21 26 37 36 23 53 55 52 36 36 46 49 36 45 31 38 34 32 28 28 19 20 30 18 14 8 10 1 4 5 3 0 3 2 1 1 2 3 0 0 0 0 0 0 0 0 0 0 0 0 0 0 0 0 0 
0 0 0 0 0 0 0 0 0 0 0 0 1 0 2 0 0 0 1 2 1 3 5 6 9 8 10 17 19 24 28 26 28 46 35 41 56 48 66 57 83 75 86 93 103 70 79 82 61 83 71 65 61 51 50 40 44 37 26 18 27 15 9 14 10 5 2 4 3 2 1 3 0 1 0 0 0 0 0 0 0 0 0 0 0 0 0 0 0 0 
0 0 0 0 0 0 0 0 0 0 1 0 0 1 1 0 2 2 2 2 2 1 6 8 14 10 26 24 35 55 49 47 54 64 85 86 89 110 96 135 142 146 152 138 164 159 155 173 166 136 121 126 101 98 92 80 73 52 51 47 46 39 13 23 14 14 12 8 4 3 2 6 1 0 0 0 1 0 0 0 0 0 0 0 0 0 0 0 0 0 
0 0 0 0 0 0 0 0 0 0 0 1 0 1 0 2 2 2 4 7 13 10 12 16 22 26 40 36 48 71 70 86 108 113 115 136 171 201 202 222 214 269 255 277 245 294 272 241 246 218 236 190 192 184 174 133 133 99 90 75 49 56 36 32 31 21 12 14 7 5 1 3 2 1 1 1 1 1 0 0 0 1 0 0 0 0 0 0 0 0 
0 0 0 0 0 0 0 0 0 0 3 0 1 1 3 2 1 5 13 13 11 8 21 20 19 39 46 62 78 102 143 138 172 206 208 241 252 299 328 363 342 404 413 414 424 447 459 402 389 419 347 348 336 277 251 219 207 146 148 139 95 104 53 52 46 33 37 12 12 15 9 5 6 4 2 0 0 1 1 1 0 0 0 0 0 0 0 0 0 0 
0 0 0 0 0 0 0 0 0 0 2 0 0 3 1 1 1 7 7 19 12 25 28 38 52 62 82 89 123 165 197 227 257 287 327 384 402 459 546 543 568 635 680 649 639 716 643 640 639 553 557 484 462 402 326 346 332 242 225 186 166 131 92 78 65 45 48 25 19 16 17 11 6 2 5 3 3 1 0 0 0 0 0 0 0 0 0 1 0 0 
0 0 0 0 0 0 0 0 1 0 1 0 0 3 0 4 11 11 16 13 25 27 42 66 62 95 121 145 175 236 271 357 367 445 474 541 646 691 761 810 832 917 922 997 1028 943 953 966 857 878 871 800 719 655 585 488 448 361 308 280 231 185 154 117 75 67 48 62 32 20 13 13 9 7 3 2 0 2 1 1 0 0 0 0 0 0 0 0 0 0 
0 0 0 0 0 0 0 0 0 1 1 1 2 2 4 8 11 10 20 35 41 44 61 80 118 142 166 204 279 332 385 466 539 600 683 834 929 957 1082 1180 1256 1319 1386 1453 1416 1375 1328 1331 1304 1288 1181 1101 979 914 819 720 578 562 475 391 316 244 217 176 140 120 97 63 49 28 32 18 17 9 8 4 1 0 0 1 0 0 0 0 0 0 0 0 0 0 
0 0 0 0 0 0 1 0 0 1 2 2 4 8 2 10 20 20 24 39 41 48 89 129 143 181 238 298 342 437 505 600 742 889 1008 1093 1158 1307 1438 1537 1666 1727 1718 1873 1816 1866 1751 1780 1659 1626 1485 1446 1324 1087 1089 917 829 738 613 534 393 342 305 205 178 151 102 95 80 44 34 19 17 11 7 10 7 5 1 2 0 2 0 0 0 0 0 0 0 0 
0 0 0 0 0 0 1 0 2 0 0 3 3 5 7 11 12 28 30 54 57 84 96 147 193 230 315 391 434 544 678 855 875 1027 1232 1320 1544 1670 1829 1921 2052 2208 2375 2246 2384 2362 2332 2326 2266 2133 2004 1823 1726 1545 1418 1205 1037 889 787 659 544 477 393 272 217 200 153 95 79 68 56 35 22 11 12 14 2 1 2 1 1 2 0 0 0 0 0 0 0 0 
0 0 0 0 0 0 0 0 1 0 1 3 5 5 7 13 21 31 46 51 79 105 113 180 216 286 372 493 588 632 813 932 1087 1317 1534 1601 1855 2079 2241 2395 2635 2633 2788 2918 2790 2750 2716 2756 2658 2633 2421 2100 2051 1863 1712 1463 1281 1178 950 765 659 578 425 360 257 202 184 112 110 77 67 29 27 16 13 11 4 2 1 3 2 1 2 0 0 0 0 0 0 0 
0 0 0 0 0 1 0 0 0 4 5 1 4 6 13 17 23 26 45 52 70 93 147 184 244 335 424 524 630 772 943 1026 1291 1544 1649 1830 2082 2470 2644 2819 2948 3088 3161 3276 3316 3364 3283 3206 3049 2954 2719 2560 2367 2094 1911 1802 1530 1262 1104 963 755 626 493 390 320 270 200 170 115 69 68 56 35 30 16 13 4 4 6 4 1 0 1 0 0 0 0 0 0 0 
0 0 0 0 1 0 0 2 1 3 3 3 6 9 10 16 31 33 52 64 102 112 152 202 278 384 450 537 712 854 1043 1254 1370 1704 1804 2122 2374 2668 2848 3050 3249 3391 3509 3627 3622 3625 3589 3510 3450 3214 3113 2819 2544 2413 2045 1823 1633 1384 1224 988 863 669 618 441 363 296 215 155 112 107 74 50 26 22 24 7 10 4 3 0 2 3 0 0 0 0 0 0 0 0 
0 0 0 0 0 0 1 0 0 1 0 1 5 18 11 16 32 32 58 66 85 129 165 248 292 358 448 632 729 862 1025 1286 1457 1757 1970 2243 2506 2710 3063 3196 3388 3655 3641 3889 3883 3851 3818 3630 3578 3444 3256 3043 2674 2436 2190 2011 1728 1463 1301 1106 841 777 539 512 366 289 216 170 128 104 69 49 32 25 18 14 5 8 7 1 5 0 3 3 0 0 0 0 0 0 
0 0 0 0 0 2 1 1 0 4 4 2 6 16 13 18 28 25 65 74 93 121 168 218 301 393 439 654 731 901 1045 1270 1418 1774 1987 2263 2463 2783 2980 3246 3385 3682 3743 3843 3810 3901 3736 3809 3637 3311 3107 2931 2808 2402 2323 1917 1715 1464 1284 1011 902 766 640 477 375 284 215 172 127 106 59 50 44 30 15 22 8 6 1 2 3 2 1 2 0 1 0 0 0 0 
0 0 0 0 0 0 0 0 2 0 3 3 3 10 13 17 22 41 51 57 116 144 149 218 294 376 462 568 607 818 1043 1286 1425 1694 1873 2148 2373 2566 2831 3019 3195 3480 3522 3432 3756 3668 3611 3484 3396 3261 3049 2785 2719 2427 2080 1784 1668 1387 1196 1025 839 682 528 453 336 287 242 163 134 95 63 58 32 22 15 14 7 5 3 2 2 1 0 0 0 0 0 0 0 0 
0 0 0 0 0 0 1 1 1 2 4 6 5 9 8 13 25 30 40 66 87 106 148 199 254 311 395 506 601 777 888 1067 1268 1452 1768 1917 2142 2342 2564 2695 2815 2977 3198 3341 3243 3386 3375 3158 3090 3067 2746 2527 2540 2093 1926 1645 1453 1265 1115 914 788 619 512 413 310 250 189 151 125 80 68 41 29 26 18 13 6 4 0 2 2 0 0 0 0 0 0 0 0 0 
0 1 0 0 0 0 1 0 1 1 2 7 5 4 6 14 17 20 41 63 77 99 135 174 218 293 339 487 523 660 795 922 1133 1306 1443 1719 1843 2134 2308 2410 2552 2628 2733 2767 2870 2883 2825 2852 2680 2556 2453 2352 2010 1852 1687 1418 1271 1094 994 774 683 525 448 321 261 211 189 127 86 63 53 44 23 29 12 9 8 3 5 2 1 1 1 1 0 0 0 0 0 0 
0 0 0 0 0 0 0 0 0 0 2 1 2 3 6 14 16 27 39 55 59 82 101 154 181 229 313 393 476 553 631 779 873 1062 1204 1359 1575 1644 1811 1963 2140 2252 2224 2265 2406 2330 2357 2298 2210 2144 2003 1838 1660 1577 1366 1232 1064 878 787 700 586 475 340 269 243 169 145 112 86 67 39 43 24 11 11 11 2 3 2 2 0 1 0 0 0 0 0 0 0 0 
0 0 0 0 1 0 0 0 1 0 2 1 2 8 8 6 10 17 25 28 50 71 85 113 139 168 209 302 370 433 498 629 700 764 954 1045 1151 1337 1469 1483 1640 1750 1890 1845 1848 1891 1852 1763 1818 1606 1456 1448 1319 1192 1054 959 811 686 635 530 436 356 263 217 202 149 106 94 61 52 31 36 16 14 8 5 4 2 2 0 2 0 1 0 0 0 0 0 0 0 
0 0 0 0 0 0 1 0 0 0 2 1 4 1 1 6 10 12 27 22 35 56 78 91 103 144 167 216 278 347 353 447 541 643 714 826 911 1004 1081 1151 1259 1292 1326 1433 1303 1427 1360 1401 1292 1239 1142 1057 970 928 765 716 642 495 438 378 289 257 203 174 123 91 60 55 34 29 30 30 15 9 3 3 1 4 1 0 0 0 0 0 0 0 0 0 0 0 
0 0 0 0 0 1 0 0 1 0 0 0 3 2 4 3 3 11 19 21 22 31 51 50 76 101 109 147 204 236 269 322 376 459 560 584 610 667 700 845 841 911 958 1010 950 996 939 967 946 826 802 740 751 621 567 486 439 364 318 270 239 193 160 133 93 67 60 44 39 28 16 17 10 5 3 6 2 1 3 1 0 0 0 0 0 0 0 0 0 0 
0 0 0 0 0 0 0 0 0 0 0 1 0 4 2 3 6 4 11 12 18 26 36 42 52 56 71 95 118 154 176 212 261 289 312 377 444 448 517 567 575 582 653 685 662 688 661 626 568 627 549 511 448 424 378 356 313 233 221 203 155 132 99 84 70 52 42 29 22 15 13 10 3 6 1 4 0 0 0 0 2 0 0 0 0 0 0 0 0 0 
0 0 0 0 0 0 0 0 0 1 1 0 0 0 1 4 4 5 2 3 6 10 30 18 35 47 48 74 103 94 118 131 165 184 211 248 280 294 333 324 408 394 458 450 442 455 465 464 389 340 318 341 306 274 232 191 200 158 153 111 104 88 65 52 51 40 26 17 18 10 8 2 5 3 5 1 0 0 0 0 1 0 0 0 0 0 0 0 0 0 
0 0 0 0 0 0 0 0 0 0 1 1 1 0 0 1 1 7 5 8 2 10 9 18 31 21 27 41 58 56 89 97 86 123 138 146 184 175 202 197 256 260 248 287 272 272 265 271 263 241 196 219 192 174 150 132 112 95 84 70 72 56 41 33 31 13 21 8 9 5 6 3 1 0 1 1 1 2 0 0 0 0 0 0 0 0 0 0 0 0 
0 0 0 0 0 0 0 0 0 0 0 0 0 1 0 2 1 3 3 1 0 10 9 9 15 20 21 27 26 36 35 48 60 60 83 95 107 106 119 120 133 144 154 144 166 155 140 129 126 131 125 128 117 107 89 81 56 56 49 46 32 44 21 14 19 13 5 5 6 1 7 3 0 0 1 0 0 1 0 0 0 0 0 0 0 0 0 0 0 0 
0 0 0 0 0 0 0 0 0 0 0 1 0 0 0 0 2 0 0 1 1 4 1 3 10 10 9 12 24 17 28 18 29 30 41 65 57 59 63 66 88 88 98 90 89 94 78 82 79 70 78 74 65 49 45 45 37 40 40 32 20 13 14 12 8 4 6 3 2 2 1 1 1 0 1 0 0 0 0 0 0 0 0 0 0 0 0 0 0 0 
0 0 0 0 0 0 0 0 0 0 0 0 0 0 0 0 0 0 1 0 2 2 2 3 6 2 8 7 11 14 19 14 10 21 17 28 44 30 39 24 47 36 47 55 35 41 52 45 50 42 38 34 38 18 25 30 26 19 10 10 11 6 13 6 4 7 1 2 1 0 3 1 1 1 0 0 0 0 0 0 0 0 0 0 0 0 0 0 0 0 
0 0 0 0 0 0 0 0 0 0 0 1 0 1 1 0 0 0 0 2 2 3 4 3 1 3 1 4 5 7 4 11 11 7 10 18 13 13 27 14 23 21 13 24 29 21 33 14 26 23 18 18 22 11 13 12 10 11 5 5 3 4 5 2 0 2 0 2 1 1 0 0 0 1 0 1 0 0 0 0 0 0 0 0 0 0 0 0 0 0 
0 0 0 0 0 0 0 0 0 0 0 0 0 0 0 0 0 0 0 1 0 0 1 2 2 2 1 1 1 2 2 0 5 8 6 9 6 12 17 11 10 9 9 11 14 10 14 11 11 3 5 11 11 10 6 4 10 4 5 0 1 3 3 0 2 2 0 2 1 0 1 1 0 0 0 0 0 0 0 0 0 0 0 0 0 0 0 0 0 0 
0 0 0 0 0 0 0 0 0 0 0 0 0 0 0 0 0 0 0 0 0 0 1 0 0 0 0 1 2 0 3 1 2 1 3 4 2 6 4 6 6 4 5 6 2 5 8 12 4 3 4 7 3 2 3 4 2 2 1 3 0 0 2 0 1 1 0 0 0 0 0 0 0 0 0 0 0 0 0 0 0 0 0 0 0 0 0 0 0 0 
0 0 0 0 0 0 0 0 0 0 0 0 0 0 0 0 0 0 0 0 0 0 0 0 0 0 1 2 1 0 2 0 0 1 3 2 0 3 0 3 1 1 1 2 4 1 2 3 3 1 0 4 2 1 0 2 1 1 1 0 0 1 0 0 0 0 0 0 0 0 0 0 0 0 0 0 0 0 0 0 0 0 0 0 0 0 0 0 0 0 
0 0 0 0 0 0 0 0 0 0 0 0 0 0 0 0 0 0 0 0 0 0 0 0 0 0 1 0 0 0 1 0 1 0 0 1 1 0 0 1 1 0 0 0 3 2 2 0 1 0 1 1 1 0 2 1 0 1 0 0 1 0 0 0 0 0 0 0 0 0 0 0 0 0 0 0 0 0 0 0 0 0 0 0 0 0 0 0 0 0 
0 0 0 0 0 0 0 0 0 0 0 0 0 0 0 0 0 0 0 0 0 0 0 0 0 0 0 0 0 1 0 0 0 0 0 0 0 0 0 0 0 1 1 0 0 0 1 0 0 0 0 0 0 0 0 1 0 0 0 0 0 0 0 0 0 0 0 0 0 0 0 0 0 0 0 0 0 0 0 0 0 0 0 0 0 0 0 0 0 0 
0 0 0 0 0 0 0 0 0 0 0 0 0 0 0 0 0 0 0 0 0 0 0 0 0 0 0 0 0 0 0 0 0 0 0 0 0 0 0 1 0 0 1 0 0 1 0 0 0 0 0 0 0 0 0 0 0 0 0 0 0 0 0 0 0 0 0 0 0 0 0 0 0 0 0 0 0 0 0 0 0 0 0 0 0 0 0 0 0 0 
0 0 0 0 0 0 0 0 0 0 0 0 0 0 0 0 0 0 0 0 0 0 0 0 0 0 0 0 0 0 0 0 0 0 0 0 0 0 0 0 0 0 1 0 0 0 0 0 0 0 0 0 0 0 0 0 0 0 0 0 0 0 0 0 0 0 0 0 0 0 0 0 0 0 0 0 0 0 0 0 0 0 0 0 0 0 0 0 0 0 
0 0 0 0 0 0 0 0 0 0 0 0 0 0 0 0 0 0 0 0 0 0 0 0 0 0 0 0 0 0 0 0 0 1 0 0 0 0 0 0 0 0 0 0 0 0 0 0 0 0 0 0 0 0 0 0 0 0 0 0 0 0 0 0 0 0 0 0 0 0 0 0 0 0 0 0 0 0 0 0 0 0 0 0 0 0 0 0 0 0 
0 0 0 0 0 0 0 0 0 0 0 0 0 0 0 0 0 0 0 0 0 0 0 0 0 0 0 0 0 0 0 0 0 0 0 0 0 0 0 0 0 0 0 0 0 0 0 0 0 0 0 0 0 0 0 0 0 0 0 0 0 0 0 0 0 0 0 0 0 0 0 0 0 0 0 0 0 0 0 0 0 0 0 0 0 0 0 0 0 0 
0 0 0 0 0 0 0 0 0 0 0 0 0 0 0 0 0 0 0 0 0 0 0 0 0 0 0 0 0 0 0 0 0 0 0 0 0 0 0 0 0 0 0 0 0 0 0 0 0 0 0 0 0 0 0 0 0 0 0 0 0 0 0 0 0 0 0 0 0 0 0 0 0 0 0 0 0 0 0 0 0 0 0 0 0 0 0 0 0 0 
0 0 0 0 0 0 0 0 0 0 0 0 0 0 0 0 0 0 0 0 0 0 0 0 0 0 0 0 0 0 0 0 0 0 0 0 0 0 0 0 0 0 0 0 0 0 0 0 0 0 0 0 0 0 0 0 0 0 0 0 0 0 0 0 0 0 0 0 0 0 0 0 0 0 0 0 0 0 0 0 0 0 0 0 0 0 0 0 0 0 
0 0 0 0 0 0 0 0 0 0 0 0 0 0 0 0 0 0 0 0 0 0 0 0 0 0 0 0 0 0 0 0 0 0 0 0 0 0 0 0 0 0 0 0 0 0 0 0 0 0 0 0 0 0 0 0 0 0 0 0 0 0 0 0 0 0 0 0 0 0 0 0 0 0 0 0 0 0 0 0 0 0 0 0 0 0 0 0 0 0 
0 0 0 0 0 0 0 0 0 0 0 0 0 0 0 0 0 0 0 0 0 0 0 0 0 0 0 0 0 0 0 0 0 0 0 0 0 0 0 0 0 0 0 0 0 0 0 0 0 0 0 0 0 0 0 0 0 0 0 0 0 0 0 0 0 0 0 0 0 0 0 0 0 0 0 0 0 0 0 0 0 0 0 0 0 0 0 0 0 0 
0 0 0 0 0 0 0 0 0 0 0 0 0 0 0 0 0 0 0 0 0 0 0 0 0 0 0 0 0 0 0 0 0 0 0 0 0 0 0 0 0 0 0 0 0 0 0 0 0 0 0 0 0 0 0 0 0 0 0 0 0 0 0 0 0 0 0 0 0 0 0 0 0 0 0 0 0 0 0 0 0 0 0 0 0 0 0 0 0 0 
0 0 0 0 0 0 0 0 0 0 0 0 0 0 0 0 0 0 0 0 0 0 0 0 0 0 0 0 0 0 0 0 0 0 0 0 0 0 0 0 0 0 0 0 0 0 0 0 0 0 0 0 0 0 0 0 0 0 0 0 0 0 0 0 0 0 0 0 0 0 0 0 0 0 0 0 0 0 0 0 0 0 0 0 0 0 0 0 0 0 
0 0 0 0 0 0 0 0 0 0 0 0 0 0 0 0 0 0 0 0 0 0 0 0 0 0 0 0 0 0 0 0 0 0 0 0 0 0 0 0 0 0 0 0 0 0 0 0 0 0 0 0 0 0 0 0 0 0 0 0 0 0 0 0 0 0 0 0 0 0 0 0 0 0 0 0 0 0 0 0 0 0 0 0 0 0 0 0 0 0 
0 0 0 0 0 0 0 0 0 0 0 0 0 0 0 0 0 0 0 0 0 0 0 0 0 0 0 0 0 0 0 0 0 0 0 0 0 0 0 0 0 0 0 0 0 0 0 0 0 0 0 0 0 0 0 0 0 0 0 0 0 0 0 0 0 0 0 0 0 0 0 0 0 0 0 0 0 0 0 0 0 0 0 0 0 0 0 0 0 0 
0 0 0 0 0 0 0 0 0 0 0 0 0 0 0 0 0 0 0 0 0 0 0 0 0 0 0 0 0 0 0 0 0 0 0 0 0 0 0 0 0 0 0 0 0 0 0 0 0 0 0 0 0 0 0 0 0 0 0 0 0 0 0 0 0 0 0 0 0 0 0 0 0 0 0 0 0 0 0 0 0 0 0 0 0 0 0 0 0 0 
0 0 0 0 0 0 0 0 0 0 0 0 0 0 0 0 0 0 0 0 0 0 0 0 0 0 0 0 0 0 0 0 0 0 0 0 0 0 0 0 0 0 0 0 0 0 0 0 0 0 0 0 0 0 0 0 0 0 0 0 0 0 0 0 0 0 0 0 0 0 0 0 0 0 0 0 0 0 0 0 0 0 0 0 0 0 0 0 0 0 
0 0 0 0 0 0 0 0 0 0 0 0 0 0 0 0 0 0 0 0 0 0 0 0 0 0 0 0 0 0 0 0 0 0 0 0 0 0 0 0 0 0 0 0 0 0 0 0 0 0 0 0 0 0 0 0 0 0 0 0 0 0 0 0 0 0 0 0 0 0 0 0 0 0 0 0 0 0 0 0 0 0 0 0 0 0 0 0 0 0 
0 0 0 0 0 0 0 0 0 0 0 0 0 0 0 0 0 0 0 0 0 0 0 0 0 0 0 0 0 0 0 0 0 0 0 0 0 0 0 0 0 0 0 0 0 0 0 0 0 0 0 0 0 0 0 0 0 0 0 0 0 0 0 0 0 0 0 0 0 0 0 0 0 0 0 0 0 0 0 0 0 0 0 0 0 0 0 0 0 0 
0 0 0 0 0 0 0 0 0 0 0 0 0 0 0 0 0 0 0 0 0 0 0 0 0 0 0 0 0 0 0 0 0 0 0 0 0 0 0 0 0 0 0 0 0 0 0 0 0 0 0 0 0 0 0 0 0 0 0 0 0 0 0 0 0 0 0 0 0 0 0 0 0 0 0 0 0 0 0 0 0 0 0 0 0 0 0 0 0 0 
0 0 0 0 0 0 0 0 0 0 0 0 0 0 0 0 0 0 0 0 0 0 0 0 0 0 0 0 0 0 0 0 0 0 0 0 0 0 0 0 0 0 0 0 0 0 0 0 0 0 0 0 0 0 0 0 0 0 0 0 0 0 0 0 0 0 0 0 0 0 0 0 0 0 0 0 0 0 0 0 0 0 0 0 0 0 0 0 0 0 
0 0 0 0 0 0 0 0 0 0 0 0 0 0 0 0 0 0 0 0 0 0 0 0 0 0 0 0 0 0 0 0 0 0 0 0 0 0 0 0 0 0 0 0 0 0 0 0 0 0 0 0 0 0 0 0 0 0 0 0 0 0 0 0 0 0 0 0 0 0 0 0 0 0 0 0 0 0 0 0 0 0 0 0 0 0 0 0 0 0 
0 0 0 0 0 0 0 0 0 0 0 0 0 0 0 0 0 0 0 0 0 0 0 0 0 0 0 0 0 0 0 0 0 0 0 0 0 0 0 0 0 0 0 0 0 0 0 0 0 0 0 0 0 0 0 0 0 0 0 0 0 0 0 0 0 0 0 0 0 0 0 0 0 0 0 0 0 0 0 0 0 0 0 0 0 0 0 0 0 0 
0 0 0 0 0 0 0 0 0 0 0 0 0 0 0 0 0 0 0 0 0 0 0 0 0 0 0 0 0 0 0 0 0 0 0 0 0 0 0 0 0 0 0 0 0 0 0 0 0 0 0 0 0 0 0 0 0 0 0 0 0 0 0 0 0 0 0 0 0 0 0 0 0 0 0 0 0 0 0 0 0 0 0 0 0 0 0 0 0 0 
0 0 0 0 0 0 0 0 0 0 0 0 0 0 0 0 0 0 0 0 0 0 0 0 0 0 0 0 0 0 0 0 0 0 0 0 0 0 0 0 0 0 0 0 0 0 0 0 0 0 0 0 0 0 0 0 0 0 0 0 0 0 0 0 0 0 0 0 0 0 0 0 0 0 0 0 0 0 0 0 0 0 0 0 0 0 0 0 0 0 
0 0 0 0 0 0 0 0 0 0 0 0 0 0 0 0 0 0 0 0 0 0 0 0 0 0 0 0 0 0 0 0 0 0 0 0 0 0 0 0 0 0 0 0 0 0 0 0 0 0 0 0 0 0 0 0 0 0 0 0 0 0 0 0 0 0 0 0 0 0 0 0 0 0 0 0 0 0 0 0 0 0 0 0 0 0 0 0 0 0 
0 0 0 0 0 0 0 0 0 0 0 0 0 0 0 0 0 0 0 0 0 0 0 0 0 0 0 0 0 0 0 0 0 0 0 0 0 0 0 0 0 0 0 0 0 0 0 0 0 0 0 0 0 0 0 0 0 0 0 0 0 0 0 0 0 0 0 0 0 0 0 0 0 0 0 0 0 0 0 0 0 0 0 0 0 0 0 0 0 0 
0 0 0 0 0 0 0 0 0 0 0 0 0 0 0 0 0 0 0 0 0 0 0 0 0 0 0 0 0 0 0 0 0 0 0 0 0 0 0 0 0 0 0 0 0 0 0 0 0 0 0 0 0 0 0 0 0 0 0 0 0 0 0 0 0 0 0 0 0 0 0 0 0 0 0 0 0 0 0 0 0 0 0 0 0 0 0 0 0 0 
# EndDate:Wed Jan 23 15:11:04 2013
