# Format: McStas with text headers file. Use mcplot/PGPLOT to view.
# URL:    http://www.mccode.org/
# Editor: erkn on localhost
# Creator:Test_src_gaussian (Test_src_gaussian.instr) simulation (McXtrace x.y.z - Jan. 22, 2013)
# Date:   Simulation started (1358947164) Wed Jan 23 14:19:24 2013
# File:   lmon2.dat
# Ncount: 250000
# Trace: no
# Gravitation: no
# Seed: 1358947159
# Param: XW=0.01
# Param: YH=0.01
# Param: DIST=10
# Param: SRC=2
# Param: E0=10.6117
# type: array_1d(100)
# Source: Test_src_gaussian.instr
# component: lmon2
# position: 0 0 10.002
# title: Wavelength monitor
# Ncount: 250000
# filename: lmon2.dat
# format: McStas with text headers
# statistics: X0=1.42889; dX=0.269342;
# signal: Min=0; Max=1.08166e+11; Mean=3.19948e+10;
# values: 3.19948e+12 4.09634e+10 6128
# xvar: L
# yvar: (I,I_err)
# xlabel: Wavelength [AA]
# ylabel: Intensity
# xlimits: 0 2
# variables: L I I_err N
# Data [lmon2_dat/lmon2.dat] I: 
0.01 0 0 0 
0.03 0 0 0 
0.05 0 0 0 
0.07 0 0 0 
0.09 0 0 0 
0.11 0 0 0 
0.13 0 0 0 
0.15 0 0 0 
0.17 0 0 0 
0.19 0 0 0 
0.21 0 0 0 
0.23 0 0 0 
0.25 0 0 0 
0.27 0 0 0 
0.29 0 0 0 
0.31 0 0 0 
0.33 0 0 0 
0.35 0 0 0 
0.37 0 0 0 
0.39 0 0 0 
0.41 0 0 0 
0.43 0 0 0 
0.45 0 0 0 
0.47 0 0 0 
0.49 0 0 0 
0.51 0 0 0 
0.53 0 0 0 
0.55 0 0 0 
0.57 0 0 0 
0.59 0 0 0 
0.61 0 0 0 
0.63 0 0 0 
0.65 0 0 0 
0.67 0 0 0 
0.69 0 0 0 
0.71 0 0 0 
0.73 0 0 0 
0.75 0 0 0 
0.77 0 0 0 
0.79 0 0 0 
0.81 0 0 0 
0.83 0 0 0 
0.85 0 0 0 
0.87 0 0 0 
0.89 0 0 0 
0.91 0 0 0 
0.93 0 0 0 
0.95 0 0 0 
0.97 0 0 0 
0.99 0 0 0 
1.01 0 0 0 
1.03 27072989454.6 3466361548.39 61 
1.05 102407795918 6797138138.09 227 
1.07 107821663208 7033592700.36 235 
1.09 108166182766 7101523561.18 232 
1.11 92761973503 6625914119.39 196 
1.13 93558271553.6 6699895116.92 195 
1.15 92397430696.8 6703254547.46 190 
1.17 91015789482.2 6691651886.32 185 
1.19 92557683688 6786689141.18 186 
1.21 94722726328 6890110026.52 189 
1.23 96220503524 6980781585.78 190 
1.25 93274789503.3 6914008232.48 182 
1.27 98216386339.4 7125385038.6 190 
1.29 72397034923.8 6140650697.09 139 
1.31 86034557338.4 6718183117.69 164 
1.33 77141408507.7 6384280266.07 146 
1.35 70693861101.4 6129943672.12 133 
1.37 78051802333.1 6459620742.37 146 
1.39 70944035855.5 6174891790.48 132 
1.41 66435158814.8 5990261624.7 123 
1.43 67820116952.7 6066021161.12 125 
1.45 70262123812.6 6186238856.69 129 
1.47 69421250539 6160143015.87 127 
1.49 69117035932.4 6157437226.5 126 
1.51 63264920229.7 5899486270.13 115 
1.53 64539223282.4 5966654870.41 117 
1.55 67456856590.9 6107258182.29 122 
1.57 62059825761.3 5864103136.65 112 
1.59 48840305840.2 5206394676.03 88 
1.61 57809642550.8 5668702287.9 104 
1.63 47864178718.9 5161327355.62 86 
1.65 56830644043.5 5627072486.36 102 
1.67 52970415734.1 5434650067.87 95 
1.69 52445139165.1 5409303110.86 94 
1.71 44092320230.1 4960773636.06 79 
1.73 49123596285 5236592964.76 88 
1.75 49684034091.8 5266497091.92 89 
1.77 43533627908.1 4929212722.55 78 
1.79 46868581228.9 5113781492.33 84 
1.81 41267960821.6 4797303088.43 74 
1.83 46814008835.4 5107827219.64 84 
1.85 35638076573.1 4454759741.44 64 
1.87 50063843497.3 5277192705.79 90 
1.89 40565195504.6 4747797292.67 73 
1.91 39404569552.9 4676462303.9 71 
1.93 35473945514.1 4434243530.44 64 
1.95 32654702202.4 4251280649.73 59 
1.97 40888286700.9 4753167283.57 74 
1.99 40813510217.5 4744474773.46 74 
# EndDate:Wed Jan 23 14:19:24 2013
