# Format: McStas with text headers file. Use mcplot/PGPLOT to view.
# URL:    http://www.mccode.org/
# Editor: erkn on localhost
# Creator:Test_src_gaussian (Test_src_gaussian.instr) simulation (McXtrace x.y.z - Jan. 22, 2013)
# Date:   Simulation started (1358950995) Wed Jan 23 15:23:15 2013
# File:   emon0.dat
# Ncount: 250000
# Trace: no
# Gravitation: no
# Seed: 1358950991
# Param: XW=0.01
# Param: YH=0.01
# Param: DIST=10
# Param: SRC=2
# Param: E0=11.1
# type: array_1d(100)
# Source: Test_src_gaussian.instr
# component: emon0
# position: 0 0 0.1
# title: Energy monitor
# Ncount: 250000
# filename: emon0.dat
# format: McStas with text headers
# statistics: X0=11.1001; dX=0.00629177;
# signal: Min=3.8081e+09; Max=1.47476e+10; Mean=8.69949e+09;
# values: 8.69949e+11 2.03417e+10 1829
# xvar: E
# yvar: (I,I_err)
# xlabel: Energy [keV]
# ylabel: Intensity
# xlimits: 11.0889 11.1111
# variables: E I I_err N
# Data [emon0_dat/emon0.dat] I: 
11.089011 8568330273.29 2019574813.25 18 
11.089233 3808097751.53 1346365871.77 8 
11.089455 5236047242.42 1578727644.35 11 
11.089677 9519916827.31 2128718116.62 20 
11.089899 7615819415.84 1903954853.98 16 
11.090121 7139736590.69 1843472060.82 15 
11.090343 10471441255.4 2232518776.96 22 
11.090565 9519330690.05 2128587052.36 20 
11.090787 6663422979.67 1780874700.95 14 
11.091009 12374735562.3 2426885311.85 26 
11.091231 7615114547.63 1903778636.93 16 
11.091453 9994680767.1 2181018150.6 21 
11.091675 11898267824 2379653564.82 25 
11.091897 9042530038.48 2074498664.85 19 
11.092119 7614660957.58 1903665239.41 16 
11.092341 7614521678.91 1903630419.75 16 
11.092563 10945725353.1 2282341508.46 23 
11.092785 6186620874.53 1715859906.56 13 
11.093007 9517725952.33 2128228222.08 20 
11.093229 8565824501.21 2018984197.1 18 
11.093451 4758708370.37 1504835717.1 10 
11.093673 9041423982.99 2074244918.31 19 
11.093895 6186145874.36 1715728165.21 13 
11.094117 6661899292.23 1780467478.35 14 
11.094339 9992680706.44 2180581701.58 21 
11.094561 8089183853.93 1961915262.06 17 
11.094783 9040709344.68 2074080969.04 19 
11.095005 6185655159.69 1715592065.45 13 
11.095227 10467872070.6 2231757824.2 22 
11.095449 8088675901.13 1961792065.41 17 
11.095671 9515946013.49 2127830215.67 20 
11.095893 9039984995.41 2073914791.92 19 
11.096115 9515622826.45 2127757948.84 20 
11.096337 6660838072.98 1780183855.58 14 
11.096559 9039551425.56 2073815324.18 19 
11.096781 13797009025.8 2562040256.91 29 
11.097003 6660517130.04 1780098079.98 14 
11.097225 8087618819.12 1961535685.37 17 
11.097447 8563235411.7 2018373942.86 18 
11.097669 14747583684.5 2648744221.85 31 
11.097891 6184351530.36 1715230503.72 13 
11.098113 9989960408.22 2179988083.85 21 
11.098335 4281347544.74 1427115848.27 9 
11.098557 5232664810.63 1577707802.8 11 
11.098779 5232578297.89 1577681718.23 11 
11.099001 10464974466 2231140052.81 22 
11.099223 12367523398.6 2425470890.18 26 
11.099445 6659314720.81 1779776722.59 14 
11.099667 12842764144.9 2471591112.1 27 
11.099889 8086055696.19 1961156572.37 17 
11.100111 11891064800.6 2378212960.15 25 
11.100333 6183248917.39 1714924693.91 13 
11.100555 10939411921.6 2281025066.98 23 
11.100777 13317356541.6 2516743823.57 28 
11.100999 9512222268.43 2126997560.96 20 
11.101221 8560883302.14 2017819545.32 18 
11.101443 7609539299.03 1902384824.77 16 
11.101665 11414127233.8 2329898965.19 24 
11.101887 8084881732.47 1960871844.36 17 
11.102109 5706866235.63 1647430378.7 12 
11.102331 11413560380.1 2329783256.67 24 
11.102553 8560036458 2017619942.23 18 
11.102775 9510999717.6 2126724190.28 20 
11.102997 10937457705 2280617584.66 23 
11.103219 10461752904.9 2230453213.69 22 
11.103441 7132893536.71 1841705191.89 15 
11.103663 9034838074.52 2072734007.29 19 
11.103885 9985736430.65 2179066336.37 21 
11.104107 8559064108.16 2017390757.18 18 
11.104329 9509901846.93 2126478698.93 20 
11.104551 8558776879.01 2017323056.63 18 
11.104773 8558632923.44 2017289125.96 18 
11.104995 9033975999.21 2072536233.65 19 
11.105217 9984734726.61 2178847746.63 21 
11.105439 12361870698.6 2424362304.51 26 
11.105661 8558093090.34 2017161886.08 18 
11.105883 7131623733.82 1841377330.19 15 
11.106105 9033245722.62 2072368696.71 19 
11.106327 5229698884.63 1576813542.46 11 
11.106549 6655867049.21 1778855293.59 14 
11.106771 7606567947.86 1901641987 16 
11.106993 8557238433.75 2016960441.6 18 
11.107215 6655530694.31 1778765398.97 14 
11.107437 10933899445.4 2279875636.24 23 
11.107659 8556845484.09 2016867822.47 18 
11.107881 11884289987.3 2376857997.49 25 
11.108103 7605829101.69 1901457275.45 16 
11.108325 6654990449.66 1778621012.51 14 
11.108547 11408340887.4 2328717832.18 24 
11.108769 8556130029.18 2016699188.14 18 
11.108991 9031336708.64 2071930738.88 19 
11.109213 8555856025.57 2016634604.87 18 
11.109435 7129738513.1 1840890568.29 15 
11.109657 9981491209.56 2178139953.18 21 
11.109879 6178924140.83 1713725216.71 13 
11.110101 8555295763.09 2016502549.74 18 
11.110323 8079879356.07 1959658589.87 17 
11.110545 7129176710.52 1840745511.49 15 
11.110767 11406470140.8 2328335967.63 24 
11.110989 6653675957.01 1778269699.58 14 
# EndDate:Wed Jan 23 15:23:15 2013
