# Format: McStas with text headers file. Use mcplot/PGPLOT to view.
# URL:    http://www.mccode.org/
# Editor: erkn on localhost
# Creator:Test_src_gaussian (Test_src_gaussian.instr) simulation (McXtrace x.y.z - Jan. 22, 2013)
# Date:   Simulation started (1358946004) Wed Jan 23 14:00:04 2013
# File:   psd0.dat
# Ncount: 250000
# Trace: no
# Gravitation: no
# Seed: 1358945999
# Param: XW=0.01
# Param: YH=0.01
# Param: DIST=10
# Param: SRC=2
# Param: E0=10.9
# type: array_2d(90, 90)
# Source: Test_src_gaussian.instr
# component: psd0
# position: 0 0 0.102
# title: PSD monitor
# Ncount: 250000
# filename: psd0.dat
# format: McStas with text headers
# statistics: X0=1.04634e-06; dX=0.000994655; Y0=2.70193e-07; dY=0.000498608;
# signal: Min=0; Max=1.75771e+12; Mean=5.31759e+10;
# values: 4.30725e+14 4.56903e+11 1e+06
# xvar: X 
# yvar: Y 
# xlabel: X position [m]
# ylabel: Y position [m]
# zvar: I
# zlabel: Signal per bin
# xylimits: -0.005 0.005 -0.005 0.005
# variables: I I_err N
# Data [psd0_dat/psd0.dat] I: 
0 0 0 0 0 0 0 0 0 0 0 0 0 0 0 0 0 0 0 0 0 0 0 0 0 0 0 0 0 0 0 0 0 0 0 0 0 0 0 0 0 0 0 0 0 0 0 0 0 0 0 0 0 0 0 0 0 0 0 0 0 0 0 0 0 0 0 0 0 0 0 0 0 0 0 0 0 0 0 0 0 0 0 0 0 0 0 0 0 0 
0 0 0 0 0 0 0 0 0 0 0 0 0 0 0 0 0 0 0 0 0 0 0 0 0 0 0 0 0 0 0 0 0 0 0 0 0 0 0 0 0 0 0 0 0 0 0 0 0 0 0 0 0 0 0 0 0 0 0 0 0 0 0 0 0 0 0 0 0 0 0 0 0 0 0 0 0 0 0 0 0 0 0 0 0 0 0 0 0 0 
0 0 0 0 0 0 0 0 0 0 0 0 0 0 0 0 0 0 0 0 0 0 0 0 0 0 0 0 0 0 0 0 0 0 0 0 0 0 0 0 0 0 0 0 0 0 0 0 0 0 0 0 0 0 0 0 0 0 0 0 0 0 0 0 0 0 0 0 0 0 0 0 0 0 0 0 0 0 0 0 0 0 0 0 0 0 0 0 0 0 
0 0 0 0 0 0 0 0 0 0 0 0 0 0 0 0 0 0 0 0 0 0 0 0 0 0 0 0 0 0 0 0 0 0 0 0 0 0 0 0 0 0 0 0 0 0 0 0 0 0 0 0 0 0 0 0 0 0 0 0 0 0 0 0 0 0 0 0 0 0 0 0 0 0 0 0 0 0 0 0 0 0 0 0 0 0 0 0 0 0 
0 0 0 0 0 0 0 0 0 0 0 0 0 0 0 0 0 0 0 0 0 0 0 0 0 0 0 0 0 0 0 0 0 0 0 0 0 0 0 0 0 0 0 0 0 0 0 0 0 0 0 0 0 0 0 0 0 0 0 0 0 0 0 0 0 0 0 0 0 0 0 0 0 0 0 0 0 0 0 0 0 0 0 0 0 0 0 0 0 0 
0 0 0 0 0 0 0 0 0 0 0 0 0 0 0 0 0 0 0 0 0 0 0 0 0 0 0 0 0 0 0 0 0 0 0 0 0 0 0 0 0 0 0 0 0 0 0 0 0 0 0 0 0 0 0 0 0 0 0 0 0 0 0 0 0 0 0 0 0 0 0 0 0 0 0 0 0 0 0 0 0 0 0 0 0 0 0 0 0 0 
0 0 0 0 0 0 0 0 0 0 0 0 0 0 0 0 0 0 0 0 0 0 0 0 0 0 0 0 0 0 0 0 0 0 0 0 0 0 0 0 0 0 0 0 0 0 0 0 0 0 0 0 0 0 0 0 0 0 0 0 0 0 0 0 0 0 0 0 0 0 0 0 0 0 0 0 0 0 0 0 0 0 0 0 0 0 0 0 0 0 
0 0 0 0 0 0 0 0 0 0 0 0 0 0 0 0 0 0 0 0 0 0 0 0 0 0 0 0 0 0 0 0 0 0 0 0 0 0 0 0 0 0 0 0 0 0 0 0 0 0 0 0 0 0 0 0 0 0 0 0 0 0 0 0 0 0 0 0 0 0 0 0 0 0 0 0 0 0 0 0 0 0 0 0 0 0 0 0 0 0 
0 0 0 0 0 0 0 0 0 0 0 0 0 0 0 0 0 0 0 0 0 0 0 0 0 0 0 0 0 0 0 0 0 0 0 0 0 0 0 0 0 0 0 0 0 0 0 0 0 0 0 0 0 0 0 0 0 0 0 0 0 0 0 0 0 0 0 0 0 0 0 0 0 0 0 0 0 0 0 0 0 0 0 0 0 0 0 0 0 0 
0 0 0 0 0 0 0 0 0 0 0 0 0 0 0 0 0 0 0 0 0 0 0 0 0 0 0 0 0 0 0 0 0 0 0 0 0 0 0 0 0 0 0 0 0 0 0 0 0 0 0 0 0 0 0 0 0 0 0 0 0 0 0 0 0 0 0 0 0 0 0 0 0 0 0 0 0 0 0 0 0 0 0 0 0 0 0 0 0 0 
0 0 0 0 0 0 0 0 0 0 0 0 0 0 0 0 0 0 0 0 0 0 0 0 0 0 0 0 0 0 0 0 0 0 0 0 0 0 0 0 0 0 0 0 0 0 0 0 0 0 0 0 0 0 0 0 0 0 0 0 0 0 0 0 0 0 0 0 0 0 0 0 0 0 0 0 0 0 0 0 0 0 0 0 0 0 0 0 0 0 
0 0 0 0 0 0 0 0 0 0 0 0 0 0 0 0 0 0 0 0 0 0 0 0 0 0 0 0 0 0 0 0 0 0 0 0 0 0 0 0 0 0 0 0 0 0 0 0 0 0 0 0 0 0 0 0 0 0 0 0 0 0 0 0 0 0 0 0 0 0 0 0 0 0 0 0 0 0 0 0 0 0 0 0 0 0 0 0 0 0 
0 0 0 0 0 0 0 0 0 0 0 0 0 0 0 0 0 0 0 0 0 0 0 0 0 0 0 0 0 0 0 0 0 0 0 0 0 0 0 0 0 0 0 0 0 0 0 0 0 0 0 0 0 0 0 0 0 0 0 0 0 0 0 0 0 0 0 0 0 0 0 0 0 0 0 0 0 0 0 0 0 0 0 0 0 0 0 0 0 0 
0 0 0 0 0 0 0 0 0 0 0 0 0 0 0 0 0 0 0 0 0 0 0 0 0 0 0 0 0 0 0 0 0 0 0 0 0 0 0 0 0 0 0 0 0 0 0 0 0 0 0 0 0 0 0 0 0 0 0 0 0 0 0 0 0 0 0 0 0 0 0 0 0 0 0 0 0 0 0 0 0 0 0 0 0 0 0 0 0 0 
0 0 0 0 0 0 0 0 0 0 0 0 0 0 0 0 0 0 0 0 0 0 0 0 0 0 0 0 0 0 0 0 0 0 0 0 0 0 0 0 0 0 0 0 0 0 0 0 0 0 0 0 0 0 0 0 0 0 0 0 0 0 0 0 0 0 0 0 0 0 0 0 0 0 0 0 0 0 0 0 0 0 0 0 0 0 0 0 0 0 
0 0 0 0 0 0 0 0 0 0 0 0 0 0 0 0 0 0 0 0 0 0 0 0 0 0 0 0 0 0 0 0 0 0 0 0 0 0 0 0 0 0 0 0 0 0 0 0 0 0 0 0 0 0 0 0 0 0 0 0 0 0 0 0 0 0 0 0 0 0 0 0 0 0 0 0 0 0 0 0 0 0 0 0 0 0 0 0 0 0 
0 0 0 0 0 0 0 0 0 0 0 0 0 0 0 0 0 0 0 0 0 0 0 0 0 0 0 0 0 0 0 0 0 0 0 0 0 0 0 0 0 0 0 0 0 0 0 0 0 0 0 0 0 0 0 0 0 0 0 0 0 0 0 0 0 0 0 0 0 0 0 0 0 0 0 0 0 0 0 0 0 0 0 0 0 0 0 0 0 0 
0 0 0 0 0 0 0 0 0 0 0 0 0 0 0 0 0 0 0 0 0 0 0 0 0 0 0 0 0 0 0 0 0 0 0 0 0 0 0 0 0 0 0 0 0 0 0 0 0 0 0 0 0 0 0 0 0 0 0 0 0 0 0 0 0 0 0 0 0 0 0 0 0 0 0 0 0 0 0 0 0 0 0 0 0 0 0 0 0 0 
0 0 0 0 0 0 0 0 0 0 0 0 0 0 0 0 0 0 0 0 0 0 0 0 0 0 0 0 0 0 0 0 0 0 0 0 0 0 0 0 0 0 0 0 0 0 0 0 0 0 0 0 0 0 0 0 0 0 0 0 0 0 0 0 0 0 0 0 0 0 0 0 0 0 0 0 0 0 0 0 0 0 0 0 0 0 0 0 0 0 
0 0 0 0 0 0 0 0 0 0 0 0 0 0 0 0 0 0 0 0 0 0 0 0 0 0 0 0 0 0 0 0 0 0 0 0 0 0 0 0 0 0 0 0 0 0 0 0 0 0 0 0 0 0 0 0 0 0 0 0 0 0 0 0 0 0 0 0 0 0 0 0 0 0 0 0 0 0 0 0 0 0 0 0 0 0 0 0 0 0 
0 0 0 0 0 0 0 0 0 0 0 0 0 0 0 0 0 0 0 0 0 0 0 0 0 0 0 0 0 0 0 0 0 0 0 0 0 0 0 0 0 0 0 0 0 0 0 0 0 0 0 0 0 0 0 0 0 0 0 0 0 0 0 0 0 0 0 0 0 0 0 0 0 0 0 0 0 0 0 0 0 0 0 0 0 0 0 0 0 0 
0 0 0 0 0 0 0 0 0 0 0 0 0 0 0 0 0 0 0 0 0 0 0 0 0 0 0 0 0 0 0 0 0 0 0 0 0 0 0 0 0 0 0 0 0 0 0 0 0 0 0 0 0 0 0 0 0 0 0 0 0 0 0 0 0 0 0 0 0 0 0 0 0 0 0 0 0 0 0 0 0 0 0 0 0 0 0 0 0 0 
0 0 0 0 0 0 0 0 0 0 0 0 0 0 0 0 0 0 0 0 0 0 0 0 0 0 0 0 0 0 0 0 0 0 0 0 0 0 0 0 0 0 0 0 0 0 0 0 0 0 0 0 0 0 0 0 0 0 0 0 0 0 0 0 0 0 0 0 0 0 0 0 0 0 0 0 0 0 0 0 0 0 0 0 0 0 0 0 0 0 
0 0 0 0 0 0 0 0 0 0 0 0 0 0 0 0 0 0 0 0 0 0 0 0 0 0 0 0 0 0 0 0 0 0 0 0 0 0 0 0 0 0 0 0 0 0 0 0 0 0 0 0 0 0 0 0 0 0 0 0 0 0 0 0 0 0 0 0 0 0 0 0 0 0 0 0 0 0 0 0 0 0 0 0 0 0 0 0 0 0 
0 0 0 0 0 0 0 0 0 0 0 0 0 0 0 0 0 0 0 0 0 0 0 0 0 0 0 0 0 0 0 0 489318413.425 0 0 0 0 0 0 0 0 0 0 466529334.459 0 0 0 0 0 0 0 482487071.912 555105365.302 0 0 0 0 0 0 533729260.632 0 0 0 0 0 0 0 0 0 0 0 0 0 0 0 0 0 0 0 0 0 0 0 0 0 0 0 0 0 0 
0 0 0 0 0 0 0 0 0 0 0 0 0 0 0 0 0 0 0 0 0 0 0 502617547.296 0 0 0 0 0 494188361.961 0 0 0 0 0 0 0 0 555728123.141 503709240.101 0 0 494156156.094 0 0 0 0 0 0 0 438912115.87 0 0 0 0 0 0 0 0 529987133.717 0 0 0 0 0 0 0 0 0 0 0 0 0 0 0 0 0 0 0 0 0 0 0 0 0 0 0 0 0 0 
0 0 0 0 0 0 0 0 0 0 0 0 0 0 0 0 0 0 0 0 0 0 0 0 0 1055847001.58 0 0 0 1093981506.39 0 0 0 543858690.897 534308218.744 0 732296898.701 544191772.017 0 0 546314348.624 1024806403.83 507230657.742 0 322533672.024 510961757.354 548446820.884 0 336568148.451 0 0 482754158.138 41097364.5207 1008335236.96 0 0 0 469757537.784 225741613.192 0 0 0 0 0 0 0 0 0 0 0 0 0 0 0 0 0 0 0 0 0 0 0 0 0 0 0 0 0 0 0 
0 0 0 0 0 0 0 0 0 0 0 0 0 0 0 0 0 0 0 0 0 0 0 0 0 0 0 0 0 0 557635607.774 0 0 508493508.97 926761290.951 157556801.102 1009032158.12 1756558415.94 1066457219.21 0 939933322.297 496770626.77 957475300.021 547113039.471 943971772.252 540436157.802 1027834477.39 945126936.807 209696853.898 639871191.893 0 507748703.298 599561353.213 811337576.899 0 424300381.793 268961.712333 544859680.529 543979450.806 530280487.741 932685591.544 0 0 0 0 0 0 0 0 0 0 0 0 0 0 0 0 0 0 0 0 0 0 0 0 0 0 0 0 0 
0 0 0 0 0 0 0 0 0 0 0 0 0 0 0 0 0 0 0 0 0 0 0 0 0 323406608.259 510443873.887 325996133.429 0 554442494.585 533116330.63 0 1599473615.18 527260577.682 1924283615.05 1085492615.25 1910796033.33 1542445554.05 1595490250.42 463580284.809 2275743004.96 2586264938.24 1597587392.68 1510491422.73 1222369368.67 1557597008.28 2684432828.86 1696044961.61 2137371889.08 1412894600.38 2705827935.27 1913480282.95 1314645292.16 1041504861.99 1894317127.13 827693708.878 457823450.529 1593344427.43 490283257.743 432541358.794 513624089.225 0 553784672.315 0 0 0 303222332.471 0 0 544656528.393 0 0 0 0 0 0 554759899.477 0 0 0 0 0 0 0 0 0 0 0 0 0 
0 0 0 0 0 0 0 0 0 0 0 0 0 0 0 0 553954053.949 0 0 0 0 1030562847.89 0 0 0 0 743599094.448 487265594.281 580652673.748 911959412.691 2682817257.2 1392029789.84 580940878.942 1044923192.75 3461815911.91 3700289676.83 2786753232.6 4224980201.2 3975101537.53 2113616600.22 4017752907.23 4497477899.12 4007044416.22 3476668295.11 3424591431.01 4245704779.92 8143699564.23 3501128586.9 4162338944.22 5570287914.59 3683316742.64 2630018779.69 1514301224.9 2137938157.18 2893771137.15 451516433.256 2605248878.4 1868102658.42 0 967834780.048 1629014127.93 533657186.391 0 0 385191008.697 0 0 0 0 0 0 0 0 0 0 0 0 0 0 0 0 0 0 0 0 0 0 0 0 0 
0 0 0 0 0 0 0 0 0 0 0 0 0 0 0 0 0 0 0 0 0 507810537.049 956573549.644 898751538.331 375318783.748 122461993.302 1014905438.75 1668623186.36 2622873721.71 1193914169.91 1807871293.45 2827740724.99 6355976913.16 1474985945.85 2315340447.16 3919487447.26 7185486387.35 7074168781.17 8967456867.45 9001304236.13 8813808780.94 9662295144.06 10630924815.6 8673449274.97 9790635339.43 8847488010.01 10731399701.3 10941706785.7 9169134168.6 5595542969.54 3955955578.49 9065404361.4 7049407811.73 7133393139.09 4475662696.89 4948217639.71 3679697776.32 4983559605.11 3890337160.46 1097070351.72 2896016428.24 1196694915.82 1605374397.84 1097809023.59 463758728.208 1553720487.11 519036690.804 0 0 518582066.389 0 131541592.867 539542642.272 0 0 0 0 0 0 0 0 0 0 0 0 0 0 0 0 0 
0 0 0 0 0 0 0 0 0 0 0 0 0 0 0 550257432.022 0 0 85304371.5745 393662484.41 449935324.359 494766307.017 178343797.217 552375652.82 1869632147 2333327536.97 1014560942.03 2484339658.72 1335989912.69 4959389549.56 6082891483.66 8320188968.99 6212787990.66 8977046258.37 5619474976.68 9798266289.84 10259534030 15782513179.4 14120802444.7 14043765632.5 12593541803.7 14057752168.6 21133473059.8 18685367188.9 18201334909.8 18879049563.9 21210322864.9 13369158637.8 17686438663.8 15598765055.5 13791367512.4 11338967827.4 10449254884.4 9757787891.57 9928521865.6 6550576729.47 7730029852.51 6838737908.07 5914746765.5 3330111742.73 5469426469.93 1176968809.4 2056364168.38 1756537234.84 2248464602.95 987132525.128 590375456.36 360142754.343 0 315186142.379 530368105.105 0 548897789.93 0 0 0 0 0 0 0 0 0 0 0 0 0 0 0 0 0 
0 0 0 0 0 0 0 0 0 0 0 0 0 0 543324713.544 463416183.669 0 16725678.9245 901326090.654 0 0 4983571.67826 3526667625.59 1586308840.26 4449183388.69 5298044248.65 3524173661.92 4866142805 4818000477.17 9024494571.01 7986219793.06 9865897832.05 13100045124.8 13214841058.2 17846400881.3 16890275168.3 19975052447.4 27970896943.3 21871670553.2 32252133576 29922503021.6 41799915275.1 33001540772.2 39456997394.3 32380667897.4 31543715205.5 28933413800.3 33356412449.1 35464574634.1 27915996970.6 23487792878.5 27880197636.3 24409613011 25336719359.3 18160012292 12408247481 14266154475 16936782141.4 8327615649.2 8891474912.85 5418621440.21 8338010876.89 6571709734.74 2328148026.19 4894758291.7 1752625106.96 1794474343.06 550638257.272 521746963.046 458163950.929 497926721.276 0 0 0 0 426109722.255 0 0 545470335.568 0 0 0 0 0 0 0 0 0 0 0 
0 0 0 0 0 0 0 558112373.64 160385190.444 0 0 0 551822251.665 0 0 522563347.901 1027623931.41 0 709910761.637 1554565643.49 1659537833.96 2640615886.96 2903264213.62 2572819892.51 6407724897.52 9792556232.54 5744677924.86 12783455943.2 12682272725.9 13899373768.5 18197821516.5 20983765186.8 22944195533.4 26039904357.6 25936961460.5 36334400063.6 39316868018.9 43742058522 51619739833.9 48543021453 53277339625.3 54670661923 53344249553.9 66012405380 60005986681.4 77391100981.7 68379768786.3 53678183918.2 62973911504 54063907361.4 46914777581.9 47892681923 46967219925.6 39011639581.7 36084712993.6 31651792551 24984292380.9 34351240955.3 18251417058.4 14169076034.4 10996263038.7 5698243863.55 7346776501.61 2430963199.63 4369917225.68 4324079796.64 1410717098.06 3772712626.55 1754221485.52 3374634723.27 1623428444.65 1426620191.92 497315346.92 1290208912.87 486094009.239 52465212.0127 0 0 0 0 0 0 0 0 0 0 0 0 0 0 
0 0 0 0 0 0 0 0 0 0 0 260305606.68 558139763.667 126664742.234 0 0 0 1302626967.68 925700287.542 2267075226.36 2737999020.16 5196514979.43 1877601002.24 6309288646.92 6663911861.81 6042889736.06 14189191248.1 17584391241.3 16768719387.3 24687791586.9 25659760708.3 34077393710.1 41233364462.4 41522321487.1 49807852475.4 60208610531.1 70399319458.9 75029180169.6 92365843049.8 96715710532.2 105775197389 107059737604 108416311808 111499795094 113033072265 123364488156 103606561327 93075372430.4 105962276346 92591443394.9 102745017456 88362113427.7 70290884458.1 73993565660.7 57771215144.6 38549402751.8 52451395287 39139712149.9 39470931075.8 29996944199.4 18417937472.4 17774028159.9 13490073767.8 12818141083 10574833570.7 5651813321.02 4374880648.31 4165146221.66 4608450857.39 1571498799.72 1116452225.55 196550403.761 0 543044067.477 1500290118.54 0 0 0 0 0 0 0 0 0 0 0 0 0 0 0 
0 0 0 0 0 0 370107095.229 0 0 0 0 455976495.717 0 539066518.226 0 566363896.587 24698644.9688 1021102724.87 2148693231.88 2320819736.93 5140320560.38 5924550664.67 8795094107.37 10825933130.3 12593789638.4 16106876908.4 17159143223.6 27659569686.2 34907550627 42393945439.5 53812614526.3 68811840511.2 69280842501.4 72926149497.4 94041268012.5 101017385765 133251179706 139799474382 124993513606 141847831488 159612201148 163315829615 183214587160 191683356664 174785699225 173727543095 174360144648 190915777073 174170617200 154515805116 153468637111 129294740878 125368255749 123415615221 94061526172.7 90870997444.6 90953240284 78860379317.3 65309652957.9 58808898636.4 47752936311.2 33679974003.8 27018313503.3 16228252558.5 14835920461.4 11892468335.6 14184134502.1 8569658922.61 6017541467.23 5731878857.15 722535866.694 3307658133.4 998051558.997 1543377605.73 1039714319.4 123176750.55 819052394.167 0 0 0 0 0 0 0 0 0 0 0 0 0 
0 0 0 0 0 0 0 0 556051655.114 0 549923244.954 0 474057013.141 0 0 1402242413.29 2571868162.13 2135103319.83 3797611087.5 5600875313.08 6421875327.49 10279012118 11465502454.2 15491542015.7 18109122345.2 28013005622.6 38568727774.9 48941118701.6 59508766915.3 61368824426.2 72192382593.8 76846107298.1 116899679752 125945539589 133393858413 176161957429 182207721645 197662456421 221438603720 258580065988 266487790919 233167587038 274674529265 290700141716 303656480961 287893488862 266070374044 258428823488 259102937827 239812418260 230082387627 218476087219 202076573755 185258486450 163794165855 141768550254 131991501348 101373118832 92612020081.1 74188807386.6 59224945436.5 48493994174.4 35433513766.7 30547083105.3 22976136349.4 17515268962.9 18250218820.1 9798354446.45 10073615025.3 3761050630.12 5157203074.93 4549406886.63 989589810.778 1372217283.85 677653455.193 458336.559388 1045255826.64 10107086.8205 456716809.681 501395606.752 558298185.261 0 0 0 0 0 0 0 0 0 
0 0 0 0 0 0 0 0 0 0 515911049.437 0 0 260459575.81 1825529395.86 2688843355.12 1946224861.37 2244535462.06 8406528109.75 6897043017.06 8275312266.33 18589786659.7 11597811665.1 22145825025.6 26317830693.7 36229076535.6 49780907809.7 61747368251 72912980422.7 101331216967 111288140681 147106729646 141928287978 180701825770 193526658135 238810898437 271467181117 315330226324 340510855052 361725467892 372502454970 400226865797 424251877681 420919590234 418465535201 415754319683 423292307674 401133005959 395670065715 369550159554 330366041386 322014555924 310095059007 261564190570 221093012546 217407720304 194637503185 163596638520 140299198438 118094021504 93950189265.2 76258083623.7 60255891331.9 42178341088.1 38316996180 29873944290.9 26119495672.6 15001638643 14485902472 10954674175.4 10194681352.1 6998935174.41 5806844686.04 1070661737.17 1552000706.74 605639360.058 2328834777.85 1633119898.86 0 554854723.834 0 0 0 526058888.616 0 0 0 0 0 0 
0 0 0 0 0 0 0 0 0 0 1495139951.88 525762146.505 2162213442.71 1346967925.19 1683855657.9 4208940013.3 4877498314.09 3682725457.06 6126018406.26 12993716327.4 11830884906.3 23166933944.5 21863921986.8 34147539345.2 42738555267.1 55090780966.3 72432905370.8 97483336038.7 110648799177 122962250895 153571966293 180416867315 233907826919 264887728623 313524993272 343135333978 353522689859 410135673989 440267287847 486669296097 532626815917 549230801420 607278443038 591167091804 589493548118 603831355051 558784969222 579943962473 551912168610 518687627917 465587464467 458692512587 440172932855 386558481180 342578785365 305214576493 241372990509 220936968179 193997431768 170539187628 145626832530 115429928678 80056822590.2 63820946459.1 63676974816.7 43522840110.3 33477316328.2 18415875982.1 14896537704.5 7527543906.33 9098135912 8368648166.99 5302989909.59 4889988454.27 1975351296.9 2817921088.19 1471976463.37 1352793862.34 0 161372427.763 0 0 357343760.096 0 0 0 0 0 0 0 
0 0 0 0 0 0 0 0 0 0 1036856333.76 1252704419.42 1869009979.02 1168069382.53 1716716938.28 4937447838.02 6917325164.85 6987691113.71 8463231536.91 18547598945.5 18458199295.1 19278626754.7 30589206960.7 41920624210 55637852439.9 67778946556.3 94273181423.2 113149204057 146044795900 182973483485 221158354347 255025382983 296512524570 348692824144 408498388173 454737922377 538206399162 574048959188 628979690583 656879701494 697430889127 738415684026 774619284386 807164114499 821396790843 815907245617 770302869986 782824365508 753489746963 726786316906 675620561291 605156051667 557353446066 517336958581 452052742524 380341232907 337335655854 308550276813 277324904773 213873342581 201427446389 155829705393 121620358699 97956963654.3 75587039199.1 59581126955.9 44412533109.4 35411349969.7 19393931408.8 19998318668.2 14248056636.9 7077971816.09 6627443616 6544893249.13 2755529172.77 1321636812.31 2337123401.89 0 558013971.68 0 0 0 0 0 0 0 0 0 0 0 
0 0 0 0 0 0 0 0 2078444466.07 534857185.76 464142281.508 1587540629.65 1680900581.32 1629792887.05 2595683814.91 4838519055.79 9718295441.33 8620337819.63 13418807666.8 19889470572.2 25731606036.7 38524197641.8 49153827023.9 62506758353.7 77810704821.1 104868691024 117471733438 175346286588 179972876347 212742948681 264741284887 333097093863 396503997696 456097409994 505639113424 592816347971 678059898118 702193456994 809473986473 832139529466 873603474428 939196282051 979914570290 1.07700122281e+12 1.04572263776e+12 1.03988982622e+12 1.0216407302e+12 1.01384042965e+12 971898379628 909591972656 860235133322 824403191326 727115809088 645282372467 575873235824 534707232092 457350296186 415010235249 329153989741 271261733745 202752924565 193303712051 154623051946 121951300299 105647969159 71627562720.8 67083926032 39828371496.5 30683193311.2 26630820578 16348717948.2 12061261307.5 9718703123.11 8043233899.36 7299481264.39 4227372021.2 2090017956.63 2680280894.38 2367474060.3 1477514022.41 0 0 0 0 0 0 0 0 0 0 
0 0 0 558140172.326 0 0 0 0 546227652.325 2355971535.58 627318947.889 2576191065.91 28231523.1804 1103017385.96 3574129969.67 5266582665.74 7640408609.49 7868794000.11 14392569725.3 20820466137.8 24560182663.5 42537784931.5 49408093413.3 74243503611.8 89697104821.4 120363905170 143987981235 207865167246 211124781285 294219648927 343960058161 412285054444 495821446626 567270679066 590291151462 740723466757 798431857351 928855811976 1.00132094791e+12 1.00295260813e+12 1.12702149375e+12 1.18049371771e+12 1.21752776998e+12 1.25099111457e+12 1.24678493786e+12 1.26550716121e+12 1.24419979725e+12 1.22869096324e+12 1.1644640241e+12 1.11186522127e+12 1.05037318484e+12 950104060566 901108648687 752394870672 713156707546 650132780245 550567591047 469009109796 394874954928 356472923219 278876050356 242992784847 186168232380 158203598346 117442695124 88275426421.9 66206127777.6 49368315601.3 39442946386.8 29563034211 22332715511.2 16132135811.9 14215767999.7 9041198489.61 5234267695.84 3656255287.78 3586199500.03 2567921997.91 194958943.138 592094584.773 241558510.663 0 0 0 487904327.504 0 0 0 0 0 
0 0 545707804.749 0 0 0 0 66356087.3186 0 54525500.9749 179349552.282 1052881542.88 2836738209.61 2007143646.43 6495043210.98 6850488437.05 8253176921.57 14833539624.1 14521012447.7 26274682951.1 35986988253.1 46945344405.4 62845518782.8 93644160914.5 112356447482 133919404427 172782292934 227663733232 259097354646 306861498789 381497029224 463623782865 570156449587 641324662096 738797203609 852220409173 916558469274 1.01676171556e+12 1.09300915573e+12 1.20295918767e+12 1.29004040266e+12 1.35868670203e+12 1.41274184118e+12 1.4341529884e+12 1.45892435533e+12 1.45739512688e+12 1.42468510239e+12 1.38658379931e+12 1.30487061017e+12 1.26666167444e+12 1.2495620898e+12 1.13381971179e+12 1.00751549907e+12 912299081266 862308620031 717246923059 649058257871 532070753540 464040292212 385132905219 319996672074 276365351516 208133870029 176493274308 143875067050 104399892357 87502344446.3 71922358694 50595040369.8 37966535729.3 28017710812.1 20084153136.5 17030834459.9 7725905754.92 7466033101.95 2760227681.48 4460213383.85 3756427778.32 3101568839.52 487475998.656 209437734.695 0 0 0 0 0 0 13673319.8477 0 0 
0 0 0 0 346951672.782 0 0 0 522062265.168 509417911.48 509206251.536 2736051290.35 610372039.939 2489550982.8 4362699791.25 8141962418.69 12485437835.5 12817845920 21430003625.4 26569104198.4 32848542672.3 49892960947.6 69751359327.7 93983232238.1 124626587905 144851052878 179142562120 223996888720 296254181773 349485422315 443330273012 501642662419 616564465739 700615976292 797397304087 945163040779 1.01801415838e+12 1.14627084567e+12 1.23935896463e+12 1.34815455703e+12 1.38603591273e+12 1.50647825433e+12 1.55862011291e+12 1.55610050496e+12 1.62554804177e+12 1.61456448198e+12 1.55378967755e+12 1.542013882e+12 1.45424917388e+12 1.45355238064e+12 1.395387167e+12 1.26589494716e+12 1.1057587909e+12 1.02433704588e+12 932187999090 783996731458 702423446379 596611539712 521764748223 440503136951 362505482693 302194439462 242886589784 192834977593 153600405813 114655702762 92927410142.8 67986340035.3 50351350068.1 37395259067.1 29595113262.2 19435625210.9 19997614234.7 7905218222.15 10013150713.5 6400698792 3091885138.83 2963610525.91 528994537.955 1096743479.97 1067087998.09 554478302.343 178551963.927 0 517097246.772 0 0 0 0 0 
0 487166049.806 0 0 0 0 0 0 568803034.934 0 245789814.051 0 1879826143.26 3000970782.79 2758093846.79 5928566045.78 10707177928.2 15704341444.9 21460573343.4 31933479662.7 38984004639.2 51691034826.9 66473588403.6 82458758549.4 126123930018 174028603380 200266292528 253486480326 319592060999 371222103996 459250709154 543893765909 642938837400 733660657827 845676618832 955528293396 1.0794335606e+12 1.21232948555e+12 1.29720548717e+12 1.39421152495e+12 1.47952979568e+12 1.57011559357e+12 1.68565269188e+12 1.6860937864e+12 1.71128462196e+12 1.70442296413e+12 1.62899650193e+12 1.63919187272e+12 1.5098194705e+12 1.48864253995e+12 1.41588182159e+12 1.29594220163e+12 1.19054944068e+12 1.0927761714e+12 988409320084 801922794184 756556137825 635428950378 539961944484 428423052734 402677595279 301832564263 247530843214 195321673044 157962123917 127650888585 86319137222.7 73158692243.6 64935553168.6 45656581084.1 28654506814.1 18179159171.1 16760407733.1 11002462822.7 4638062681.3 6988185131.83 3042760341.86 2449430432.81 252199401.653 0 123233611.611 966494538.667 0 0 0 0 0 0 0 0 
0 0 0 0 0 0 0 558001661.202 0 506508327.944 2439858935.24 551236247.701 3560821675.18 3819212360.3 5301118671.49 12190941588 7113184885.14 16899843944.5 26232825922 21954096178.5 39684302070.1 60004685905.6 65679157844.7 98758960898.3 136310996737 159209191353 199922522290 245614277220 307227366969 354547151225 450024174605 507030819030 647416190298 763742416121 814946392556 936179492284 1.0683924108e+12 1.12782885662e+12 1.26555926023e+12 1.40417962891e+12 1.48311188962e+12 1.54376854294e+12 1.67483686298e+12 1.63352609772e+12 1.69328375611e+12 1.75770657706e+12 1.66358291725e+12 1.66861152672e+12 1.58872664208e+12 1.49275260688e+12 1.43885687982e+12 1.29249450542e+12 1.2000067966e+12 1.05863386395e+12 955843831890 848211000658 732842379152 639579937590 534390073090 475798409938 370273308629 309643333406 240948843703 201020704470 166766729624 119146610562 94454122029.6 70886646220.4 50127370354.6 34621646849.5 29174608472.7 24536406554.4 11936417222.6 10948828919.3 7047759814.51 5499465829.44 3012483692.79 2926101124.66 547661559.237 1452445912.88 548673361.412 0 0 0 0 0 0 0 196592504.488 0 
0 0 0 0 0 0 0 0 0 522512830.206 546042988.464 1440707043.15 1333687267.79 3980367719.18 4456066380.37 6854306895.43 8125471266.79 15243717664.3 17822856721.3 30706974159.2 41963190423 54174865108 67186195343.1 84423086244.4 122747712514 164159112368 176701109899 232793012096 307276867199 338666535247 432507795441 517978622358 599623120664 729682543102 813251759134 935728757089 986379705913 1.1129343908e+12 1.26581796673e+12 1.3055310528e+12 1.44423747728e+12 1.49064333584e+12 1.56873473724e+12 1.58483820588e+12 1.61394550387e+12 1.61174125692e+12 1.62735097571e+12 1.53829273338e+12 1.56951979025e+12 1.38505336927e+12 1.32663587481e+12 1.24305927682e+12 1.14273882304e+12 1.05291612534e+12 907354203960 805458228386 713395900111 620497402764 524982975975 440384151169 352815602739 282005637376 246186188010 199457859748 156018633936 112309840563 82807112748.3 64170577430.2 54975349678.7 39158223321.8 29852465709.8 17051526491.4 17319167273.3 10185426600.1 8139756494.85 6068534611.15 2077940251.87 1460851753.6 1661115403.82 1480982276.09 841324441.371 558052936.055 0 0 0 0 0 0 0 0 
0 0 0 0 0 0 0 85178220.6541 603374510.462 546487956.259 1797977967.05 558040080.064 1188389556.94 1092021049.37 4966871164.82 6304450953.62 7446231930.84 12739230931.1 18069754166.1 21392565793 30172250183.9 50962037866.9 55310365921.9 89506239714.1 105642539139 129074404860 170765436692 215542366190 273608620121 327120068355 390274891598 470449794274 545512807041 655608716967 754687161019 830821367395 916610662830 1.02509253785e+12 1.11334717235e+12 1.19878024394e+12 1.26852755627e+12 1.34850713692e+12 1.39019064071e+12 1.46638123422e+12 1.41938105524e+12 1.50615920379e+12 1.4345999749e+12 1.39210158171e+12 1.36956271044e+12 1.28123513034e+12 1.1959993511e+12 1.09735754607e+12 1.06039441328e+12 906145061551 834049962487 755372631816 640545265353 546034823484 470088123734 413906056756 325168000729 280857666795 234055498352 171208540240 149317204006 103704407782 75691699815.4 66476647252.7 46655276240.6 33669278083.6 23249401154.3 17034446111.9 10265785477 9072118026.56 7675994212.9 3786736596.16 2105754223.21 1310499820.23 783727545.825 978713379.157 0 0 553633530.443 0 0 0 0 0 0 0 
0 0 0 0 0 0 0 0 539612478.267 0 0 770874792.186 1987912636.61 3248212474.99 5189860836.75 5854689385.19 8094801408.8 10725775031.1 15978902274.5 24638171438.7 32061247656.9 35878251923.6 53937235513 62053651869.9 81197833155 109506264123 146655581203 186194196115 235138569213 281013998415 339439269333 413809768277 466998013011 551382301476 619994436865 736472541571 789812202005 886415300308 947798003611 1.05935135187e+12 1.13515575079e+12 1.13427784823e+12 1.18083226227e+12 1.25198441817e+12 1.26722973939e+12 1.30932162649e+12 1.25639215861e+12 1.20940527234e+12 1.18232771805e+12 1.06879043228e+12 1.0266011775e+12 970433072709 882326402728 814307198597 695822833613 627046554160 562756196531 493993476644 392030552496 353673157664 287711304400 239335768143 176107717206 146978999410 127716218809 89848524000.9 67969490973.8 54509703555.3 40445566901.6 30492512953.4 24070627753.9 14745100792.8 10102666490.7 8762211360.64 3338158215.55 3561128407.68 4194070473.63 933122852.567 530575781.757 1037065063.71 0 790589477.356 244262503.954 359361209.953 0 0 0 0 0 0 
0 0 0 0 0 0 365532056.227 0 0 537656825.722 961302908.202 557623076.455 1616585661.7 3050470092.51 3312925245.67 4214066944.97 6226346639.59 13583655885.6 12333184959 26185514486.5 27480960990.4 35881440875.5 41135534158.3 56497208555.8 71588109685.3 99634717876.3 115574167480 158825403530 193237202216 235577420276 276149478646 338418182023 375444958570 483240869238 522046707161 577709999557 664819014288 715398888356 785492596056 851154333549 881260789605 965780351100 1.01881547186e+12 1.00767749875e+12 1.0531648374e+12 1.02989291149e+12 1.01695877502e+12 1.00369821459e+12 949579386475 940900051897 846543106713 793854101916 702480655192 675226290698 588248321221 488395179345 423471061807 398461975421 329803747788 295029487057 234917105997 184815144765 149484567327 126797892323 94855160528.5 73408525197.4 52433100815 50096096830.7 22985601765.3 21915634363.8 13391304673.5 11587771720.5 8028562857.17 5216151705.99 2589414207.37 4908132409.18 2016077809.48 2021472833.29 0 644995367.923 272192608.516 0 0 0 0 461905142.629 0 0 0 0 
0 0 0 0 0 0 0 0 0 314177318.715 1052206603.28 1022383283.96 0 1070322978.17 2142768340.2 3537997783.25 3870135025.12 10604877267.6 11269586132.5 14301491662.3 18200389180.6 26198772738.1 33810811665.7 43473092184.8 68202731706.4 74549616774.3 91295872883 115047541200 143190937658 193333355869 236008394974 240124142650 302816359067 352358771097 389900022235 478085620356 514813278267 568984297609 617269470309 695296624400 733767092337 755979674381 776908315515 803002183491 771449927297 822192950580 795508580166 781719428639 720627921406 694742084598 692293254892 626956702980 556780722158 500738675882 488323456577 398499135681 348399156998 309098822206 253635771726 218483291144 179733858346 140270479091 115454058944 96722850349.2 76276540331 50659345661.5 43036242554.2 28449374963.8 25660139218.9 20095677733.5 14157037806.6 7624613754.64 11679215658.6 4750446415.56 1047093290.19 956985554.369 1802922927.29 1674263257.09 0 2748634172.77 0 0 0 0 0 0 0 0 0 0 
0 0 0 0 0 474197896.411 0 506896823.137 0 0 1502681238.39 558287148.238 1638736944.7 959403011.798 3255911240.19 3741760746.83 3087638257.98 7221546029.73 7898237079.15 5970643027.47 15883926687.1 20591820766.7 24303799620.3 33527922232 41808369725.5 56880690152.5 79567580921.6 85303707534.9 97885169969.3 137543104160 158625841193 182463668438 233266137859 251883573743 301291060814 330992734280 386036323227 417296280339 458908419550 481196023800 510411677773 547369529333 567829866184 601622647262 615604107540 578354302555 577115004326 576819488116 532873047439 535352148870 485686956471 478632010332 434269049494 406839211482 344253432143 326721821550 281600408026 233716554290 177081475042 162959968285 136255025323 113156017926 84932541727.2 68550802725.1 55629222190.1 42057424213.8 32652521369.2 23432889231.1 26375552303.1 10755581397.4 11409244257.7 7344892185.35 6659250775.39 2450982555.83 2359015627.6 2966129386.74 1930523240.93 1761095049.11 1013330668.68 540221090.448 0 0 0 550404294.824 0 0 0 0 0 0 
0 0 0 0 0 0 140920393.228 0 0 106395382.732 0 0 491138333.272 555645888.217 2686097138.4 2944232047.8 2123562426.17 2819251008.81 10800241121.7 8518630485.23 9533055826.5 9704349482.22 23534587001.8 26524927620.1 29896954022.2 34414283223.6 54613064952.7 64135000814.2 84188662863.4 92927390846.5 99754435215.2 137574023629 162685334556 181083688833 193117787422 252204988329 274154943271 301095900665 336810286912 358749837524 373556371978 379339048585 425329372728 446994585350 448764131461 396516152404 397281142278 416323027626 371380345994 354805320522 339527342973 337142260782 295100900055 270373343830 234655320732 215020026983 168350774125 165946937998 146620356839 125011487182 109057203913 80757185509.9 63487879290.3 52339081310.5 43887826287.6 32506194795.9 25352218472.6 17918679915.5 16517919423.6 13496146106.5 4682590349.07 8608813717.41 3434394763.59 3565483216.19 1138686651.8 1048477602.25 757007033.759 0 1065609754.74 451721878.295 0 0 0 0 0 0 0 0 0 0 
0 0 0 0 0 0 0 534761357.545 0 0 499185601.304 0 2581058881.6 1458524234.93 1067272160.81 1432355128.89 2022904172.12 3089435524 1043664149.59 3496385484.41 5213125644.41 8347207138.47 16019624658.5 19432678746.6 20196638742 22556310553.3 39166303498.9 46788376937.9 50205910668.3 63991358717.9 82119969748.5 81237657937.5 98090611097.2 107972945679 143904908093 156455748287 183081556055 220345550576 221920048432 242101882342 264943583026 261901818505 270141720664 258641961771 265038147420 290788731841 275226719643 264087350333 272795216306 247365531713 227074404560 220600089434 194916509709 172676356997 172235178480 155376271001 118440449006 100668141372 93235815690.2 79151899791.5 61499268685.5 53485308485 43646254758.4 35840062136.3 22772017960.3 22367847034.1 13492307113.8 18402128399.1 8236615946.8 5153976588.67 8349748273.52 3107050646.05 3030055305.12 854116083.774 1998436332.29 744335511.286 0 0 0 0 0 0 0 0 0 0 0 0 0 0 
0 0 0 0 0 0 0 0 0 539915711.845 0 0 0 554145292.591 1666990976.39 835074304.144 1012605948.76 1954522712.31 2793851723.51 5519271908.42 3213913952.78 6679078991.42 6764790916.94 7834243559.9 11561673736.1 16739893048.9 21805973635.6 26179955250.5 32005931653.6 43148977619.5 51705967440.9 60348046193.8 65392310617.6 83108872570.1 91749699430.8 104500777353 105094364190 118444560128 138413971986 146084516337 158897425061 163590303224 163153298819 183884046371 202501780395 184916002226 182506523053 179483375431 151589326973 143136614800 151994242344 129832594138 114417884638 108646138683 111814604584 92753801896.9 85200149932.5 66513891260.5 67288167012.8 43520746694.6 40465461885.8 27027569664.9 30368075322.3 24911645913.7 15620774157.3 13291442101.1 10957338899.7 6499780804.73 7191633210.95 4787445632.52 2893138085.25 1248365657.58 1816337591.06 549756293.483 0 0 12215988.7527 546031020.988 153532957.271 62927475.6927 0 0 0 0 0 0 0 0 0 0 
0 0 0 0 0 0 0 0 0 0 0 550702540.326 332156388.045 0 555652516.864 967077675.6 0 2581145837.22 447835732.469 655265574.287 1151657192.96 6277835675.16 3760699126.54 8998208720.08 7036074686.1 13374248934.4 11977629985.5 17448875935.1 17141971080.3 22811757505.3 24329984050 30028630781.4 43535183018.4 45719009229.3 57403202832.1 54499586250.1 65919070271.7 85912267996.3 85782745604 94530750479.8 108346491549 104612131536 101472278936 115622446428 114598217400 123630187037 106714974553 106772875307 102622315208 92821779506.1 97628195579.6 72547330614.7 88641238263.6 73764345873.8 67325343467.1 45776206431.9 43074710492.5 37555863087 31323708580.2 31134856310.4 23553587224.4 19523387207.2 14171852613.4 16408183605.6 13685962126.6 7825520644.26 8571194913.64 6290206072.68 3334163311.69 2574825990.54 2918580138.39 2690666625.14 545036946.691 1078812346.03 970647692.857 0 0 0 0 0 0 0 0 0 0 0 0 0 0 0 
0 0 0 0 0 0 0 0 0 0 0 0 0 0 558077959.089 499768789.066 0 623943349.451 1982106356.74 557295048.938 83958685.9766 1522179949.41 3322830514.61 3582968112.91 4557066873.76 4407065441.22 12811772643.5 10706444631.1 11100941123.3 16891237005.9 15933087090.9 21845710996.1 22308476616.8 26451280603 34213748111.1 32327059638.8 47515366343.9 48394363786.5 51272059690.5 51158576115.6 43187585568.7 55376545057.2 62745672411.4 63922884603 57977096528.4 65828384921.2 64085107970.1 62286897013.1 55871775922.3 67765975422.4 59267008559 42683793424.2 47371897823.2 36996919446.8 40511162938.2 36143397111.1 24185988939.2 26658193253 18910876566.8 20921327225.1 16193404242.9 12445679033.8 8026976571.23 9160933503.21 5745345506.41 5979429758.69 2963623762.32 4005310144.45 2307315663.31 1175198009.41 0 1637168127.34 390127435.561 486542449.856 1094821803.92 0 0 0 0 0 0 0 0 0 0 0 0 0 0 0 
0 0 0 0 0 0 0 0 0 0 0 0 0 0 0 0 393516873.211 0 485031439.266 0 957954124.203 545345353.127 1437834965.07 1291929632.55 2471604476.29 1512426916.95 5721821704.12 4804042347.54 3679522494.6 7713345751.4 8856983130.74 7670619946.17 13600559602.9 13123306470.3 15132694937.5 14213174850.2 18165971704.9 26464825037.4 28599471277.8 32711312488.7 33045124461.7 35843463790.9 39615708846.4 37662528390.4 37555142019.8 33034310513.2 35256789699.8 35256190092.3 39024241870.2 27558803699.2 33551180151.1 32685956654.3 23733579495 23820624086.5 15374538296.9 19852355847.8 18398152676.3 14320723087.1 12093751520.9 6391217118.77 12913755210.4 6618174408.09 7300667302.62 7294070681.83 3589993367.04 1383225216.37 1982851691.57 2869083994.9 617870143.968 0 528732656.312 533981341.773 552494708.513 0 0 0 0 508930000.192 549231743.463 0 0 0 0 0 0 0 0 0 0 0 
0 0 0 0 0 0 0 0 0 0 0 0 0 0 0 0 0 421028618.73 0 514237102.594 0 0 0 1895498891.94 1264652850.09 2235742276.36 1328007823.16 2759912360.32 1529935340.53 3261930029.19 3083123115.63 7657735703.24 7008864649.59 4298488564.08 4705137268.26 7462415570.86 8535654489.26 17059662203.3 11959705279.8 17475750251.9 16558122972.8 17343902838.4 21528469527.2 15539637390.5 18831243835.2 21143727002.5 17250362559.8 17721950696.2 13086490986.2 13345590434.2 15021638837.1 14139231691.6 16970417851.7 6432990736.23 10350714113.5 6488646849.01 10539774521.8 6983754426 4936798285.57 8125447995.45 6681310068.16 2332816666.83 4907279568.47 1593534620.86 1056736836.98 1776301677.2 464694659.883 0 967396759.524 0 0 0 538430960.872 558200000 0 0 0 0 0 0 0 0 0 0 0 0 0 0 0 0 
0 0 0 0 0 0 0 0 0 0 0 0 0 0 0 0 0 0 0 0 0 521830209.563 521283078.591 523859824.583 553983877.864 8884953.49622 1740958495.07 1555589601.92 1083952091.35 1776639749.34 3655668291.99 4463191930.96 3066841095.14 1560337114.22 6861975513.35 6624398422.67 4773063124.84 5434578666.78 7778735830.63 4625729341.61 10519613771.6 8471827456.63 10051090873.3 8503900749.73 5423681247.61 10950897236.3 8996703995.82 9886626392.3 7694005323.21 8611129434.85 8422425180.94 7195769651.04 6243826465.19 7849934678.73 6048845605.44 4970530472.66 3714750926.3 1048794814.14 2731838559.55 3264723145.35 1792959960.69 1596478696.6 2128653237.38 1277309123.07 1813458595.3 1392060344.1 162461698.118 546450918.651 0 346147551.044 520359670.688 0 0 0 0 0 0 0 0 0 0 0 0 0 0 0 0 0 0 0 
0 0 0 0 0 0 0 0 0 0 0 0 0 0 0 0 0 0 0 446854411.394 0 0 0 1091895503.63 0 496872566.237 943411992.746 557838720.376 1101617145.48 1061701328.14 0 1539786030.08 2312626527.27 2829869050.85 2857767379.01 3483773655 1472500276.74 3516958280.02 4798022482.95 3813034538.15 4485148792.12 3954242687.89 3635382435.04 4279961417.41 7106845806.82 3979071865.75 6195309762.71 4184305412.78 5215564072.56 2451034722.75 3174951939.8 3001963254.88 3037025174.59 3660065358.26 5050120757.74 1542036465.02 1720405778.52 1248044457.57 1702846776.48 2180155497.72 282113066.058 1335079007.14 200707825.436 0 495550592.074 1924460731.84 0 0 186800586.537 0 0 0 0 0 0 0 0 0 0 0 0 0 0 0 0 0 0 0 0 0 
0 0 0 0 0 0 0 0 0 0 0 0 0 0 0 0 0 0 0 0 0 0 0 0 0 0 473111296.065 0 0 0 0 632638775.435 670535858.638 1367620693.53 235909373.229 1293686863.24 2821889061.27 551762076.386 1897159066.32 2357788951.92 1242637267.61 573574061.028 1575802561.85 1729879441.8 663844745.2 2832414499.95 443606083.002 1057547654.05 1351111539.89 557265903.294 1442940354.02 1441489319.87 416987591.191 1607615715.1 454340714.458 466841579.659 1644635011.05 118523087.095 1041319117.84 0 0 0 0 448286167.073 543816349.627 436511541.762 0 0 0 0 0 0 0 0 0 0 0 0 0 0 0 0 0 0 0 0 0 0 0 0 
0 0 0 0 0 0 0 0 0 0 0 0 0 0 0 0 0 0 0 0 0 0 0 0 0 0 543640157.064 140337636.252 0 519129480.726 0 92723829.9065 546403027.228 0 550992839.43 552827850.173 0 1459112856.91 477925009.036 501410607.01 0 523389717.647 356462.50603 1485946842.25 0 419386944.704 58251996.4204 2576367714.53 0 1226292316.04 517759034.37 449308363.967 3498915.45764 1626984901.41 556089602.814 557126383.136 409371129.015 1131307757.31 0 0 0 0 0 0 497413486.29 0 0 0 0 0 0 0 0 0 0 0 0 0 0 0 0 0 0 0 0 0 0 0 0 0 
0 0 0 0 0 0 0 0 0 0 0 0 0 0 0 0 0 0 0 0 0 0 0 0 0 0 0 0 503971105.829 0 0 0 472659963.132 0 0 0 0 0 375335956.561 545328525.492 1046418008.58 0 416015931.818 0 23441795.0435 0 1607298739.61 502732864.415 0 458274327.294 506975083.992 194958731.872 0 0 0 0 492454748.622 0 0 499440836.75 0 0 0 0 0 0 0 0 0 0 0 0 0 0 0 0 0 0 0 0 0 0 0 0 0 0 0 0 0 0 
0 0 0 0 0 0 0 0 0 0 0 0 0 0 0 0 0 0 0 0 0 0 0 0 0 0 0 0 0 0 0 0 0 0 0 0 0 0 0 0 0 0 0 131873356.136 0 370950806.767 0 0 0 551045127.046 67634463.4293 0 539140271.159 0 1087869002.64 0 0 0 0 0 0 0 0 0 0 514547579.758 0 0 0 0 0 0 0 0 0 0 0 0 0 0 0 0 0 0 0 0 0 0 0 0 
0 0 0 0 0 0 0 0 0 0 0 0 0 0 0 0 0 0 0 0 0 0 0 0 0 0 0 0 0 0 0 0 0 0 0 0 0 0 0 0 0 0 0 0 0 0 467864631.167 0 0 0 0 0 554282047.823 262626457.463 0 0 0 0 0 0 0 0 0 0 0 0 0 0 0 0 0 0 0 0 0 0 0 0 0 0 0 0 0 0 0 0 0 0 0 0 
0 0 0 0 0 0 0 0 0 0 0 0 0 0 0 0 0 0 0 0 0 0 0 0 0 0 0 0 0 0 0 0 0 0 0 0 0 0 0 0 0 0 0 0 0 0 0 0 0 0 0 0 0 0 0 0 0 0 0 0 0 0 0 0 0 0 0 0 0 0 0 0 0 0 0 0 0 0 0 0 0 0 0 0 0 0 0 0 0 0 
0 0 0 0 0 0 0 0 0 0 0 0 0 0 0 0 0 0 0 0 0 0 0 0 0 0 0 0 0 0 0 0 0 0 0 0 0 0 0 0 0 0 0 0 0 0 0 0 0 0 0 0 0 0 0 0 0 0 0 0 0 0 0 0 0 0 0 0 0 0 0 0 0 0 0 0 0 0 0 0 0 0 0 0 0 0 0 0 0 0 
0 0 0 0 0 0 0 0 0 0 0 0 0 0 0 0 0 0 0 0 0 0 0 0 0 0 0 0 0 0 0 0 0 0 0 0 0 0 0 0 0 0 0 0 0 0 0 0 0 0 0 0 0 0 0 0 0 0 0 0 0 0 0 0 0 0 0 0 0 0 0 0 0 0 0 0 0 0 0 0 0 0 0 0 0 0 0 0 0 0 
0 0 0 0 0 0 0 0 0 0 0 0 0 0 0 0 0 0 0 0 0 0 0 0 0 0 0 0 0 0 0 0 0 0 0 0 0 0 0 0 0 0 0 0 0 0 0 0 0 0 0 0 0 0 0 0 0 0 0 0 0 0 0 0 0 0 0 0 0 0 0 0 0 0 0 0 0 0 0 0 0 0 0 0 0 0 0 0 0 0 
0 0 0 0 0 0 0 0 0 0 0 0 0 0 0 0 0 0 0 0 0 0 0 0 0 0 0 0 0 0 0 0 0 0 0 0 0 0 0 0 0 0 0 0 0 0 0 0 0 0 0 0 0 0 0 0 0 0 0 0 0 0 0 0 0 0 0 0 0 0 0 0 0 0 0 0 0 0 0 0 0 0 0 0 0 0 0 0 0 0 
0 0 0 0 0 0 0 0 0 0 0 0 0 0 0 0 0 0 0 0 0 0 0 0 0 0 0 0 0 0 0 0 0 0 0 0 0 0 0 0 0 0 0 0 0 0 0 0 0 0 0 0 0 0 0 0 0 0 0 0 0 0 0 0 0 0 0 0 0 0 0 0 0 0 0 0 0 0 0 0 0 0 0 0 0 0 0 0 0 0 
0 0 0 0 0 0 0 0 0 0 0 0 0 0 0 0 0 0 0 0 0 0 0 0 0 0 0 0 0 0 0 0 0 0 0 0 0 0 0 0 0 0 0 0 0 0 0 0 0 0 0 0 0 0 0 0 0 0 0 0 0 0 0 0 0 0 0 0 0 0 0 0 0 0 0 0 0 0 0 0 0 0 0 0 0 0 0 0 0 0 
0 0 0 0 0 0 0 0 0 0 0 0 0 0 0 0 0 0 0 0 0 0 0 0 0 0 0 0 0 0 0 0 0 0 0 0 0 0 0 0 0 0 0 0 0 0 0 0 0 0 0 0 0 0 0 0 0 0 0 0 0 0 0 0 0 0 0 0 0 0 0 0 0 0 0 0 0 0 0 0 0 0 0 0 0 0 0 0 0 0 
0 0 0 0 0 0 0 0 0 0 0 0 0 0 0 0 0 0 0 0 0 0 0 0 0 0 0 0 0 0 0 0 0 0 0 0 0 0 0 0 0 0 0 0 0 0 0 0 0 0 0 0 0 0 0 0 0 0 0 0 0 0 0 0 0 0 0 0 0 0 0 0 0 0 0 0 0 0 0 0 0 0 0 0 0 0 0 0 0 0 
0 0 0 0 0 0 0 0 0 0 0 0 0 0 0 0 0 0 0 0 0 0 0 0 0 0 0 0 0 0 0 0 0 0 0 0 0 0 0 0 0 0 0 0 0 0 0 0 0 0 0 0 0 0 0 0 0 0 0 0 0 0 0 0 0 0 0 0 0 0 0 0 0 0 0 0 0 0 0 0 0 0 0 0 0 0 0 0 0 0 
0 0 0 0 0 0 0 0 0 0 0 0 0 0 0 0 0 0 0 0 0 0 0 0 0 0 0 0 0 0 0 0 0 0 0 0 0 0 0 0 0 0 0 0 0 0 0 0 0 0 0 0 0 0 0 0 0 0 0 0 0 0 0 0 0 0 0 0 0 0 0 0 0 0 0 0 0 0 0 0 0 0 0 0 0 0 0 0 0 0 
0 0 0 0 0 0 0 0 0 0 0 0 0 0 0 0 0 0 0 0 0 0 0 0 0 0 0 0 0 0 0 0 0 0 0 0 0 0 0 0 0 0 0 0 0 0 0 0 0 0 0 0 0 0 0 0 0 0 0 0 0 0 0 0 0 0 0 0 0 0 0 0 0 0 0 0 0 0 0 0 0 0 0 0 0 0 0 0 0 0 
0 0 0 0 0 0 0 0 0 0 0 0 0 0 0 0 0 0 0 0 0 0 0 0 0 0 0 0 0 0 0 0 0 0 0 0 0 0 0 0 0 0 0 0 0 0 0 0 0 0 0 0 0 0 0 0 0 0 0 0 0 0 0 0 0 0 0 0 0 0 0 0 0 0 0 0 0 0 0 0 0 0 0 0 0 0 0 0 0 0 
0 0 0 0 0 0 0 0 0 0 0 0 0 0 0 0 0 0 0 0 0 0 0 0 0 0 0 0 0 0 0 0 0 0 0 0 0 0 0 0 0 0 0 0 0 0 0 0 0 0 0 0 0 0 0 0 0 0 0 0 0 0 0 0 0 0 0 0 0 0 0 0 0 0 0 0 0 0 0 0 0 0 0 0 0 0 0 0 0 0 
0 0 0 0 0 0 0 0 0 0 0 0 0 0 0 0 0 0 0 0 0 0 0 0 0 0 0 0 0 0 0 0 0 0 0 0 0 0 0 0 0 0 0 0 0 0 0 0 0 0 0 0 0 0 0 0 0 0 0 0 0 0 0 0 0 0 0 0 0 0 0 0 0 0 0 0 0 0 0 0 0 0 0 0 0 0 0 0 0 0 
0 0 0 0 0 0 0 0 0 0 0 0 0 0 0 0 0 0 0 0 0 0 0 0 0 0 0 0 0 0 0 0 0 0 0 0 0 0 0 0 0 0 0 0 0 0 0 0 0 0 0 0 0 0 0 0 0 0 0 0 0 0 0 0 0 0 0 0 0 0 0 0 0 0 0 0 0 0 0 0 0 0 0 0 0 0 0 0 0 0 
0 0 0 0 0 0 0 0 0 0 0 0 0 0 0 0 0 0 0 0 0 0 0 0 0 0 0 0 0 0 0 0 0 0 0 0 0 0 0 0 0 0 0 0 0 0 0 0 0 0 0 0 0 0 0 0 0 0 0 0 0 0 0 0 0 0 0 0 0 0 0 0 0 0 0 0 0 0 0 0 0 0 0 0 0 0 0 0 0 0 
0 0 0 0 0 0 0 0 0 0 0 0 0 0 0 0 0 0 0 0 0 0 0 0 0 0 0 0 0 0 0 0 0 0 0 0 0 0 0 0 0 0 0 0 0 0 0 0 0 0 0 0 0 0 0 0 0 0 0 0 0 0 0 0 0 0 0 0 0 0 0 0 0 0 0 0 0 0 0 0 0 0 0 0 0 0 0 0 0 0 
0 0 0 0 0 0 0 0 0 0 0 0 0 0 0 0 0 0 0 0 0 0 0 0 0 0 0 0 0 0 0 0 0 0 0 0 0 0 0 0 0 0 0 0 0 0 0 0 0 0 0 0 0 0 0 0 0 0 0 0 0 0 0 0 0 0 0 0 0 0 0 0 0 0 0 0 0 0 0 0 0 0 0 0 0 0 0 0 0 0 
0 0 0 0 0 0 0 0 0 0 0 0 0 0 0 0 0 0 0 0 0 0 0 0 0 0 0 0 0 0 0 0 0 0 0 0 0 0 0 0 0 0 0 0 0 0 0 0 0 0 0 0 0 0 0 0 0 0 0 0 0 0 0 0 0 0 0 0 0 0 0 0 0 0 0 0 0 0 0 0 0 0 0 0 0 0 0 0 0 0 
0 0 0 0 0 0 0 0 0 0 0 0 0 0 0 0 0 0 0 0 0 0 0 0 0 0 0 0 0 0 0 0 0 0 0 0 0 0 0 0 0 0 0 0 0 0 0 0 0 0 0 0 0 0 0 0 0 0 0 0 0 0 0 0 0 0 0 0 0 0 0 0 0 0 0 0 0 0 0 0 0 0 0 0 0 0 0 0 0 0 
0 0 0 0 0 0 0 0 0 0 0 0 0 0 0 0 0 0 0 0 0 0 0 0 0 0 0 0 0 0 0 0 0 0 0 0 0 0 0 0 0 0 0 0 0 0 0 0 0 0 0 0 0 0 0 0 0 0 0 0 0 0 0 0 0 0 0 0 0 0 0 0 0 0 0 0 0 0 0 0 0 0 0 0 0 0 0 0 0 0 
0 0 0 0 0 0 0 0 0 0 0 0 0 0 0 0 0 0 0 0 0 0 0 0 0 0 0 0 0 0 0 0 0 0 0 0 0 0 0 0 0 0 0 0 0 0 0 0 0 0 0 0 0 0 0 0 0 0 0 0 0 0 0 0 0 0 0 0 0 0 0 0 0 0 0 0 0 0 0 0 0 0 0 0 0 0 0 0 0 0 
0 0 0 0 0 0 0 0 0 0 0 0 0 0 0 0 0 0 0 0 0 0 0 0 0 0 0 0 0 0 0 0 0 0 0 0 0 0 0 0 0 0 0 0 0 0 0 0 0 0 0 0 0 0 0 0 0 0 0 0 0 0 0 0 0 0 0 0 0 0 0 0 0 0 0 0 0 0 0 0 0 0 0 0 0 0 0 0 0 0 
# Errors [psd0_dat/psd0.dat] E: 
0 0 0 0 0 0 0 0 0 0 0 0 0 0 0 0 0 0 0 0 0 0 0 0 0 0 0 0 0 0 0 0 0 0 0 0 0 0 0 0 0 0 0 0 0 0 0 0 0 0 0 0 0 0 0 0 0 0 0 0 0 0 0 0 0 0 0 0 0 0 0 0 0 0 0 0 0 0 0 0 0 0 0 0 0 0 0 0 0 0 
0 0 0 0 0 0 0 0 0 0 0 0 0 0 0 0 0 0 0 0 0 0 0 0 0 0 0 0 0 0 0 0 0 0 0 0 0 0 0 0 0 0 0 0 0 0 0 0 0 0 0 0 0 0 0 0 0 0 0 0 0 0 0 0 0 0 0 0 0 0 0 0 0 0 0 0 0 0 0 0 0 0 0 0 0 0 0 0 0 0 
0 0 0 0 0 0 0 0 0 0 0 0 0 0 0 0 0 0 0 0 0 0 0 0 0 0 0 0 0 0 0 0 0 0 0 0 0 0 0 0 0 0 0 0 0 0 0 0 0 0 0 0 0 0 0 0 0 0 0 0 0 0 0 0 0 0 0 0 0 0 0 0 0 0 0 0 0 0 0 0 0 0 0 0 0 0 0 0 0 0 
0 0 0 0 0 0 0 0 0 0 0 0 0 0 0 0 0 0 0 0 0 0 0 0 0 0 0 0 0 0 0 0 0 0 0 0 0 0 0 0 0 0 0 0 0 0 0 0 0 0 0 0 0 0 0 0 0 0 0 0 0 0 0 0 0 0 0 0 0 0 0 0 0 0 0 0 0 0 0 0 0 0 0 0 0 0 0 0 0 0 
0 0 0 0 0 0 0 0 0 0 0 0 0 0 0 0 0 0 0 0 0 0 0 0 0 0 0 0 0 0 0 0 0 0 0 0 0 0 0 0 0 0 0 0 0 0 0 0 0 0 0 0 0 0 0 0 0 0 0 0 0 0 0 0 0 0 0 0 0 0 0 0 0 0 0 0 0 0 0 0 0 0 0 0 0 0 0 0 0 0 
0 0 0 0 0 0 0 0 0 0 0 0 0 0 0 0 0 0 0 0 0 0 0 0 0 0 0 0 0 0 0 0 0 0 0 0 0 0 0 0 0 0 0 0 0 0 0 0 0 0 0 0 0 0 0 0 0 0 0 0 0 0 0 0 0 0 0 0 0 0 0 0 0 0 0 0 0 0 0 0 0 0 0 0 0 0 0 0 0 0 
0 0 0 0 0 0 0 0 0 0 0 0 0 0 0 0 0 0 0 0 0 0 0 0 0 0 0 0 0 0 0 0 0 0 0 0 0 0 0 0 0 0 0 0 0 0 0 0 0 0 0 0 0 0 0 0 0 0 0 0 0 0 0 0 0 0 0 0 0 0 0 0 0 0 0 0 0 0 0 0 0 0 0 0 0 0 0 0 0 0 
0 0 0 0 0 0 0 0 0 0 0 0 0 0 0 0 0 0 0 0 0 0 0 0 0 0 0 0 0 0 0 0 0 0 0 0 0 0 0 0 0 0 0 0 0 0 0 0 0 0 0 0 0 0 0 0 0 0 0 0 0 0 0 0 0 0 0 0 0 0 0 0 0 0 0 0 0 0 0 0 0 0 0 0 0 0 0 0 0 0 
0 0 0 0 0 0 0 0 0 0 0 0 0 0 0 0 0 0 0 0 0 0 0 0 0 0 0 0 0 0 0 0 0 0 0 0 0 0 0 0 0 0 0 0 0 0 0 0 0 0 0 0 0 0 0 0 0 0 0 0 0 0 0 0 0 0 0 0 0 0 0 0 0 0 0 0 0 0 0 0 0 0 0 0 0 0 0 0 0 0 
0 0 0 0 0 0 0 0 0 0 0 0 0 0 0 0 0 0 0 0 0 0 0 0 0 0 0 0 0 0 0 0 0 0 0 0 0 0 0 0 0 0 0 0 0 0 0 0 0 0 0 0 0 0 0 0 0 0 0 0 0 0 0 0 0 0 0 0 0 0 0 0 0 0 0 0 0 0 0 0 0 0 0 0 0 0 0 0 0 0 
0 0 0 0 0 0 0 0 0 0 0 0 0 0 0 0 0 0 0 0 0 0 0 0 0 0 0 0 0 0 0 0 0 0 0 0 0 0 0 0 0 0 0 0 0 0 0 0 0 0 0 0 0 0 0 0 0 0 0 0 0 0 0 0 0 0 0 0 0 0 0 0 0 0 0 0 0 0 0 0 0 0 0 0 0 0 0 0 0 0 
0 0 0 0 0 0 0 0 0 0 0 0 0 0 0 0 0 0 0 0 0 0 0 0 0 0 0 0 0 0 0 0 0 0 0 0 0 0 0 0 0 0 0 0 0 0 0 0 0 0 0 0 0 0 0 0 0 0 0 0 0 0 0 0 0 0 0 0 0 0 0 0 0 0 0 0 0 0 0 0 0 0 0 0 0 0 0 0 0 0 
0 0 0 0 0 0 0 0 0 0 0 0 0 0 0 0 0 0 0 0 0 0 0 0 0 0 0 0 0 0 0 0 0 0 0 0 0 0 0 0 0 0 0 0 0 0 0 0 0 0 0 0 0 0 0 0 0 0 0 0 0 0 0 0 0 0 0 0 0 0 0 0 0 0 0 0 0 0 0 0 0 0 0 0 0 0 0 0 0 0 
0 0 0 0 0 0 0 0 0 0 0 0 0 0 0 0 0 0 0 0 0 0 0 0 0 0 0 0 0 0 0 0 0 0 0 0 0 0 0 0 0 0 0 0 0 0 0 0 0 0 0 0 0 0 0 0 0 0 0 0 0 0 0 0 0 0 0 0 0 0 0 0 0 0 0 0 0 0 0 0 0 0 0 0 0 0 0 0 0 0 
0 0 0 0 0 0 0 0 0 0 0 0 0 0 0 0 0 0 0 0 0 0 0 0 0 0 0 0 0 0 0 0 0 0 0 0 0 0 0 0 0 0 0 0 0 0 0 0 0 0 0 0 0 0 0 0 0 0 0 0 0 0 0 0 0 0 0 0 0 0 0 0 0 0 0 0 0 0 0 0 0 0 0 0 0 0 0 0 0 0 
0 0 0 0 0 0 0 0 0 0 0 0 0 0 0 0 0 0 0 0 0 0 0 0 0 0 0 0 0 0 0 0 0 0 0 0 0 0 0 0 0 0 0 0 0 0 0 0 0 0 0 0 0 0 0 0 0 0 0 0 0 0 0 0 0 0 0 0 0 0 0 0 0 0 0 0 0 0 0 0 0 0 0 0 0 0 0 0 0 0 
0 0 0 0 0 0 0 0 0 0 0 0 0 0 0 0 0 0 0 0 0 0 0 0 0 0 0 0 0 0 0 0 0 0 0 0 0 0 0 0 0 0 0 0 0 0 0 0 0 0 0 0 0 0 0 0 0 0 0 0 0 0 0 0 0 0 0 0 0 0 0 0 0 0 0 0 0 0 0 0 0 0 0 0 0 0 0 0 0 0 
0 0 0 0 0 0 0 0 0 0 0 0 0 0 0 0 0 0 0 0 0 0 0 0 0 0 0 0 0 0 0 0 0 0 0 0 0 0 0 0 0 0 0 0 0 0 0 0 0 0 0 0 0 0 0 0 0 0 0 0 0 0 0 0 0 0 0 0 0 0 0 0 0 0 0 0 0 0 0 0 0 0 0 0 0 0 0 0 0 0 
0 0 0 0 0 0 0 0 0 0 0 0 0 0 0 0 0 0 0 0 0 0 0 0 0 0 0 0 0 0 0 0 0 0 0 0 0 0 0 0 0 0 0 0 0 0 0 0 0 0 0 0 0 0 0 0 0 0 0 0 0 0 0 0 0 0 0 0 0 0 0 0 0 0 0 0 0 0 0 0 0 0 0 0 0 0 0 0 0 0 
0 0 0 0 0 0 0 0 0 0 0 0 0 0 0 0 0 0 0 0 0 0 0 0 0 0 0 0 0 0 0 0 0 0 0 0 0 0 0 0 0 0 0 0 0 0 0 0 0 0 0 0 0 0 0 0 0 0 0 0 0 0 0 0 0 0 0 0 0 0 0 0 0 0 0 0 0 0 0 0 0 0 0 0 0 0 0 0 0 0 
0 0 0 0 0 0 0 0 0 0 0 0 0 0 0 0 0 0 0 0 0 0 0 0 0 0 0 0 0 0 0 0 0 0 0 0 0 0 0 0 0 0 0 0 0 0 0 0 0 0 0 0 0 0 0 0 0 0 0 0 0 0 0 0 0 0 0 0 0 0 0 0 0 0 0 0 0 0 0 0 0 0 0 0 0 0 0 0 0 0 
0 0 0 0 0 0 0 0 0 0 0 0 0 0 0 0 0 0 0 0 0 0 0 0 0 0 0 0 0 0 0 0 0 0 0 0 0 0 0 0 0 0 0 0 0 0 0 0 0 0 0 0 0 0 0 0 0 0 0 0 0 0 0 0 0 0 0 0 0 0 0 0 0 0 0 0 0 0 0 0 0 0 0 0 0 0 0 0 0 0 
0 0 0 0 0 0 0 0 0 0 0 0 0 0 0 0 0 0 0 0 0 0 0 0 0 0 0 0 0 0 0 0 0 0 0 0 0 0 0 0 0 0 0 0 0 0 0 0 0 0 0 0 0 0 0 0 0 0 0 0 0 0 0 0 0 0 0 0 0 0 0 0 0 0 0 0 0 0 0 0 0 0 0 0 0 0 0 0 0 0 
0 0 0 0 0 0 0 0 0 0 0 0 0 0 0 0 0 0 0 0 0 0 0 0 0 0 0 0 0 0 0 0 0 0 0 0 0 0 0 0 0 0 0 0 0 0 0 0 0 0 0 0 0 0 0 0 0 0 0 0 0 0 0 0 0 0 0 0 0 0 0 0 0 0 0 0 0 0 0 0 0 0 0 0 0 0 0 0 0 0 
0 0 0 0 0 0 0 0 0 0 0 0 0 0 0 0 0 0 0 0 0 0 0 0 0 0 0 0 0 0 0 0 0 0 0 0 0 0 0 0 0 0 0 0 0 0 0 0 0 0 0 0 0 0 0 0 0 0 0 0 0 0 0 0 0 0 0 0 0 0 0 0 0 0 0 0 0 0 0 0 0 0 0 0 0 0 0 0 0 0 
0 0 0 0 0 0 0 0 0 0 0 0 0 0 0 0 0 0 0 0 0 0 0 0 0 0 0 0 0 0 0 0 0 0 0 0 0 0 0 0 0 0 0 0 0 0 0 0 0 0 0 0 0 0 0 0 0 0 0 0 0 0 0 0 0 0 0 0 0 0 0 0 0 0 0 0 0 0 0 0 0 0 0 0 0 0 0 0 0 0 
0 0 0 0 0 0 0 0 0 0 0 0 0 0 0 0 0 0 0 0 0 0 0 0 0 0 0 0 0 0 0 0 0 0 0 0 0 0 0 0 0 0 0 0 0 0 0 0 0 0 0 0 0 0 0 0 0 0 0 0 0 0 0 0 0 0 0 0 0 0 0 0 0 0 0 0 0 0 0 0 0 0 0 0 0 0 0 0 0 0 
0 0 0 0 0 0 0 0 0 0 0 0 0 0 0 0 0 0 0 0 0 0 0 0 0 0 0 0 0 0 0 0 0 0 0 0 0 0 0 0 0 0 0 0 0 0 0 0 0 0 0 0 0 0 0 0 0 0 0 0 0 0 0 0 0 0 0 0 0 0 0 0 0 0 0 0 0 0 0 0 0 0 0 0 0 0 0 0 0 0 
0 0 0 0 0 0 0 0 0 0 0 0 0 0 0 0 0 0 0 0 0 0 0 0 0 0 0 0 0 0 0 0 0 0 0 0 0 0 0 0 0 0 0 0 0 0 0 0 0 0 0 0 0 0 0 0 0 0 0 0 0 0 0 0 0 0 0 0 0 0 0 0 0 0 0 0 0 0 0 0 0 0 0 0 0 0 0 0 0 0 
0 0 0 0 0 0 0 0 0 0 0 0 0 0 0 0 0 0 0 0 0 0 0 0 0 0 0 0 0 0 0 0 0 0 0 0 0 0 0 0 0 0 0 0 0 0 0 0 0 0 0 0 0 0 0 0 0 0 0 0 0 0 0 0 0 0 0 0 0 0 0 0 0 0 0 0 0 0 0 0 0 0 0 0 0 0 0 0 0 0 
0 0 0 0 0 0 0 0 0 0 0 0 0 0 0 0 0 0 0 0 0 0 0 0 0 0 0 0 0 0 0 0 0 0 0 0 0 0 0 0 0 0 0 0 0 0 0 0 0 0 0 0 0 0 0 0 0 0 0 0 0 0 0 0 0 0 0 0 0 0 0 0 0 0 0 0 0 0 0 0 0 0 0 0 0 0 0 0 0 0 
0 0 0 0 0 0 0 0 0 0 0 0 0 0 0 0 0 0 0 0 0 0 0 0 0 0 0 0 0 0 0 0 0 0 0 0 0 0 0 0 0 0 0 0 0 0 0 0 0 0 0 0 0 0 0 0 0 0 0 0 0 0 0 0 0 0 0 0 0 0 0 0 0 0 0 0 0 0 0 0 0 0 0 0 0 0 0 0 0 0 
0 0 0 0 0 0 0 0 0 0 0 0 0 0 0 0 0 0 0 0 0 0 0 0 0 0 0 0 0 0 0 0 0 0 0 0 0 0 0 0 0 0 0 0 0 0 0 0 0 0 0 0 0 0 0 0 0 0 0 0 0 0 0 0 0 0 0 0 0 0 0 0 0 0 0 0 0 0 0 0 0 0 0 0 0 0 0 0 0 0 
0 0 0 0 0 0 0 0 0 0 0 0 0 0 0 0 0 0 0 0 0 0 0 0 0 0 0 0 0 0 0 0 0 0 0 0 0 0 0 0 0 0 0 0 0 0 0 0 0 0 0 0 0 0 0 0 0 0 0 0 0 0 0 0 0 0 0 0 0 0 0 0 0 0 0 0 0 0 0 0 0 0 0 0 0 0 0 0 0 0 
0 0 0 0 0 0 0 0 0 0 0 0 0 0 0 0 0 0 0 0 0 0 0 0 0 0 0 0 0 0 0 0 0 0 0 0 0 0 0 0 0 0 0 0 0 0 0 0 0 0 0 0 0 0 0 0 0 0 0 0 0 0 0 0 0 0 0 0 0 0 0 0 0 0 0 0 0 0 0 0 0 0 0 0 0 0 0 0 0 0 
0 0 0 0 0 0 0 0 0 0 0 0 0 0 0 0 0 0 0 0 0 0 0 0 0 0 0 0 0 0 0 0 0 0 0 0 0 0 0 0 0 0 0 0 0 0 0 0 0 0 0 0 0 0 0 0 0 0 0 0 0 0 0 0 0 0 0 0 0 0 0 0 0 0 0 0 0 0 0 0 0 0 0 0 0 0 0 0 0 0 
0 0 0 0 0 0 0 0 0 0 0 0 0 0 0 0 0 0 0 0 0 0 0 0 0 0 0 0 0 0 0 0 0 0 0 0 0 0 0 0 0 0 0 0 0 0 0 0 0 0 0 0 0 0 0 0 0 0 0 0 0 0 0 0 0 0 0 0 0 0 0 0 0 0 0 0 0 0 0 0 0 0 0 0 0 0 0 0 0 0 
0 0 0 0 0 0 0 0 0 0 0 0 0 0 0 0 0 0 0 0 0 0 0 0 0 0 0 0 0 0 0 0 0 0 0 0 0 0 0 0 0 0 0 0 0 0 0 0 0 0 0 0 0 0 0 0 0 0 0 0 0 0 0 0 0 0 0 0 0 0 0 0 0 0 0 0 0 0 0 0 0 0 0 0 0 0 0 0 0 0 
0 0 0 0 0 0 0 0 0 0 0 0 0 0 0 0 0 0 0 0 0 0 0 0 0 0 0 0 0 0 0 0 0 0 0 0 0 0 0 0 0 0 0 0 0 0 0 0 0 0 0 0 0 0 0 0 0 0 0 0 0 0 0 0 0 0 0 0 0 0 0 0 0 0 0 0 0 0 0 0 0 0 0 0 0 0 0 0 0 0 
0 0 0 0 0 0 0 0 0 0 0 0 0 0 0 0 0 0 0 0 0 0 0 0 0 0 0 0 0 0 0 0 0 0 0 0 0 0 0 0 0 0 0 0 0 0 0 0 0 0 0 0 0 0 0 0 0 0 0 0 0 0 0 0 0 0 0 0 0 0 0 0 0 0 0 0 0 0 0 0 0 0 0 0 0 0 0 0 0 0 
0 0 0 0 0 0 0 0 0 0 0 0 0 0 0 0 0 0 0 0 0 0 0 0 0 0 0 0 0 0 0 0 0 0 0 0 0 0 0 0 0 0 0 0 0 0 0 0 0 0 0 0 0 0 0 0 0 0 0 0 0 0 0 0 0 0 0 0 0 0 0 0 0 0 0 0 0 0 0 0 0 0 0 0 0 0 0 0 0 0 
0 0 0 0 0 0 0 0 0 0 0 0 0 0 0 0 0 0 0 0 0 0 0 0 0 0 0 0 0 0 0 0 0 0 0 0 0 0 0 0 0 0 0 0 0 0 0 0 0 0 0 0 0 0 0 0 0 0 0 0 0 0 0 0 0 0 0 0 0 0 0 0 0 0 0 0 0 0 0 0 0 0 0 0 0 0 0 0 0 0 
0 0 0 0 0 0 0 0 0 0 0 0 0 0 0 0 0 0 0 0 0 0 0 0 0 0 0 0 0 0 0 0 0 0 0 0 0 0 0 0 0 0 0 0 0 0 0 0 0 0 0 0 0 0 0 0 0 0 0 0 0 0 0 0 0 0 0 0 0 0 0 0 0 0 0 0 0 0 0 0 0 0 0 0 0 0 0 0 0 0 
0 0 0 0 0 0 0 0 0 0 0 0 0 0 0 0 0 0 0 0 0 0 0 0 0 0 0 0 0 0 0 0 0 0 0 0 0 0 0 0 0 0 0 0 0 0 0 0 0 0 0 0 0 0 0 0 0 0 0 0 0 0 0 0 0 0 0 0 0 0 0 0 0 0 0 0 0 0 0 0 0 0 0 0 0 0 0 0 0 0 
0 0 0 0 0 0 0 0 0 0 0 0 0 0 0 0 0 0 0 0 0 0 0 0 0 0 0 0 0 0 0 0 0 0 0 0 0 0 0 0 0 0 0 0 0 0 0 0 0 0 0 0 0 0 0 0 0 0 0 0 0 0 0 0 0 0 0 0 0 0 0 0 0 0 0 0 0 0 0 0 0 0 0 0 0 0 0 0 0 0 
0 0 0 0 0 0 0 0 0 0 0 0 0 0 0 0 0 0 0 0 0 0 0 0 0 0 0 0 0 0 0 0 0 0 0 0 0 0 0 0 0 0 0 0 0 0 0 0 0 0 0 0 0 0 0 0 0 0 0 0 0 0 0 0 0 0 0 0 0 0 0 0 0 0 0 0 0 0 0 0 0 0 0 0 0 0 0 0 0 0 
0 0 0 0 0 0 0 0 0 0 0 0 0 0 0 0 0 0 0 0 0 0 0 0 0 0 0 0 0 0 0 0 0 0 0 0 0 0 0 0 0 0 0 0 0 0 0 0 0 0 0 0 0 0 0 0 0 0 0 0 0 0 0 0 0 0 0 0 0 0 0 0 0 0 0 0 0 0 0 0 0 0 0 0 0 0 0 0 0 0 
0 0 0 0 0 0 0 0 0 0 0 0 0 0 0 0 0 0 0 0 0 0 0 0 0 0 0 0 0 0 0 0 0 0 0 0 0 0 0 0 0 0 0 0 0 0 0 0 0 0 0 0 0 0 0 0 0 0 0 0 0 0 0 0 0 0 0 0 0 0 0 0 0 0 0 0 0 0 0 0 0 0 0 0 0 0 0 0 0 0 
0 0 0 0 0 0 0 0 0 0 0 0 0 0 0 0 0 0 0 0 0 0 0 0 0 0 0 0 0 0 0 0 0 0 0 0 0 0 0 0 0 0 0 0 0 0 0 0 0 0 0 0 0 0 0 0 0 0 0 0 0 0 0 0 0 0 0 0 0 0 0 0 0 0 0 0 0 0 0 0 0 0 0 0 0 0 0 0 0 0 
0 0 0 0 0 0 0 0 0 0 0 0 0 0 0 0 0 0 0 0 0 0 0 0 0 0 0 0 0 0 0 0 0 0 0 0 0 0 0 0 0 0 0 0 0 0 0 0 0 0 0 0 0 0 0 0 0 0 0 0 0 0 0 0 0 0 0 0 0 0 0 0 0 0 0 0 0 0 0 0 0 0 0 0 0 0 0 0 0 0 
0 0 0 0 0 0 0 0 0 0 0 0 0 0 0 0 0 0 0 0 0 0 0 0 0 0 0 0 0 0 0 0 0 0 0 0 0 0 0 0 0 0 0 0 0 0 0 0 0 0 0 0 0 0 0 0 0 0 0 0 0 0 0 0 0 0 0 0 0 0 0 0 0 0 0 0 0 0 0 0 0 0 0 0 0 0 0 0 0 0 
0 0 0 0 0 0 0 0 0 0 0 0 0 0 0 0 0 0 0 0 0 0 0 0 0 0 0 0 0 0 0 0 0 0 0 0 0 0 0 0 0 0 0 0 0 0 0 0 0 0 0 0 0 0 0 0 0 0 0 0 0 0 0 0 0 0 0 0 0 0 0 0 0 0 0 0 0 0 0 0 0 0 0 0 0 0 0 0 0 0 
0 0 0 0 0 0 0 0 0 0 0 0 0 0 0 0 0 0 0 0 0 0 0 0 0 0 0 0 0 0 0 0 0 0 0 0 0 0 0 0 0 0 0 0 0 0 0 0 0 0 0 0 0 0 0 0 0 0 0 0 0 0 0 0 0 0 0 0 0 0 0 0 0 0 0 0 0 0 0 0 0 0 0 0 0 0 0 0 0 0 
0 0 0 0 0 0 0 0 0 0 0 0 0 0 0 0 0 0 0 0 0 0 0 0 0 0 0 0 0 0 0 0 0 0 0 0 0 0 0 0 0 0 0 0 0 0 0 0 0 0 0 0 0 0 0 0 0 0 0 0 0 0 0 0 0 0 0 0 0 0 0 0 0 0 0 0 0 0 0 0 0 0 0 0 0 0 0 0 0 0 
0 0 0 0 0 0 0 0 0 0 0 0 0 0 0 0 0 0 0 0 0 0 0 0 0 0 0 0 0 0 0 0 0 0 0 0 0 0 0 0 0 0 0 0 0 0 0 0 0 0 0 0 0 0 0 0 0 0 0 0 0 0 0 0 0 0 0 0 0 0 0 0 0 0 0 0 0 0 0 0 0 0 0 0 0 0 0 0 0 0 
0 0 0 0 0 0 0 0 0 0 0 0 0 0 0 0 0 0 0 0 0 0 0 0 0 0 0 0 0 0 0 0 0 0 0 0 0 0 0 0 0 0 0 0 0 0 0 0 0 0 0 0 0 0 0 0 0 0 0 0 0 0 0 0 0 0 0 0 0 0 0 0 0 0 0 0 0 0 0 0 0 0 0 0 0 0 0 0 0 0 
0 0 0 0 0 0 0 0 0 0 0 0 0 0 0 0 0 0 0 0 0 0 0 0 0 0 0 0 0 0 0 0 0 0 0 0 0 0 0 0 0 0 0 0 0 0 0 0 0 0 0 0 0 0 0 0 0 0 0 0 0 0 0 0 0 0 0 0 0 0 0 0 0 0 0 0 0 0 0 0 0 0 0 0 0 0 0 0 0 0 
0 0 0 0 0 0 0 0 0 0 0 0 0 0 0 0 0 0 0 0 0 0 0 0 0 0 0 0 0 0 0 0 0 0 0 0 0 0 0 0 0 0 0 0 0 0 0 0 0 0 0 0 0 0 0 0 0 0 0 0 0 0 0 0 0 0 0 0 0 0 0 0 0 0 0 0 0 0 0 0 0 0 0 0 0 0 0 0 0 0 
0 0 0 0 0 0 0 0 0 0 0 0 0 0 0 0 0 0 0 0 0 0 0 0 0 0 0 0 0 0 0 0 0 0 0 0 0 0 0 0 0 0 0 0 0 0 0 0 0 0 0 0 0 0 0 0 0 0 0 0 0 0 0 0 0 0 0 0 0 0 0 0 0 0 0 0 0 0 0 0 0 0 0 0 0 0 0 0 0 0 
0 0 0 0 0 0 0 0 0 0 0 0 0 0 0 0 0 0 0 0 0 0 0 0 0 0 0 0 0 0 0 0 0 0 0 0 0 0 0 0 0 0 0 0 0 0 0 0 0 0 0 0 0 0 0 0 0 0 0 0 0 0 0 0 0 0 0 0 0 0 0 0 0 0 0 0 0 0 0 0 0 0 0 0 0 0 0 0 0 0 
0 0 0 0 0 0 0 0 0 0 0 0 0 0 0 0 0 0 0 0 0 0 0 0 0 0 0 0 0 0 0 0 0 0 0 0 0 0 0 0 0 0 0 0 0 0 0 0 0 0 0 0 0 0 0 0 0 0 0 0 0 0 0 0 0 0 0 0 0 0 0 0 0 0 0 0 0 0 0 0 0 0 0 0 0 0 0 0 0 0 
0 0 0 0 0 0 0 0 0 0 0 0 0 0 0 0 0 0 0 0 0 0 0 0 0 0 0 0 0 0 0 0 0 0 0 0 0 0 0 0 0 0 0 0 0 0 0 0 0 0 0 0 0 0 0 0 0 0 0 0 0 0 0 0 0 0 0 0 0 0 0 0 0 0 0 0 0 0 0 0 0 0 0 0 0 0 0 0 0 0 
0 0 0 0 0 0 0 0 0 0 0 0 0 0 0 0 0 0 0 0 0 0 0 0 0 0 0 0 0 0 0 0 0 0 0 0 0 0 0 0 0 0 0 0 0 0 0 0 0 0 0 0 0 0 0 0 0 0 0 0 0 0 0 0 0 0 0 0 0 0 0 0 0 0 0 0 0 0 0 0 0 0 0 0 0 0 0 0 0 0 
0 0 0 0 0 0 0 0 0 0 0 0 0 0 0 0 0 0 0 0 0 0 0 0 0 0 0 0 0 0 0 0 0 0 0 0 0 0 0 0 0 0 0 0 0 0 0 0 0 0 0 0 0 0 0 0 0 0 0 0 0 0 0 0 0 0 0 0 0 0 0 0 0 0 0 0 0 0 0 0 0 0 0 0 0 0 0 0 0 0 
0 0 0 0 0 0 0 0 0 0 0 0 0 0 0 0 0 0 0 0 0 0 0 0 0 0 0 0 0 0 0 0 0 0 0 0 0 0 0 0 0 0 0 0 0 0 0 0 0 0 0 0 0 0 0 0 0 0 0 0 0 0 0 0 0 0 0 0 0 0 0 0 0 0 0 0 0 0 0 0 0 0 0 0 0 0 0 0 0 0 
0 0 0 0 0 0 0 0 0 0 0 0 0 0 0 0 0 0 0 0 0 0 0 0 0 0 0 0 0 0 0 0 0 0 0 0 0 0 0 0 0 0 0 0 0 0 0 0 0 0 0 0 0 0 0 0 0 0 0 0 0 0 0 0 0 0 0 0 0 0 0 0 0 0 0 0 0 0 0 0 0 0 0 0 0 0 0 0 0 0 
0 0 0 0 0 0 0 0 0 0 0 0 0 0 0 0 0 0 0 0 0 0 0 0 0 0 0 0 0 0 0 0 0 0 0 0 0 0 0 0 0 0 0 0 0 0 0 0 0 0 0 0 0 0 0 0 0 0 0 0 0 0 0 0 0 0 0 0 0 0 0 0 0 0 0 0 0 0 0 0 0 0 0 0 0 0 0 0 0 0 
0 0 0 0 0 0 0 0 0 0 0 0 0 0 0 0 0 0 0 0 0 0 0 0 0 0 0 0 0 0 0 0 0 0 0 0 0 0 0 0 0 0 0 0 0 0 0 0 0 0 0 0 0 0 0 0 0 0 0 0 0 0 0 0 0 0 0 0 0 0 0 0 0 0 0 0 0 0 0 0 0 0 0 0 0 0 0 0 0 0 
0 0 0 0 0 0 0 0 0 0 0 0 0 0 0 0 0 0 0 0 0 0 0 0 0 0 0 0 0 0 0 0 0 0 0 0 0 0 0 0 0 0 0 0 0 0 0 0 0 0 0 0 0 0 0 0 0 0 0 0 0 0 0 0 0 0 0 0 0 0 0 0 0 0 0 0 0 0 0 0 0 0 0 0 0 0 0 0 0 0 
0 0 0 0 0 0 0 0 0 0 0 0 0 0 0 0 0 0 0 0 0 0 0 0 0 0 0 0 0 0 0 0 0 0 0 0 0 0 0 0 0 0 0 0 0 0 0 0 0 0 0 0 0 0 0 0 0 0 0 0 0 0 0 0 0 0 0 0 0 0 0 0 0 0 0 0 0 0 0 0 0 0 0 0 0 0 0 0 0 0 
0 0 0 0 0 0 0 0 0 0 0 0 0 0 0 0 0 0 0 0 0 0 0 0 0 0 0 0 0 0 0 0 0 0 0 0 0 0 0 0 0 0 0 0 0 0 0 0 0 0 0 0 0 0 0 0 0 0 0 0 0 0 0 0 0 0 0 0 0 0 0 0 0 0 0 0 0 0 0 0 0 0 0 0 0 0 0 0 0 0 
0 0 0 0 0 0 0 0 0 0 0 0 0 0 0 0 0 0 0 0 0 0 0 0 0 0 0 0 0 0 0 0 0 0 0 0 0 0 0 0 0 0 0 0 0 0 0 0 0 0 0 0 0 0 0 0 0 0 0 0 0 0 0 0 0 0 0 0 0 0 0 0 0 0 0 0 0 0 0 0 0 0 0 0 0 0 0 0 0 0 
0 0 0 0 0 0 0 0 0 0 0 0 0 0 0 0 0 0 0 0 0 0 0 0 0 0 0 0 0 0 0 0 0 0 0 0 0 0 0 0 0 0 0 0 0 0 0 0 0 0 0 0 0 0 0 0 0 0 0 0 0 0 0 0 0 0 0 0 0 0 0 0 0 0 0 0 0 0 0 0 0 0 0 0 0 0 0 0 0 0 
0 0 0 0 0 0 0 0 0 0 0 0 0 0 0 0 0 0 0 0 0 0 0 0 0 0 0 0 0 0 0 0 0 0 0 0 0 0 0 0 0 0 0 0 0 0 0 0 0 0 0 0 0 0 0 0 0 0 0 0 0 0 0 0 0 0 0 0 0 0 0 0 0 0 0 0 0 0 0 0 0 0 0 0 0 0 0 0 0 0 
0 0 0 0 0 0 0 0 0 0 0 0 0 0 0 0 0 0 0 0 0 0 0 0 0 0 0 0 0 0 0 0 0 0 0 0 0 0 0 0 0 0 0 0 0 0 0 0 0 0 0 0 0 0 0 0 0 0 0 0 0 0 0 0 0 0 0 0 0 0 0 0 0 0 0 0 0 0 0 0 0 0 0 0 0 0 0 0 0 0 
0 0 0 0 0 0 0 0 0 0 0 0 0 0 0 0 0 0 0 0 0 0 0 0 0 0 0 0 0 0 0 0 0 0 0 0 0 0 0 0 0 0 0 0 0 0 0 0 0 0 0 0 0 0 0 0 0 0 0 0 0 0 0 0 0 0 0 0 0 0 0 0 0 0 0 0 0 0 0 0 0 0 0 0 0 0 0 0 0 0 
0 0 0 0 0 0 0 0 0 0 0 0 0 0 0 0 0 0 0 0 0 0 0 0 0 0 0 0 0 0 0 0 0 0 0 0 0 0 0 0 0 0 0 0 0 0 0 0 0 0 0 0 0 0 0 0 0 0 0 0 0 0 0 0 0 0 0 0 0 0 0 0 0 0 0 0 0 0 0 0 0 0 0 0 0 0 0 0 0 0 
0 0 0 0 0 0 0 0 0 0 0 0 0 0 0 0 0 0 0 0 0 0 0 0 0 0 0 0 0 0 0 0 0 0 0 0 0 0 0 0 0 0 0 0 0 0 0 0 0 0 0 0 0 0 0 0 0 0 0 0 0 0 0 0 0 0 0 0 0 0 0 0 0 0 0 0 0 0 0 0 0 0 0 0 0 0 0 0 0 0 
0 0 0 0 0 0 0 0 0 0 0 0 0 0 0 0 0 0 0 0 0 0 0 0 0 0 0 0 0 0 0 0 0 0 0 0 0 0 0 0 0 0 0 0 0 0 0 0 0 0 0 0 0 0 0 0 0 0 0 0 0 0 0 0 0 0 0 0 0 0 0 0 0 0 0 0 0 0 0 0 0 0 0 0 0 0 0 0 0 0 
0 0 0 0 0 0 0 0 0 0 0 0 0 0 0 0 0 0 0 0 0 0 0 0 0 0 0 0 0 0 0 0 0 0 0 0 0 0 0 0 0 0 0 0 0 0 0 0 0 0 0 0 0 0 0 0 0 0 0 0 0 0 0 0 0 0 0 0 0 0 0 0 0 0 0 0 0 0 0 0 0 0 0 0 0 0 0 0 0 0 
0 0 0 0 0 0 0 0 0 0 0 0 0 0 0 0 0 0 0 0 0 0 0 0 0 0 0 0 0 0 0 0 0 0 0 0 0 0 0 0 0 0 0 0 0 0 0 0 0 0 0 0 0 0 0 0 0 0 0 0 0 0 0 0 0 0 0 0 0 0 0 0 0 0 0 0 0 0 0 0 0 0 0 0 0 0 0 0 0 0 
0 0 0 0 0 0 0 0 0 0 0 0 0 0 0 0 0 0 0 0 0 0 0 0 0 0 0 0 0 0 0 0 0 0 0 0 0 0 0 0 0 0 0 0 0 0 0 0 0 0 0 0 0 0 0 0 0 0 0 0 0 0 0 0 0 0 0 0 0 0 0 0 0 0 0 0 0 0 0 0 0 0 0 0 0 0 0 0 0 0 
0 0 0 0 0 0 0 0 0 0 0 0 0 0 0 0 0 0 0 0 0 0 0 0 0 0 0 0 0 0 0 0 0 0 0 0 0 0 0 0 0 0 0 0 0 0 0 0 0 0 0 0 0 0 0 0 0 0 0 0 0 0 0 0 0 0 0 0 0 0 0 0 0 0 0 0 0 0 0 0 0 0 0 0 0 0 0 0 0 0 
0 0 0 0 0 0 0 0 0 0 0 0 0 0 0 0 0 0 0 0 0 0 0 0 0 0 0 0 0 0 0 0 0 0 0 0 0 0 0 0 0 0 0 0 0 0 0 0 0 0 0 0 0 0 0 0 0 0 0 0 0 0 0 0 0 0 0 0 0 0 0 0 0 0 0 0 0 0 0 0 0 0 0 0 0 0 0 0 0 0 
0 0 0 0 0 0 0 0 0 0 0 0 0 0 0 0 0 0 0 0 0 0 0 0 0 0 0 0 0 0 0 0 0 0 0 0 0 0 0 0 0 0 0 0 0 0 0 0 0 0 0 0 0 0 0 0 0 0 0 0 0 0 0 0 0 0 0 0 0 0 0 0 0 0 0 0 0 0 0 0 0 0 0 0 0 0 0 0 0 0 
0 0 0 0 0 0 0 0 0 0 0 0 0 0 0 0 0 0 0 0 0 0 0 0 0 0 0 0 0 0 0 0 0 0 0 0 0 0 0 0 0 0 0 0 0 0 0 0 0 0 0 0 0 0 0 0 0 0 0 0 0 0 0 0 0 0 0 0 0 0 0 0 0 0 0 0 0 0 0 0 0 0 0 0 0 0 0 0 0 0 
0 0 0 0 0 0 0 0 0 0 0 0 0 0 0 0 0 0 0 0 0 0 0 0 0 0 0 0 0 0 0 0 0 0 0 0 0 0 0 0 0 0 0 0 0 0 0 0 0 0 0 0 0 0 0 0 0 0 0 0 0 0 0 0 0 0 0 0 0 0 0 0 0 0 0 0 0 0 0 0 0 0 0 0 0 0 0 0 0 0 
0 0 0 0 0 0 0 0 0 0 0 0 0 0 0 0 0 0 0 0 0 0 0 0 0 0 0 0 0 0 0 0 0 0 0 0 0 0 0 0 0 0 0 0 0 0 0 0 0 0 0 0 0 0 0 0 0 0 0 0 0 0 0 0 0 0 0 0 0 0 0 0 0 0 0 0 0 0 0 0 0 0 0 0 0 0 0 0 0 0 
0 0 0 0 0 0 0 0 0 0 0 0 0 0 0 0 0 0 0 0 0 0 0 0 0 0 0 0 0 0 0 0 0 0 0 0 0 0 0 0 0 0 0 0 0 0 0 0 0 0 0 0 0 0 0 0 0 0 0 0 0 0 0 0 0 0 0 0 0 0 0 0 0 0 0 0 0 0 0 0 0 0 0 0 0 0 0 0 0 0 
0 0 0 0 0 0 0 0 0 0 0 0 0 0 0 0 0 0 0 0 0 0 0 0 0 0 0 0 0 0 0 0 0 0 0 0 0 0 0 0 0 0 0 0 0 0 0 0 0 0 0 0 0 0 0 0 0 0 0 0 0 0 0 0 0 0 0 0 0 0 0 0 0 0 0 0 0 0 0 0 0 0 0 0 0 0 0 0 0 0 
# Events [psd0_dat/psd0.dat] N: 
0 0 0 0 0 0 0 0 0 0 0 0 0 0 0 0 0 0 0 0 0 0 0 0 0 0 0 0 0 0 0 0 0 0 0 0 0 0 0 0 0 0 0 0 0 0 0 0 0 0 0 0 0 0 0 0 0 0 0 0 0 0 0 0 0 0 0 0 0 0 0 0 0 0 0 0 0 0 0 0 0 0 0 0 0 0 0 0 0 0 
0 0 0 0 0 0 0 0 0 0 0 0 0 0 0 0 0 0 0 0 0 0 0 0 0 0 0 0 0 0 0 0 0 0 0 0 0 0 0 0 0 0 0 0 0 0 0 0 0 0 0 0 0 0 0 0 0 0 0 0 0 0 0 0 0 0 0 0 0 0 0 0 0 0 0 0 0 0 0 0 0 0 0 0 0 0 0 0 0 0 
0 0 0 0 0 0 0 0 0 0 0 0 0 0 0 0 0 0 0 0 0 0 0 0 0 0 0 0 0 0 0 0 0 0 0 0 0 0 0 0 0 0 0 0 0 0 0 0 0 0 0 0 0 0 0 0 0 0 0 0 0 0 0 0 0 0 0 0 0 0 0 0 0 0 0 0 0 0 0 0 0 0 0 0 0 0 0 0 0 0 
0 0 0 0 0 0 0 0 0 0 0 0 0 0 0 0 0 0 0 0 0 0 0 0 0 0 0 0 0 0 0 0 0 0 0 0 0 0 0 0 0 0 0 0 0 0 0 0 0 0 0 0 0 0 0 0 0 0 0 0 0 0 0 0 0 0 0 0 0 0 0 0 0 0 0 0 0 0 0 0 0 0 0 0 0 0 0 0 0 0 
0 0 0 0 0 0 0 0 0 0 0 0 0 0 0 0 0 0 0 0 0 0 0 0 0 0 0 0 0 0 0 0 0 0 0 0 0 0 0 0 0 0 0 0 0 0 0 0 0 0 0 0 0 0 0 0 0 0 0 0 0 0 0 0 0 0 0 0 0 0 0 0 0 0 0 0 0 0 0 0 0 0 0 0 0 0 0 0 0 0 
0 0 0 0 0 0 0 0 0 0 0 0 0 0 0 0 0 0 0 0 0 0 0 0 0 0 0 0 0 0 0 0 0 0 0 0 0 0 0 0 0 0 0 0 0 0 0 0 0 0 0 0 0 0 0 0 0 0 0 0 0 0 0 0 0 0 0 0 0 0 0 0 0 0 0 0 0 0 0 0 0 0 0 0 0 0 0 0 0 0 
0 0 0 0 0 0 0 0 0 0 0 0 0 0 0 0 0 0 0 0 0 0 0 0 0 0 0 0 0 0 0 0 0 0 0 0 0 0 0 0 0 0 0 0 0 0 0 0 0 0 0 0 0 0 0 0 0 0 0 0 0 0 0 0 0 0 0 0 0 0 0 0 0 0 0 0 0 0 0 0 0 0 0 0 0 0 0 0 0 0 
0 0 0 0 0 0 0 0 0 0 0 0 0 0 0 0 0 0 0 0 0 0 0 0 0 0 0 0 0 0 0 0 0 0 0 0 0 0 0 0 0 0 0 0 0 0 0 0 0 0 0 0 0 0 0 0 0 0 0 0 0 0 0 0 0 0 0 0 0 0 0 0 0 0 0 0 0 0 0 0 0 0 0 0 0 0 0 0 0 0 
0 0 0 0 0 0 0 0 0 0 0 0 0 0 0 0 0 0 0 0 0 0 0 0 0 0 0 0 0 0 0 0 0 0 0 0 0 0 0 0 0 0 0 0 0 0 0 0 0 0 0 0 0 0 0 0 0 0 0 0 0 0 0 0 0 0 0 0 0 0 0 0 0 0 0 0 0 0 0 0 0 0 0 0 0 0 0 0 0 0 
0 0 0 0 0 0 0 0 0 0 0 0 0 0 0 0 0 0 0 0 0 0 0 0 0 0 0 0 0 0 0 0 0 0 0 0 0 0 0 0 0 0 0 0 0 0 0 0 0 0 0 0 0 0 0 0 0 0 0 0 0 0 0 0 0 0 0 0 0 0 0 0 0 0 0 0 0 0 0 0 0 0 0 0 0 0 0 0 0 0 
0 0 0 0 0 0 0 0 0 0 0 0 0 0 0 0 0 0 0 0 0 0 0 0 0 0 0 0 0 0 0 0 0 0 0 0 0 0 0 0 0 0 0 0 0 0 0 0 0 0 0 0 0 0 0 0 0 0 0 0 0 0 0 0 0 0 0 0 0 0 0 0 0 0 0 0 0 0 0 0 0 0 0 0 0 0 0 0 0 0 
0 0 0 0 0 0 0 0 0 0 0 0 0 0 0 0 0 0 0 0 0 0 0 0 0 0 0 0 0 0 0 0 0 0 0 0 0 0 0 0 0 0 0 0 0 0 0 0 0 0 0 0 0 0 0 0 0 0 0 0 0 0 0 0 0 0 0 0 0 0 0 0 0 0 0 0 0 0 0 0 0 0 0 0 0 0 0 0 0 0 
0 0 0 0 0 0 0 0 0 0 0 0 0 0 0 0 0 0 0 0 0 0 0 0 0 0 0 0 0 0 0 0 0 0 0 0 0 0 0 0 0 0 0 0 0 0 0 0 0 0 0 0 0 0 0 0 0 0 0 0 0 0 0 0 0 0 0 0 0 0 0 0 0 0 0 0 0 0 0 0 0 0 0 0 0 0 0 0 0 0 
0 0 0 0 0 0 0 0 0 0 0 0 0 0 0 0 0 0 0 0 0 0 0 0 0 0 0 0 0 0 0 0 0 0 0 0 0 0 0 0 0 0 0 0 0 0 0 0 0 0 0 0 0 0 0 0 0 0 0 0 0 0 0 0 0 0 0 0 0 0 0 0 0 0 0 0 0 0 0 0 0 0 0 0 0 0 0 0 0 0 
0 0 0 0 0 0 0 0 0 0 0 0 0 0 0 0 0 0 0 0 0 0 0 0 0 0 0 0 0 0 0 0 0 0 0 0 0 0 0 0 0 0 0 0 0 0 0 0 0 0 0 0 0 0 0 0 0 0 0 0 0 0 0 0 0 0 0 0 0 0 0 0 0 0 0 0 0 0 0 0 0 0 0 0 0 0 0 0 0 0 
0 0 0 0 0 0 0 0 0 0 0 0 0 0 0 0 0 0 0 0 0 0 0 0 0 0 0 0 0 0 0 0 0 0 0 0 0 0 0 0 0 0 0 0 0 0 0 0 0 0 0 0 0 0 0 0 0 0 0 0 0 0 0 0 0 0 0 0 0 0 0 0 0 0 0 0 0 0 0 0 0 0 0 0 0 0 0 0 0 0 
0 0 0 0 0 0 0 0 0 0 0 0 0 0 0 0 0 0 0 0 0 0 0 0 0 0 0 0 0 0 0 0 0 0 0 0 0 0 0 0 0 0 0 0 0 0 0 0 0 0 0 0 0 0 0 0 0 0 0 0 0 0 0 0 0 0 0 0 0 0 0 0 0 0 0 0 0 0 0 0 0 0 0 0 0 0 0 0 0 0 
0 0 0 0 0 0 0 0 0 0 0 0 0 0 0 0 0 0 0 0 0 0 0 0 0 0 0 0 0 0 0 0 0 0 0 0 0 0 0 0 0 0 0 0 0 0 0 0 0 0 0 0 0 0 0 0 0 0 0 0 0 0 0 0 0 0 0 0 0 0 0 0 0 0 0 0 0 0 0 0 0 0 0 0 0 0 0 0 0 0 
0 0 0 0 0 0 0 0 0 0 0 0 0 0 0 0 0 0 0 0 0 0 0 0 0 0 0 0 0 0 0 0 0 0 0 0 0 0 0 0 0 0 0 0 0 0 0 0 0 0 0 0 0 0 0 0 0 0 0 0 0 0 0 0 0 0 0 0 0 0 0 0 0 0 0 0 0 0 0 0 0 0 0 0 0 0 0 0 0 0 
0 0 0 0 0 0 0 0 0 0 0 0 0 0 0 0 0 0 0 0 0 0 0 0 0 0 0 0 0 0 0 0 0 0 0 0 0 0 0 0 0 0 0 0 0 0 0 0 0 0 0 0 0 0 0 0 0 0 0 0 0 0 0 0 0 0 0 0 0 0 0 0 0 0 0 0 0 0 0 0 0 0 0 0 0 0 0 0 0 0 
0 0 0 0 0 0 0 0 0 0 0 0 0 0 0 0 0 0 0 0 0 0 0 0 0 0 0 0 0 0 0 0 0 0 0 0 0 0 0 0 0 0 0 0 0 0 0 0 0 0 0 0 0 0 0 0 0 0 0 0 0 0 0 0 0 0 0 0 0 0 0 0 0 0 0 0 0 0 0 0 0 0 0 0 0 0 0 0 0 0 
0 0 0 0 0 0 0 0 0 0 0 0 0 0 0 0 0 0 0 0 0 0 0 0 0 0 0 0 0 0 0 0 0 0 0 0 0 0 0 0 0 0 0 0 0 0 0 0 0 0 0 0 0 0 0 0 0 0 0 0 0 0 0 0 0 0 0 0 0 0 0 0 0 0 0 0 0 0 0 0 0 0 0 0 0 0 0 0 0 0 
0 0 0 0 0 0 0 0 0 0 0 0 0 0 0 0 0 0 0 0 0 0 0 0 0 0 0 0 0 0 0 0 0 0 0 0 0 0 0 0 0 0 0 0 0 0 0 0 0 0 0 0 0 0 0 0 0 0 0 0 0 0 0 0 0 0 0 0 0 0 0 0 0 0 0 0 0 0 0 0 0 0 0 0 0 0 0 0 0 0 
0 0 0 0 0 0 0 0 0 0 0 0 0 0 0 0 0 0 0 0 0 0 0 0 0 0 0 0 0 0 0 0 0 0 0 0 0 0 0 0 0 0 0 0 0 0 0 0 0 0 0 0 0 0 0 0 0 0 0 0 0 0 0 0 0 0 0 0 0 0 0 0 0 0 0 0 0 0 0 0 0 0 0 0 0 0 0 0 0 0 
0 0 0 0 0 0 0 0 0 0 0 0 0 0 0 0 0 0 0 0 0 0 0 0 0 0 0 0 0 0 0 0 1 0 0 0 0 0 0 0 0 0 0 1 0 0 0 0 0 0 0 1 1 0 0 0 0 0 0 1 0 0 0 0 0 0 0 0 0 0 0 0 0 0 0 0 0 0 0 0 0 0 0 0 0 0 0 0 0 0 
0 0 0 0 0 0 0 0 0 0 0 0 0 0 0 0 0 0 0 0 0 0 0 1 0 0 0 0 0 1 0 0 0 0 0 0 0 0 1 1 0 0 1 0 0 0 0 0 0 0 1 0 0 0 0 0 0 0 0 1 0 0 0 0 0 0 0 0 0 0 0 0 0 0 0 0 0 0 0 0 0 0 0 0 0 0 0 0 0 0 
0 0 0 0 0 0 0 0 0 0 0 0 0 0 0 0 0 0 0 0 0 0 0 0 0 2 0 0 0 2 0 0 0 1 1 0 2 1 0 0 1 2 1 0 1 2 1 0 2 0 0 1 1 2 0 0 0 1 1 0 0 0 0 0 0 0 0 0 0 0 0 0 0 0 0 0 0 0 0 0 0 0 0 0 0 0 0 0 0 0 
0 0 0 0 0 0 0 0 0 0 0 0 0 0 0 0 0 0 0 0 0 0 0 0 0 0 0 0 0 0 1 0 0 1 2 1 2 4 3 0 2 1 2 1 2 1 2 2 1 3 0 1 2 2 0 1 1 1 1 1 2 0 0 0 0 0 0 0 0 0 0 0 0 0 0 0 0 0 0 0 0 0 0 0 0 0 0 0 0 0 
0 0 0 0 0 0 0 0 0 0 0 0 0 0 0 0 0 0 0 0 0 0 0 0 0 1 1 1 0 1 2 0 3 1 4 2 4 3 3 1 5 5 4 3 4 4 5 4 6 4 6 5 3 2 4 2 2 4 1 1 1 0 1 0 0 0 1 0 0 1 0 0 0 0 0 0 1 0 0 0 0 0 0 0 0 0 0 0 0 0 
0 0 0 0 0 0 0 0 0 0 0 0 0 0 0 0 1 0 0 0 0 2 0 0 0 0 2 1 2 2 5 3 2 2 9 8 6 9 10 5 8 10 11 8 10 10 19 9 9 12 8 7 3 5 6 1 5 4 0 3 4 2 0 0 1 0 0 0 0 0 0 0 0 0 0 0 0 0 0 0 0 0 0 0 0 0 0 0 0 0 
0 0 0 0 0 0 0 0 0 0 0 0 0 0 0 0 0 0 0 0 0 1 2 2 1 1 2 5 6 3 4 7 14 4 6 9 18 19 21 22 20 21 24 21 24 21 25 27 22 15 9 22 17 20 10 12 11 13 9 3 7 3 5 2 1 3 1 0 0 1 0 1 1 0 0 0 0 0 0 0 0 0 0 0 0 0 0 0 0 0 
0 0 0 0 0 0 0 0 0 0 0 0 0 0 0 1 0 0 1 2 1 1 1 1 5 5 2 5 4 11 13 19 15 20 14 20 22 35 29 31 30 35 44 45 39 43 50 32 40 38 31 27 25 22 22 16 17 15 13 7 12 4 6 6 5 2 2 1 0 3 1 0 1 0 0 0 0 0 0 0 0 0 0 0 0 0 0 0 0 0 
0 0 0 0 0 0 0 0 0 0 0 0 0 0 1 2 0 1 2 0 0 1 9 3 10 13 7 11 11 19 17 25 28 33 45 41 50 64 55 73 71 99 79 93 76 80 70 77 80 65 55 70 59 58 41 31 31 39 22 20 11 19 14 6 11 5 4 1 1 1 2 0 0 0 0 1 0 0 1 0 0 0 0 0 0 0 0 0 0 0 
0 0 0 0 0 0 0 1 1 0 0 0 1 0 0 1 2 0 2 3 4 6 6 5 16 23 16 28 29 37 42 48 53 65 62 85 93 96 122 110 127 133 124 149 138 178 162 119 149 129 116 111 115 92 80 67 62 75 43 33 27 14 18 7 12 10 3 9 4 7 3 4 1 3 1 1 0 0 0 0 0 0 0 0 0 0 0 0 0 0 
0 0 0 0 0 0 0 0 0 0 0 1 1 1 0 0 0 3 2 6 6 12 4 15 19 14 37 40 42 56 61 80 90 98 113 145 163 175 221 228 242 245 247 258 261 278 243 218 252 222 250 201 154 168 139 92 123 101 92 70 46 44 33 31 26 14 10 10 9 4 2 1 0 1 3 0 0 0 0 0 0 0 0 0 0 0 0 0 0 0 
0 0 0 0 0 0 1 0 0 0 0 1 0 1 0 2 1 2 5 7 12 13 20 23 31 37 45 62 86 96 119 158 161 170 224 236 307 327 297 335 373 387 415 438 411 408 413 438 408 361 350 314 291 280 214 205 211 179 158 128 109 79 63 40 37 29 30 21 13 14 2 7 3 3 2 1 2 0 0 0 0 0 0 0 0 0 0 0 0 0 
0 0 0 0 0 0 0 0 1 0 1 0 1 0 0 5 5 5 10 11 15 26 26 36 44 69 90 113 132 142 167 175 267 288 309 404 427 463 508 597 611 546 644 664 713 671 617 595 612 572 545 503 460 418 368 334 308 235 219 174 137 103 84 72 54 39 41 23 23 10 14 11 2 4 2 1 2 1 1 1 1 0 0 0 0 0 0 0 0 0 
0 0 0 0 0 0 0 0 0 0 1 0 0 1 4 7 5 5 18 15 18 42 32 55 60 84 111 140 168 232 253 331 330 429 461 549 627 716 782 836 851 934 988 981 954 954 998 929 905 870 772 749 708 607 518 508 452 376 327 290 217 174 143 103 83 78 60 38 35 26 22 16 13 4 3 2 5 3 0 1 0 0 0 1 0 0 0 0 0 0 
0 0 0 0 0 0 0 0 0 0 3 1 5 4 4 8 11 9 13 28 26 54 48 78 103 130 169 230 262 288 359 428 546 609 725 791 820 971 1019 1136 1215 1285 1402 1338 1377 1388 1338 1345 1271 1209 1098 1064 1004 882 788 726 562 511 441 393 334 269 190 152 147 101 84 43 38 20 21 19 12 10 5 7 3 3 0 1 0 0 1 0 0 0 0 0 0 0 
0 0 0 0 0 0 0 0 0 0 2 3 6 3 4 11 17 15 20 38 47 41 71 99 136 164 221 269 339 429 513 588 701 816 956 1059 1245 1333 1471 1537 1619 1734 1811 1859 1888 1904 1801 1803 1752 1691 1563 1403 1308 1184 1034 904 781 722 644 499 458 363 288 227 169 134 100 79 42 47 33 17 15 15 6 6 5 0 1 0 0 0 0 0 0 0 0 0 0 0 
0 0 0 0 0 0 0 0 4 1 1 3 5 4 8 11 21 20 33 44 57 91 107 145 183 236 280 399 416 507 611 775 931 1057 1176 1362 1556 1623 1862 1923 2053 2183 2283 2480 2414 2422 2370 2334 2260 2103 1974 1900 1666 1492 1344 1251 1039 958 752 629 476 444 361 279 246 165 150 93 75 59 37 27 21 17 15 11 4 5 5 3 0 0 0 0 0 0 0 0 0 0 
0 0 0 1 0 0 0 0 1 5 2 6 1 3 8 13 16 19 35 48 58 96 117 174 211 278 338 490 493 691 797 964 1129 1313 1373 1702 1852 2131 2299 2334 2622 2745 2779 2901 2888 2924 2873 2871 2706 2570 2417 2196 2095 1749 1659 1530 1297 1098 902 812 660 541 425 370 274 208 150 116 96 69 52 37 32 21 11 10 7 5 1 2 1 0 0 0 1 0 0 0 0 0 
0 0 1 0 0 0 0 1 0 1 1 2 7 5 15 16 19 38 35 59 84 105 145 203 253 314 394 535 609 729 901 1086 1326 1500 1720 1986 2136 2364 2583 2810 2974 3182 3265 3321 3399 3392 3303 3221 3044 2932 2899 2640 2360 2113 1992 1683 1525 1259 1078 885 742 646 484 407 337 250 198 176 118 84 65 45 39 19 16 8 9 8 7 1 1 0 0 0 0 0 0 1 0 0 
0 0 0 0 1 0 0 0 1 1 1 5 2 7 9 18 29 31 53 63 76 122 156 213 288 345 431 535 688 804 1019 1167 1432 1633 1858 2198 2367 2631 2884 3116 3221 3519 3611 3620 3749 3749 3602 3610 3373 3380 3255 2939 2592 2406 2144 1828 1641 1395 1201 1007 837 694 568 441 359 280 211 161 114 90 68 41 49 18 22 16 6 6 1 3 2 1 1 0 1 0 0 0 0 0 
0 1 0 0 0 0 0 0 2 0 1 0 5 6 7 15 24 35 51 70 93 117 160 198 286 397 472 574 743 871 1059 1259 1499 1698 1979 2210 2524 2834 3040 3220 3462 3664 3923 3921 3951 3941 3774 3798 3565 3457 3304 3023 2755 2526 2299 1880 1787 1462 1242 998 903 715 575 458 376 302 207 172 150 102 68 46 40 26 11 17 8 5 1 0 1 2 0 0 0 0 0 0 0 0 
0 0 0 0 0 0 0 1 0 1 5 1 7 8 12 27 18 40 58 52 94 136 157 243 311 368 467 584 731 826 1051 1185 1512 1784 1929 2155 2512 2633 2926 3242 3477 3595 3891 3817 3933 4079 3857 3875 3696 3459 3354 2986 2762 2473 2237 1954 1724 1487 1246 1097 846 706 565 471 381 274 227 164 117 79 66 56 27 26 18 12 7 8 2 3 1 0 0 0 0 0 0 0 1 0 
0 0 0 0 0 0 0 0 0 2 1 3 4 11 12 16 22 35 39 72 95 127 152 190 285 370 405 549 728 787 1006 1218 1383 1696 1893 2170 2306 2589 2940 3028 3340 3462 3662 3664 3758 3748 3726 3618 3604 3197 3071 2874 2629 2443 2113 1881 1634 1442 1235 1016 820 665 544 471 358 265 195 156 122 88 70 40 39 22 18 15 4 3 3 3 3 1 0 0 0 0 0 0 0 0 
0 0 0 0 0 0 0 1 2 1 4 1 3 4 11 15 17 31 44 53 70 114 127 206 244 299 397 499 621 757 893 1088 1248 1502 1741 1938 2149 2350 2564 2779 2965 3135 3211 3394 3303 3472 3325 3183 3159 2964 2777 2547 2482 2112 1950 1774 1494 1285 1091 956 758 652 534 395 332 240 179 150 108 80 56 38 23 19 18 9 4 4 2 2 0 0 1 0 0 0 0 0 0 0 
0 0 0 0 0 0 0 0 1 0 0 3 5 8 12 15 21 24 38 60 78 84 131 146 187 243 347 428 540 656 795 939 1096 1271 1427 1719 1823 2036 2210 2463 2652 2625 2756 2923 2959 2997 2902 2836 2755 2479 2395 2252 2040 1887 1602 1458 1318 1133 903 811 647 557 417 332 286 217 157 119 91 76 60 35 23 19 7 8 9 3 2 2 0 2 1 1 0 0 0 0 0 0 
0 0 0 0 0 0 1 0 0 1 2 1 4 8 7 8 16 30 27 57 66 82 94 132 163 232 263 368 445 550 640 772 884 1098 1208 1335 1547 1654 1842 1971 2061 2255 2361 2337 2456 2392 2342 2339 2199 2182 1947 1865 1680 1569 1371 1141 990 929 758 687 534 428 356 294 212 177 123 116 53 55 30 32 17 12 6 11 6 5 0 2 1 0 0 0 0 1 0 0 0 0 
0 0 0 0 0 0 0 0 0 1 2 2 0 2 4 8 9 22 25 32 40 62 85 107 155 170 209 279 328 446 546 552 702 817 915 1093 1193 1320 1447 1595 1712 1759 1799 1878 1825 1918 1847 1820 1689 1611 1579 1432 1288 1157 1122 920 809 712 588 502 417 323 277 220 173 121 98 69 60 49 34 19 27 11 2 3 4 4 0 6 0 0 0 0 0 0 0 0 0 0 
0 0 0 0 0 1 0 1 0 0 3 1 3 2 7 8 6 17 18 16 34 51 59 80 97 125 181 194 237 327 381 435 538 583 699 772 900 964 1057 1139 1186 1262 1299 1380 1426 1353 1326 1326 1248 1232 1136 1095 1018 928 805 763 640 546 407 379 318 273 196 159 129 100 75 55 59 24 27 15 13 6 5 7 4 4 2 1 0 0 0 1 0 0 0 0 0 0 
0 0 0 0 0 0 1 0 0 1 0 0 1 1 6 7 5 8 23 20 23 22 50 62 69 76 120 144 193 219 231 316 378 417 451 589 632 679 788 826 867 881 986 1026 1050 916 917 967 892 816 775 776 687 624 543 508 398 395 337 287 246 183 145 120 104 73 58 43 40 29 11 20 8 8 3 2 3 0 2 1 0 0 0 0 0 0 0 0 0 0 
0 0 0 0 0 0 0 1 0 0 1 0 5 3 2 3 4 6 2 8 14 18 35 43 47 55 89 113 115 149 184 191 229 262 331 361 431 523 507 559 615 596 614 601 629 660 648 617 622 576 531 503 442 397 388 355 276 234 208 181 147 127 103 87 52 51 30 44 21 12 19 8 8 2 4 3 0 0 0 0 0 0 0 0 0 0 0 0 0 0 
0 0 0 0 0 0 0 0 0 1 0 0 0 1 3 2 2 5 7 11 9 17 16 16 27 38 51 63 79 97 121 145 153 190 215 254 244 269 326 336 359 390 387 425 472 437 421 419 337 322 358 305 272 258 256 216 195 158 155 95 91 61 68 60 38 28 23 16 17 11 6 4 4 1 0 0 1 1 1 1 0 0 0 0 0 0 0 0 0 0 
0 0 0 0 0 0 0 0 0 0 0 1 1 0 1 2 0 5 1 2 3 13 10 21 17 31 26 39 38 52 59 75 102 102 136 128 157 198 204 215 242 243 235 262 267 277 240 239 240 228 227 176 199 166 158 112 102 87 74 74 55 49 35 37 29 18 20 13 7 5 6 6 1 2 2 0 0 0 0 0 0 0 0 0 0 0 0 0 0 0 
0 0 0 0 0 0 0 0 0 0 0 0 0 0 1 1 0 2 4 1 2 4 8 8 9 11 29 23 25 39 36 47 54 63 78 73 108 113 122 123 106 131 153 152 138 154 149 137 124 149 135 94 108 88 89 84 55 59 46 48 36 29 18 20 14 13 6 9 7 3 0 3 1 1 3 0 0 0 0 0 0 0 0 0 0 0 0 0 0 0 
0 0 0 0 0 0 0 0 0 0 0 0 0 0 0 0 1 0 1 0 2 1 3 4 5 4 13 12 8 16 21 19 31 32 34 37 42 60 62 72 76 81 94 87 86 75 81 87 91 62 76 77 54 56 38 51 42 31 26 16 28 16 17 17 7 3 5 6 2 0 1 1 1 0 0 0 0 1 1 0 0 0 0 0 0 0 0 0 0 0 
0 0 0 0 0 0 0 0 0 0 0 0 0 0 0 0 0 1 0 1 0 0 0 4 3 5 4 6 5 8 8 16 17 11 13 18 22 38 30 43 40 38 47 36 42 51 40 45 31 31 37 33 40 18 22 17 23 15 11 17 16 5 12 5 2 4 1 0 2 0 0 0 1 1 0 0 0 0 0 0 0 0 0 0 0 0 0 0 0 0 
0 0 0 0 0 0 0 0 0 0 0 0 0 0 0 0 0 0 0 0 0 1 1 1 1 1 4 3 3 4 7 9 6 6 14 15 12 12 18 11 22 22 24 18 15 26 23 24 16 19 21 15 14 17 14 14 8 3 9 7 4 3 4 3 4 3 1 1 0 1 1 0 0 0 0 0 0 0 0 0 0 0 0 0 0 0 0 0 0 0 
0 0 0 0 0 0 0 0 0 0 0 0 0 0 0 0 0 0 0 1 0 0 0 2 0 1 2 1 2 2 0 5 5 6 7 8 3 8 11 10 11 10 8 13 16 10 13 9 11 5 7 7 6 8 10 3 4 3 5 4 1 3 1 0 1 4 0 0 1 0 0 0 0 0 0 0 0 0 0 0 0 0 0 0 0 0 0 0 0 0 
0 0 0 0 0 0 0 0 0 0 0 0 0 0 0 0 0 0 0 0 0 0 0 0 0 0 1 0 0 0 0 2 2 3 1 4 6 1 4 7 3 2 3 5 3 6 2 4 3 1 4 3 1 5 1 2 3 1 2 0 0 0 0 1 1 1 0 0 0 0 0 0 0 0 0 0 0 0 0 0 0 0 0 0 0 0 0 0 0 0 
0 0 0 0 0 0 0 0 0 0 0 0 0 0 0 0 0 0 0 0 0 0 0 0 0 0 1 1 0 1 0 1 1 0 1 1 0 5 1 1 0 1 1 5 0 1 1 6 0 3 1 1 1 3 1 1 1 3 0 0 0 0 0 0 1 0 0 0 0 0 0 0 0 0 0 0 0 0 0 0 0 0 0 0 0 0 0 0 0 0 
0 0 0 0 0 0 0 0 0 0 0 0 0 0 0 0 0 0 0 0 0 0 0 0 0 0 0 0 1 0 0 0 1 0 0 0 0 0 1 1 2 0 2 0 1 0 4 1 0 1 1 1 0 0 0 0 1 0 0 1 0 0 0 0 0 0 0 0 0 0 0 0 0 0 0 0 0 0 0 0 0 0 0 0 0 0 0 0 0 0 
0 0 0 0 0 0 0 0 0 0 0 0 0 0 0 0 0 0 0 0 0 0 0 0 0 0 0 0 0 0 0 0 0 0 0 0 0 0 0 0 0 0 0 1 0 1 0 0 0 1 1 0 1 0 2 0 0 0 0 0 0 0 0 0 0 1 0 0 0 0 0 0 0 0 0 0 0 0 0 0 0 0 0 0 0 0 0 0 0 0 
0 0 0 0 0 0 0 0 0 0 0 0 0 0 0 0 0 0 0 0 0 0 0 0 0 0 0 0 0 0 0 0 0 0 0 0 0 0 0 0 0 0 0 0 0 0 1 0 0 0 0 0 1 1 0 0 0 0 0 0 0 0 0 0 0 0 0 0 0 0 0 0 0 0 0 0 0 0 0 0 0 0 0 0 0 0 0 0 0 0 
0 0 0 0 0 0 0 0 0 0 0 0 0 0 0 0 0 0 0 0 0 0 0 0 0 0 0 0 0 0 0 0 0 0 0 0 0 0 0 0 0 0 0 0 0 0 0 0 0 0 0 0 0 0 0 0 0 0 0 0 0 0 0 0 0 0 0 0 0 0 0 0 0 0 0 0 0 0 0 0 0 0 0 0 0 0 0 0 0 0 
0 0 0 0 0 0 0 0 0 0 0 0 0 0 0 0 0 0 0 0 0 0 0 0 0 0 0 0 0 0 0 0 0 0 0 0 0 0 0 0 0 0 0 0 0 0 0 0 0 0 0 0 0 0 0 0 0 0 0 0 0 0 0 0 0 0 0 0 0 0 0 0 0 0 0 0 0 0 0 0 0 0 0 0 0 0 0 0 0 0 
0 0 0 0 0 0 0 0 0 0 0 0 0 0 0 0 0 0 0 0 0 0 0 0 0 0 0 0 0 0 0 0 0 0 0 0 0 0 0 0 0 0 0 0 0 0 0 0 0 0 0 0 0 0 0 0 0 0 0 0 0 0 0 0 0 0 0 0 0 0 0 0 0 0 0 0 0 0 0 0 0 0 0 0 0 0 0 0 0 0 
0 0 0 0 0 0 0 0 0 0 0 0 0 0 0 0 0 0 0 0 0 0 0 0 0 0 0 0 0 0 0 0 0 0 0 0 0 0 0 0 0 0 0 0 0 0 0 0 0 0 0 0 0 0 0 0 0 0 0 0 0 0 0 0 0 0 0 0 0 0 0 0 0 0 0 0 0 0 0 0 0 0 0 0 0 0 0 0 0 0 
0 0 0 0 0 0 0 0 0 0 0 0 0 0 0 0 0 0 0 0 0 0 0 0 0 0 0 0 0 0 0 0 0 0 0 0 0 0 0 0 0 0 0 0 0 0 0 0 0 0 0 0 0 0 0 0 0 0 0 0 0 0 0 0 0 0 0 0 0 0 0 0 0 0 0 0 0 0 0 0 0 0 0 0 0 0 0 0 0 0 
0 0 0 0 0 0 0 0 0 0 0 0 0 0 0 0 0 0 0 0 0 0 0 0 0 0 0 0 0 0 0 0 0 0 0 0 0 0 0 0 0 0 0 0 0 0 0 0 0 0 0 0 0 0 0 0 0 0 0 0 0 0 0 0 0 0 0 0 0 0 0 0 0 0 0 0 0 0 0 0 0 0 0 0 0 0 0 0 0 0 
0 0 0 0 0 0 0 0 0 0 0 0 0 0 0 0 0 0 0 0 0 0 0 0 0 0 0 0 0 0 0 0 0 0 0 0 0 0 0 0 0 0 0 0 0 0 0 0 0 0 0 0 0 0 0 0 0 0 0 0 0 0 0 0 0 0 0 0 0 0 0 0 0 0 0 0 0 0 0 0 0 0 0 0 0 0 0 0 0 0 
0 0 0 0 0 0 0 0 0 0 0 0 0 0 0 0 0 0 0 0 0 0 0 0 0 0 0 0 0 0 0 0 0 0 0 0 0 0 0 0 0 0 0 0 0 0 0 0 0 0 0 0 0 0 0 0 0 0 0 0 0 0 0 0 0 0 0 0 0 0 0 0 0 0 0 0 0 0 0 0 0 0 0 0 0 0 0 0 0 0 
0 0 0 0 0 0 0 0 0 0 0 0 0 0 0 0 0 0 0 0 0 0 0 0 0 0 0 0 0 0 0 0 0 0 0 0 0 0 0 0 0 0 0 0 0 0 0 0 0 0 0 0 0 0 0 0 0 0 0 0 0 0 0 0 0 0 0 0 0 0 0 0 0 0 0 0 0 0 0 0 0 0 0 0 0 0 0 0 0 0 
0 0 0 0 0 0 0 0 0 0 0 0 0 0 0 0 0 0 0 0 0 0 0 0 0 0 0 0 0 0 0 0 0 0 0 0 0 0 0 0 0 0 0 0 0 0 0 0 0 0 0 0 0 0 0 0 0 0 0 0 0 0 0 0 0 0 0 0 0 0 0 0 0 0 0 0 0 0 0 0 0 0 0 0 0 0 0 0 0 0 
0 0 0 0 0 0 0 0 0 0 0 0 0 0 0 0 0 0 0 0 0 0 0 0 0 0 0 0 0 0 0 0 0 0 0 0 0 0 0 0 0 0 0 0 0 0 0 0 0 0 0 0 0 0 0 0 0 0 0 0 0 0 0 0 0 0 0 0 0 0 0 0 0 0 0 0 0 0 0 0 0 0 0 0 0 0 0 0 0 0 
0 0 0 0 0 0 0 0 0 0 0 0 0 0 0 0 0 0 0 0 0 0 0 0 0 0 0 0 0 0 0 0 0 0 0 0 0 0 0 0 0 0 0 0 0 0 0 0 0 0 0 0 0 0 0 0 0 0 0 0 0 0 0 0 0 0 0 0 0 0 0 0 0 0 0 0 0 0 0 0 0 0 0 0 0 0 0 0 0 0 
0 0 0 0 0 0 0 0 0 0 0 0 0 0 0 0 0 0 0 0 0 0 0 0 0 0 0 0 0 0 0 0 0 0 0 0 0 0 0 0 0 0 0 0 0 0 0 0 0 0 0 0 0 0 0 0 0 0 0 0 0 0 0 0 0 0 0 0 0 0 0 0 0 0 0 0 0 0 0 0 0 0 0 0 0 0 0 0 0 0 
0 0 0 0 0 0 0 0 0 0 0 0 0 0 0 0 0 0 0 0 0 0 0 0 0 0 0 0 0 0 0 0 0 0 0 0 0 0 0 0 0 0 0 0 0 0 0 0 0 0 0 0 0 0 0 0 0 0 0 0 0 0 0 0 0 0 0 0 0 0 0 0 0 0 0 0 0 0 0 0 0 0 0 0 0 0 0 0 0 0 
0 0 0 0 0 0 0 0 0 0 0 0 0 0 0 0 0 0 0 0 0 0 0 0 0 0 0 0 0 0 0 0 0 0 0 0 0 0 0 0 0 0 0 0 0 0 0 0 0 0 0 0 0 0 0 0 0 0 0 0 0 0 0 0 0 0 0 0 0 0 0 0 0 0 0 0 0 0 0 0 0 0 0 0 0 0 0 0 0 0 
0 0 0 0 0 0 0 0 0 0 0 0 0 0 0 0 0 0 0 0 0 0 0 0 0 0 0 0 0 0 0 0 0 0 0 0 0 0 0 0 0 0 0 0 0 0 0 0 0 0 0 0 0 0 0 0 0 0 0 0 0 0 0 0 0 0 0 0 0 0 0 0 0 0 0 0 0 0 0 0 0 0 0 0 0 0 0 0 0 0 
0 0 0 0 0 0 0 0 0 0 0 0 0 0 0 0 0 0 0 0 0 0 0 0 0 0 0 0 0 0 0 0 0 0 0 0 0 0 0 0 0 0 0 0 0 0 0 0 0 0 0 0 0 0 0 0 0 0 0 0 0 0 0 0 0 0 0 0 0 0 0 0 0 0 0 0 0 0 0 0 0 0 0 0 0 0 0 0 0 0 
0 0 0 0 0 0 0 0 0 0 0 0 0 0 0 0 0 0 0 0 0 0 0 0 0 0 0 0 0 0 0 0 0 0 0 0 0 0 0 0 0 0 0 0 0 0 0 0 0 0 0 0 0 0 0 0 0 0 0 0 0 0 0 0 0 0 0 0 0 0 0 0 0 0 0 0 0 0 0 0 0 0 0 0 0 0 0 0 0 0 
0 0 0 0 0 0 0 0 0 0 0 0 0 0 0 0 0 0 0 0 0 0 0 0 0 0 0 0 0 0 0 0 0 0 0 0 0 0 0 0 0 0 0 0 0 0 0 0 0 0 0 0 0 0 0 0 0 0 0 0 0 0 0 0 0 0 0 0 0 0 0 0 0 0 0 0 0 0 0 0 0 0 0 0 0 0 0 0 0 0 
0 0 0 0 0 0 0 0 0 0 0 0 0 0 0 0 0 0 0 0 0 0 0 0 0 0 0 0 0 0 0 0 0 0 0 0 0 0 0 0 0 0 0 0 0 0 0 0 0 0 0 0 0 0 0 0 0 0 0 0 0 0 0 0 0 0 0 0 0 0 0 0 0 0 0 0 0 0 0 0 0 0 0 0 0 0 0 0 0 0 
0 0 0 0 0 0 0 0 0 0 0 0 0 0 0 0 0 0 0 0 0 0 0 0 0 0 0 0 0 0 0 0 0 0 0 0 0 0 0 0 0 0 0 0 0 0 0 0 0 0 0 0 0 0 0 0 0 0 0 0 0 0 0 0 0 0 0 0 0 0 0 0 0 0 0 0 0 0 0 0 0 0 0 0 0 0 0 0 0 0 
0 0 0 0 0 0 0 0 0 0 0 0 0 0 0 0 0 0 0 0 0 0 0 0 0 0 0 0 0 0 0 0 0 0 0 0 0 0 0 0 0 0 0 0 0 0 0 0 0 0 0 0 0 0 0 0 0 0 0 0 0 0 0 0 0 0 0 0 0 0 0 0 0 0 0 0 0 0 0 0 0 0 0 0 0 0 0 0 0 0 
0 0 0 0 0 0 0 0 0 0 0 0 0 0 0 0 0 0 0 0 0 0 0 0 0 0 0 0 0 0 0 0 0 0 0 0 0 0 0 0 0 0 0 0 0 0 0 0 0 0 0 0 0 0 0 0 0 0 0 0 0 0 0 0 0 0 0 0 0 0 0 0 0 0 0 0 0 0 0 0 0 0 0 0 0 0 0 0 0 0 
0 0 0 0 0 0 0 0 0 0 0 0 0 0 0 0 0 0 0 0 0 0 0 0 0 0 0 0 0 0 0 0 0 0 0 0 0 0 0 0 0 0 0 0 0 0 0 0 0 0 0 0 0 0 0 0 0 0 0 0 0 0 0 0 0 0 0 0 0 0 0 0 0 0 0 0 0 0 0 0 0 0 0 0 0 0 0 0 0 0 
# EndDate:Wed Jan 23 14:00:04 2013
