# Format: McStas with text headers file. Use mcplot/PGPLOT to view.
# URL:    http://www.mccode.org/
# Editor: erkn on localhost
# Creator:Test_src_gaussian (Test_src_gaussian.instr) simulation (McXtrace x.y.z - Jan. 22, 2013)
# Date:   Simulation started (1358946450) Wed Jan 23 14:07:30 2013
# File:   emon1.dat
# Ncount: 250000
# Trace: no
# Gravitation: no
# Seed: 1358946445
# Param: XW=0.01
# Param: YH=0.01
# Param: DIST=10
# Param: SRC=2
# Param: E0=9
# type: array_1d(100)
# Source: Test_src_gaussian.instr
# component: emon1
# position: 0 0 9.997
# title: Energy monitor
# Ncount: 250000
# filename: emon1.dat
# format: McStas with text headers
# statistics: X0=6.90846; dX=2.94081;
# signal: Min=0; Max=9.42361e+12; Mean=4.30619e+12;
# values: 4.30619e+14 4.56828e+11 999997
# xvar: E
# yvar: (I,I_err)
# xlabel: Energy [keV]
# ylabel: Intensity
# xlimits: 0 20
# variables: E I I_err N
# Data [emon1_dat/emon1.dat] I: 
0.1 160386710713 1465962365.82 16617 
0.3 553489206248 4400589792.47 16590 
0.5 988847757185 7749322326.91 16567 
0.7 1.44794335937e+12 11294520998.1 16575 
0.9 1.94906355759e+12 15058456022.8 16836 
1.1 2.41111852803e+12 18656139796.4 16757 
1.3 2.90815238144e+12 22392767783.4 16903 
1.5 3.35657567497e+12 25908168523.6 16811 
1.7 3.73809040524e+12 29115705106.9 16502 
1.9 4.1735908649e+12 32482856410.8 16523 
2.1 4.64276888493e+12 35931014465.1 16707 
2.3 4.97913943854e+12 38781826992.1 16492 
2.5 5.40519171811e+12 41917986155.7 16634 
2.7 5.76803343022e+12 44747421152 16621 
2.9 6.08507437872e+12 47312260897.2 16546 
3.1 6.44540492448e+12 49975438001.8 16637 
3.3 6.86815722245e+12 52797187602.3 16925 
3.5 7.07498054525e+12 54717041505.9 16721 
3.7 7.36753005928e+12 56890453779.2 16773 
3.9 7.47011777486e+12 58249081904.4 16448 
4.1 7.86597240746e+12 60671271728.4 16810 
4.3 7.91167151635e+12 61668689818.2 16460 
4.5 8.20671360424e+12 63560102859.6 16672 
4.7 8.28694103193e+12 64550032106.6 16482 
4.9 8.51926683237e+12 66059544311.1 16632 
5.1 8.70023102251e+12 67308959019.1 16708 
5.3 8.81021834931e+12 68220970421.6 16678 
5.5 8.97259946073e+12 69277065610 16775 
5.7 9.06420817337e+12 69996767119.6 16769 
5.9 9.02177736982e+12 70147550921 16541 
6.1 9.01755171819e+12 70393880052.3 16410 
6.3 9.23076294597e+12 71421317074.3 16704 
6.5 9.27892308099e+12 71765984196.4 16717 
6.7 9.42361110498e+12 72435779497.7 16925 
6.9 9.23341157222e+12 71769014718.7 16552 
7.1 9.37861847048e+12 72355459283.4 16801 
7.3 9.18872686043e+12 71605785774 16467 
7.5 9.32595364122e+12 72086595753.6 16737 
7.7 9.30137345663e+12 71903056597.6 16734 
7.9 9.24338525776e+12 71559646838.8 16685 
8.1 9.2151139455e+12 71298088172.2 16705 
8.3 9.11820722853e+12 70741276354.1 16614 
8.5 9.12104933301e+12 70542912529.1 16718 
8.7 9.00243218873e+12 69847326650.4 16612 
8.9 8.86688050702e+12 69062244792.4 16484 
9.1 8.87464293798e+12 68810368931.2 16634 
9.3 8.80261591134e+12 68229370815.9 16645 
9.5 8.77714196335e+12 67806253828.9 16756 
9.7 8.77065528727e+12 67436955791 16915 
9.9 8.52370852791e+12 66127271814.2 16615 
10.1 8.39409141638e+12 65143206720.1 16605 
10.3 8.38871785668e+12 64780469883.6 16769 
10.5 8.27918978487e+12 64026475082.1 16721 
10.7 8.14579885284e+12 63096907128.5 16667 
10.9 8.02085969383e+12 62194509072.7 16632 
11.1 8.00104977864e+12 61687751184.9 16823 
11.3 7.9539405921e+12 61067374733.3 16965 
11.5 7.62063657047e+12 59336116125.6 16495 
11.7 7.45582465063e+12 58245672304.6 16386 
11.9 7.51127959586e+12 57965798473.4 16792 
12.1 0 0 0 
12.3 0 0 0 
12.5 0 0 0 
12.7 0 0 0 
12.9 0 0 0 
13.1 0 0 0 
13.3 0 0 0 
13.5 0 0 0 
13.7 0 0 0 
13.9 0 0 0 
14.1 0 0 0 
14.3 0 0 0 
14.5 0 0 0 
14.7 0 0 0 
14.9 0 0 0 
15.1 0 0 0 
15.3 0 0 0 
15.5 0 0 0 
15.7 0 0 0 
15.9 0 0 0 
16.1 0 0 0 
16.3 0 0 0 
16.5 0 0 0 
16.7 0 0 0 
16.9 0 0 0 
17.1 0 0 0 
17.3 0 0 0 
17.5 0 0 0 
17.7 0 0 0 
17.9 0 0 0 
18.1 0 0 0 
18.3 0 0 0 
18.5 0 0 0 
18.7 0 0 0 
18.9 0 0 0 
19.1 0 0 0 
19.3 0 0 0 
19.5 0 0 0 
19.7 0 0 0 
19.9 0 0 0 
# EndDate:Wed Jan 23 14:07:30 2013
