# Format: McStas with text headers file. Use mcplot/PGPLOT to view.
# URL:    http://www.mccode.org/
# Editor: erkn on localhost
# Creator:Test_src_gaussian (Test_src_gaussian.instr) simulation (McXtrace x.y.z - Jan. 22, 2013)
# Date:   Simulation started (1358945969) Wed Jan 23 13:59:29 2013
# File:   psd1.dat
# Ncount: 250000
# Trace: no
# Gravitation: no
# Seed: 1358945965
# Param: XW=0.01
# Param: YH=0.01
# Param: DIST=10
# Param: SRC=2
# Param: E0=7.6
# type: array_2d(90, 90)
# Source: Test_src_gaussian.instr
# component: psd1
# position: 0 0 9.999
# title: PSD monitor
# Ncount: 250000
# filename: psd1.dat
# format: McStas with text headers
# statistics: X0=1.43756e-05; dX=0.0100551; Y0=3.05368e-06; dY=0.00502988;
# signal: Min=0; Max=1.69403e+12; Mean=5.31748e+10;
# values: 4.30716e+14 4.56877e+11 999999
# xvar: X 
# yvar: Y 
# xlabel: X position [m]
# ylabel: Y position [m]
# zvar: I
# zlabel: Signal per bin
# xylimits: -0.05 0.05 -0.05 0.05
# variables: I I_err N
# Data [psd1_dat/psd1.dat] I: 
0 0 0 0 0 0 0 0 0 0 0 0 0 0 0 0 0 0 0 0 0 0 0 0 0 0 0 0 0 0 0 0 0 0 0 0 0 0 0 0 0 0 0 0 0 0 0 0 0 0 0 0 0 0 0 0 0 0 0 0 0 0 0 0 0 0 0 0 0 0 0 0 0 0 0 0 0 0 0 0 0 0 0 0 0 0 0 0 0 0 
0 0 0 0 0 0 0 0 0 0 0 0 0 0 0 0 0 0 0 0 0 0 0 0 0 0 0 0 0 0 0 0 0 0 0 0 0 0 0 0 0 0 0 0 0 0 0 0 0 0 0 0 0 0 0 0 0 0 0 0 0 0 0 0 0 0 0 0 0 0 0 0 0 0 0 0 0 0 0 0 0 0 0 0 0 0 0 0 0 0 
0 0 0 0 0 0 0 0 0 0 0 0 0 0 0 0 0 0 0 0 0 0 0 0 0 0 0 0 0 0 0 0 0 0 0 0 0 0 0 0 0 0 0 0 0 0 0 0 0 0 0 0 0 0 0 0 0 0 0 0 0 0 0 0 0 0 0 0 0 0 0 0 0 0 0 0 0 0 0 0 0 0 0 0 0 0 0 0 0 0 
0 0 0 0 0 0 0 0 0 0 0 0 0 0 0 0 0 0 0 0 0 0 0 0 0 0 0 0 0 0 0 0 0 0 0 0 0 0 0 0 0 0 0 0 0 0 0 0 0 0 0 0 0 0 0 0 0 0 0 0 0 0 0 0 0 0 0 0 0 0 0 0 0 0 0 0 0 0 0 0 0 0 0 0 0 0 0 0 0 0 
0 0 0 0 0 0 0 0 0 0 0 0 0 0 0 0 0 0 0 0 0 0 0 0 0 0 0 0 0 0 0 0 0 0 0 0 0 0 0 0 0 0 0 0 0 0 0 0 0 0 0 0 0 0 0 0 0 0 0 0 0 0 0 0 0 0 0 0 0 0 0 0 0 0 0 0 0 0 0 0 0 0 0 0 0 0 0 0 0 0 
0 0 0 0 0 0 0 0 0 0 0 0 0 0 0 0 0 0 0 0 0 0 0 0 0 0 0 0 0 0 0 0 0 0 0 0 0 0 0 0 0 0 0 0 0 0 0 0 0 0 0 0 0 0 0 0 0 0 0 0 0 0 0 0 0 0 0 0 0 0 0 0 0 0 0 0 0 0 0 0 0 0 0 0 0 0 0 0 0 0 
0 0 0 0 0 0 0 0 0 0 0 0 0 0 0 0 0 0 0 0 0 0 0 0 0 0 0 0 0 0 0 0 0 0 0 0 0 0 0 0 0 0 0 0 0 0 0 0 0 0 0 0 0 0 0 0 0 0 0 0 0 0 0 0 0 0 0 0 0 0 0 0 0 0 0 0 0 0 0 0 0 0 0 0 0 0 0 0 0 0 
0 0 0 0 0 0 0 0 0 0 0 0 0 0 0 0 0 0 0 0 0 0 0 0 0 0 0 0 0 0 0 0 0 0 0 0 0 0 0 0 0 0 0 0 0 0 0 0 0 0 0 0 0 0 0 0 0 0 0 0 0 0 0 0 0 0 0 0 0 0 0 0 0 0 0 0 0 0 0 0 0 0 0 0 0 0 0 0 0 0 
0 0 0 0 0 0 0 0 0 0 0 0 0 0 0 0 0 0 0 0 0 0 0 0 0 0 0 0 0 0 0 0 0 0 0 0 0 0 0 0 0 0 0 0 0 0 0 0 0 0 0 0 0 0 0 0 0 0 0 0 0 0 0 0 0 0 0 0 0 0 0 0 0 0 0 0 0 0 0 0 0 0 0 0 0 0 0 0 0 0 
0 0 0 0 0 0 0 0 0 0 0 0 0 0 0 0 0 0 0 0 0 0 0 0 0 0 0 0 0 0 0 0 0 0 0 0 0 0 0 0 0 0 0 0 0 0 0 0 0 0 0 0 0 0 0 0 0 0 0 0 0 0 0 0 0 0 0 0 0 0 0 0 0 0 0 0 0 0 0 0 0 0 0 0 0 0 0 0 0 0 
0 0 0 0 0 0 0 0 0 0 0 0 0 0 0 0 0 0 0 0 0 0 0 0 0 0 0 0 0 0 0 0 0 0 0 0 0 0 0 0 0 0 0 0 0 0 0 0 0 0 0 0 0 0 0 0 0 0 0 0 0 0 0 0 0 0 0 0 0 0 0 0 0 0 0 0 0 0 0 0 0 0 0 0 0 0 0 0 0 0 
0 0 0 0 0 0 0 0 0 0 0 0 0 0 0 0 0 0 0 0 0 0 0 0 0 0 0 0 0 0 0 0 0 0 0 0 0 0 0 0 0 0 0 0 0 0 0 0 0 0 0 0 0 0 0 0 0 0 0 0 0 0 0 0 0 0 0 0 0 0 0 0 0 0 0 0 0 0 0 0 0 0 0 0 0 0 0 0 0 0 
0 0 0 0 0 0 0 0 0 0 0 0 0 0 0 0 0 0 0 0 0 0 0 0 0 0 0 0 0 0 0 0 0 0 0 0 0 0 0 0 0 0 0 0 0 0 0 0 0 0 0 0 0 0 0 0 0 0 0 0 0 0 0 0 0 0 0 0 0 0 0 0 0 0 0 0 0 0 0 0 0 0 0 0 0 0 0 0 0 0 
0 0 0 0 0 0 0 0 0 0 0 0 0 0 0 0 0 0 0 0 0 0 0 0 0 0 0 0 0 0 0 0 0 0 0 0 0 0 0 0 0 0 0 0 0 0 0 0 0 0 0 0 0 0 0 0 0 0 0 0 0 0 0 0 0 0 0 0 0 0 0 0 0 0 0 0 0 0 0 0 0 0 0 0 0 0 0 0 0 0 
0 0 0 0 0 0 0 0 0 0 0 0 0 0 0 0 0 0 0 0 0 0 0 0 0 0 0 0 0 0 0 0 0 0 0 0 0 0 0 0 0 0 0 0 0 0 0 0 0 0 0 0 0 0 0 0 0 0 0 0 0 0 0 0 0 0 0 0 0 0 0 0 0 0 0 0 0 0 0 0 0 0 0 0 0 0 0 0 0 0 
0 0 0 0 0 0 0 0 0 0 0 0 0 0 0 0 0 0 0 0 0 0 0 0 0 0 0 0 0 0 0 0 0 0 0 0 0 0 0 0 0 0 0 0 0 0 0 0 0 0 0 0 0 0 0 0 0 0 0 0 0 0 0 0 0 0 0 0 0 0 0 0 0 0 0 0 0 0 0 0 0 0 0 0 0 0 0 0 0 0 
0 0 0 0 0 0 0 0 0 0 0 0 0 0 0 0 0 0 0 0 0 0 0 0 0 0 0 0 0 0 0 0 0 0 0 0 0 0 0 0 0 0 0 0 0 0 0 0 0 0 0 0 0 0 0 0 0 0 0 0 0 0 0 0 0 0 0 0 0 0 0 0 0 0 0 0 0 0 0 0 0 0 0 0 0 0 0 0 0 0 
0 0 0 0 0 0 0 0 0 0 0 0 0 0 0 0 0 0 0 0 0 0 0 0 0 0 0 0 0 0 0 0 0 0 0 0 0 0 0 0 0 0 0 0 0 0 0 0 0 0 0 0 0 0 0 0 0 0 0 0 0 0 0 0 0 0 0 0 0 0 0 0 0 0 0 0 0 0 0 0 0 0 0 0 0 0 0 0 0 0 
0 0 0 0 0 0 0 0 0 0 0 0 0 0 0 0 0 0 0 0 0 0 0 0 0 0 0 0 0 0 0 0 0 0 0 0 0 0 0 0 0 0 0 0 0 0 0 0 0 0 0 0 0 0 0 0 0 0 0 0 0 0 0 0 0 0 0 0 0 0 0 0 0 0 0 0 0 0 0 0 0 0 0 0 0 0 0 0 0 0 
0 0 0 0 0 0 0 0 0 0 0 0 0 0 0 0 0 0 0 0 0 0 0 0 0 0 0 0 0 0 0 0 0 0 0 0 0 0 0 0 0 0 0 0 0 0 0 0 0 0 0 0 0 0 0 0 0 0 0 0 0 0 0 0 0 0 0 0 0 0 0 0 0 0 0 0 0 0 0 0 0 0 0 0 0 0 0 0 0 0 
0 0 0 0 0 0 0 0 0 0 0 0 0 0 0 0 0 0 0 0 0 0 0 0 0 0 0 0 0 0 0 0 0 0 0 0 0 0 0 0 0 0 0 0 0 0 0 0 0 0 0 0 0 0 0 0 0 0 0 0 0 0 0 0 0 0 0 0 0 0 0 0 0 0 0 0 0 0 0 0 0 0 0 0 0 0 0 0 0 0 
0 0 0 0 0 0 0 0 0 0 0 0 0 0 0 0 0 0 0 0 0 0 0 0 0 0 0 0 0 0 0 0 0 0 0 0 0 0 0 0 0 0 0 0 0 0 0 0 0 0 0 0 0 0 0 0 0 0 0 0 0 0 0 0 0 0 0 0 0 0 0 0 0 0 0 0 0 0 0 0 0 0 0 0 0 0 0 0 0 0 
0 0 0 0 0 0 0 0 0 0 0 0 0 0 0 0 0 0 0 0 0 0 0 0 0 0 0 0 0 0 0 0 0 0 0 0 0 0 0 0 0 0 0 0 0 0 0 0 0 0 0 0 0 0 0 0 0 0 0 0 0 0 0 0 0 0 0 0 0 0 0 0 0 0 0 0 0 0 0 0 0 0 0 0 0 0 0 0 0 0 
0 0 0 0 0 0 0 0 0 0 0 0 0 0 0 0 0 0 0 0 0 0 0 0 0 0 0 0 0 0 0 0 0 0 0 0 0 0 0 0 0 0 0 0 0 0 0 0 0 0 0 0 0 0 0 0 0 0 0 0 0 0 0 0 0 0 0 0 0 0 0 0 0 0 0 0 0 0 0 0 0 0 0 0 0 0 0 0 0 0 
0 0 0 0 0 0 0 0 0 0 0 0 0 0 0 0 0 0 0 0 0 0 0 0 0 0 0 0 0 0 0 0 0 0 0 0 0 0 0 0 0 0 0 0 0 0 0 0 0 0 0 1055215623.87 0 0 0 0 0 0 0 0 0 0 0 0 0 0 0 0 0 0 0 0 0 0 0 0 0 0 0 0 0 0 0 0 0 0 0 0 0 0 
0 0 0 0 0 0 0 0 0 0 0 0 0 0 0 0 0 0 0 0 0 0 0 0 0 0 0 0 0 0 0 0 0 0 0 0 545556956.404 0 0 0 555111968.524 0 0 158512770.426 0 0 784728617.986 0 0 0 555855782.343 0 0 0 83210924.3443 0 68844828.4355 0 0 0 0 0 0 556495380.702 0 0 0 0 0 0 0 0 0 0 0 0 0 0 0 0 0 0 0 0 0 0 0 0 0 0 
0 0 0 0 0 0 0 0 0 0 0 0 0 0 0 0 0 0 0 0 0 0 0 0 0 0 0 0 0 0 0 0 0 523922825.112 0 0 381711645.931 548339757.942 0 533692436.616 514278864.682 0 993364783.456 443051616.533 541703298.517 0 486286161.605 471783281.813 557827884.118 455825568.887 0 0 0 0 1057787228.98 0 0 0 466395775.079 463565353.848 0 72595130.0743 0 0 0 0 0 0 0 0 0 0 0 0 0 0 0 0 0 0 0 0 0 0 0 0 0 0 0 0 
0 0 0 0 0 0 0 0 0 0 0 0 0 0 0 0 0 0 0 0 0 0 0 0 0 0 0 0 0 927560354.673 0 0 0 1647292647.84 248837274.252 1796800548.84 0 132064598.262 1202779424.24 1379725991.25 0 785456464.612 2363426629.35 1567711259.51 2391751456.54 1513984199.16 1015518663.77 1059303883.37 1591464042.08 943990103.231 1384531578.26 573504106.645 989737038.616 0 281495656.717 477149678.377 544088910.128 942878815.491 0 1667766192.71 0 0 0 0 0 0 0 0 0 455512566.406 0 0 0 0 0 0 0 0 0 0 0 0 0 0 0 0 0 0 0 0 
0 0 0 0 0 0 0 0 0 0 0 0 0 0 0 0 0 362120241.56 0 0 0 507932316.889 0 0 510374250.144 0 463547739.975 1047095849.75 197702218.248 791208113.827 481769935.376 538228701.835 0 519697631.929 1028591629.39 1234186248.22 0 718761242.52 1185759294.51 0 3697101158.4 2589901554.16 2136478241.85 3711854689.66 2958095568.37 2192050701.89 4136101103.9 5140121112.24 3155517289.4 2350216747.21 3046624919.32 575761077.854 841793270.432 686222056.699 0 519847946.117 851909468.349 0 235208664.509 0 345798018.359 0 410394974.556 0 0 190977609.658 23330177.2452 15020925.2181 0 0 0 0 0 0 0 0 0 0 0 0 0 0 0 0 0 0 0 0 0 0 
0 0 0 0 0 0 0 0 0 0 0 0 0 0 0 0 0 0 1112313141.15 0 0 0 549737338.138 0 0 0 442046202.917 0 557702389.292 0 1017119274.01 1312118196.93 474594490.137 3098910782.59 1502571330.48 3251289240.23 2758488560.63 1812949187.14 5579242037.16 4900025134.38 4962831164.37 4073713666.95 2491869213.3 3900827370.9 7098994962.12 1561544410.02 5540998723.28 3354002638.83 3912144497.82 4311666007.08 3467732195.4 4063436430.88 4143483234.38 2999643861.85 2791902344.99 1752886383.4 484221323.709 2628046317.14 770506473.273 0 0 1513241787.37 702190534.876 1031894913.35 545246182.959 0 514797259.803 186023195.75 0 0 0 0 0 0 0 0 0 0 307919480.883 0 0 0 0 0 0 0 0 0 0 0 
0 0 0 0 0 0 0 0 0 0 0 0 0 0 0 0 0 548643760.337 368936389.749 407947238.456 0 556423340.059 1065082009.16 0 1470022423.23 901757698.406 524009828 1318104349.95 3171970984.25 1994716263.86 2440110794.23 975207086.967 4012439052.17 4855441117.24 3459398334.14 4384874450.99 5194039271.72 2718316564.72 11162270756.1 5436460705.74 9339979370.42 12426108415.4 12156438974.5 13428048159.2 11303417734.6 7448872661.47 8954794076.83 6644887303.41 14596223994.5 9597023993.21 8068434861.58 9094332793.09 7223934316.31 7002293967.99 4215252807.36 4493981835.11 2555269385.85 4367412956.99 4240465069.73 3992971274.8 3062039048.52 2905566856.87 1585098969.6 2791285279.72 1934558207.18 1104253476.34 368511820.154 536846987.868 279598431.555 518637482.89 509968532.724 0 509013400.1 0 0 0 0 0 0 0 0 0 0 0 0 0 0 0 0 0 
0 0 0 0 0 0 0 0 0 0 0 0 0 366313980.421 0 0 0 0 0 469661160.088 448766399.856 447617005.037 552715730.962 1573811404.45 2040102490.3 1310795198.71 982826990.741 2154049748.14 3495758542.89 7681410891.37 3458189781.99 3739605006.32 6157921738.59 5594333815.5 13158619505.6 13983196639 15437583855.4 16629118600.4 14673529309.4 20848499186.9 17613272852 20896398800.7 16182535698.9 22535732881.4 17347607705.8 24076703679.2 17701560982 17384230563.9 21775034691.7 14564422610.8 18394795753.2 13306387804.2 10790842696.3 10459611227.2 5894046417.84 12736948094.8 9239145589.88 5118670440.73 4774905420.81 3465251211.65 6954949430.79 4141971356.7 1867892083.83 1964305490.18 555882476.802 1588177297.74 731590309.497 555610536.918 507602541.37 484859654.129 0 0 443628908.454 0 0 0 0 0 0 0 0 0 0 0 0 0 0 0 0 0 
0 0 0 0 0 0 0 0 0 0 0 0 0 0 0 721311988.605 108179271.455 0 325794728.563 264940.241077 663844965.88 1087047874.78 1477448302.16 2593860081.1 2846554165.2 4621905151.96 3428500720.8 4430384374.27 7219345861.8 6945835681.49 11709073858.6 12494854726.5 14994573297.7 20348066415.1 20159752166.8 19489129373.1 21551116011.6 25730281450.8 25596970939.5 29338661002.5 34263229088.2 26928449155.3 40095264662.1 32918060374.7 37217113865.9 27355910499.9 33743674415.5 29613510005.9 28186339318.4 30466837252.8 27805817936.9 29814603813.1 27676032230.6 14528640668 18404003024.8 22637070756.3 16492070464.7 13309881630.7 9558980647.97 12185764995.4 13069195253.2 11416213299.8 4710122476.56 2038771268.41 1815848682.03 2441344012.91 1109281805.26 1625460642.33 1916738116.36 0 1051986570.22 650715678.397 459796394.747 535541679.037 490839844.633 0 0 0 0 0 0 529552107.253 0 0 0 0 0 0 0 0 
0 0 0 0 0 0 0 0 47226605.679 0 0 0 0 551357432.526 513597809.004 0 0 769957074.981 1565138821.91 1455259559.91 3130337835.61 2638345916.84 4011035873.04 4696965016.65 4373001774.8 8573189114.78 9718474174.7 9791403928.23 14044922436.2 14536044259.2 13764491711.4 22593047392 23375213650.6 27995224861.1 29477702928.9 41608687456 51537953230 51555032255.5 45956122555.4 62503683805.7 62393725081.7 72836064803.2 63744863079.6 54569230993.8 70551369253.8 66734317105.1 63581234988.4 59980977575.3 71684307584.5 58108501820.9 59894796114.8 47220134893 54659453005.3 42602755500.7 38729151523.4 35045418788.4 35148395199.3 30283969715.3 23132384253.5 15645517364.4 11999997682.8 15649615722.5 9436007235.77 7611275342.83 6261067041.29 5292224761.19 1812890813.6 3605363721.75 2719538557.04 1503277296.74 2470516583.64 453997593.511 469822939.007 603525312.822 0 0 531696132.287 0 0 0 0 0 0 0 0 0 0 0 0 0 
0 0 0 0 0 0 0 0 475688813.036 217801626.443 0 0 423841563.083 0 63565083.5134 801970697.918 0 2060652198.48 1623662465.96 4523481514.02 4043542210.23 2467430164.39 6252620581.34 8056140863.57 7969269843.04 10021011965.5 15417204165.9 17370726279.6 23234645272.5 23530075827.3 33560498396.8 36480655347.4 42399957507.3 47809340535.4 54747845819.2 60847788694.7 71705236358.5 74816946442.8 78111365863.8 90548399309.7 106165955646 92820445044.7 114522060855 108642125346 116321157743 104736713453 104427068699 109853564123 107995963133 113114748605 95979494374.8 90075116544.8 75871635096.8 67623092239.9 70628897037.1 60572917441.1 43388469778.6 43830958199.9 34891683806 28247702086.3 28122137564.8 18653736334.7 19641489129.2 15318251771.8 13584092734.3 10717489850.4 4213021561.74 6792952633.77 2852000234.82 1679782630.43 1981907093.73 1471003957.22 1289016432.63 519295503.126 452093363.64 0 26309373.885 557592996.847 105174849.649 487191038.068 0 0 0 0 0 0 0 0 0 0 
0 0 0 0 0 0 0 0 0 0 0 0 0 0 1284198126.21 1440145996.7 688313356.591 3511498892.33 4075699691.66 3567466409.63 3198165128.62 11727271506.9 10928220679.5 14826146901.8 12750672803.7 25222816157.5 23081796525.5 34833910053.6 32333236579.4 35551537469.4 47435119837.1 57049773708.1 79000096355.9 76753915870.8 97345708586.8 99763112328.1 110336918692 133229559579 149943884992 155428941254 172424306324 165378628334 180608098526 179916862886 163310848283 195378035242 193679441095 173985963733 168008403138 168031832626 155132368373 132577387695 128508024440 119695906679 111567977543 90553605985.7 76159459992.8 61291990838.2 64937533494.5 53704331369.1 37833860779 43294632990.1 37462699793.8 25096387533.2 16284585403.5 8817252429.55 10104074357.6 7269468936.24 7784561226.97 2837836086.56 3576857861.69 2249864529.62 729519922.886 510649135.833 1089290118.75 534324405.746 553258738.643 0 0 0 0 0 0 0 0 0 0 0 0 0 
0 0 0 0 0 0 0 0 0 0 0 0 0 1518160612.03 1046922785.66 557373901.533 210947368.54 1958393197.11 2912905864.82 3692911964.09 6356320174.83 6459354857.57 14715059108.1 17346676407.2 19242712937 25933104439.1 35121719959.4 43483548341.7 56593292407.2 56738935582 80783158024.6 101899946300 106030199388 127173300803 151395912580 181131264321 175123516932 204729620201 219516883264 241534904450 264332718667 266899871459 289889456592 296393738882 299909210343 285930687898 283524906736 290400562909 283221081056 241377846358 233439970813 221127294331 204755164187 185687178596 162727258669 154950334096 127295685437 116834908380 94289564991.5 81633543873.7 61206552375.7 45823421279.2 46747982779.2 23865923375.4 31422920279.1 25103336154 16131688077.8 15959053441.7 7840815509.49 8210417224.25 4389510303.25 5698416257.77 971058555.13 1780894512.13 1108253254.22 236326633.911 405637030.652 1093373007.67 524905425.183 0 0 0 0 0 0 0 0 0 0 0 
0 0 0 0 0 0 0 0 491387476.734 0 343241652.75 1165401301.81 830298411.389 1083560211.75 2712152600.89 771713728.51 3653293657.32 1644015287.81 6202799683.39 7520728458.98 8366318015.85 16035662196.4 18688688826.5 28474787980.6 25795274419.9 39676489009.2 53877781953.2 68902987158.3 72971736556.9 97168890913.3 122407778758 137771729193 160815702353 187572814856 225652102689 238418581105 281745190059 315925601279 319476602821 343794837135 384271461745 369397268954 408365446570 425788546357 411469044328 443103836382 423946541772 413796135033 391459508559 378108368662 356233613133 318093346272 313442409333 274253694362 239072052005 200673677594 179329998519 154741864913 135821362629 110476174826 98039431061.1 77654571488.7 56869899216.9 59378834647.6 38539767802.8 35099037226.5 21300511179.8 19971924897.5 15600029306 11554100859.3 6001267607.64 6003941959.04 5448383569.34 4197834525.16 2504692131.43 1614130396.6 552532472.795 0 0 512723272.153 0 0 0 0 0 0 526904742.726 0 0 0 
0 0 0 0 0 0 0 0 558200000 0 990487440.077 740460032.036 110779668.991 978917245.248 512755252.052 2414871569.78 4224566675.68 5415640008.12 10431552371.2 12238859281.6 13101253631.4 23831509258.5 23535057926 36915136407.3 52510811257.1 57803930366.3 66893407387.6 102807788980 113219089115 126350316614 183633815858 188824665383 225182476556 257524580427 311540069241 355833789353 369265549149 428139589733 434062875687 502814635679 475163624898 532327955284 567018122736 595975131339 581105518950 581170192669 579259233444 579586302242 552475901534 517872390322 484323438577 454232049857 405590840888 401757227612 344314799946 288730391325 256557656971 238799186516 191176261528 196366653191 142689869077 109890926092 87681202700.6 78109279952.5 57537293549.6 46181604509.6 41016328954 31252379853.5 27107297991.5 18557980990.1 9962249450.15 8079223235.42 4790518520.83 3519490610.13 4158738257.41 3551497043.87 514082030.089 1107915384.91 131637707.8 0 0 10659035.9166 0 0 0 0 0 0 0 0 
0 0 0 0 197833144.713 0 496435836.393 0 0 18382246.2288 0 0 816464365.114 1725379042.77 4234220175.64 2770419002.81 9231756649.5 9000636416.4 8801572699.5 14323127559.6 17472324243.3 31808753668 40124941420.5 40894027789.5 61438681248 76145269197.7 92107316144.9 117596551713 141535660753 186772501229 246729081233 261070684844 312513403687 354947567700 406713559286 471656071109 498178401913 567388989307 602411012752 670252286309 698592878751 758377440803 773231465285 787875782104 813088075690 818629409290 831898516849 727661420438 733823862476 679804028715 685094886463 633430789754 546459209653 499948345641 471323762949 425589335053 350378049670 327850111544 236737217945 217270836310 200109763581 177778467444 124766827711 102407207753 69796310555.5 61975470452.5 47328757972.1 38122566282 25130162521.5 24168746961.1 16906566706.3 12612823900.5 7764790922.54 7744368710.11 3089204126.96 2487471341.18 1998097452.01 552180331.008 950109117.054 59553598.6747 541359193.478 143506955.269 0 0 0 0 0 0 0 0 
0 0 0 521940746.762 0 0 0 0 0 1537551213.16 0 1930036630.23 486072701.601 3788684138 3392844592.92 2680093763.46 5391466044.45 8539608213.8 16031604748.2 17438728372.9 23229618758.4 35629320073.3 45130144738.7 54247153371 75466117939.8 98241890345 128700936926 150897601356 203587054990 241596598162 284268462934 354011829574 380284029486 449496552430 525871717344 599565103108 679526339018 697880637762 794296578244 871721608755 879975887213 940976929453 1.01411190122e+12 1.04781468149e+12 983202907503 1.05992371381e+12 988669482549 958366034719 933381725608 900957139151 824773663189 783894067303 714914915466 680383024371 608865696488 543160770295 440852915056 407325319717 317250621262 279434488525 245520264489 199622946744 144345637198 130904077076 102883932397 77232416169.4 64736759675 47639167998.6 41103970745.8 29432589561.3 18309446042.2 10832693368.9 10291676959.9 9300196505.75 8760648565.54 3549361749.25 4259423907.67 3513735849.02 1476393953.14 0 0 0 0 0 0 0 0 0 0 0 
0 0 0 0 543830079.857 0 0 0 0 165925534.834 755366768.062 812974244.189 2066378117.94 4364081855.31 5649497819.44 6023584421 7066139230.7 15934224128.1 15871759686.1 25790892329.6 31413102747.5 37360553520.8 54513860329.2 73865041145.9 96801821571.2 120130983589 155632141466 180301860427 226150435017 286878803617 319676210687 395919236322 462641134953 556419209455 609365822271 741664572609 816690926461 878832896093 952761032758 1.01121519864e+12 1.09838469034e+12 1.1721914968e+12 1.20692754085e+12 1.19954318385e+12 1.250001682e+12 1.25927544299e+12 1.21696259515e+12 1.23926197905e+12 1.15909562847e+12 1.10203721804e+12 1.00022057162e+12 981689563328 858077924084 798762460652 726861937584 613645573087 571637872540 469332263600 407685338458 347274579675 286759516842 245365518903 180617798981 167600559067 124890582437 97422470459.1 68528354849.5 50554389904.4 39225296217.6 31367125350.2 22449012078.8 19406333084.1 8165743478.47 11959429464.8 5959642966.85 4131179050.43 3535776937.1 1655534601.81 708403340.769 939892913.306 514323816.124 0 0 539081317.469 0 0 0 0 0 0 
0 0 0 0 0 0 497541737.841 521628003.347 1021606053.53 1602077008.62 535278217.719 1609770678.43 1137237811.14 3928576925.75 4637288346.6 4957383653.27 9495484147 16066277216.3 15753716280.7 27287300901.6 41082266073.8 56553731031 62990808714 83511132715.4 116466955876 118233446890 179506764897 209456870029 261183447070 336065533315 392421440195 500609894384 566872524892 650643212916 735494354544 825508816797 937695200903 987418525238 1.11294068589e+12 1.18498739164e+12 1.29875566334e+12 1.33325407041e+12 1.40172305906e+12 1.42872939709e+12 1.4020928472e+12 1.47480028102e+12 1.41218215671e+12 1.38586011031e+12 1.34044090281e+12 1.28399438616e+12 1.19597686294e+12 1.11444347497e+12 1.00663432048e+12 916268959258 805536867355 760160894248 617935320909 558092214753 471111787204 401514017064 338842030348 265545800063 236159597114 182683307338 139294591427 110724873912 90495387815.5 64433814148.3 52005218437.2 40644726419.1 23435236707 17917340847.5 15091222057.6 9562136303.89 5479241639.2 3996528716.28 3348273563.66 1767662863.24 3191344278.89 1720091602.07 1012183783.95 280614620.255 1115880068.22 0 0 0 554160211.247 0 0 0 
0 0 0 0 0 0 0 60510850.5334 556043589.583 518516386.359 516782267.741 1545130056.86 2806783339.23 4496696043.73 4427720991.77 8698750238.69 8650340771.68 19541549440.2 20784670389.3 27832948762 37062404278.9 49470341024.3 68868623052.6 92483259854.7 109028734097 133670825133 189911998159 258946873868 312655150995 374793240450 446099146200 527770453505 614599104232 700135428215 790732867283 909559168325 972623391865 1.09998177885e+12 1.22122647619e+12 1.36756301993e+12 1.36150157567e+12 1.506975693e+12 1.49683423991e+12 1.54767369845e+12 1.59093628846e+12 1.67539260601e+12 1.60327231586e+12 1.52571330541e+12 1.43355274693e+12 1.43365259039e+12 1.28678730895e+12 1.24371498484e+12 1.13967323727e+12 995092872034 934978118444 792722300653 730968801815 591737742418 509400058047 461455918418 362519305550 328429547927 246197763594 200483212325 133959743599 111863655285 99123976836.4 66547739553.7 60951507250.1 48819154595.8 26170287639.4 19600243692.7 15994831377.7 12867141826.7 7232693544.55 3730661814.7 3720963928.66 2605408998.85 2457280717.57 1461667751.23 0 962109265.587 554196808.062 0 0 0 0 0 0 0 
0 0 0 0 558034306.845 0 0 1056517526.19 865662263.497 1071955423.31 558127257.54 2544985100.24 1176634497.43 2972481189.2 5661676261.31 7039452823.4 9506797000.04 16946190096.3 25496412168.4 34761628324.5 37487566608.5 58364886085.9 74279754605 89314685078.5 114899767537 159970198089 200514098759 265763014104 319748860133 387830275340 427002484793 524486701045 649602204162 761243939181 838862426462 953262326602 1.0901824563e+12 1.18215934206e+12 1.30596737973e+12 1.37722343042e+12 1.46986007252e+12 1.56406729277e+12 1.61928566408e+12 1.64363328361e+12 1.69403304019e+12 1.63604832131e+12 1.58716342103e+12 1.59383342825e+12 1.48845725068e+12 1.48550128792e+12 1.37436066983e+12 1.24674446297e+12 1.18319297847e+12 1.08057950349e+12 954595253722 804148530573 771388467768 651165151824 513617496282 437353673080 383079506163 304367691893 254866300121 205960573648 165629682574 121794960961 98741433686.6 81664192427.4 54247800713.4 46931620552.5 39744318041.7 26083600778.7 20208471333.6 12389801659.3 12075971420.9 6009883636.37 1914754211.3 1394390361.88 1841056509.82 0 932444719.587 2535739300.94 0 0 0 0 0 0 0 0 
0 0 0 0 0 676125338.969 715364179.158 949464717.627 1003862318.44 0 1999741035.38 1039779835.64 782357803.909 2972566013.98 3810602469.31 7541403807.76 12731838862.5 17508481377.7 17484393827.7 37678776434.6 43238792349.3 65314577940.6 79604994354.3 89186721122.8 120491223776 156100504968 209474821925 259340956966 316322342034 399420396470 456488395425 560055031899 635693661694 758439538873 837136091254 961600041360 1.07514870804e+12 1.15250617951e+12 1.30913437779e+12 1.38821709031e+12 1.45960462154e+12 1.54463433522e+12 1.58805940943e+12 1.61622648506e+12 1.63549095526e+12 1.61354057906e+12 1.62248030754e+12 1.62926662694e+12 1.52078540837e+12 1.44739881278e+12 1.35413272571e+12 1.30912993901e+12 1.21598676462e+12 1.10794702997e+12 950605422038 855442033089 739653511857 613553120690 530528156194 472547370111 380203461571 320089032410 262703930965 189175860772 162886694418 140863410753 94423128885.6 77122675206.4 55067855095.6 37448265598.7 32750934003.8 27845434506 16882837830.6 8281905217.88 13223813713.4 4447598160.87 6926883419.19 5215111102.08 1992302233.33 555428028.924 2821078449.08 530287362.553 0 0 410991615.205 0 0 0 0 0 
0 0 0 0 0 0 497255035.052 0 448925565.068 0 1503521553.47 539028846.61 2526155538.44 3470155162.37 7181644644.68 10619849615.9 15283638145.7 17990072968.4 20314323105 29856841097.7 41922380189.8 59683489568.4 70509163776.3 95099302475.4 110667709275 166399784139 197901407362 231964365717 283034190492 384718513840 438204135890 534729760936 613512937726 709056950460 783929317573 863843514576 1.02988996058e+12 1.12707219869e+12 1.23531118282e+12 1.34451202935e+12 1.40346176027e+12 1.46552026365e+12 1.53961197331e+12 1.59940567556e+12 1.50928010848e+12 1.5794165373e+12 1.54862968245e+12 1.57136347106e+12 1.497866996e+12 1.41348416092e+12 1.32747640496e+12 1.25798288385e+12 1.11095385332e+12 989237965730 921078664114 813630990035 705824280323 631169736618 524257379745 471189723368 388388205569 308087464687 243201276310 198963829859 146975792943 113608832151 90654614374.8 71870437722.9 62561629674.8 39418587014 27495412297.1 20851956653 13011618855.6 11480227813.1 10332623395.2 6238501151.9 4563715485.55 2506734535.5 1113852064.32 1602096080.46 1092446282.99 758977964.113 0 0 462577356.916 0 16533777.7213 0 0 0 
0 0 0 0 0 0 0 0 0 0 612292064.424 0 1581749344.18 2230330274.15 4880984641.38 9680783856.78 9146605376.27 13621498173.6 17615129339 27250356205.3 34950107903.2 54058317062.6 61022160825.2 87244627132.1 117660823724 150970748790 175272416530 209160598930 258887125182 313540041171 407963399714 489413157165 574220751071 615325234531 733966976041 788730266018 937926939586 1.02838326746e+12 1.12418192493e+12 1.17817252784e+12 1.28739519837e+12 1.30690921805e+12 1.43229134292e+12 1.3897020828e+12 1.43837175546e+12 1.46520474478e+12 1.420793012e+12 1.36382969387e+12 1.3466014474e+12 1.24820892003e+12 1.22372669097e+12 1.13043277328e+12 1.03252876304e+12 928485296321 808672178050 718963180306 613965342084 574132532275 487219261030 389681731598 333467306618 282591289918 231673320225 176471290021 147410469953 110556744866 94677496966.6 63647981767.9 47258374278.1 41986982470.8 25165489244.7 26748755878.9 11754952632.8 10537496798.7 5928352624.21 5323214342.12 2962396377.07 951003682.218 1463181329.91 1618268720.01 546042711.699 1036077621.89 0 0 0 289251875.311 0 0 0 0 
0 0 0 0 0 0 0 152178439.954 499380579.672 499779710.485 0 519485269.078 3505158127.58 3741476445.63 3544612767.44 4515134924.45 7158632813.73 9321633984.42 18041753017.4 23650854169 30496193990.9 45165075881.9 50878723455.8 82951728250.5 104446162060 117033112705 145133886458 210473363097 243858792430 273150276678 354584373893 405457478516 467643532064 582843685070 638084659503 700299284119 840136210284 885453299199 938946827689 1.00921340581e+12 1.08306805276e+12 1.12534278468e+12 1.17590965469e+12 1.21584335669e+12 1.20966470468e+12 1.20908758317e+12 1.2466409786e+12 1.19724283197e+12 1.15405177098e+12 1.12017563675e+12 1.05549714431e+12 946341427079 909918912976 831826444995 701507925338 650378914881 554582748748 472015407576 402039159186 320013146564 277212970406 230050126266 190049632199 166100433397 107356211323 85638703805.5 68809592116.4 50357394980.2 47602999217 40342626403.3 19804346466.2 20360687539.6 16503185490.9 6833667847.29 7884469209.46 3967202722.4 3781342584.19 519210993.838 1026963016.7 0 397613071.66 0 0 0 932782969.493 0 0 0 0 0 
0 0 0 0 94952593.3792 0 548547290.474 0 529242827.608 0 523441278.508 0 1667736167.79 4438396691.88 6413455523.95 4164219705.35 5497007813.68 9142973575.5 14509814478.9 17007599423.7 28756244642 35848342765.2 46220855055.7 66624138559 79959143227.3 93923674765.7 109405451453 140185391327 174779251149 249389731592 285548402380 330556106324 382290578364 476278905741 524570092995 593939298846 641221883183 720616163907 776655232515 887077392426 914048994380 887499883718 1.00687735727e+12 1.00805514816e+12 1.0165013728e+12 1.02798402247e+12 1.0201702588e+12 984554133060 909933672661 904492643660 835417731142 768960996769 742462184480 661829698048 587832224122 533795237157 473574740206 369362845430 326390810313 266376362234 232911753229 198879079525 175152434303 116941401791 89729194111.4 77354266432.9 49096069107 43191819330.8 32077394131.9 30713192735.3 17382588572 12790211416.3 14036239166.9 10838724817.6 2960226816.38 2931177452.02 2687739895 1460713501.08 1311351368.59 526091852.651 403480978.007 390216116.685 0 429013456.576 0 0 0 0 0 0 
0 0 0 0 0 557819814.177 558215719.114 558227207.502 0 1318304389.07 826547080.902 548962278.255 1854095490.83 1542539245.52 1537964937.37 6327548303 8103330804.16 8845697878.7 11245173505.8 15405352831.4 24892201845.4 24348309710.4 35336979272.1 53192882156 59657819292.3 77447970954 105855718829 122385503500 146896590123 176932696318 238278049848 270375924072 290890109282 349479969675 385899732725 435138773853 504461946298 570486768014 602408756086 659398982967 724312585186 741786936793 775928121086 811545579256 811386598352 828591660557 801655127118 765201833708 718774019536 689923369572 661022903845 612514367791 554969066412 505264079461 478370002601 405103377977 360151920026 290476707582 275961582508 234332642788 196159295011 151293892206 118376407106 95141453558.4 84902138251.3 58029327824.7 49924345393.7 40136475735.5 22884707274.8 20342293094 16788548637.9 9720420077.35 9181748261.64 7118652856.91 3666225615.9 1322715995.11 954822161.639 2007616440.97 483619449.125 0 0 0 0 0 0 485158930.87 0 0 0 516226158.724 
0 0 0 0 0 0 0 0 528442222.266 0 504010720.749 1807710479.02 0 1221278440.53 935417813.599 3194473621.56 2227019979.6 5128476513.53 5598546932.21 7888807388.26 23478373705.2 28155615312.8 28493931216.7 33926162072.1 39317267662.4 56401500433 89459301351.4 88323435335 119278895743 148790698341 167391511626 184443305043 212860401858 269983593570 293753451815 326298352935 384628061221 419687495042 482193001657 472975826097 524258679210 547150576394 579417150308 568241202058 581687958980 597525443418 585285846016 570425671699 557205356739 534458292248 481053994251 442801623324 425934801081 386471746073 348809591239 303684770241 280929553146 236002730771 219121905880 161831956854 123587266871 107080060509 94903378788.5 69031063653.9 56499482773.8 47526491767.4 36269408424.3 31554107064.2 25390516248 14967307859.3 12378908065.8 6734369811.31 4325250783.67 2957898377.12 4379645200.5 2562788817.22 1286221767.07 538922988.891 555985852.87 737574821.697 0 645643295.289 0 0 499349104.124 0 0 0 0 0 
0 0 0 0 0 0 0 0 499461142.813 0 447623085.298 1066460323.99 598839611.603 2011636603.55 949519825.814 2977386658.2 5346388092.36 2419889070.33 2954487028.99 9677477491.63 12773199844.3 9608763460.27 16456306336.9 27652457567.8 31725307063.7 44162923492 45786188265.2 64000892151.6 83330051690.9 92381772502.3 122796325554 144034539305 156421374352 191821260710 204252909050 244310209011 278885517973 317042480543 329743714483 370022874914 376231451622 423698618345 414706351449 414507633083 415577544941 391857604925 409180244658 404736294165 376286979184 358953773669 356332663527 331770946164 307407979281 270406314543 250109509046 227585393418 206865165220 155787535491 134798919211 114162028171 96450349180.7 75202285639.7 62721155826.1 49287703437.6 39146332925.9 36670547295.4 24936251459.1 18802340802.2 13857010078.4 13922720319.4 7930372268.42 4425883203.18 7803989249.26 6078949881.63 2399876928.63 3390787069.03 1393766572.91 484461735.111 778494490.581 0 0 8448960.85467 0 272544184.819 0 0 535613527.247 0 0 0 
0 0 0 0 0 193215579.591 0 0 0 984746770.456 0 424871478.074 0 1009099327.84 0 1113502350.8 3313871384.28 2458330983.45 2888603889.26 5015723404.82 6225357224.91 6265490383.9 10279650614.9 17565179635 23415384309.4 32187789147.2 43802805776.1 53720481126.1 59409054726.4 62889574505.9 85210578554.6 93347592287.3 109336424798 134571386277 161344027200 163874700872 185419990294 206858588961 220535408613 238259532839 258032995861 274164901506 280360532744 312447557766 298024716207 272403927831 262067065291 263716553437 270730387185 233001174365 258672244053 222939753619 207449564995 194134242581 156887809694 146970663928 128560220691 114000020885 91056884659.5 81311546186.2 66705816027.5 56616066194.3 32394337575.2 30622624165.8 29341749366.6 23403960650.9 20400741971.4 16388728576.7 10908490686.9 5635610216.89 1799898187.58 4785015829.44 2116164194.52 3102927479.23 2163107242.08 1128682516.01 0 527139401.382 545939494.798 0 0 0 0 0 0 0 0 0 0 0 
0 0 0 0 0 0 0 0 0 0 0 1080619737.79 0 831079718.392 549392599.128 190484050.327 1633519748.07 1915590863.43 3493777596.11 3992596374.11 5908188131.43 9027248802.04 7891921923.81 11574812646.4 14950524757.8 11264545856 24143428215.8 29355551921.3 42948714647.5 46569555154.6 53278865780.8 76497465796.9 78792960996.8 81692540615.1 91988559325.9 106919206868 128208306627 129725031941 140022827160 160007641503 170045887737 162484153263 174452888483 199048858305 194101287465 181166293241 180943181924 174968765682 175816936521 134472401155 162504380418 154989169816 128032706981 120225671875 112857580302 103278594770 74484260764.5 84457317151.4 56655148610.9 48240532563.8 36137474089.3 39301907291.5 22148807864.2 23150438510.5 22956979961.4 14447262968.1 9741353023.92 13346088811.4 6238777316.62 2276475848.9 1568706743.03 1677312385.09 724906090.21 1052580191.22 1100804378.89 0 0 557269841.21 0 385963191.763 0 507261748.832 0 0 0 0 0 0 0 0 
0 0 0 0 0 0 0 0 0 0 0 477725591.94 0 0 0 0 0 0 1240323354.35 897471010.183 1493424016.8 2035740642.64 2774847051.24 5547204164.24 9281442845.92 9687437858.84 12967555062.3 16095565284.5 24228200351.5 22206242110.2 32492927230.9 34667624058 39957071264.5 45352777467.7 52519779058 71429828088 74137264673 80557979349.1 83664166892.7 91372208987.6 106986313493 109259624253 104361856915 116079275951 120698236839 110007708409 110957047977 110432283243 105843332043 113884921578 95631874190.5 75617563356 76502377269.2 80347067579.3 70334457005.2 55176431298.9 47811587038.7 48890573344.8 40094915729.5 31470267161.2 31134867999.7 23873041894.1 20448418206 12969296980.2 14481366580.8 8869911832.64 6003071760.38 4839820099.48 6770972157.88 2183963072.38 2427593141.59 1525301810.12 863724930.233 1968171357.07 259653670.326 0 0 0 535396041.425 0 0 0 0 0 0 0 0 0 0 0 
0 0 0 0 0 0 0 0 0 0 0 0 0 0 543317523.624 443091006.342 0 1085331860.34 1350469248.33 2124543321.17 934680251.685 2516711975.85 2483126653.03 1900198639.16 4500119772.35 8294200120.37 6304025911.38 12138704627.6 13539828323.2 19088301597.9 18111994573.9 21119582570.4 23512698925.3 26776701612.2 38993905336.4 33889183116.7 38630433990.1 51588556144.5 52856678779.7 51709510619.7 65739748258.7 61848830616.4 61853895094.8 69765833995 66971859919.6 67296748096.8 72158207269.3 60421621024.9 63561199333.8 63248925037.3 57761630857.4 50789239575.3 49303723812.5 50369927853 34767964420.4 37338542502.4 30185363607.6 23796176388.4 16524198147.4 19155321918 11308873620.4 17257313859.5 10446315964.6 7273623443.94 6734359891.86 4399903695.59 4356569580.3 1894192368.11 3267073672.11 1368404726.72 677462482.914 1109519498.61 0 968379686.66 426009320.873 1587468259.27 0 0 0 0 0 0 0 0 0 0 0 0 0 0 
0 0 0 0 0 0 0 0 0 0 0 0 0 0 0 0 0 0 0 1090078348.88 249466568.179 1308630436.37 1625911183.89 1170982837.14 2422755216.83 4323758966.27 3797318387.6 8920410766.53 7373250890.25 5849606794.94 9273405167.43 12102341222.3 13477152291.2 13481509190.4 21122954144.4 19880989353.2 21650199304 23294516893.5 26715908120 28464984016.8 33219603528.4 30161330723.3 38993893284.8 26197835623.2 39843321861.7 34542891905.9 40444559259 39216573799.6 34094078362.6 40719333896.3 29740104061.1 30953864064.9 19855512319.6 28329415212.1 23254451792.3 21958204637.2 11671840675.5 10878639483.9 10601707273.5 5910630675.47 9781993211.97 7193701864.57 5683789522.88 8011405342.49 2474946664.71 740399342.458 3391782445 1089244066.39 1177950972.82 510409312 762720848.299 498395843.602 0 0 0 0 0 0 0 0 0 0 0 0 0 0 0 0 0 0 
0 0 0 0 0 0 0 0 0 0 0 0 0 0 0 0 548922929.312 768855465.236 634736160.78 966611661.127 0 0 663680305.352 554055376.998 1909242760.33 2073555679.71 4096152491.63 987958914.255 2729600719.89 4379092896.91 7407675434.72 8496337607.91 8347127917.82 14502425547 8043217431.75 13800232772.9 12020940146.7 11336029942.7 17794452102.5 19239608179.4 19274102159.7 18558531837.9 19485336721.9 20142063828.1 21775714430.2 17329977867.3 23753803624.6 12883945992.8 17767063347.3 17491254717.4 17122422164.6 15736763480 12671522096.3 13033947734.5 10915403184.1 9132893793.35 7020719379.11 5942612649.65 6796978627.79 4019071851.18 7597312119.23 1543092603.39 2536041643.7 2581090022.18 1962334636.36 2395347284.71 1755452537.11 507555771.666 481958134.98 0 522847382.953 0 557603910.318 0 211268768.851 0 368492501.329 0 0 0 0 0 0 0 0 0 0 0 0 0 
0 0 0 0 0 0 0 0 0 0 0 0 0 0 315021729.998 0 0 0 557165600.484 1021254215.33 0 0 138469593.115 459127129.367 433344689.707 785499532.713 556864562.66 587270714.295 2339472624.92 1870428202.61 2423999144.54 2146620448.94 4609234529.41 4095725078.83 7029664849.31 4340206248.25 6169277054.56 4477383823.25 9958859435.35 9437967846.98 7938653305.1 7486679892.65 11815182045.7 10699450891.4 9399825813.59 9095312229.48 9009615724.46 8615944318.74 13117691208.1 7288536018.27 6733174742.29 4301860059.54 8349227537.57 5814488079.14 4128140540.46 3388763356.23 2115800561.48 3289949870.91 2771710646.88 1698479781.89 3053844934.79 1840082066.35 532212637.617 1739267601.8 553940036.638 747568934.605 540951602.223 557934126.789 0 888825444.999 0 0 0 0 498039754.675 0 0 496319621.618 0 0 0 0 0 0 0 0 0 0 0 0 
0 0 0 0 0 0 0 0 0 0 0 0 0 0 0 0 0 0 0 401776762.503 938213367.786 1081149531.9 0 426282259.006 507901661.157 0 1424157261.08 1040971821.54 1293739487.09 1807973803.8 957540258.398 338767717.598 1989156243.21 1478360647.81 2914406078.26 2038889754.49 2953487760.59 3310801521.75 4488959252.59 3777295257.67 3378023871.52 3307879034.75 4484743986.22 5125154934.27 4783175863.64 4824741705.07 8699882468.96 4955911212.36 5012381738.7 4716994246.39 4316688724.23 3973024162.65 2833990398.2 3441255068.02 3274601394.3 507647058.48 3443243260.8 515275333.811 991542878.823 2117807279.55 0 1069792343.45 2132976250.62 0 0 531811635.475 552100980.698 456676755.195 0 554504419.932 0 0 0 0 0 0 0 0 0 0 0 0 0 0 0 0 0 0 0 0 
0 0 0 0 0 0 0 0 0 0 0 0 0 0 0 0 0 521519934.679 0 0 534179110.6 0 0 0 1046954454.57 0 0 0 0 548257340.36 1521222012.27 1085667648.67 0 981833081.33 531283953.834 1069039432.73 1044125522.93 3522601702.37 1613890640.77 3331609700.06 2080219375.52 1024621194.31 3221139026.19 1548737658.18 4081635133.28 2286488803.64 2345788609.56 926111016.303 2233448653.46 2006656378.96 0 913544589.24 1136243245.67 2622612723.47 1010220615.88 453707219.615 980277820.38 2204708080.05 0 0 1048426024.08 1827129055.24 1296106808.49 323288385.146 0 0 0 0 0 0 495777453.067 0 0 0 0 0 0 0 0 0 0 0 0 0 0 0 0 0 0 0 
0 0 0 0 0 0 0 0 0 0 0 0 0 0 0 0 0 0 0 0 0 0 0 555336818.927 534351418.197 0 1038669530.17 0 0 0 220965698.723 0 830505281.426 0 448579232.43 0 557841893.578 846654511.149 1100568236.05 0 1498449454.28 537414592.413 1997529691.13 939258610.715 458051937.449 2138065060.81 1806073093.74 1035235148.46 0 558134398.242 1518483535.25 1155133737.97 819321181.806 973806829.095 0 494319687.751 0 527813697.322 0 0 363539589.195 0 0 65309747.8207 0 0 0 502241454.983 0 0 0 0 0 0 0 0 0 0 0 0 0 0 0 0 0 0 0 0 0 0 
0 0 0 0 0 0 0 0 0 0 0 0 0 0 0 0 0 0 0 0 0 0 0 0 0 0 0 0 0 0 548042199.535 128107404.744 0 532195369.899 0 64267621.8808 0 0 0 0 0 0 526291035.587 928732699.196 516669108.598 100581676.728 0 523876672.167 0 0 0 0 0 0 0 549741941.358 539147731.473 551798601.235 267211373.124 0 0 0 0 0 0 0 0 512752066.366 0 0 0 0 0 0 0 0 0 0 0 0 0 0 0 0 0 0 0 0 0 0 
0 0 0 0 0 0 0 0 0 0 0 0 0 0 0 0 0 0 0 0 0 0 0 0 0 0 47739350.7732 0 0 0 0 309102285.559 0 0 0 0 0 0 0 0 0 0 0 0 552427554.581 0 229490879.548 793237903.556 478565798.418 0 0 0 0 0 558142553.46 0 525737306.796 0 0 0 0 0 0 0 0 0 0 0 0 0 0 0 0 0 0 0 0 0 0 0 0 0 0 0 0 0 0 0 0 0 
0 0 0 0 0 0 0 0 0 0 0 0 0 0 0 0 0 0 0 0 0 0 0 0 0 0 0 0 0 0 0 0 0 0 0 0 0 0 0 549956572.168 0 0 0 0 0 0 534592455.816 0 0 0 0 0 557552257.551 517335507.464 0 0 0 0 0 0 0 0 0 0 0 0 0 0 0 0 0 0 0 0 0 0 0 0 0 0 0 0 0 0 0 0 0 0 0 0 
0 0 0 0 0 0 0 0 0 0 0 0 0 0 0 0 0 0 0 0 0 0 0 0 0 0 0 0 0 0 0 0 0 0 0 0 0 0 0 0 0 0 0 0 0 513216856.477 540910342.345 0 0 0 0 0 0 0 0 0 0 0 0 0 0 0 0 0 0 0 0 0 0 0 0 0 0 0 0 0 0 0 0 0 0 0 0 0 0 0 0 0 0 0 
0 0 0 0 0 0 0 0 0 0 0 0 0 0 0 0 0 0 0 0 0 0 0 0 0 0 0 0 0 0 0 0 0 0 0 0 0 0 0 0 0 0 0 0 0 0 0 0 0 0 0 0 0 0 0 0 0 0 0 0 0 0 0 0 0 0 0 0 0 0 0 0 0 0 0 0 0 0 0 0 0 0 0 0 0 0 0 0 0 0 
0 0 0 0 0 0 0 0 0 0 0 0 0 0 0 0 0 0 0 0 0 0 0 0 0 0 0 0 0 0 0 0 0 0 0 0 0 0 0 0 0 0 0 0 0 0 0 0 0 0 0 0 0 0 0 0 0 0 0 0 0 0 0 0 0 0 0 0 0 0 0 0 0 0 0 0 0 0 0 0 0 0 0 0 0 0 0 0 0 0 
0 0 0 0 0 0 0 0 0 0 0 0 0 0 0 0 0 0 0 0 0 0 0 0 0 0 0 0 0 0 0 0 0 0 0 0 0 0 0 0 0 0 0 0 0 0 0 0 0 0 0 0 0 0 0 0 0 0 0 0 0 0 0 0 0 0 0 0 0 0 0 0 0 0 0 0 0 0 0 0 0 0 0 0 0 0 0 0 0 0 
0 0 0 0 0 0 0 0 0 0 0 0 0 0 0 0 0 0 0 0 0 0 0 0 0 0 0 0 0 0 0 0 0 0 0 0 0 0 0 0 0 0 0 0 0 0 0 0 0 0 0 0 0 0 0 0 0 0 0 0 0 0 0 0 0 0 0 0 0 0 0 0 0 0 0 0 0 0 0 0 0 0 0 0 0 0 0 0 0 0 
0 0 0 0 0 0 0 0 0 0 0 0 0 0 0 0 0 0 0 0 0 0 0 0 0 0 0 0 0 0 0 0 0 0 0 0 0 0 0 0 0 0 0 0 0 0 0 0 0 0 0 0 0 0 0 0 0 0 0 0 0 0 0 0 0 0 0 0 0 0 0 0 0 0 0 0 0 0 0 0 0 0 0 0 0 0 0 0 0 0 
0 0 0 0 0 0 0 0 0 0 0 0 0 0 0 0 0 0 0 0 0 0 0 0 0 0 0 0 0 0 0 0 0 0 0 0 0 0 0 0 0 0 0 0 0 0 0 0 0 0 0 0 0 0 0 0 0 0 0 0 0 0 0 0 0 0 0 0 0 0 0 0 0 0 0 0 0 0 0 0 0 0 0 0 0 0 0 0 0 0 
0 0 0 0 0 0 0 0 0 0 0 0 0 0 0 0 0 0 0 0 0 0 0 0 0 0 0 0 0 0 0 0 0 0 0 0 0 0 0 0 0 0 0 0 0 0 0 0 0 0 0 0 0 0 0 0 0 0 0 0 0 0 0 0 0 0 0 0 0 0 0 0 0 0 0 0 0 0 0 0 0 0 0 0 0 0 0 0 0 0 
0 0 0 0 0 0 0 0 0 0 0 0 0 0 0 0 0 0 0 0 0 0 0 0 0 0 0 0 0 0 0 0 0 0 0 0 0 0 0 0 0 0 0 0 0 0 0 0 0 0 0 0 0 0 0 0 0 0 0 0 0 0 0 0 0 0 0 0 0 0 0 0 0 0 0 0 0 0 0 0 0 0 0 0 0 0 0 0 0 0 
0 0 0 0 0 0 0 0 0 0 0 0 0 0 0 0 0 0 0 0 0 0 0 0 0 0 0 0 0 0 0 0 0 0 0 0 0 0 0 0 0 0 0 0 0 0 0 0 0 0 0 0 0 0 0 0 0 0 0 0 0 0 0 0 0 0 0 0 0 0 0 0 0 0 0 0 0 0 0 0 0 0 0 0 0 0 0 0 0 0 
0 0 0 0 0 0 0 0 0 0 0 0 0 0 0 0 0 0 0 0 0 0 0 0 0 0 0 0 0 0 0 0 0 0 0 0 0 0 0 0 0 0 0 0 0 0 0 0 0 0 0 0 0 0 0 0 0 0 0 0 0 0 0 0 0 0 0 0 0 0 0 0 0 0 0 0 0 0 0 0 0 0 0 0 0 0 0 0 0 0 
0 0 0 0 0 0 0 0 0 0 0 0 0 0 0 0 0 0 0 0 0 0 0 0 0 0 0 0 0 0 0 0 0 0 0 0 0 0 0 0 0 0 0 0 0 0 0 0 0 0 0 0 0 0 0 0 0 0 0 0 0 0 0 0 0 0 0 0 0 0 0 0 0 0 0 0 0 0 0 0 0 0 0 0 0 0 0 0 0 0 
0 0 0 0 0 0 0 0 0 0 0 0 0 0 0 0 0 0 0 0 0 0 0 0 0 0 0 0 0 0 0 0 0 0 0 0 0 0 0 0 0 0 0 0 0 0 0 0 0 0 0 0 0 0 0 0 0 0 0 0 0 0 0 0 0 0 0 0 0 0 0 0 0 0 0 0 0 0 0 0 0 0 0 0 0 0 0 0 0 0 
0 0 0 0 0 0 0 0 0 0 0 0 0 0 0 0 0 0 0 0 0 0 0 0 0 0 0 0 0 0 0 0 0 0 0 0 0 0 0 0 0 0 0 0 0 0 0 0 0 0 0 0 0 0 0 0 0 0 0 0 0 0 0 0 0 0 0 0 0 0 0 0 0 0 0 0 0 0 0 0 0 0 0 0 0 0 0 0 0 0 
0 0 0 0 0 0 0 0 0 0 0 0 0 0 0 0 0 0 0 0 0 0 0 0 0 0 0 0 0 0 0 0 0 0 0 0 0 0 0 0 0 0 0 0 0 0 0 0 0 0 0 0 0 0 0 0 0 0 0 0 0 0 0 0 0 0 0 0 0 0 0 0 0 0 0 0 0 0 0 0 0 0 0 0 0 0 0 0 0 0 
0 0 0 0 0 0 0 0 0 0 0 0 0 0 0 0 0 0 0 0 0 0 0 0 0 0 0 0 0 0 0 0 0 0 0 0 0 0 0 0 0 0 0 0 0 0 0 0 0 0 0 0 0 0 0 0 0 0 0 0 0 0 0 0 0 0 0 0 0 0 0 0 0 0 0 0 0 0 0 0 0 0 0 0 0 0 0 0 0 0 
0 0 0 0 0 0 0 0 0 0 0 0 0 0 0 0 0 0 0 0 0 0 0 0 0 0 0 0 0 0 0 0 0 0 0 0 0 0 0 0 0 0 0 0 0 0 0 0 0 0 0 0 0 0 0 0 0 0 0 0 0 0 0 0 0 0 0 0 0 0 0 0 0 0 0 0 0 0 0 0 0 0 0 0 0 0 0 0 0 0 
0 0 0 0 0 0 0 0 0 0 0 0 0 0 0 0 0 0 0 0 0 0 0 0 0 0 0 0 0 0 0 0 0 0 0 0 0 0 0 0 0 0 0 0 0 0 0 0 0 0 0 0 0 0 0 0 0 0 0 0 0 0 0 0 0 0 0 0 0 0 0 0 0 0 0 0 0 0 0 0 0 0 0 0 0 0 0 0 0 0 
0 0 0 0 0 0 0 0 0 0 0 0 0 0 0 0 0 0 0 0 0 0 0 0 0 0 0 0 0 0 0 0 0 0 0 0 0 0 0 0 0 0 0 0 0 0 0 0 0 0 0 0 0 0 0 0 0 0 0 0 0 0 0 0 0 0 0 0 0 0 0 0 0 0 0 0 0 0 0 0 0 0 0 0 0 0 0 0 0 0 
0 0 0 0 0 0 0 0 0 0 0 0 0 0 0 0 0 0 0 0 0 0 0 0 0 0 0 0 0 0 0 0 0 0 0 0 0 0 0 0 0 0 0 0 0 0 0 0 0 0 0 0 0 0 0 0 0 0 0 0 0 0 0 0 0 0 0 0 0 0 0 0 0 0 0 0 0 0 0 0 0 0 0 0 0 0 0 0 0 0 
0 0 0 0 0 0 0 0 0 0 0 0 0 0 0 0 0 0 0 0 0 0 0 0 0 0 0 0 0 0 0 0 0 0 0 0 0 0 0 0 0 0 0 0 0 0 0 0 0 0 0 0 0 0 0 0 0 0 0 0 0 0 0 0 0 0 0 0 0 0 0 0 0 0 0 0 0 0 0 0 0 0 0 0 0 0 0 0 0 0 
0 0 0 0 0 0 0 0 0 0 0 0 0 0 0 0 0 0 0 0 0 0 0 0 0 0 0 0 0 0 0 0 0 0 0 0 0 0 0 0 0 0 0 0 0 0 0 0 0 0 0 0 0 0 0 0 0 0 0 0 0 0 0 0 0 0 0 0 0 0 0 0 0 0 0 0 0 0 0 0 0 0 0 0 0 0 0 0 0 0 
0 0 0 0 0 0 0 0 0 0 0 0 0 0 0 0 0 0 0 0 0 0 0 0 0 0 0 0 0 0 0 0 0 0 0 0 0 0 0 0 0 0 0 0 0 0 0 0 0 0 0 0 0 0 0 0 0 0 0 0 0 0 0 0 0 0 0 0 0 0 0 0 0 0 0 0 0 0 0 0 0 0 0 0 0 0 0 0 0 0 
0 0 0 0 0 0 0 0 0 0 0 0 0 0 0 0 0 0 0 0 0 0 0 0 0 0 0 0 0 0 0 0 0 0 0 0 0 0 0 0 0 0 0 0 0 0 0 0 0 0 0 0 0 0 0 0 0 0 0 0 0 0 0 0 0 0 0 0 0 0 0 0 0 0 0 0 0 0 0 0 0 0 0 0 0 0 0 0 0 0 
# Errors [psd1_dat/psd1.dat] E: 
0 0 0 0 0 0 0 0 0 0 0 0 0 0 0 0 0 0 0 0 0 0 0 0 0 0 0 0 0 0 0 0 0 0 0 0 0 0 0 0 0 0 0 0 0 0 0 0 0 0 0 0 0 0 0 0 0 0 0 0 0 0 0 0 0 0 0 0 0 0 0 0 0 0 0 0 0 0 0 0 0 0 0 0 0 0 0 0 0 0 
0 0 0 0 0 0 0 0 0 0 0 0 0 0 0 0 0 0 0 0 0 0 0 0 0 0 0 0 0 0 0 0 0 0 0 0 0 0 0 0 0 0 0 0 0 0 0 0 0 0 0 0 0 0 0 0 0 0 0 0 0 0 0 0 0 0 0 0 0 0 0 0 0 0 0 0 0 0 0 0 0 0 0 0 0 0 0 0 0 0 
0 0 0 0 0 0 0 0 0 0 0 0 0 0 0 0 0 0 0 0 0 0 0 0 0 0 0 0 0 0 0 0 0 0 0 0 0 0 0 0 0 0 0 0 0 0 0 0 0 0 0 0 0 0 0 0 0 0 0 0 0 0 0 0 0 0 0 0 0 0 0 0 0 0 0 0 0 0 0 0 0 0 0 0 0 0 0 0 0 0 
0 0 0 0 0 0 0 0 0 0 0 0 0 0 0 0 0 0 0 0 0 0 0 0 0 0 0 0 0 0 0 0 0 0 0 0 0 0 0 0 0 0 0 0 0 0 0 0 0 0 0 0 0 0 0 0 0 0 0 0 0 0 0 0 0 0 0 0 0 0 0 0 0 0 0 0 0 0 0 0 0 0 0 0 0 0 0 0 0 0 
0 0 0 0 0 0 0 0 0 0 0 0 0 0 0 0 0 0 0 0 0 0 0 0 0 0 0 0 0 0 0 0 0 0 0 0 0 0 0 0 0 0 0 0 0 0 0 0 0 0 0 0 0 0 0 0 0 0 0 0 0 0 0 0 0 0 0 0 0 0 0 0 0 0 0 0 0 0 0 0 0 0 0 0 0 0 0 0 0 0 
0 0 0 0 0 0 0 0 0 0 0 0 0 0 0 0 0 0 0 0 0 0 0 0 0 0 0 0 0 0 0 0 0 0 0 0 0 0 0 0 0 0 0 0 0 0 0 0 0 0 0 0 0 0 0 0 0 0 0 0 0 0 0 0 0 0 0 0 0 0 0 0 0 0 0 0 0 0 0 0 0 0 0 0 0 0 0 0 0 0 
0 0 0 0 0 0 0 0 0 0 0 0 0 0 0 0 0 0 0 0 0 0 0 0 0 0 0 0 0 0 0 0 0 0 0 0 0 0 0 0 0 0 0 0 0 0 0 0 0 0 0 0 0 0 0 0 0 0 0 0 0 0 0 0 0 0 0 0 0 0 0 0 0 0 0 0 0 0 0 0 0 0 0 0 0 0 0 0 0 0 
0 0 0 0 0 0 0 0 0 0 0 0 0 0 0 0 0 0 0 0 0 0 0 0 0 0 0 0 0 0 0 0 0 0 0 0 0 0 0 0 0 0 0 0 0 0 0 0 0 0 0 0 0 0 0 0 0 0 0 0 0 0 0 0 0 0 0 0 0 0 0 0 0 0 0 0 0 0 0 0 0 0 0 0 0 0 0 0 0 0 
0 0 0 0 0 0 0 0 0 0 0 0 0 0 0 0 0 0 0 0 0 0 0 0 0 0 0 0 0 0 0 0 0 0 0 0 0 0 0 0 0 0 0 0 0 0 0 0 0 0 0 0 0 0 0 0 0 0 0 0 0 0 0 0 0 0 0 0 0 0 0 0 0 0 0 0 0 0 0 0 0 0 0 0 0 0 0 0 0 0 
0 0 0 0 0 0 0 0 0 0 0 0 0 0 0 0 0 0 0 0 0 0 0 0 0 0 0 0 0 0 0 0 0 0 0 0 0 0 0 0 0 0 0 0 0 0 0 0 0 0 0 0 0 0 0 0 0 0 0 0 0 0 0 0 0 0 0 0 0 0 0 0 0 0 0 0 0 0 0 0 0 0 0 0 0 0 0 0 0 0 
0 0 0 0 0 0 0 0 0 0 0 0 0 0 0 0 0 0 0 0 0 0 0 0 0 0 0 0 0 0 0 0 0 0 0 0 0 0 0 0 0 0 0 0 0 0 0 0 0 0 0 0 0 0 0 0 0 0 0 0 0 0 0 0 0 0 0 0 0 0 0 0 0 0 0 0 0 0 0 0 0 0 0 0 0 0 0 0 0 0 
0 0 0 0 0 0 0 0 0 0 0 0 0 0 0 0 0 0 0 0 0 0 0 0 0 0 0 0 0 0 0 0 0 0 0 0 0 0 0 0 0 0 0 0 0 0 0 0 0 0 0 0 0 0 0 0 0 0 0 0 0 0 0 0 0 0 0 0 0 0 0 0 0 0 0 0 0 0 0 0 0 0 0 0 0 0 0 0 0 0 
0 0 0 0 0 0 0 0 0 0 0 0 0 0 0 0 0 0 0 0 0 0 0 0 0 0 0 0 0 0 0 0 0 0 0 0 0 0 0 0 0 0 0 0 0 0 0 0 0 0 0 0 0 0 0 0 0 0 0 0 0 0 0 0 0 0 0 0 0 0 0 0 0 0 0 0 0 0 0 0 0 0 0 0 0 0 0 0 0 0 
0 0 0 0 0 0 0 0 0 0 0 0 0 0 0 0 0 0 0 0 0 0 0 0 0 0 0 0 0 0 0 0 0 0 0 0 0 0 0 0 0 0 0 0 0 0 0 0 0 0 0 0 0 0 0 0 0 0 0 0 0 0 0 0 0 0 0 0 0 0 0 0 0 0 0 0 0 0 0 0 0 0 0 0 0 0 0 0 0 0 
0 0 0 0 0 0 0 0 0 0 0 0 0 0 0 0 0 0 0 0 0 0 0 0 0 0 0 0 0 0 0 0 0 0 0 0 0 0 0 0 0 0 0 0 0 0 0 0 0 0 0 0 0 0 0 0 0 0 0 0 0 0 0 0 0 0 0 0 0 0 0 0 0 0 0 0 0 0 0 0 0 0 0 0 0 0 0 0 0 0 
0 0 0 0 0 0 0 0 0 0 0 0 0 0 0 0 0 0 0 0 0 0 0 0 0 0 0 0 0 0 0 0 0 0 0 0 0 0 0 0 0 0 0 0 0 0 0 0 0 0 0 0 0 0 0 0 0 0 0 0 0 0 0 0 0 0 0 0 0 0 0 0 0 0 0 0 0 0 0 0 0 0 0 0 0 0 0 0 0 0 
0 0 0 0 0 0 0 0 0 0 0 0 0 0 0 0 0 0 0 0 0 0 0 0 0 0 0 0 0 0 0 0 0 0 0 0 0 0 0 0 0 0 0 0 0 0 0 0 0 0 0 0 0 0 0 0 0 0 0 0 0 0 0 0 0 0 0 0 0 0 0 0 0 0 0 0 0 0 0 0 0 0 0 0 0 0 0 0 0 0 
0 0 0 0 0 0 0 0 0 0 0 0 0 0 0 0 0 0 0 0 0 0 0 0 0 0 0 0 0 0 0 0 0 0 0 0 0 0 0 0 0 0 0 0 0 0 0 0 0 0 0 0 0 0 0 0 0 0 0 0 0 0 0 0 0 0 0 0 0 0 0 0 0 0 0 0 0 0 0 0 0 0 0 0 0 0 0 0 0 0 
0 0 0 0 0 0 0 0 0 0 0 0 0 0 0 0 0 0 0 0 0 0 0 0 0 0 0 0 0 0 0 0 0 0 0 0 0 0 0 0 0 0 0 0 0 0 0 0 0 0 0 0 0 0 0 0 0 0 0 0 0 0 0 0 0 0 0 0 0 0 0 0 0 0 0 0 0 0 0 0 0 0 0 0 0 0 0 0 0 0 
0 0 0 0 0 0 0 0 0 0 0 0 0 0 0 0 0 0 0 0 0 0 0 0 0 0 0 0 0 0 0 0 0 0 0 0 0 0 0 0 0 0 0 0 0 0 0 0 0 0 0 0 0 0 0 0 0 0 0 0 0 0 0 0 0 0 0 0 0 0 0 0 0 0 0 0 0 0 0 0 0 0 0 0 0 0 0 0 0 0 
0 0 0 0 0 0 0 0 0 0 0 0 0 0 0 0 0 0 0 0 0 0 0 0 0 0 0 0 0 0 0 0 0 0 0 0 0 0 0 0 0 0 0 0 0 0 0 0 0 0 0 0 0 0 0 0 0 0 0 0 0 0 0 0 0 0 0 0 0 0 0 0 0 0 0 0 0 0 0 0 0 0 0 0 0 0 0 0 0 0 
0 0 0 0 0 0 0 0 0 0 0 0 0 0 0 0 0 0 0 0 0 0 0 0 0 0 0 0 0 0 0 0 0 0 0 0 0 0 0 0 0 0 0 0 0 0 0 0 0 0 0 0 0 0 0 0 0 0 0 0 0 0 0 0 0 0 0 0 0 0 0 0 0 0 0 0 0 0 0 0 0 0 0 0 0 0 0 0 0 0 
0 0 0 0 0 0 0 0 0 0 0 0 0 0 0 0 0 0 0 0 0 0 0 0 0 0 0 0 0 0 0 0 0 0 0 0 0 0 0 0 0 0 0 0 0 0 0 0 0 0 0 0 0 0 0 0 0 0 0 0 0 0 0 0 0 0 0 0 0 0 0 0 0 0 0 0 0 0 0 0 0 0 0 0 0 0 0 0 0 0 
0 0 0 0 0 0 0 0 0 0 0 0 0 0 0 0 0 0 0 0 0 0 0 0 0 0 0 0 0 0 0 0 0 0 0 0 0 0 0 0 0 0 0 0 0 0 0 0 0 0 0 0 0 0 0 0 0 0 0 0 0 0 0 0 0 0 0 0 0 0 0 0 0 0 0 0 0 0 0 0 0 0 0 0 0 0 0 0 0 0 
0 0 0 0 0 0 0 0 0 0 0 0 0 0 0 0 0 0 0 0 0 0 0 0 0 0 0 0 0 0 0 0 0 0 0 0 0 0 0 0 0 0 0 0 0 0 0 0 0 0 0 0 0 0 0 0 0 0 0 0 0 0 0 0 0 0 0 0 0 0 0 0 0 0 0 0 0 0 0 0 0 0 0 0 0 0 0 0 0 0 
0 0 0 0 0 0 0 0 0 0 0 0 0 0 0 0 0 0 0 0 0 0 0 0 0 0 0 0 0 0 0 0 0 0 0 0 0 0 0 0 0 0 0 0 0 0 0 0 0 0 0 0 0 0 0 0 0 0 0 0 0 0 0 0 0 0 0 0 0 0 0 0 0 0 0 0 0 0 0 0 0 0 0 0 0 0 0 0 0 0 
0 0 0 0 0 0 0 0 0 0 0 0 0 0 0 0 0 0 0 0 0 0 0 0 0 0 0 0 0 0 0 0 0 0 0 0 0 0 0 0 0 0 0 0 0 0 0 0 0 0 0 0 0 0 0 0 0 0 0 0 0 0 0 0 0 0 0 0 0 0 0 0 0 0 0 0 0 0 0 0 0 0 0 0 0 0 0 0 0 0 
0 0 0 0 0 0 0 0 0 0 0 0 0 0 0 0 0 0 0 0 0 0 0 0 0 0 0 0 0 0 0 0 0 0 0 0 0 0 0 0 0 0 0 0 0 0 0 0 0 0 0 0 0 0 0 0 0 0 0 0 0 0 0 0 0 0 0 0 0 0 0 0 0 0 0 0 0 0 0 0 0 0 0 0 0 0 0 0 0 0 
0 0 0 0 0 0 0 0 0 0 0 0 0 0 0 0 0 0 0 0 0 0 0 0 0 0 0 0 0 0 0 0 0 0 0 0 0 0 0 0 0 0 0 0 0 0 0 0 0 0 0 0 0 0 0 0 0 0 0 0 0 0 0 0 0 0 0 0 0 0 0 0 0 0 0 0 0 0 0 0 0 0 0 0 0 0 0 0 0 0 
0 0 0 0 0 0 0 0 0 0 0 0 0 0 0 0 0 0 0 0 0 0 0 0 0 0 0 0 0 0 0 0 0 0 0 0 0 0 0 0 0 0 0 0 0 0 0 0 0 0 0 0 0 0 0 0 0 0 0 0 0 0 0 0 0 0 0 0 0 0 0 0 0 0 0 0 0 0 0 0 0 0 0 0 0 0 0 0 0 0 
0 0 0 0 0 0 0 0 0 0 0 0 0 0 0 0 0 0 0 0 0 0 0 0 0 0 0 0 0 0 0 0 0 0 0 0 0 0 0 0 0 0 0 0 0 0 0 0 0 0 0 0 0 0 0 0 0 0 0 0 0 0 0 0 0 0 0 0 0 0 0 0 0 0 0 0 0 0 0 0 0 0 0 0 0 0 0 0 0 0 
0 0 0 0 0 0 0 0 0 0 0 0 0 0 0 0 0 0 0 0 0 0 0 0 0 0 0 0 0 0 0 0 0 0 0 0 0 0 0 0 0 0 0 0 0 0 0 0 0 0 0 0 0 0 0 0 0 0 0 0 0 0 0 0 0 0 0 0 0 0 0 0 0 0 0 0 0 0 0 0 0 0 0 0 0 0 0 0 0 0 
0 0 0 0 0 0 0 0 0 0 0 0 0 0 0 0 0 0 0 0 0 0 0 0 0 0 0 0 0 0 0 0 0 0 0 0 0 0 0 0 0 0 0 0 0 0 0 0 0 0 0 0 0 0 0 0 0 0 0 0 0 0 0 0 0 0 0 0 0 0 0 0 0 0 0 0 0 0 0 0 0 0 0 0 0 0 0 0 0 0 
0 0 0 0 0 0 0 0 0 0 0 0 0 0 0 0 0 0 0 0 0 0 0 0 0 0 0 0 0 0 0 0 0 0 0 0 0 0 0 0 0 0 0 0 0 0 0 0 0 0 0 0 0 0 0 0 0 0 0 0 0 0 0 0 0 0 0 0 0 0 0 0 0 0 0 0 0 0 0 0 0 0 0 0 0 0 0 0 0 0 
0 0 0 0 0 0 0 0 0 0 0 0 0 0 0 0 0 0 0 0 0 0 0 0 0 0 0 0 0 0 0 0 0 0 0 0 0 0 0 0 0 0 0 0 0 0 0 0 0 0 0 0 0 0 0 0 0 0 0 0 0 0 0 0 0 0 0 0 0 0 0 0 0 0 0 0 0 0 0 0 0 0 0 0 0 0 0 0 0 0 
0 0 0 0 0 0 0 0 0 0 0 0 0 0 0 0 0 0 0 0 0 0 0 0 0 0 0 0 0 0 0 0 0 0 0 0 0 0 0 0 0 0 0 0 0 0 0 0 0 0 0 0 0 0 0 0 0 0 0 0 0 0 0 0 0 0 0 0 0 0 0 0 0 0 0 0 0 0 0 0 0 0 0 0 0 0 0 0 0 0 
0 0 0 0 0 0 0 0 0 0 0 0 0 0 0 0 0 0 0 0 0 0 0 0 0 0 0 0 0 0 0 0 0 0 0 0 0 0 0 0 0 0 0 0 0 0 0 0 0 0 0 0 0 0 0 0 0 0 0 0 0 0 0 0 0 0 0 0 0 0 0 0 0 0 0 0 0 0 0 0 0 0 0 0 0 0 0 0 0 0 
0 0 0 0 0 0 0 0 0 0 0 0 0 0 0 0 0 0 0 0 0 0 0 0 0 0 0 0 0 0 0 0 0 0 0 0 0 0 0 0 0 0 0 0 0 0 0 0 0 0 0 0 0 0 0 0 0 0 0 0 0 0 0 0 0 0 0 0 0 0 0 0 0 0 0 0 0 0 0 0 0 0 0 0 0 0 0 0 0 0 
0 0 0 0 0 0 0 0 0 0 0 0 0 0 0 0 0 0 0 0 0 0 0 0 0 0 0 0 0 0 0 0 0 0 0 0 0 0 0 0 0 0 0 0 0 0 0 0 0 0 0 0 0 0 0 0 0 0 0 0 0 0 0 0 0 0 0 0 0 0 0 0 0 0 0 0 0 0 0 0 0 0 0 0 0 0 0 0 0 0 
0 0 0 0 0 0 0 0 0 0 0 0 0 0 0 0 0 0 0 0 0 0 0 0 0 0 0 0 0 0 0 0 0 0 0 0 0 0 0 0 0 0 0 0 0 0 0 0 0 0 0 0 0 0 0 0 0 0 0 0 0 0 0 0 0 0 0 0 0 0 0 0 0 0 0 0 0 0 0 0 0 0 0 0 0 0 0 0 0 0 
0 0 0 0 0 0 0 0 0 0 0 0 0 0 0 0 0 0 0 0 0 0 0 0 0 0 0 0 0 0 0 0 0 0 0 0 0 0 0 0 0 0 0 0 0 0 0 0 0 0 0 0 0 0 0 0 0 0 0 0 0 0 0 0 0 0 0 0 0 0 0 0 0 0 0 0 0 0 0 0 0 0 0 0 0 0 0 0 0 0 
0 0 0 0 0 0 0 0 0 0 0 0 0 0 0 0 0 0 0 0 0 0 0 0 0 0 0 0 0 0 0 0 0 0 0 0 0 0 0 0 0 0 0 0 0 0 0 0 0 0 0 0 0 0 0 0 0 0 0 0 0 0 0 0 0 0 0 0 0 0 0 0 0 0 0 0 0 0 0 0 0 0 0 0 0 0 0 0 0 0 
0 0 0 0 0 0 0 0 0 0 0 0 0 0 0 0 0 0 0 0 0 0 0 0 0 0 0 0 0 0 0 0 0 0 0 0 0 0 0 0 0 0 0 0 0 0 0 0 0 0 0 0 0 0 0 0 0 0 0 0 0 0 0 0 0 0 0 0 0 0 0 0 0 0 0 0 0 0 0 0 0 0 0 0 0 0 0 0 0 0 
0 0 0 0 0 0 0 0 0 0 0 0 0 0 0 0 0 0 0 0 0 0 0 0 0 0 0 0 0 0 0 0 0 0 0 0 0 0 0 0 0 0 0 0 0 0 0 0 0 0 0 0 0 0 0 0 0 0 0 0 0 0 0 0 0 0 0 0 0 0 0 0 0 0 0 0 0 0 0 0 0 0 0 0 0 0 0 0 0 0 
0 0 0 0 0 0 0 0 0 0 0 0 0 0 0 0 0 0 0 0 0 0 0 0 0 0 0 0 0 0 0 0 0 0 0 0 0 0 0 0 0 0 0 0 0 0 0 0 0 0 0 0 0 0 0 0 0 0 0 0 0 0 0 0 0 0 0 0 0 0 0 0 0 0 0 0 0 0 0 0 0 0 0 0 0 0 0 0 0 0 
0 0 0 0 0 0 0 0 0 0 0 0 0 0 0 0 0 0 0 0 0 0 0 0 0 0 0 0 0 0 0 0 0 0 0 0 0 0 0 0 0 0 0 0 0 0 0 0 0 0 0 0 0 0 0 0 0 0 0 0 0 0 0 0 0 0 0 0 0 0 0 0 0 0 0 0 0 0 0 0 0 0 0 0 0 0 0 0 0 0 
0 0 0 0 0 0 0 0 0 0 0 0 0 0 0 0 0 0 0 0 0 0 0 0 0 0 0 0 0 0 0 0 0 0 0 0 0 0 0 0 0 0 0 0 0 0 0 0 0 0 0 0 0 0 0 0 0 0 0 0 0 0 0 0 0 0 0 0 0 0 0 0 0 0 0 0 0 0 0 0 0 0 0 0 0 0 0 0 0 0 
0 0 0 0 0 0 0 0 0 0 0 0 0 0 0 0 0 0 0 0 0 0 0 0 0 0 0 0 0 0 0 0 0 0 0 0 0 0 0 0 0 0 0 0 0 0 0 0 0 0 0 0 0 0 0 0 0 0 0 0 0 0 0 0 0 0 0 0 0 0 0 0 0 0 0 0 0 0 0 0 0 0 0 0 0 0 0 0 0 0 
0 0 0 0 0 0 0 0 0 0 0 0 0 0 0 0 0 0 0 0 0 0 0 0 0 0 0 0 0 0 0 0 0 0 0 0 0 0 0 0 0 0 0 0 0 0 0 0 0 0 0 0 0 0 0 0 0 0 0 0 0 0 0 0 0 0 0 0 0 0 0 0 0 0 0 0 0 0 0 0 0 0 0 0 0 0 0 0 0 0 
0 0 0 0 0 0 0 0 0 0 0 0 0 0 0 0 0 0 0 0 0 0 0 0 0 0 0 0 0 0 0 0 0 0 0 0 0 0 0 0 0 0 0 0 0 0 0 0 0 0 0 0 0 0 0 0 0 0 0 0 0 0 0 0 0 0 0 0 0 0 0 0 0 0 0 0 0 0 0 0 0 0 0 0 0 0 0 0 0 0 
0 0 0 0 0 0 0 0 0 0 0 0 0 0 0 0 0 0 0 0 0 0 0 0 0 0 0 0 0 0 0 0 0 0 0 0 0 0 0 0 0 0 0 0 0 0 0 0 0 0 0 0 0 0 0 0 0 0 0 0 0 0 0 0 0 0 0 0 0 0 0 0 0 0 0 0 0 0 0 0 0 0 0 0 0 0 0 0 0 0 
0 0 0 0 0 0 0 0 0 0 0 0 0 0 0 0 0 0 0 0 0 0 0 0 0 0 0 0 0 0 0 0 0 0 0 0 0 0 0 0 0 0 0 0 0 0 0 0 0 0 0 0 0 0 0 0 0 0 0 0 0 0 0 0 0 0 0 0 0 0 0 0 0 0 0 0 0 0 0 0 0 0 0 0 0 0 0 0 0 0 
0 0 0 0 0 0 0 0 0 0 0 0 0 0 0 0 0 0 0 0 0 0 0 0 0 0 0 0 0 0 0 0 0 0 0 0 0 0 0 0 0 0 0 0 0 0 0 0 0 0 0 0 0 0 0 0 0 0 0 0 0 0 0 0 0 0 0 0 0 0 0 0 0 0 0 0 0 0 0 0 0 0 0 0 0 0 0 0 0 0 
0 0 0 0 0 0 0 0 0 0 0 0 0 0 0 0 0 0 0 0 0 0 0 0 0 0 0 0 0 0 0 0 0 0 0 0 0 0 0 0 0 0 0 0 0 0 0 0 0 0 0 0 0 0 0 0 0 0 0 0 0 0 0 0 0 0 0 0 0 0 0 0 0 0 0 0 0 0 0 0 0 0 0 0 0 0 0 0 0 0 
0 0 0 0 0 0 0 0 0 0 0 0 0 0 0 0 0 0 0 0 0 0 0 0 0 0 0 0 0 0 0 0 0 0 0 0 0 0 0 0 0 0 0 0 0 0 0 0 0 0 0 0 0 0 0 0 0 0 0 0 0 0 0 0 0 0 0 0 0 0 0 0 0 0 0 0 0 0 0 0 0 0 0 0 0 0 0 0 0 0 
0 0 0 0 0 0 0 0 0 0 0 0 0 0 0 0 0 0 0 0 0 0 0 0 0 0 0 0 0 0 0 0 0 0 0 0 0 0 0 0 0 0 0 0 0 0 0 0 0 0 0 0 0 0 0 0 0 0 0 0 0 0 0 0 0 0 0 0 0 0 0 0 0 0 0 0 0 0 0 0 0 0 0 0 0 0 0 0 0 0 
0 0 0 0 0 0 0 0 0 0 0 0 0 0 0 0 0 0 0 0 0 0 0 0 0 0 0 0 0 0 0 0 0 0 0 0 0 0 0 0 0 0 0 0 0 0 0 0 0 0 0 0 0 0 0 0 0 0 0 0 0 0 0 0 0 0 0 0 0 0 0 0 0 0 0 0 0 0 0 0 0 0 0 0 0 0 0 0 0 0 
0 0 0 0 0 0 0 0 0 0 0 0 0 0 0 0 0 0 0 0 0 0 0 0 0 0 0 0 0 0 0 0 0 0 0 0 0 0 0 0 0 0 0 0 0 0 0 0 0 0 0 0 0 0 0 0 0 0 0 0 0 0 0 0 0 0 0 0 0 0 0 0 0 0 0 0 0 0 0 0 0 0 0 0 0 0 0 0 0 0 
0 0 0 0 0 0 0 0 0 0 0 0 0 0 0 0 0 0 0 0 0 0 0 0 0 0 0 0 0 0 0 0 0 0 0 0 0 0 0 0 0 0 0 0 0 0 0 0 0 0 0 0 0 0 0 0 0 0 0 0 0 0 0 0 0 0 0 0 0 0 0 0 0 0 0 0 0 0 0 0 0 0 0 0 0 0 0 0 0 0 
0 0 0 0 0 0 0 0 0 0 0 0 0 0 0 0 0 0 0 0 0 0 0 0 0 0 0 0 0 0 0 0 0 0 0 0 0 0 0 0 0 0 0 0 0 0 0 0 0 0 0 0 0 0 0 0 0 0 0 0 0 0 0 0 0 0 0 0 0 0 0 0 0 0 0 0 0 0 0 0 0 0 0 0 0 0 0 0 0 0 
0 0 0 0 0 0 0 0 0 0 0 0 0 0 0 0 0 0 0 0 0 0 0 0 0 0 0 0 0 0 0 0 0 0 0 0 0 0 0 0 0 0 0 0 0 0 0 0 0 0 0 0 0 0 0 0 0 0 0 0 0 0 0 0 0 0 0 0 0 0 0 0 0 0 0 0 0 0 0 0 0 0 0 0 0 0 0 0 0 0 
0 0 0 0 0 0 0 0 0 0 0 0 0 0 0 0 0 0 0 0 0 0 0 0 0 0 0 0 0 0 0 0 0 0 0 0 0 0 0 0 0 0 0 0 0 0 0 0 0 0 0 0 0 0 0 0 0 0 0 0 0 0 0 0 0 0 0 0 0 0 0 0 0 0 0 0 0 0 0 0 0 0 0 0 0 0 0 0 0 0 
0 0 0 0 0 0 0 0 0 0 0 0 0 0 0 0 0 0 0 0 0 0 0 0 0 0 0 0 0 0 0 0 0 0 0 0 0 0 0 0 0 0 0 0 0 0 0 0 0 0 0 0 0 0 0 0 0 0 0 0 0 0 0 0 0 0 0 0 0 0 0 0 0 0 0 0 0 0 0 0 0 0 0 0 0 0 0 0 0 0 
0 0 0 0 0 0 0 0 0 0 0 0 0 0 0 0 0 0 0 0 0 0 0 0 0 0 0 0 0 0 0 0 0 0 0 0 0 0 0 0 0 0 0 0 0 0 0 0 0 0 0 0 0 0 0 0 0 0 0 0 0 0 0 0 0 0 0 0 0 0 0 0 0 0 0 0 0 0 0 0 0 0 0 0 0 0 0 0 0 0 
0 0 0 0 0 0 0 0 0 0 0 0 0 0 0 0 0 0 0 0 0 0 0 0 0 0 0 0 0 0 0 0 0 0 0 0 0 0 0 0 0 0 0 0 0 0 0 0 0 0 0 0 0 0 0 0 0 0 0 0 0 0 0 0 0 0 0 0 0 0 0 0 0 0 0 0 0 0 0 0 0 0 0 0 0 0 0 0 0 0 
0 0 0 0 0 0 0 0 0 0 0 0 0 0 0 0 0 0 0 0 0 0 0 0 0 0 0 0 0 0 0 0 0 0 0 0 0 0 0 0 0 0 0 0 0 0 0 0 0 0 0 0 0 0 0 0 0 0 0 0 0 0 0 0 0 0 0 0 0 0 0 0 0 0 0 0 0 0 0 0 0 0 0 0 0 0 0 0 0 0 
0 0 0 0 0 0 0 0 0 0 0 0 0 0 0 0 0 0 0 0 0 0 0 0 0 0 0 0 0 0 0 0 0 0 0 0 0 0 0 0 0 0 0 0 0 0 0 0 0 0 0 0 0 0 0 0 0 0 0 0 0 0 0 0 0 0 0 0 0 0 0 0 0 0 0 0 0 0 0 0 0 0 0 0 0 0 0 0 0 0 
0 0 0 0 0 0 0 0 0 0 0 0 0 0 0 0 0 0 0 0 0 0 0 0 0 0 0 0 0 0 0 0 0 0 0 0 0 0 0 0 0 0 0 0 0 0 0 0 0 0 0 0 0 0 0 0 0 0 0 0 0 0 0 0 0 0 0 0 0 0 0 0 0 0 0 0 0 0 0 0 0 0 0 0 0 0 0 0 0 0 
0 0 0 0 0 0 0 0 0 0 0 0 0 0 0 0 0 0 0 0 0 0 0 0 0 0 0 0 0 0 0 0 0 0 0 0 0 0 0 0 0 0 0 0 0 0 0 0 0 0 0 0 0 0 0 0 0 0 0 0 0 0 0 0 0 0 0 0 0 0 0 0 0 0 0 0 0 0 0 0 0 0 0 0 0 0 0 0 0 0 
0 0 0 0 0 0 0 0 0 0 0 0 0 0 0 0 0 0 0 0 0 0 0 0 0 0 0 0 0 0 0 0 0 0 0 0 0 0 0 0 0 0 0 0 0 0 0 0 0 0 0 0 0 0 0 0 0 0 0 0 0 0 0 0 0 0 0 0 0 0 0 0 0 0 0 0 0 0 0 0 0 0 0 0 0 0 0 0 0 0 
0 0 0 0 0 0 0 0 0 0 0 0 0 0 0 0 0 0 0 0 0 0 0 0 0 0 0 0 0 0 0 0 0 0 0 0 0 0 0 0 0 0 0 0 0 0 0 0 0 0 0 0 0 0 0 0 0 0 0 0 0 0 0 0 0 0 0 0 0 0 0 0 0 0 0 0 0 0 0 0 0 0 0 0 0 0 0 0 0 0 
0 0 0 0 0 0 0 0 0 0 0 0 0 0 0 0 0 0 0 0 0 0 0 0 0 0 0 0 0 0 0 0 0 0 0 0 0 0 0 0 0 0 0 0 0 0 0 0 0 0 0 0 0 0 0 0 0 0 0 0 0 0 0 0 0 0 0 0 0 0 0 0 0 0 0 0 0 0 0 0 0 0 0 0 0 0 0 0 0 0 
0 0 0 0 0 0 0 0 0 0 0 0 0 0 0 0 0 0 0 0 0 0 0 0 0 0 0 0 0 0 0 0 0 0 0 0 0 0 0 0 0 0 0 0 0 0 0 0 0 0 0 0 0 0 0 0 0 0 0 0 0 0 0 0 0 0 0 0 0 0 0 0 0 0 0 0 0 0 0 0 0 0 0 0 0 0 0 0 0 0 
0 0 0 0 0 0 0 0 0 0 0 0 0 0 0 0 0 0 0 0 0 0 0 0 0 0 0 0 0 0 0 0 0 0 0 0 0 0 0 0 0 0 0 0 0 0 0 0 0 0 0 0 0 0 0 0 0 0 0 0 0 0 0 0 0 0 0 0 0 0 0 0 0 0 0 0 0 0 0 0 0 0 0 0 0 0 0 0 0 0 
0 0 0 0 0 0 0 0 0 0 0 0 0 0 0 0 0 0 0 0 0 0 0 0 0 0 0 0 0 0 0 0 0 0 0 0 0 0 0 0 0 0 0 0 0 0 0 0 0 0 0 0 0 0 0 0 0 0 0 0 0 0 0 0 0 0 0 0 0 0 0 0 0 0 0 0 0 0 0 0 0 0 0 0 0 0 0 0 0 0 
0 0 0 0 0 0 0 0 0 0 0 0 0 0 0 0 0 0 0 0 0 0 0 0 0 0 0 0 0 0 0 0 0 0 0 0 0 0 0 0 0 0 0 0 0 0 0 0 0 0 0 0 0 0 0 0 0 0 0 0 0 0 0 0 0 0 0 0 0 0 0 0 0 0 0 0 0 0 0 0 0 0 0 0 0 0 0 0 0 0 
0 0 0 0 0 0 0 0 0 0 0 0 0 0 0 0 0 0 0 0 0 0 0 0 0 0 0 0 0 0 0 0 0 0 0 0 0 0 0 0 0 0 0 0 0 0 0 0 0 0 0 0 0 0 0 0 0 0 0 0 0 0 0 0 0 0 0 0 0 0 0 0 0 0 0 0 0 0 0 0 0 0 0 0 0 0 0 0 0 0 
0 0 0 0 0 0 0 0 0 0 0 0 0 0 0 0 0 0 0 0 0 0 0 0 0 0 0 0 0 0 0 0 0 0 0 0 0 0 0 0 0 0 0 0 0 0 0 0 0 0 0 0 0 0 0 0 0 0 0 0 0 0 0 0 0 0 0 0 0 0 0 0 0 0 0 0 0 0 0 0 0 0 0 0 0 0 0 0 0 0 
0 0 0 0 0 0 0 0 0 0 0 0 0 0 0 0 0 0 0 0 0 0 0 0 0 0 0 0 0 0 0 0 0 0 0 0 0 0 0 0 0 0 0 0 0 0 0 0 0 0 0 0 0 0 0 0 0 0 0 0 0 0 0 0 0 0 0 0 0 0 0 0 0 0 0 0 0 0 0 0 0 0 0 0 0 0 0 0 0 0 
0 0 0 0 0 0 0 0 0 0 0 0 0 0 0 0 0 0 0 0 0 0 0 0 0 0 0 0 0 0 0 0 0 0 0 0 0 0 0 0 0 0 0 0 0 0 0 0 0 0 0 0 0 0 0 0 0 0 0 0 0 0 0 0 0 0 0 0 0 0 0 0 0 0 0 0 0 0 0 0 0 0 0 0 0 0 0 0 0 0 
0 0 0 0 0 0 0 0 0 0 0 0 0 0 0 0 0 0 0 0 0 0 0 0 0 0 0 0 0 0 0 0 0 0 0 0 0 0 0 0 0 0 0 0 0 0 0 0 0 0 0 0 0 0 0 0 0 0 0 0 0 0 0 0 0 0 0 0 0 0 0 0 0 0 0 0 0 0 0 0 0 0 0 0 0 0 0 0 0 0 
0 0 0 0 0 0 0 0 0 0 0 0 0 0 0 0 0 0 0 0 0 0 0 0 0 0 0 0 0 0 0 0 0 0 0 0 0 0 0 0 0 0 0 0 0 0 0 0 0 0 0 0 0 0 0 0 0 0 0 0 0 0 0 0 0 0 0 0 0 0 0 0 0 0 0 0 0 0 0 0 0 0 0 0 0 0 0 0 0 0 
0 0 0 0 0 0 0 0 0 0 0 0 0 0 0 0 0 0 0 0 0 0 0 0 0 0 0 0 0 0 0 0 0 0 0 0 0 0 0 0 0 0 0 0 0 0 0 0 0 0 0 0 0 0 0 0 0 0 0 0 0 0 0 0 0 0 0 0 0 0 0 0 0 0 0 0 0 0 0 0 0 0 0 0 0 0 0 0 0 0 
0 0 0 0 0 0 0 0 0 0 0 0 0 0 0 0 0 0 0 0 0 0 0 0 0 0 0 0 0 0 0 0 0 0 0 0 0 0 0 0 0 0 0 0 0 0 0 0 0 0 0 0 0 0 0 0 0 0 0 0 0 0 0 0 0 0 0 0 0 0 0 0 0 0 0 0 0 0 0 0 0 0 0 0 0 0 0 0 0 0 
0 0 0 0 0 0 0 0 0 0 0 0 0 0 0 0 0 0 0 0 0 0 0 0 0 0 0 0 0 0 0 0 0 0 0 0 0 0 0 0 0 0 0 0 0 0 0 0 0 0 0 0 0 0 0 0 0 0 0 0 0 0 0 0 0 0 0 0 0 0 0 0 0 0 0 0 0 0 0 0 0 0 0 0 0 0 0 0 0 0 
0 0 0 0 0 0 0 0 0 0 0 0 0 0 0 0 0 0 0 0 0 0 0 0 0 0 0 0 0 0 0 0 0 0 0 0 0 0 0 0 0 0 0 0 0 0 0 0 0 0 0 0 0 0 0 0 0 0 0 0 0 0 0 0 0 0 0 0 0 0 0 0 0 0 0 0 0 0 0 0 0 0 0 0 0 0 0 0 0 0 
0 0 0 0 0 0 0 0 0 0 0 0 0 0 0 0 0 0 0 0 0 0 0 0 0 0 0 0 0 0 0 0 0 0 0 0 0 0 0 0 0 0 0 0 0 0 0 0 0 0 0 0 0 0 0 0 0 0 0 0 0 0 0 0 0 0 0 0 0 0 0 0 0 0 0 0 0 0 0 0 0 0 0 0 0 0 0 0 0 0 
0 0 0 0 0 0 0 0 0 0 0 0 0 0 0 0 0 0 0 0 0 0 0 0 0 0 0 0 0 0 0 0 0 0 0 0 0 0 0 0 0 0 0 0 0 0 0 0 0 0 0 0 0 0 0 0 0 0 0 0 0 0 0 0 0 0 0 0 0 0 0 0 0 0 0 0 0 0 0 0 0 0 0 0 0 0 0 0 0 0 
0 0 0 0 0 0 0 0 0 0 0 0 0 0 0 0 0 0 0 0 0 0 0 0 0 0 0 0 0 0 0 0 0 0 0 0 0 0 0 0 0 0 0 0 0 0 0 0 0 0 0 0 0 0 0 0 0 0 0 0 0 0 0 0 0 0 0 0 0 0 0 0 0 0 0 0 0 0 0 0 0 0 0 0 0 0 0 0 0 0 
0 0 0 0 0 0 0 0 0 0 0 0 0 0 0 0 0 0 0 0 0 0 0 0 0 0 0 0 0 0 0 0 0 0 0 0 0 0 0 0 0 0 0 0 0 0 0 0 0 0 0 0 0 0 0 0 0 0 0 0 0 0 0 0 0 0 0 0 0 0 0 0 0 0 0 0 0 0 0 0 0 0 0 0 0 0 0 0 0 0 
# Events [psd1_dat/psd1.dat] N: 
0 0 0 0 0 0 0 0 0 0 0 0 0 0 0 0 0 0 0 0 0 0 0 0 0 0 0 0 0 0 0 0 0 0 0 0 0 0 0 0 0 0 0 0 0 0 0 0 0 0 0 0 0 0 0 0 0 0 0 0 0 0 0 0 0 0 0 0 0 0 0 0 0 0 0 0 0 0 0 0 0 0 0 0 0 0 0 0 0 0 
0 0 0 0 0 0 0 0 0 0 0 0 0 0 0 0 0 0 0 0 0 0 0 0 0 0 0 0 0 0 0 0 0 0 0 0 0 0 0 0 0 0 0 0 0 0 0 0 0 0 0 0 0 0 0 0 0 0 0 0 0 0 0 0 0 0 0 0 0 0 0 0 0 0 0 0 0 0 0 0 0 0 0 0 0 0 0 0 0 0 
0 0 0 0 0 0 0 0 0 0 0 0 0 0 0 0 0 0 0 0 0 0 0 0 0 0 0 0 0 0 0 0 0 0 0 0 0 0 0 0 0 0 0 0 0 0 0 0 0 0 0 0 0 0 0 0 0 0 0 0 0 0 0 0 0 0 0 0 0 0 0 0 0 0 0 0 0 0 0 0 0 0 0 0 0 0 0 0 0 0 
0 0 0 0 0 0 0 0 0 0 0 0 0 0 0 0 0 0 0 0 0 0 0 0 0 0 0 0 0 0 0 0 0 0 0 0 0 0 0 0 0 0 0 0 0 0 0 0 0 0 0 0 0 0 0 0 0 0 0 0 0 0 0 0 0 0 0 0 0 0 0 0 0 0 0 0 0 0 0 0 0 0 0 0 0 0 0 0 0 0 
0 0 0 0 0 0 0 0 0 0 0 0 0 0 0 0 0 0 0 0 0 0 0 0 0 0 0 0 0 0 0 0 0 0 0 0 0 0 0 0 0 0 0 0 0 0 0 0 0 0 0 0 0 0 0 0 0 0 0 0 0 0 0 0 0 0 0 0 0 0 0 0 0 0 0 0 0 0 0 0 0 0 0 0 0 0 0 0 0 0 
0 0 0 0 0 0 0 0 0 0 0 0 0 0 0 0 0 0 0 0 0 0 0 0 0 0 0 0 0 0 0 0 0 0 0 0 0 0 0 0 0 0 0 0 0 0 0 0 0 0 0 0 0 0 0 0 0 0 0 0 0 0 0 0 0 0 0 0 0 0 0 0 0 0 0 0 0 0 0 0 0 0 0 0 0 0 0 0 0 0 
0 0 0 0 0 0 0 0 0 0 0 0 0 0 0 0 0 0 0 0 0 0 0 0 0 0 0 0 0 0 0 0 0 0 0 0 0 0 0 0 0 0 0 0 0 0 0 0 0 0 0 0 0 0 0 0 0 0 0 0 0 0 0 0 0 0 0 0 0 0 0 0 0 0 0 0 0 0 0 0 0 0 0 0 0 0 0 0 0 0 
0 0 0 0 0 0 0 0 0 0 0 0 0 0 0 0 0 0 0 0 0 0 0 0 0 0 0 0 0 0 0 0 0 0 0 0 0 0 0 0 0 0 0 0 0 0 0 0 0 0 0 0 0 0 0 0 0 0 0 0 0 0 0 0 0 0 0 0 0 0 0 0 0 0 0 0 0 0 0 0 0 0 0 0 0 0 0 0 0 0 
0 0 0 0 0 0 0 0 0 0 0 0 0 0 0 0 0 0 0 0 0 0 0 0 0 0 0 0 0 0 0 0 0 0 0 0 0 0 0 0 0 0 0 0 0 0 0 0 0 0 0 0 0 0 0 0 0 0 0 0 0 0 0 0 0 0 0 0 0 0 0 0 0 0 0 0 0 0 0 0 0 0 0 0 0 0 0 0 0 0 
0 0 0 0 0 0 0 0 0 0 0 0 0 0 0 0 0 0 0 0 0 0 0 0 0 0 0 0 0 0 0 0 0 0 0 0 0 0 0 0 0 0 0 0 0 0 0 0 0 0 0 0 0 0 0 0 0 0 0 0 0 0 0 0 0 0 0 0 0 0 0 0 0 0 0 0 0 0 0 0 0 0 0 0 0 0 0 0 0 0 
0 0 0 0 0 0 0 0 0 0 0 0 0 0 0 0 0 0 0 0 0 0 0 0 0 0 0 0 0 0 0 0 0 0 0 0 0 0 0 0 0 0 0 0 0 0 0 0 0 0 0 0 0 0 0 0 0 0 0 0 0 0 0 0 0 0 0 0 0 0 0 0 0 0 0 0 0 0 0 0 0 0 0 0 0 0 0 0 0 0 
0 0 0 0 0 0 0 0 0 0 0 0 0 0 0 0 0 0 0 0 0 0 0 0 0 0 0 0 0 0 0 0 0 0 0 0 0 0 0 0 0 0 0 0 0 0 0 0 0 0 0 0 0 0 0 0 0 0 0 0 0 0 0 0 0 0 0 0 0 0 0 0 0 0 0 0 0 0 0 0 0 0 0 0 0 0 0 0 0 0 
0 0 0 0 0 0 0 0 0 0 0 0 0 0 0 0 0 0 0 0 0 0 0 0 0 0 0 0 0 0 0 0 0 0 0 0 0 0 0 0 0 0 0 0 0 0 0 0 0 0 0 0 0 0 0 0 0 0 0 0 0 0 0 0 0 0 0 0 0 0 0 0 0 0 0 0 0 0 0 0 0 0 0 0 0 0 0 0 0 0 
0 0 0 0 0 0 0 0 0 0 0 0 0 0 0 0 0 0 0 0 0 0 0 0 0 0 0 0 0 0 0 0 0 0 0 0 0 0 0 0 0 0 0 0 0 0 0 0 0 0 0 0 0 0 0 0 0 0 0 0 0 0 0 0 0 0 0 0 0 0 0 0 0 0 0 0 0 0 0 0 0 0 0 0 0 0 0 0 0 0 
0 0 0 0 0 0 0 0 0 0 0 0 0 0 0 0 0 0 0 0 0 0 0 0 0 0 0 0 0 0 0 0 0 0 0 0 0 0 0 0 0 0 0 0 0 0 0 0 0 0 0 0 0 0 0 0 0 0 0 0 0 0 0 0 0 0 0 0 0 0 0 0 0 0 0 0 0 0 0 0 0 0 0 0 0 0 0 0 0 0 
0 0 0 0 0 0 0 0 0 0 0 0 0 0 0 0 0 0 0 0 0 0 0 0 0 0 0 0 0 0 0 0 0 0 0 0 0 0 0 0 0 0 0 0 0 0 0 0 0 0 0 0 0 0 0 0 0 0 0 0 0 0 0 0 0 0 0 0 0 0 0 0 0 0 0 0 0 0 0 0 0 0 0 0 0 0 0 0 0 0 
0 0 0 0 0 0 0 0 0 0 0 0 0 0 0 0 0 0 0 0 0 0 0 0 0 0 0 0 0 0 0 0 0 0 0 0 0 0 0 0 0 0 0 0 0 0 0 0 0 0 0 0 0 0 0 0 0 0 0 0 0 0 0 0 0 0 0 0 0 0 0 0 0 0 0 0 0 0 0 0 0 0 0 0 0 0 0 0 0 0 
0 0 0 0 0 0 0 0 0 0 0 0 0 0 0 0 0 0 0 0 0 0 0 0 0 0 0 0 0 0 0 0 0 0 0 0 0 0 0 0 0 0 0 0 0 0 0 0 0 0 0 0 0 0 0 0 0 0 0 0 0 0 0 0 0 0 0 0 0 0 0 0 0 0 0 0 0 0 0 0 0 0 0 0 0 0 0 0 0 0 
0 0 0 0 0 0 0 0 0 0 0 0 0 0 0 0 0 0 0 0 0 0 0 0 0 0 0 0 0 0 0 0 0 0 0 0 0 0 0 0 0 0 0 0 0 0 0 0 0 0 0 0 0 0 0 0 0 0 0 0 0 0 0 0 0 0 0 0 0 0 0 0 0 0 0 0 0 0 0 0 0 0 0 0 0 0 0 0 0 0 
0 0 0 0 0 0 0 0 0 0 0 0 0 0 0 0 0 0 0 0 0 0 0 0 0 0 0 0 0 0 0 0 0 0 0 0 0 0 0 0 0 0 0 0 0 0 0 0 0 0 0 0 0 0 0 0 0 0 0 0 0 0 0 0 0 0 0 0 0 0 0 0 0 0 0 0 0 0 0 0 0 0 0 0 0 0 0 0 0 0 
0 0 0 0 0 0 0 0 0 0 0 0 0 0 0 0 0 0 0 0 0 0 0 0 0 0 0 0 0 0 0 0 0 0 0 0 0 0 0 0 0 0 0 0 0 0 0 0 0 0 0 0 0 0 0 0 0 0 0 0 0 0 0 0 0 0 0 0 0 0 0 0 0 0 0 0 0 0 0 0 0 0 0 0 0 0 0 0 0 0 
0 0 0 0 0 0 0 0 0 0 0 0 0 0 0 0 0 0 0 0 0 0 0 0 0 0 0 0 0 0 0 0 0 0 0 0 0 0 0 0 0 0 0 0 0 0 0 0 0 0 0 0 0 0 0 0 0 0 0 0 0 0 0 0 0 0 0 0 0 0 0 0 0 0 0 0 0 0 0 0 0 0 0 0 0 0 0 0 0 0 
0 0 0 0 0 0 0 0 0 0 0 0 0 0 0 0 0 0 0 0 0 0 0 0 0 0 0 0 0 0 0 0 0 0 0 0 0 0 0 0 0 0 0 0 0 0 0 0 0 0 0 0 0 0 0 0 0 0 0 0 0 0 0 0 0 0 0 0 0 0 0 0 0 0 0 0 0 0 0 0 0 0 0 0 0 0 0 0 0 0 
0 0 0 0 0 0 0 0 0 0 0 0 0 0 0 0 0 0 0 0 0 0 0 0 0 0 0 0 0 0 0 0 0 0 0 0 0 0 0 0 0 0 0 0 0 0 0 0 0 0 0 0 0 0 0 0 0 0 0 0 0 0 0 0 0 0 0 0 0 0 0 0 0 0 0 0 0 0 0 0 0 0 0 0 0 0 0 0 0 0 
0 0 0 0 0 0 0 0 0 0 0 0 0 0 0 0 0 0 0 0 0 0 0 0 0 0 0 0 0 0 0 0 0 0 0 0 0 0 0 0 0 0 0 0 0 0 0 0 0 0 0 2 0 0 0 0 0 0 0 0 0 0 0 0 0 0 0 0 0 0 0 0 0 0 0 0 0 0 0 0 0 0 0 0 0 0 0 0 0 0 
0 0 0 0 0 0 0 0 0 0 0 0 0 0 0 0 0 0 0 0 0 0 0 0 0 0 0 0 0 0 0 0 0 0 0 0 1 0 0 0 1 0 0 1 0 0 2 0 0 0 2 0 0 0 1 0 1 0 0 0 0 0 0 1 0 0 0 0 0 0 0 0 0 0 0 0 0 0 0 0 0 0 0 0 0 0 0 0 0 0 
0 0 0 0 0 0 0 0 0 0 0 0 0 0 0 0 0 0 0 0 0 0 0 0 0 0 0 0 0 0 0 0 0 1 0 0 1 1 0 1 1 0 2 1 1 0 1 1 1 1 0 0 0 0 2 0 0 0 1 1 0 1 0 0 0 0 0 0 0 0 0 0 0 0 0 0 0 0 0 0 0 0 0 0 0 0 0 0 0 0 
0 0 0 0 0 0 0 0 0 0 0 0 0 0 0 0 0 0 0 0 0 0 0 0 0 0 0 0 0 2 0 0 0 3 1 4 0 1 3 3 0 2 5 4 5 3 2 3 4 3 3 2 2 0 1 1 1 2 0 4 0 0 0 0 0 0 0 0 0 1 0 0 0 0 0 0 0 0 0 0 0 0 0 0 0 0 0 0 0 0 
0 0 0 0 0 0 0 0 0 0 0 0 0 0 0 0 0 1 0 0 0 1 0 0 1 0 1 2 1 3 1 1 0 1 3 4 0 2 3 0 8 8 6 9 7 7 8 11 6 5 6 2 2 2 0 1 4 0 1 0 1 0 1 0 0 1 1 1 0 0 0 0 0 0 0 0 0 0 0 0 0 0 0 0 0 0 0 0 0 0 
0 0 0 0 0 0 0 0 0 0 0 0 0 0 0 0 0 0 2 0 0 0 1 0 0 0 1 0 1 0 2 5 1 6 5 7 7 5 12 12 10 9 6 9 16 6 14 8 8 9 10 8 8 8 6 5 1 5 2 0 0 3 2 2 1 0 1 1 0 0 0 0 0 0 0 0 0 0 1 0 0 0 0 0 0 0 0 0 0 0 
0 0 0 0 0 0 0 0 0 0 0 0 0 0 0 0 0 1 1 1 0 1 2 0 3 3 1 3 7 5 5 2 9 10 7 9 11 6 24 13 20 25 27 30 25 17 23 17 33 24 21 19 16 15 12 13 7 9 9 8 6 7 5 6 5 2 1 1 1 1 1 0 1 0 0 0 0 0 0 0 0 0 0 0 0 0 0 0 0 0 
0 0 0 0 0 0 0 0 0 0 0 0 0 1 0 0 0 0 0 1 1 1 1 3 4 3 2 5 7 16 8 9 12 14 29 32 36 37 35 48 43 50 43 50 37 55 40 41 52 34 43 28 28 23 20 26 22 12 11 8 17 11 4 6 1 3 2 2 2 1 0 0 1 0 0 0 0 0 0 0 0 0 0 0 0 0 0 0 0 0 
0 0 0 0 0 0 0 0 0 0 0 0 0 0 0 2 1 0 1 1 2 2 3 7 6 11 7 12 17 16 25 30 31 53 45 46 50 60 62 63 78 60 90 75 89 64 76 73 69 73 67 68 65 34 43 52 40 35 23 30 29 23 10 5 5 5 2 4 4 0 2 2 1 1 1 0 0 0 0 0 0 1 0 0 0 0 0 0 0 0 
0 0 0 0 0 0 0 0 1 0 0 0 0 1 1 0 0 2 3 3 6 5 10 12 11 19 26 19 34 33 33 55 54 63 71 96 119 122 105 143 144 164 144 130 160 151 158 146 167 137 135 106 121 94 93 80 78 71 52 40 29 36 23 19 17 13 5 8 6 4 7 3 1 2 0 0 1 0 0 0 0 0 0 0 0 0 0 0 0 0 
0 0 0 0 0 0 0 0 1 1 0 0 1 0 1 2 0 4 4 9 10 5 13 19 18 27 38 41 53 52 75 86 97 113 128 146 159 177 185 212 249 213 270 262 268 252 248 262 251 267 232 205 182 160 168 137 100 105 80 66 62 44 45 38 33 24 9 18 7 4 4 3 3 2 1 0 1 1 1 1 0 0 0 0 0 0 0 0 0 0 
0 0 0 0 0 0 0 0 0 0 0 0 0 0 3 3 2 7 9 8 10 25 26 32 29 57 53 77 75 87 109 135 186 179 219 225 255 306 347 355 389 397 416 424 391 451 437 391 401 399 354 303 303 278 257 212 177 150 153 123 88 97 83 56 37 19 24 15 19 8 8 5 3 1 2 1 1 0 0 0 0 0 0 0 0 0 0 0 0 0 
0 0 0 0 0 0 0 0 0 0 0 0 0 3 2 1 1 6 6 8 14 16 36 38 46 60 84 100 127 133 187 231 250 303 341 409 403 478 498 575 605 608 654 682 687 673 647 666 651 560 566 516 474 433 371 357 299 267 227 188 147 109 108 60 69 58 40 35 19 17 11 12 2 6 3 1 1 3 1 0 0 0 0 0 0 0 0 0 0 0 
0 0 0 0 0 0 0 0 1 0 1 3 2 2 5 3 10 3 14 20 18 37 45 62 64 92 130 151 174 228 274 316 366 437 527 547 647 721 741 797 884 881 934 996 944 1040 998 952 904 872 830 732 721 636 542 469 413 358 319 261 219 180 131 129 91 81 51 44 36 25 15 13 12 9 5 4 1 0 0 1 0 0 0 0 0 0 1 0 0 0 
0 0 0 0 0 0 0 0 1 0 2 2 1 2 1 5 9 13 23 32 28 55 52 89 118 127 162 231 263 299 426 434 520 594 737 842 863 1010 1017 1178 1131 1245 1339 1390 1349 1357 1328 1326 1292 1193 1132 1046 958 919 796 676 603 550 446 464 327 258 212 179 128 104 97 75 59 47 24 20 11 7 8 8 1 2 1 0 0 1 0 0 0 0 0 0 0 0 
0 0 0 0 1 0 1 0 0 1 0 0 3 4 10 7 22 20 21 36 41 73 87 102 143 181 212 269 333 435 569 616 725 812 922 1086 1161 1317 1419 1570 1608 1774 1808 1846 1885 1917 1903 1725 1706 1580 1603 1461 1273 1174 1090 984 812 755 548 522 463 399 289 232 163 142 114 90 62 54 35 32 17 16 7 7 4 1 2 1 1 1 0 0 0 0 0 0 0 0 
0 0 0 1 0 0 0 0 0 3 0 5 1 8 7 6 14 19 37 39 58 82 106 122 175 222 294 344 464 553 653 818 895 1063 1210 1409 1582 1626 1794 2009 2048 2156 2343 2428 2283 2427 2300 2216 2195 2096 1918 1838 1674 1549 1412 1246 1057 941 735 643 558 458 341 303 238 180 152 116 97 65 43 26 26 26 23 10 11 8 3 0 0 0 0 0 0 0 0 0 0 0 
0 0 0 0 1 0 0 0 0 1 2 2 5 11 12 15 15 36 36 57 78 83 125 170 221 274 359 435 531 663 740 903 1089 1260 1456 1699 1880 2043 2189 2354 2581 2728 2750 2830 2918 2920 2837 2888 2697 2583 2323 2262 1975 1885 1683 1443 1339 1105 939 794 678 570 424 384 288 235 160 116 90 72 50 47 22 25 12 11 8 4 3 2 2 0 0 1 0 0 0 0 0 0 
0 0 0 0 0 0 1 1 2 3 1 4 3 9 10 11 22 40 36 59 93 127 144 196 272 282 424 486 621 777 916 1168 1310 1494 1684 1935 2173 2312 2562 2750 2985 3077 3240 3331 3240 3407 3251 3207 3132 3012 2795 2603 2323 2143 1871 1741 1429 1322 1099 920 796 614 554 421 321 271 207 153 120 100 55 43 36 26 14 8 8 4 6 4 3 1 2 0 0 0 1 0 0 0 
0 0 0 0 0 0 0 1 1 1 1 3 7 12 13 19 20 46 49 68 92 113 159 215 256 312 432 593 722 858 1027 1212 1433 1620 1831 2108 2253 2587 2868 3173 3172 3469 3454 3607 3665 3852 3721 3544 3366 3315 3001 2855 2639 2308 2175 1859 1699 1381 1190 1069 853 755 572 455 313 257 221 158 142 114 64 45 39 30 17 9 9 7 5 3 0 2 1 0 0 0 0 0 0 0 
0 0 0 0 1 0 0 2 2 2 1 5 3 7 15 17 24 39 59 83 93 130 184 211 265 368 463 615 739 917 994 1237 1481 1757 1935 2208 2532 2764 3036 3207 3419 3639 3774 3797 3959 3796 3732 3714 3473 3462 3154 2908 2747 2487 2193 1891 1788 1525 1199 1029 889 701 590 476 378 278 227 203 132 103 93 65 44 30 25 13 6 3 4 0 2 5 0 0 0 0 0 0 0 0 
0 0 0 0 0 2 2 2 2 0 4 2 2 9 9 19 29 40 42 83 99 149 180 206 285 369 473 594 740 935 1048 1319 1466 1745 1945 2232 2492 2683 3045 3219 3396 3627 3705 3751 3827 3739 3798 3769 3529 3379 3146 3037 2823 2578 2191 1971 1745 1442 1235 1089 874 750 632 436 376 330 214 177 121 90 78 62 42 19 31 10 15 11 4 1 6 1 0 0 1 0 0 0 0 0 
0 0 0 0 0 0 1 0 1 0 3 1 6 7 17 23 34 40 51 67 94 137 168 228 270 391 444 532 641 885 1015 1253 1427 1624 1810 2011 2402 2627 2875 3140 3263 3387 3588 3701 3493 3647 3560 3635 3445 3258 3084 2954 2580 2315 2105 1920 1653 1466 1227 1102 886 720 552 460 344 264 208 163 146 94 65 47 32 30 23 15 12 6 2 3 2 2 0 0 1 0 1 0 0 0 
0 0 0 0 0 0 0 0 0 0 2 0 4 6 10 22 22 28 39 62 82 122 143 203 275 345 404 479 620 742 938 1128 1335 1432 1706 1820 2181 2358 2600 2715 2943 3055 3311 3210 3337 3414 3291 3196 3090 2914 2835 2624 2405 2137 1868 1669 1408 1315 1134 914 789 660 531 405 346 257 226 142 110 97 62 65 29 24 16 11 6 2 4 3 1 2 0 0 0 1 0 0 0 0 
0 0 0 0 0 0 0 1 1 1 0 1 8 7 9 11 15 21 45 56 67 106 122 189 239 277 337 482 568 647 804 923 1086 1342 1480 1632 1932 2069 2184 2337 2500 2626 2734 2833 2817 2823 2904 2778 2683 2611 2458 2200 2120 1909 1608 1494 1293 1105 910 753 634 530 436 385 255 198 161 120 105 91 52 46 38 16 16 9 7 1 2 0 1 0 0 0 2 0 0 0 0 0 
0 0 0 0 1 0 1 0 1 0 1 0 4 9 13 10 11 20 31 38 67 80 103 160 183 223 256 326 407 563 666 766 887 1110 1254 1379 1492 1672 1805 2057 2097 2079 2316 2328 2366 2355 2373 2263 2128 2095 1942 1767 1702 1536 1352 1229 1095 850 770 616 539 453 401 274 219 187 118 99 77 67 44 29 31 23 6 7 7 3 3 2 1 1 0 1 0 0 0 0 0 0 
0 0 0 0 0 1 1 1 0 3 2 1 5 3 3 13 17 19 26 37 59 57 81 128 135 182 250 288 345 410 555 626 689 830 896 1026 1168 1328 1411 1515 1681 1712 1813 1895 1885 1897 1872 1787 1676 1601 1533 1432 1299 1168 1094 943 821 677 639 544 459 340 270 217 194 133 113 98 54 48 37 23 21 15 9 4 2 4 1 0 0 0 0 0 0 1 0 0 0 1 
0 0 0 0 0 0 0 0 1 0 1 4 0 3 3 7 5 11 14 20 53 64 68 88 93 128 205 201 290 342 388 439 505 626 684 770 891 964 1113 1104 1210 1250 1353 1314 1363 1400 1340 1321 1277 1248 1102 1039 1005 905 789 713 638 540 503 371 298 254 228 173 133 111 85 79 60 36 30 15 12 7 10 6 3 1 1 2 0 2 0 0 1 0 0 0 0 0 
0 0 0 0 0 0 0 0 1 0 1 2 2 4 3 7 11 6 6 20 28 22 37 60 79 107 107 155 196 211 293 335 361 440 472 570 653 725 771 853 875 968 958 966 962 924 945 943 875 837 829 770 706 636 590 540 469 363 326 258 233 177 155 110 93 87 60 40 33 28 18 10 16 15 6 7 3 1 2 0 0 1 0 1 0 0 1 0 0 0 
0 0 0 0 0 1 0 0 0 2 0 2 0 2 0 2 7 6 7 12 15 18 23 41 50 74 97 125 138 150 193 221 250 309 378 389 438 483 515 553 600 643 652 719 691 627 615 611 634 564 582 512 482 445 359 340 300 262 210 179 159 130 85 67 71 57 47 39 25 16 8 11 4 7 6 4 0 1 1 0 0 0 0 0 0 0 0 0 0 0 
0 0 0 0 0 0 0 0 0 0 0 2 0 2 1 1 4 4 7 9 14 22 20 29 32 31 51 67 95 109 122 173 185 193 217 256 297 298 341 390 390 375 401 460 436 412 426 414 400 323 375 351 295 284 253 234 182 187 135 113 88 93 53 52 50 32 25 29 13 6 5 6 2 2 3 0 0 1 0 1 0 1 0 0 0 0 0 0 0 0 
0 0 0 0 0 0 0 0 0 0 0 1 0 0 0 0 0 0 3 4 3 4 6 13 22 23 29 38 63 53 75 79 94 111 128 167 167 186 196 216 250 250 244 265 276 260 253 247 243 266 214 183 179 182 161 128 114 114 91 71 74 55 47 33 33 20 14 12 15 7 6 4 2 5 1 0 0 0 1 0 0 0 0 0 0 0 0 0 0 0 
0 0 0 0 0 0 0 0 0 0 0 0 0 0 1 1 0 2 3 4 2 5 6 5 10 17 16 28 31 46 42 48 52 64 91 77 90 124 123 129 146 150 139 162 156 150 161 134 150 155 133 121 111 113 82 90 66 55 43 42 30 40 24 17 16 10 10 5 8 3 2 2 0 2 1 3 0 0 0 0 0 0 0 0 0 0 0 0 0 0 
0 0 0 0 0 0 0 0 0 0 0 0 0 0 0 0 0 0 0 2 1 4 4 3 6 9 10 18 17 14 19 30 32 28 47 46 52 51 60 64 73 73 90 65 93 79 94 98 80 96 69 72 56 64 57 48 25 27 28 15 21 18 14 17 5 3 8 2 3 1 2 1 0 0 0 0 0 0 0 0 0 0 0 0 0 0 0 0 0 0 
0 0 0 0 0 0 0 0 0 0 0 0 0 0 0 0 1 2 2 2 0 0 2 1 4 5 11 2 8 11 16 19 20 33 19 28 29 29 39 45 41 47 46 49 51 42 56 33 41 41 41 36 27 31 27 24 17 13 15 8 17 5 6 6 4 5 4 1 1 0 1 0 1 0 1 0 1 0 0 0 0 0 0 0 0 0 0 0 0 0 
0 0 0 0 0 0 0 0 0 0 0 0 0 0 1 0 0 0 1 2 0 0 1 1 1 3 1 2 7 5 5 6 9 11 16 11 14 10 22 21 21 18 28 26 25 21 20 20 31 17 16 11 20 12 11 10 5 8 8 5 7 4 1 4 1 2 1 1 0 2 0 0 0 0 1 0 0 1 0 0 0 0 0 0 0 0 0 0 0 0 
0 0 0 0 0 0 0 0 0 0 0 0 0 0 0 0 0 0 0 1 2 2 0 2 1 0 3 2 3 4 2 1 5 3 7 4 7 9 10 8 8 7 13 11 13 11 20 12 12 11 10 9 7 8 7 1 7 1 3 5 0 2 4 0 0 1 1 1 0 1 0 0 0 0 0 0 0 0 0 0 0 0 0 0 0 0 0 0 0 0 
0 0 0 0 0 0 0 0 0 0 0 0 0 0 0 0 0 1 0 0 1 0 0 0 2 0 0 0 0 1 3 2 0 3 1 3 3 8 3 7 5 3 7 3 8 5 6 2 5 6 0 2 3 8 2 1 3 5 0 0 2 4 3 1 0 0 0 0 0 0 1 0 0 0 0 0 0 0 0 0 0 0 0 0 0 0 0 0 0 0 
0 0 0 0 0 0 0 0 0 0 0 0 0 0 0 0 0 0 0 0 0 0 0 1 1 0 2 0 0 0 1 0 2 0 1 0 1 3 2 0 3 1 4 3 1 4 4 3 0 1 4 3 2 3 0 1 0 1 0 0 1 0 0 1 0 0 0 1 0 0 0 0 0 0 0 0 0 0 0 0 0 0 0 0 0 0 0 0 0 0 
0 0 0 0 0 0 0 0 0 0 0 0 0 0 0 0 0 0 0 0 0 0 0 0 0 0 0 0 0 0 1 1 0 1 0 1 0 0 0 0 0 0 1 2 1 1 0 1 0 0 0 0 0 0 0 1 1 1 1 0 0 0 0 0 0 0 0 1 0 0 0 0 0 0 0 0 0 0 0 0 0 0 0 0 0 0 0 0 0 0 
0 0 0 0 0 0 0 0 0 0 0 0 0 0 0 0 0 0 0 0 0 0 0 0 0 0 1 0 0 0 0 1 0 0 0 0 0 0 0 0 0 0 0 0 1 0 1 2 1 0 0 0 0 0 1 0 1 0 0 0 0 0 0 0 0 0 0 0 0 0 0 0 0 0 0 0 0 0 0 0 0 0 0 0 0 0 0 0 0 0 
0 0 0 0 0 0 0 0 0 0 0 0 0 0 0 0 0 0 0 0 0 0 0 0 0 0 0 0 0 0 0 0 0 0 0 0 0 0 0 1 0 0 0 0 0 0 1 0 0 0 0 0 1 1 0 0 0 0 0 0 0 0 0 0 0 0 0 0 0 0 0 0 0 0 0 0 0 0 0 0 0 0 0 0 0 0 0 0 0 0 
0 0 0 0 0 0 0 0 0 0 0 0 0 0 0 0 0 0 0 0 0 0 0 0 0 0 0 0 0 0 0 0 0 0 0 0 0 0 0 0 0 0 0 0 0 1 1 0 0 0 0 0 0 0 0 0 0 0 0 0 0 0 0 0 0 0 0 0 0 0 0 0 0 0 0 0 0 0 0 0 0 0 0 0 0 0 0 0 0 0 
0 0 0 0 0 0 0 0 0 0 0 0 0 0 0 0 0 0 0 0 0 0 0 0 0 0 0 0 0 0 0 0 0 0 0 0 0 0 0 0 0 0 0 0 0 0 0 0 0 0 0 0 0 0 0 0 0 0 0 0 0 0 0 0 0 0 0 0 0 0 0 0 0 0 0 0 0 0 0 0 0 0 0 0 0 0 0 0 0 0 
0 0 0 0 0 0 0 0 0 0 0 0 0 0 0 0 0 0 0 0 0 0 0 0 0 0 0 0 0 0 0 0 0 0 0 0 0 0 0 0 0 0 0 0 0 0 0 0 0 0 0 0 0 0 0 0 0 0 0 0 0 0 0 0 0 0 0 0 0 0 0 0 0 0 0 0 0 0 0 0 0 0 0 0 0 0 0 0 0 0 
0 0 0 0 0 0 0 0 0 0 0 0 0 0 0 0 0 0 0 0 0 0 0 0 0 0 0 0 0 0 0 0 0 0 0 0 0 0 0 0 0 0 0 0 0 0 0 0 0 0 0 0 0 0 0 0 0 0 0 0 0 0 0 0 0 0 0 0 0 0 0 0 0 0 0 0 0 0 0 0 0 0 0 0 0 0 0 0 0 0 
0 0 0 0 0 0 0 0 0 0 0 0 0 0 0 0 0 0 0 0 0 0 0 0 0 0 0 0 0 0 0 0 0 0 0 0 0 0 0 0 0 0 0 0 0 0 0 0 0 0 0 0 0 0 0 0 0 0 0 0 0 0 0 0 0 0 0 0 0 0 0 0 0 0 0 0 0 0 0 0 0 0 0 0 0 0 0 0 0 0 
0 0 0 0 0 0 0 0 0 0 0 0 0 0 0 0 0 0 0 0 0 0 0 0 0 0 0 0 0 0 0 0 0 0 0 0 0 0 0 0 0 0 0 0 0 0 0 0 0 0 0 0 0 0 0 0 0 0 0 0 0 0 0 0 0 0 0 0 0 0 0 0 0 0 0 0 0 0 0 0 0 0 0 0 0 0 0 0 0 0 
0 0 0 0 0 0 0 0 0 0 0 0 0 0 0 0 0 0 0 0 0 0 0 0 0 0 0 0 0 0 0 0 0 0 0 0 0 0 0 0 0 0 0 0 0 0 0 0 0 0 0 0 0 0 0 0 0 0 0 0 0 0 0 0 0 0 0 0 0 0 0 0 0 0 0 0 0 0 0 0 0 0 0 0 0 0 0 0 0 0 
0 0 0 0 0 0 0 0 0 0 0 0 0 0 0 0 0 0 0 0 0 0 0 0 0 0 0 0 0 0 0 0 0 0 0 0 0 0 0 0 0 0 0 0 0 0 0 0 0 0 0 0 0 0 0 0 0 0 0 0 0 0 0 0 0 0 0 0 0 0 0 0 0 0 0 0 0 0 0 0 0 0 0 0 0 0 0 0 0 0 
0 0 0 0 0 0 0 0 0 0 0 0 0 0 0 0 0 0 0 0 0 0 0 0 0 0 0 0 0 0 0 0 0 0 0 0 0 0 0 0 0 0 0 0 0 0 0 0 0 0 0 0 0 0 0 0 0 0 0 0 0 0 0 0 0 0 0 0 0 0 0 0 0 0 0 0 0 0 0 0 0 0 0 0 0 0 0 0 0 0 
0 0 0 0 0 0 0 0 0 0 0 0 0 0 0 0 0 0 0 0 0 0 0 0 0 0 0 0 0 0 0 0 0 0 0 0 0 0 0 0 0 0 0 0 0 0 0 0 0 0 0 0 0 0 0 0 0 0 0 0 0 0 0 0 0 0 0 0 0 0 0 0 0 0 0 0 0 0 0 0 0 0 0 0 0 0 0 0 0 0 
0 0 0 0 0 0 0 0 0 0 0 0 0 0 0 0 0 0 0 0 0 0 0 0 0 0 0 0 0 0 0 0 0 0 0 0 0 0 0 0 0 0 0 0 0 0 0 0 0 0 0 0 0 0 0 0 0 0 0 0 0 0 0 0 0 0 0 0 0 0 0 0 0 0 0 0 0 0 0 0 0 0 0 0 0 0 0 0 0 0 
0 0 0 0 0 0 0 0 0 0 0 0 0 0 0 0 0 0 0 0 0 0 0 0 0 0 0 0 0 0 0 0 0 0 0 0 0 0 0 0 0 0 0 0 0 0 0 0 0 0 0 0 0 0 0 0 0 0 0 0 0 0 0 0 0 0 0 0 0 0 0 0 0 0 0 0 0 0 0 0 0 0 0 0 0 0 0 0 0 0 
0 0 0 0 0 0 0 0 0 0 0 0 0 0 0 0 0 0 0 0 0 0 0 0 0 0 0 0 0 0 0 0 0 0 0 0 0 0 0 0 0 0 0 0 0 0 0 0 0 0 0 0 0 0 0 0 0 0 0 0 0 0 0 0 0 0 0 0 0 0 0 0 0 0 0 0 0 0 0 0 0 0 0 0 0 0 0 0 0 0 
0 0 0 0 0 0 0 0 0 0 0 0 0 0 0 0 0 0 0 0 0 0 0 0 0 0 0 0 0 0 0 0 0 0 0 0 0 0 0 0 0 0 0 0 0 0 0 0 0 0 0 0 0 0 0 0 0 0 0 0 0 0 0 0 0 0 0 0 0 0 0 0 0 0 0 0 0 0 0 0 0 0 0 0 0 0 0 0 0 0 
0 0 0 0 0 0 0 0 0 0 0 0 0 0 0 0 0 0 0 0 0 0 0 0 0 0 0 0 0 0 0 0 0 0 0 0 0 0 0 0 0 0 0 0 0 0 0 0 0 0 0 0 0 0 0 0 0 0 0 0 0 0 0 0 0 0 0 0 0 0 0 0 0 0 0 0 0 0 0 0 0 0 0 0 0 0 0 0 0 0 
0 0 0 0 0 0 0 0 0 0 0 0 0 0 0 0 0 0 0 0 0 0 0 0 0 0 0 0 0 0 0 0 0 0 0 0 0 0 0 0 0 0 0 0 0 0 0 0 0 0 0 0 0 0 0 0 0 0 0 0 0 0 0 0 0 0 0 0 0 0 0 0 0 0 0 0 0 0 0 0 0 0 0 0 0 0 0 0 0 0 
0 0 0 0 0 0 0 0 0 0 0 0 0 0 0 0 0 0 0 0 0 0 0 0 0 0 0 0 0 0 0 0 0 0 0 0 0 0 0 0 0 0 0 0 0 0 0 0 0 0 0 0 0 0 0 0 0 0 0 0 0 0 0 0 0 0 0 0 0 0 0 0 0 0 0 0 0 0 0 0 0 0 0 0 0 0 0 0 0 0 
0 0 0 0 0 0 0 0 0 0 0 0 0 0 0 0 0 0 0 0 0 0 0 0 0 0 0 0 0 0 0 0 0 0 0 0 0 0 0 0 0 0 0 0 0 0 0 0 0 0 0 0 0 0 0 0 0 0 0 0 0 0 0 0 0 0 0 0 0 0 0 0 0 0 0 0 0 0 0 0 0 0 0 0 0 0 0 0 0 0 
0 0 0 0 0 0 0 0 0 0 0 0 0 0 0 0 0 0 0 0 0 0 0 0 0 0 0 0 0 0 0 0 0 0 0 0 0 0 0 0 0 0 0 0 0 0 0 0 0 0 0 0 0 0 0 0 0 0 0 0 0 0 0 0 0 0 0 0 0 0 0 0 0 0 0 0 0 0 0 0 0 0 0 0 0 0 0 0 0 0 
0 0 0 0 0 0 0 0 0 0 0 0 0 0 0 0 0 0 0 0 0 0 0 0 0 0 0 0 0 0 0 0 0 0 0 0 0 0 0 0 0 0 0 0 0 0 0 0 0 0 0 0 0 0 0 0 0 0 0 0 0 0 0 0 0 0 0 0 0 0 0 0 0 0 0 0 0 0 0 0 0 0 0 0 0 0 0 0 0 0 
0 0 0 0 0 0 0 0 0 0 0 0 0 0 0 0 0 0 0 0 0 0 0 0 0 0 0 0 0 0 0 0 0 0 0 0 0 0 0 0 0 0 0 0 0 0 0 0 0 0 0 0 0 0 0 0 0 0 0 0 0 0 0 0 0 0 0 0 0 0 0 0 0 0 0 0 0 0 0 0 0 0 0 0 0 0 0 0 0 0 
0 0 0 0 0 0 0 0 0 0 0 0 0 0 0 0 0 0 0 0 0 0 0 0 0 0 0 0 0 0 0 0 0 0 0 0 0 0 0 0 0 0 0 0 0 0 0 0 0 0 0 0 0 0 0 0 0 0 0 0 0 0 0 0 0 0 0 0 0 0 0 0 0 0 0 0 0 0 0 0 0 0 0 0 0 0 0 0 0 0 
0 0 0 0 0 0 0 0 0 0 0 0 0 0 0 0 0 0 0 0 0 0 0 0 0 0 0 0 0 0 0 0 0 0 0 0 0 0 0 0 0 0 0 0 0 0 0 0 0 0 0 0 0 0 0 0 0 0 0 0 0 0 0 0 0 0 0 0 0 0 0 0 0 0 0 0 0 0 0 0 0 0 0 0 0 0 0 0 0 0 
0 0 0 0 0 0 0 0 0 0 0 0 0 0 0 0 0 0 0 0 0 0 0 0 0 0 0 0 0 0 0 0 0 0 0 0 0 0 0 0 0 0 0 0 0 0 0 0 0 0 0 0 0 0 0 0 0 0 0 0 0 0 0 0 0 0 0 0 0 0 0 0 0 0 0 0 0 0 0 0 0 0 0 0 0 0 0 0 0 0 
# EndDate:Wed Jan 23 13:59:29 2013
