# Format: McStas with text headers file. Use mcplot/PGPLOT to view.
# URL:    http://www.mccode.org/
# Editor: erkn on localhost
# Creator:Test_src_gaussian (Test_src_gaussian.instr) simulation (McXtrace x.y.z - Jan. 22, 2013)
# Date:   Simulation started (1358950849) Wed Jan 23 15:20:49 2013
# File:   lmon1.dat
# Ncount: 250000
# Trace: no
# Gravitation: no
# Seed: 1358950844
# Param: XW=0.01
# Param: YH=0.01
# Param: DIST=10
# Param: SRC=2
# Param: E0=6.5
# type: array_1d(100)
# Source: Test_src_gaussian.instr
# component: lmon1
# position: 0 0 9.998
# title: Wavelength monitor
# Ncount: 250000
# filename: lmon1.dat
# format: McStas with text headers
# statistics: X0=1.42856; dX=0.270748;
# signal: Min=0; Max=8.53838e+12; Mean=2.51994e+12;
# values: 2.51994e+14 3.63446e+11 482952
# xvar: L
# yvar: (I,I_err)
# xlabel: Wavelength [AA]
# ylabel: Intensity
# xlimits: 0 2
# variables: L I I_err N
# Data [lmon1_dat/lmon1.dat] I: 
0.01 0 0 0 
0.03 0 0 0 
0.05 0 0 0 
0.07 0 0 0 
0.09 0 0 0 
0.11 0 0 0 
0.13 0 0 0 
0.15 0 0 0 
0.17 0 0 0 
0.19 0 0 0 
0.21 0 0 0 
0.23 0 0 0 
0.25 0 0 0 
0.27 0 0 0 
0.29 0 0 0 
0.31 0 0 0 
0.33 0 0 0 
0.35 0 0 0 
0.37 0 0 0 
0.39 0 0 0 
0.41 0 0 0 
0.43 0 0 0 
0.45 0 0 0 
0.47 0 0 0 
0.49 0 0 0 
0.51 0 0 0 
0.53 0 0 0 
0.55 0 0 0 
0.57 0 0 0 
0.59 0 0 0 
0.61 0 0 0 
0.63 0 0 0 
0.65 0 0 0 
0.67 0 0 0 
0.69 0 0 0 
0.71 0 0 0 
0.73 0 0 0 
0.75 0 0 0 
0.77 0 0 0 
0.79 0 0 0 
0.81 0 0 0 
0.83 0 0 0 
0.85 0 0 0 
0.87 0 0 0 
0.89 0 0 0 
0.91 0 0 0 
0.93 0 0 0 
0.95 0 0 0 
0.97 0 0 0 
0.99 0 0 0 
1.01 0 0 0 
1.03 2.94024024197e+12 36137388367.4 6620 
1.05 8.53838379609e+12 62065718980.1 18926 
1.07 8.2341940704e+12 61475571005.7 17941 
1.09 8.01955196971e+12 61150878520 17199 
1.11 7.83099969339e+12 60878130198.9 16547 
1.13 7.7288806895e+12 60901223195.3 16106 
1.15 7.58101561328e+12 60706821215.9 15595 
1.17 7.43417825818e+12 60480812827.7 15109 
1.19 7.12396731727e+12 59540597216.4 14316 
1.21 7.13111209913e+12 59765634476.2 14237 
1.23 6.91205650021e+12 59174192624.9 13645 
1.25 6.79245773916e+12 58998158630.4 13255 
1.27 6.60012451683e+12 58406053691.6 12770 
1.29 6.43837529031e+12 57909596506.2 12361 
1.31 6.29840654067e+12 57489256955.9 12003 
1.33 6.21293435502e+12 57291986074.6 11760 
1.35 5.97903795097e+12 56376004459.3 11248 
1.37 5.96214163315e+12 56460657526.3 11151 
1.39 5.7599279112e+12 55641800577.2 10716 
1.41 5.56582196116e+12 54828414627.6 10305 
1.43 5.46981002325e+12 54472548075.7 10083 
1.45 5.29760283246e+12 53717094390.3 9726 
1.47 5.25612100965e+12 53606016446.7 9614 
1.49 5.05230832639e+12 52642514327.4 9211 
1.51 4.9879943824e+12 52383473656.8 9067 
1.53 4.93840415996e+12 52191821688.5 8953 
1.55 4.65456044979e+12 50731102885.9 8418 
1.57 4.64715992572e+12 50740935045.8 8388 
1.59 4.51611145875e+12 50064807026.2 8137 
1.61 4.41453316725e+12 49535879601.9 7942 
1.63 4.29986188659e+12 48918955542 7726 
1.65 4.30850786961e+12 48995129093.2 7733 
1.67 4.13342425614e+12 48007931133.5 7413 
1.69 4.02654255107e+12 47397337094.7 7217 
1.71 4.01802858282e+12 47356210008.1 7199 
1.73 3.82942874778e+12 46235114334.8 6860 
1.75 3.86753230297e+12 46465435416.5 6928 
1.77 3.61436184309e+12 44913635454.8 6476 
1.79 3.6172710022e+12 44925512360.1 6483 
1.81 3.55184623832e+12 44505997576.6 6369 
1.83 3.52047978432e+12 44294155402 6317 
1.85 3.29207856693e+12 42815694647.5 5912 
1.87 3.27811101215e+12 42702711886.9 5893 
1.89 3.23729571597e+12 42412820841.6 5826 
1.91 3.2078327948e+12 42193721387.6 5780 
1.93 3.074542857e+12 41281123064.7 5547 
1.95 3.01574757914e+12 40854192177.2 5449 
1.97 2.88532892152e+12 39927944221.4 5222 
1.99 2.89744760915e+12 39977160569.2 5253 
# EndDate:Wed Jan 23 15:20:49 2013
