# Format: McStas with text headers file. Use mcplot/PGPLOT to view.
# URL:    http://www.mccode.org/
# Editor: erkn on localhost
# Creator:Test_src_gaussian (Test_src_gaussian.instr) simulation (McXtrace x.y.z - Jan. 22, 2013)
# Date:   Simulation started (1359622548) Thu Jan 31 09:55:48 2013
# File:   emon1.dat
# Ncount: 1e+06
# Trace: no
# Gravitation: no
# Seed: 1359622535
# Param: XW=0
# Param: YH=0
# Param: DIST=10
# Param: SRC=2
# Param: E0=3.1
# type: array_1d(100)
# Source: Test_src_gaussian.instr
# component: emon1
# position: 0 0 9.997
# title: Energy monitor
# Ncount: 1e+06
# filename: emon1.dat
# format: McStas with text headers
# statistics: X0=5.92108; dX=3.11558;
# signal: Min=0; Max=8.06048e+14; Mean=3.79538e+14;
# values: 3.79538e+16 3.90376e+13 999999
# xvar: E
# yvar: (I,I_err)
# xlabel: Energy [keV]
# ylabel: Intensity
# xlimits: 0 20
# variables: E I I_err N
# Data [emon1_dat/emon1.dat] I: 
0.1 1.07007802194e+14 910547483947 16675 
0.3 2.31373400636e+14 1.81210542743e+12 16558 
0.5 3.22126993136e+14 2.50296252059e+12 16649 
0.7 3.9770361282e+14 3.07565450261e+12 16761 
0.9 4.59762969787e+14 3.55533440256e+12 16745 
1.1 5.10889899998e+14 3.9607582896e+12 16651 
1.3 5.59120887871e+14 4.32665062619e+12 16708 
1.5 5.97306032418e+14 4.63104117321e+12 16641 
1.7 6.39050773762e+14 4.92947015664e+12 16810 
1.9 6.63001228352e+14 5.14117514947e+12 16633 
2.1 6.82439132376e+14 5.31935401302e+12 16461 
2.3 7.13391700452e+14 5.52804839795e+12 16655 
2.5 7.34849042783e+14 5.68691544854e+12 16698 
2.7 7.45310569947e+14 5.79181378776e+12 16560 
2.9 7.49550683056e+14 5.86165831957e+12 16352 
3.1 7.64890963192e+14 5.96520479903e+12 16442 
3.3 7.83671013075e+14 6.07335315459e+12 16650 
3.5 7.96788639532e+14 6.15103517866e+12 16780 
3.7 7.88842208299e+14 6.14020510546e+12 16505 
3.9 8.03790223783e+14 6.21099834502e+12 16748 
4.1 7.91842111504e+14 6.17159378453e+12 16462 
4.3 7.92148327149e+14 6.17416752362e+12 16461 
4.5 8.00831880754e+14 6.20371457945e+12 16664 
4.7 7.93883451973e+14 6.16805354437e+12 16566 
4.9 8.06048368767e+14 6.20203008249e+12 16891 
5.1 7.9035666278e+14 6.12441356422e+12 16654 
5.3 7.8400365022e+14 6.07957074819e+12 16630 
5.5 7.84993390298e+14 6.05962057157e+12 16782 
5.7 7.71037345764e+14 5.97903159761e+12 16630 
5.9 7.65727100411e+14 5.92877785105e+12 16681 
6.1 7.69454461451e+14 5.91086545143e+12 16946 
6.3 7.44647568336e+14 5.7820581586e+12 16586 
6.5 7.41446299806e+14 5.73426171462e+12 16719 
6.7 7.26533271831e+14 5.63903372923e+12 16600 
6.9 7.28650758664e+14 5.60837296829e+12 16880 
7.1 7.12830987211e+14 5.50654816186e+12 16758 
7.3 6.96336431918e+14 5.40174471956e+12 16618 
7.5 6.96919211876e+14 5.36145019589e+12 16897 
7.7 6.81922609921e+14 5.26058228685e+12 16804 
7.9 6.55344443045e+14 5.11354718165e+12 16425 
8.1 6.61294210272e+14 5.09222074274e+12 16865 
8.3 6.39634734234e+14 4.96339988208e+12 16608 
8.5 6.26576866617e+14 4.86750443036e+12 16571 
8.7 6.20443794652e+14 4.7984819953e+12 16719 
8.9 6.10010736944e+14 4.71244458026e+12 16757 
9.1 5.90122992345e+14 4.58931063552e+12 16535 
9.3 5.92969904609e+14 4.55465139083e+12 16950 
9.5 5.78258134001e+14 4.45203962095e+12 16871 
9.7 5.69624943254e+14 4.37302003378e+12 16968 
9.9 5.40765184113e+14 4.21568357018e+12 16455 
10.1 5.31612129262e+14 4.12334330528e+12 16626 
10.3 5.26560735559e+14 4.06341323957e+12 16793 
10.5 5.13016145741e+14 3.97408656449e+12 16665 
10.7 4.94490564184e+14 3.85788089718e+12 16430 
10.9 4.89096794305e+14 3.7934696313e+12 16624 
11.1 4.79853783879e+14 3.71463582069e+12 16688 
11.3 4.70809083759e+14 3.63678827308e+12 16760 
11.5 4.54268677572e+14 3.53067761633e+12 16555 
11.7 4.44212111668e+14 3.45022686243e+12 16577 
11.9 4.34347648428e+14 3.36669409455e+12 16646 
12.1 0 0 0 
12.3 0 0 0 
12.5 0 0 0 
12.7 0 0 0 
12.9 0 0 0 
13.1 0 0 0 
13.3 0 0 0 
13.5 0 0 0 
13.7 0 0 0 
13.9 0 0 0 
14.1 0 0 0 
14.3 0 0 0 
14.5 0 0 0 
14.7 0 0 0 
14.9 0 0 0 
15.1 0 0 0 
15.3 0 0 0 
15.5 0 0 0 
15.7 0 0 0 
15.9 0 0 0 
16.1 0 0 0 
16.3 0 0 0 
16.5 0 0 0 
16.7 0 0 0 
16.9 0 0 0 
17.1 0 0 0 
17.3 0 0 0 
17.5 0 0 0 
17.7 0 0 0 
17.9 0 0 0 
18.1 0 0 0 
18.3 0 0 0 
18.5 0 0 0 
18.7 0 0 0 
18.9 0 0 0 
19.1 0 0 0 
19.3 0 0 0 
19.5 0 0 0 
19.7 0 0 0 
19.9 0 0 0 
# EndDate:Thu Jan 31 09:55:48 2013
