# Format: McStas with text headers file. Use mcplot/PGPLOT to view.
# URL:    http://www.mccode.org/
# Editor: erkn on localhost
# Creator:Test_src_gaussian (Test_src_gaussian.instr) simulation (McXtrace x.y.z - Jan. 22, 2013)
# Date:   Simulation started (1360083015) Tue Feb  5 17:50:15 2013
# File:   psd1.dat
# Ncount: 1e+06
# Trace: no
# Gravitation: no
# Seed: 1360083009
# Param: XW=0
# Param: YH=0
# Param: DIST=10
# Param: SRC=3
# Param: E0=5.1
# type: array_2d(90, 90)
# Source: Test_src_gaussian.instr
# component: psd1
# position: 0 0 9.999
# title: PSD monitor
# Ncount: 1e+06
# filename: psd1.dat
# format: McStas with text headers
# statistics: X0=-4.37411e-05; dX=0.0100579; Y0=-1.50687e-05; dY=0.00505296;
# signal: Min=0; Max=6.82502e+17; Mean=2.04833e+16;
# values: 1.65914e+20 6.03061e+17 1e+06
# xvar: X 
# yvar: Y 
# xlabel: X position [m]
# ylabel: Y position [m]
# zvar: I
# zlabel: Signal per bin
# xylimits: -0.05 0.05 -0.05 0.05
# variables: I I_err N
# Data [psd1_dat/psd1.dat] I: 
0 0 0 0 0 0 0 0 0 0 0 0 0 0 0 0 0 0 0 0 0 0 0 0 0 0 0 0 0 0 0 0 0 0 0 0 0 0 0 0 0 0 0 0 0 0 0 0 0 0 0 0 0 0 0 0 0 0 0 0 0 0 0 0 0 0 0 0 0 0 0 0 0 0 0 0 0 0 0 0 0 0 0 0 0 0 0 0 0 0 
0 0 0 0 0 0 0 0 0 0 0 0 0 0 0 0 0 0 0 0 0 0 0 0 0 0 0 0 0 0 0 0 0 0 0 0 0 0 0 0 0 0 0 0 0 0 0 0 0 0 0 0 0 0 0 0 0 0 0 0 0 0 0 0 0 0 0 0 0 0 0 0 0 0 0 0 0 0 0 0 0 0 0 0 0 0 0 0 0 0 
0 0 0 0 0 0 0 0 0 0 0 0 0 0 0 0 0 0 0 0 0 0 0 0 0 0 0 0 0 0 0 0 0 0 0 0 0 0 0 0 0 0 0 0 0 0 0 0 0 0 0 0 0 0 0 0 0 0 0 0 0 0 0 0 0 0 0 0 0 0 0 0 0 0 0 0 0 0 0 0 0 0 0 0 0 0 0 0 0 0 
0 0 0 0 0 0 0 0 0 0 0 0 0 0 0 0 0 0 0 0 0 0 0 0 0 0 0 0 0 0 0 0 0 0 0 0 0 0 0 0 0 0 0 0 0 0 0 0 0 0 0 0 0 0 0 0 0 0 0 0 0 0 0 0 0 0 0 0 0 0 0 0 0 0 0 0 0 0 0 0 0 0 0 0 0 0 0 0 0 0 
0 0 0 0 0 0 0 0 0 0 0 0 0 0 0 0 0 0 0 0 0 0 0 0 0 0 0 0 0 0 0 0 0 0 0 0 0 0 0 0 0 0 0 0 0 0 0 0 0 0 0 0 0 0 0 0 0 0 0 0 0 0 0 0 0 0 0 0 0 0 0 0 0 0 0 0 0 0 0 0 0 0 0 0 0 0 0 0 0 0 
0 0 0 0 0 0 0 0 0 0 0 0 0 0 0 0 0 0 0 0 0 0 0 0 0 0 0 0 0 0 0 0 0 0 0 0 0 0 0 0 0 0 0 0 0 0 0 0 0 0 0 0 0 0 0 0 0 0 0 0 0 0 0 0 0 0 0 0 0 0 0 0 0 0 0 0 0 0 0 0 0 0 0 0 0 0 0 0 0 0 
0 0 0 0 0 0 0 0 0 0 0 0 0 0 0 0 0 0 0 0 0 0 0 0 0 0 0 0 0 0 0 0 0 0 0 0 0 0 0 0 0 0 0 0 0 0 0 0 0 0 0 0 0 0 0 0 0 0 0 0 0 0 0 0 0 0 0 0 0 0 0 0 0 0 0 0 0 0 0 0 0 0 0 0 0 0 0 0 0 0 
0 0 0 0 0 0 0 0 0 0 0 0 0 0 0 0 0 0 0 0 0 0 0 0 0 0 0 0 0 0 0 0 0 0 0 0 0 0 0 0 0 0 0 0 0 0 0 0 0 0 0 0 0 0 0 0 0 0 0 0 0 0 0 0 0 0 0 0 0 0 0 0 0 0 0 0 0 0 0 0 0 0 0 0 0 0 0 0 0 0 
0 0 0 0 0 0 0 0 0 0 0 0 0 0 0 0 0 0 0 0 0 0 0 0 0 0 0 0 0 0 0 0 0 0 0 0 0 0 0 0 0 0 0 0 0 0 0 0 0 0 0 0 0 0 0 0 0 0 0 0 0 0 0 0 0 0 0 0 0 0 0 0 0 0 0 0 0 0 0 0 0 0 0 0 0 0 0 0 0 0 
0 0 0 0 0 0 0 0 0 0 0 0 0 0 0 0 0 0 0 0 0 0 0 0 0 0 0 0 0 0 0 0 0 0 0 0 0 0 0 0 0 0 0 0 0 0 0 0 0 0 0 0 0 0 0 0 0 0 0 0 0 0 0 0 0 0 0 0 0 0 0 0 0 0 0 0 0 0 0 0 0 0 0 0 0 0 0 0 0 0 
0 0 0 0 0 0 0 0 0 0 0 0 0 0 0 0 0 0 0 0 0 0 0 0 0 0 0 0 0 0 0 0 0 0 0 0 0 0 0 0 0 0 0 0 0 0 0 0 0 0 0 0 0 0 0 0 0 0 0 0 0 0 0 0 0 0 0 0 0 0 0 0 0 0 0 0 0 0 0 0 0 0 0 0 0 0 0 0 0 0 
0 0 0 0 0 0 0 0 0 0 0 0 0 0 0 0 0 0 0 0 0 0 0 0 0 0 0 0 0 0 0 0 0 0 0 0 0 0 0 0 0 0 0 0 0 0 0 0 0 0 0 0 0 0 0 0 0 0 0 0 0 0 0 0 0 0 0 0 0 0 0 0 0 0 0 0 0 0 0 0 0 0 0 0 0 0 0 0 0 0 
0 0 0 0 0 0 0 0 0 0 0 0 0 0 0 0 0 0 0 0 0 0 0 0 0 0 0 0 0 0 0 0 0 0 0 0 0 0 0 0 0 0 0 0 0 0 0 0 0 0 0 0 0 0 0 0 0 0 0 0 0 0 0 0 0 0 0 0 0 0 0 0 0 0 0 0 0 0 0 0 0 0 0 0 0 0 0 0 0 0 
0 0 0 0 0 0 0 0 0 0 0 0 0 0 0 0 0 0 0 0 0 0 0 0 0 0 0 0 0 0 0 0 0 0 0 0 0 0 0 0 0 0 0 0 0 0 0 0 0 0 0 0 0 0 0 0 0 0 0 0 0 0 0 0 0 0 0 0 0 0 0 0 0 0 0 0 0 0 0 0 0 0 0 0 0 0 0 0 0 0 
0 0 0 0 0 0 0 0 0 0 0 0 0 0 0 0 0 0 0 0 0 0 0 0 0 0 0 0 0 0 0 0 0 0 0 0 0 0 0 0 0 0 0 0 0 0 0 0 0 0 0 0 0 0 0 0 0 0 0 0 0 0 0 0 0 0 0 0 0 0 0 0 0 0 0 0 0 0 0 0 0 0 0 0 0 0 0 0 0 0 
0 0 0 0 0 0 0 0 0 0 0 0 0 0 0 0 0 0 0 0 0 0 0 0 0 0 0 0 0 0 0 0 0 0 0 0 0 0 0 0 0 0 0 0 0 0 0 0 0 0 0 0 0 0 0 0 0 0 0 0 0 0 0 0 0 0 0 0 0 0 0 0 0 0 0 0 0 0 0 0 0 0 0 0 0 0 0 0 0 0 
0 0 0 0 0 0 0 0 0 0 0 0 0 0 0 0 0 0 0 0 0 0 0 0 0 0 0 0 0 0 0 0 0 0 0 0 0 0 0 0 0 0 0 0 0 0 0 0 0 0 0 0 0 0 0 0 0 0 0 0 0 0 0 0 0 0 0 0 0 0 0 0 0 0 0 0 0 0 0 0 0 0 0 0 0 0 0 0 0 0 
0 0 0 0 0 0 0 0 0 0 0 0 0 0 0 0 0 0 0 0 0 0 0 0 0 0 0 0 0 0 0 0 0 0 0 0 0 0 0 0 0 0 0 0 0 0 0 0 0 0 0 0 0 0 0 0 0 0 0 0 0 0 0 0 0 0 0 0 0 0 0 0 0 0 0 0 0 0 0 0 0 0 0 0 0 0 0 0 0 0 
0 0 0 0 0 0 0 0 0 0 0 0 0 0 0 0 0 0 0 0 0 0 0 0 0 0 0 0 0 0 0 0 0 0 0 0 0 0 0 0 0 0 0 0 0 0 0 0 0 0 0 0 0 0 0 0 0 0 0 0 0 0 0 0 0 0 0 0 0 0 0 0 0 0 0 0 0 0 0 0 0 0 0 0 0 0 0 0 0 0 
0 0 0 0 0 0 0 0 0 0 0 0 0 0 0 0 0 0 0 0 0 0 0 0 0 0 0 0 0 0 0 0 0 0 0 0 0 0 0 0 0 0 0 0 0 0 0 0 0 0 0 0 0 0 0 0 0 0 0 0 0 0 0 0 0 0 0 0 0 0 0 0 0 0 0 0 0 0 0 0 0 0 0 0 0 0 0 0 0 0 
0 0 0 0 0 0 0 0 0 0 0 0 0 0 0 0 0 0 0 0 0 0 0 0 0 0 0 0 0 0 0 0 0 0 0 0 0 0 0 0 0 0 0 0 0 0 0 0 0 0 0 0 0 0 0 0 0 0 0 0 0 0 0 0 0 0 0 0 0 0 0 0 0 0 0 0 0 0 0 0 0 0 0 0 0 0 0 0 0 0 
0 0 0 0 0 0 0 0 0 0 0 0 0 0 0 0 0 0 0 0 0 0 0 0 0 0 0 0 0 0 0 0 0 0 0 0 0 0 0 0 0 0 0 0 0 0 0 0 0 0 0 0 0 0 0 0 0 0 0 0 0 0 0 0 0 0 0 0 0 0 0 0 0 0 0 0 0 0 0 0 0 0 0 0 0 0 0 0 0 0 
0 0 0 0 0 0 0 0 0 0 0 0 0 0 0 0 0 0 0 0 0 0 0 0 0 0 0 0 0 0 0 0 0 0 0 0 0 0 0 0 0 0 0 0 0 0 0 0 0 0 0 0 0 0 0 0 0 0 0 0 0 0 0 0 0 0 0 0 0 0 0 0 0 0 0 0 0 0 0 0 0 0 0 0 0 0 0 0 0 0 
0 0 0 0 0 0 0 0 0 0 0 0 0 0 0 0 0 0 0 0 0 0 0 0 0 0 0 0 0 0 0 0 0 0 0 0 0 0 0 0 0 0 0 0 3.82068029893e+12 0 0 0 0 0 0 0 0 0 0 0 0 0 0 0 0 0 0 0 0 0 0 0 0 0 1.79490845278e+14 0 0 0 0 0 0 0 0 0 0 0 0 0 0 0 0 0 0 0 
0 0 0 0 0 0 0 0 0 0 0 0 0 0 0 0 0 0 0 0 0 0 0 0 0 0 0 0 0 0 0 0 0 0 0 0 0 0 0 0 0 0 0 0 0 0 0 0 0 0 0 0 0 0 0 0 0 0 0 0 0 0 0 0 0 0 0 0 0 0 0 0 0 0 0 0 0 0 0 0 0 0 0 0 0 0 0 0 0 0 
0 0 0 0 0 0 0 0 0 0 0 0 0 0 0 0 0 0 0 0 0 0 0 0 0 0 0 0 0 0 0 5.14870319575e+12 0 0 0 0 0 0 0 9.34364662388e+12 0 0 0 0 0 0 0 0 0 0 3.17053669957e+15 7.01833377601e+12 0 0 0 0 0 0 0 0 0 0 0 0 0 3.73494876739e+15 0 0 0 0 0 0 0 0 0 0 0 0 0 0 0 0 0 0 0 0 0 0 0 0 
0 0 0 0 0 0 0 0 0 0 0 0 0 0 0 0 0 0 0 0 0 0 0 0 0 343597201717 0 0 0 0 0 661814453108 0 0 0 5.37579233536e+12 0 377048372015 4.24924729241e+12 2.68381971826e+12 5.0348560236e+12 0 1.98952226024e+12 3.37672384333e+12 0 0 0 1.4448479716e+14 930432915013 0 4.85189242102e+12 0 1.87355153267e+12 0 0 0 0 0 5.14007498235e+12 0 0 0 0 321065277772 4.89597536996e+12 0 0 0 0 0 0 0 0 0 0 0 0 0 0 0 0 0 0 0 0 0 0 0 0 0 
0 0 0 0 0 0 0 0 0 0 0 0 0 0 0 0 4.89360355226e+12 0 0 0 0 0 0 438618717019 0 0 0 0 3.9087679569e+12 1.42452422482e+14 0 3.75122191149e+12 1.3148860338e+13 0 5.76219131792e+12 3.82588734856e+12 2.73372877325e+15 3.72215965349e+15 1.75703830108e+15 5.42586652723e+14 4.26815946941e+14 1.73088973097e+15 3.43221641148e+13 6.68099445245e+14 2.37440357968e+14 4.99870031841e+12 2.09823449533e+13 903495327507 339750901671 486338045670 0 7.30828508852e+12 0 3.00562138932e+13 7.5396059876e+13 2.20393540738e+12 0 0 5.00706246843e+12 0 0 0 0 4.33464964029e+12 0 5.94423445772e+12 0 0 0 0 0 0 0 0 0 0 0 0 0 0 0 0 0 0 0 0 0 0 0 0 
0 0 0 0 0 0 0 0 0 0 0 0 0 0 0 0 0 0 3.71069304322e+12 0 0 0 0 0 0 0 0 0 460748366739 3.1332461787e+14 0 8.76200365721e+12 7.52633443292e+12 2.81202084355e+12 7.95944364871e+14 1.32255233943e+13 636200112575 1.00017733993e+14 1.77173139956e+12 1.02423937431e+14 8.99849149262e+12 6.45341291172e+12 1.12591589637e+13 9.53326011326e+13 1.02644720821e+14 1.12948394755e+15 1.13215152279e+13 5.00018707848e+12 2.0715191065e+14 8.00559514869e+14 3.15759454352e+15 3.66792256065e+12 1.56299647503e+13 2.15665433956e+13 1.78487456511e+13 1.38381272412e+13 7.15454557433e+14 1.13431825839e+13 1.55027918036e+14 1.11416841955e+15 0 4.04257846929e+13 0 6.75304439609e+14 0 0 4.59397969408e+12 0 0 0 5.19712227231e+12 0 0 0 0 0 0 0 0 0 0 0 0 0 0 0 0 0 0 0 
0 0 0 0 0 0 0 0 0 0 0 0 0 0 0 0 0 0 0 0 0 348722532429 0 0 1.9372108851e+14 0 5.39018884589e+12 1.72824964922e+13 2.11942115569e+13 1.70384839812e+13 0 3.6020219113e+12 9.28100294635e+12 1.83786490122e+15 5.1899790769e+12 3.71277760853e+15 4.28465576346e+14 6.8361274814e+15 3.38868014609e+15 3.40637091547e+14 4.41580207324e+15 3.83755135179e+15 9.38282295477e+14 6.21133968872e+14 6.03781655559e+14 4.21927846647e+15 3.23317144767e+14 1.7431274062e+15 6.48312766377e+15 3.45445456893e+14 7.17848191821e+14 5.21932420903e+13 1.41388774021e+15 2.3724293543e+14 1.40555597986e+14 1.98064507962e+13 1.56948309648e+14 4.83748946864e+14 2.66465114434e+14 7.55676534331e+12 1.16765562064e+13 0 2.21832813106e+13 1.14758787922e+13 1.8075580488e+13 0 0 589571046996 0 0 0 0 0 0 0 0 0 0 0 0 0 0 0 0 0 0 0 0 0 0 
0 0 0 0 0 0 0 0 0 0 0 0 0 0 0 0 0 0 0 0 439852587118 0 4.99894426475e+12 0 306986908753 1.86513467886e+14 1.62414260132e+15 6.17052015496e+12 3.06444063083e+15 1.40319891458e+13 4.06170633003e+15 1.57001223135e+14 3.41035303452e+15 5.34292860342e+14 5.07572339135e+14 1.81717271781e+14 5.94115599439e+15 1.74575627649e+14 4.88428643518e+15 3.89844135898e+15 2.65963687722e+14 5.45981655581e+15 3.89178439259e+15 9.40664187852e+15 2.22778126418e+15 2.55950099589e+15 5.09489711702e+15 1.1826997365e+14 2.09754404429e+15 1.80150143182e+15 3.05051760776e+15 3.82448599873e+14 4.51528470692e+15 2.11986534515e+15 3.08696698079e+15 6.85780459457e+15 2.21120582142e+15 3.51978789048e+15 1.01534641189e+14 2.35150331034e+14 1.16915309662e+15 1.13971424517e+14 6.00327701814e+15 1.61327618593e+13 7.87125648951e+12 2.47366735178e+15 0 5.52261193807e+12 2.62064451593e+12 0 0 790380709006 0 0 0 0 0 0 0 0 0 0 0 0 0 0 0 0 0 0 
0 0 0 0 0 0 0 0 0 0 0 0 0 0 0 0 0 5.09166491853e+12 0 4.49620213871e+12 6.44707005572e+13 1.9437778239e+13 4.45834252621e+12 1.15772591556e+14 1.39982268707e+14 2.31833812822e+13 1.4262605938e+13 5.73590279705e+15 1.24983234205e+15 3.37924135741e+15 7.17809662584e+15 4.401389476e+14 6.66654623824e+15 1.11174217548e+15 5.17673970956e+15 9.25541805048e+14 5.70998513672e+15 5.93962180011e+15 5.77896353511e+14 5.44264402156e+15 1.30816666207e+16 4.68269995294e+15 8.95513518179e+15 1.19122356369e+15 8.8555252597e+15 7.07303128623e+15 7.11341641336e+15 1.17715124314e+16 8.59110243723e+15 6.66380904659e+15 9.50191841125e+15 6.33026095758e+15 2.11910954942e+15 2.57033498669e+15 6.83372192007e+15 2.70126817603e+15 1.11369625799e+14 6.30529098725e+15 5.43562246251e+13 3.79086332857e+15 6.6800446674e+13 1.44100831473e+14 3.26250385237e+14 2.86994066415e+15 2.10280077463e+13 1.19326256736e+14 1.06768792661e+14 1.35928688425e+13 1.33313699056e+14 0 1.94796734219e+13 2.29092115257e+12 0 0 0 0 0 0 0 0 0 0 0 0 0 0 0 0 0 0 
0 0 0 0 0 0 0 0 0 0 0 0 0 0 1.07368708452e+12 3.98138109234e+15 3.71244220026e+15 4.93796457922e+12 3.22943234935e+12 0 2.54549651593e+14 3.28459174312e+13 3.75519272058e+13 1.52072393397e+14 3.57072797968e+13 8.33729770577e+14 2.69189944051e+15 2.10677648598e+15 5.62916030507e+15 3.46057277709e+15 3.95449211119e+15 4.27203991497e+15 1.85578947102e+15 1.79093216269e+15 5.27840126896e+15 1.29559371244e+16 4.42381681912e+15 1.05930578268e+16 7.28430615378e+15 9.11251083477e+15 1.26307114987e+16 1.50681472492e+16 9.75787247509e+15 1.0745143248e+16 1.38470128332e+16 9.52680893371e+15 7.03512066828e+15 6.18335743564e+15 1.75378391435e+16 3.02642688252e+15 2.07060492016e+16 9.5885612478e+15 1.07642472519e+16 1.49860138314e+16 8.21019246612e+15 4.7721657937e+15 2.77301697169e+15 1.56826776657e+16 5.13468810544e+15 7.19389975296e+15 1.47797235684e+15 3.95961430864e+14 1.96419667862e+14 1.33042798341e+15 6.30680144862e+14 8.10403115819e+14 3.63068774897e+15 1.33531926754e+13 0 1.93579297328e+15 1.08905190819e+14 3.16754020626e+12 720081176749 3.67190143591e+12 0 0 0 0 0 0 0 0 0 0 0 0 0 0 0 0 
0 0 0 0 0 0 0 0 0 0 0 0 0 339383224887 0 0 1.66274799648e+13 5.11818481627e+12 1.85341711261e+13 1.21902351012e+14 3.22683098577e+12 2.99906375597e+13 4.52785657086e+12 3.06294530328e+14 2.23983263162e+15 2.75345782837e+15 5.47039116372e+14 5.99830730903e+14 7.36224273031e+15 7.91171828848e+15 5.29894112281e+15 9.24849679548e+14 7.93990358222e+15 6.49167029939e+15 9.38968004449e+15 2.00961011312e+16 1.57250496935e+16 1.68077176101e+16 2.45509036847e+16 1.40231565573e+16 9.04208318723e+15 3.04874835474e+16 2.57371796061e+16 3.07500512421e+16 1.84732967226e+16 3.74119520007e+16 2.00625319285e+16 2.31611183821e+16 2.88493245346e+16 3.9000979685e+16 1.88323581841e+16 1.53782699307e+16 1.85512238563e+16 1.04835277902e+16 1.04820514059e+16 1.38644613261e+16 1.98755011094e+16 1.22998141689e+16 1.03496676592e+16 5.40583234265e+15 2.34643015018e+16 1.01498104227e+15 4.02056553525e+15 4.58594299385e+15 9.48860271239e+14 6.09668744341e+14 1.39500933723e+15 5.53734201685e+14 1.02911309728e+15 2.53872099657e+13 4.43186107564e+12 1.30538728369e+12 0 3.15159843561e+13 0 0 0 0 0 0 0 2.98896854224e+12 0 0 0 0 0 0 0 0 
0 0 0 0 0 0 0 0 2.66475525586e+12 0 0 0 0 0 1.31782766496e+13 1.57691544128e+13 1.55566906773e+12 0 1.4538063676e+13 3.21116668528e+14 2.6542590416e+14 1.70509059685e+14 1.90112207342e+14 2.43294070519e+15 2.19031778227e+14 4.43456009087e+15 7.96401046448e+15 5.26069564571e+15 2.1779436792e+16 4.40214141386e+15 6.21068615939e+15 1.18081415381e+16 1.10054436053e+16 1.27160332147e+16 2.29594751312e+16 3.62681874369e+16 4.11712360137e+16 3.36005703032e+16 3.25232382776e+16 3.88541913894e+16 4.53931872003e+16 5.70518223772e+16 4.85800859205e+16 4.66584195165e+16 5.25044930908e+16 3.90477284807e+16 2.18943492286e+16 6.17957679382e+16 5.73377974183e+16 3.61179586192e+16 2.67053878534e+16 2.98738940124e+16 2.52649798e+16 4.27473284734e+16 2.47261674177e+16 1.98998466108e+16 1.86957522982e+16 1.33217338446e+16 3.08770977547e+16 8.76135220067e+15 2.44582499664e+16 5.01374103434e+15 9.03199819034e+15 2.94110327158e+15 6.2091909134e+15 9.51895052179e+14 6.93706514808e+15 6.67813383979e+14 1.37716692675e+15 2.45501626685e+14 1.71835209119e+13 3.76898283913e+15 5.94308254283e+13 9.23786283505e+12 1.51292872737e+13 4.96316989001e+12 2.28866705646e+13 0 2.22378850089e+13 0 0 0 0 0 0 0 0 0 0 0 
0 0 0 0 0 3.77755671819e+12 0 0 0 1.00442285469e+14 0 3.95124100165e+12 1.86021179572e+14 4.09563809002e+12 581999751834 4.71725362974e+15 1.38992253655e+15 2.94579414249e+15 4.19941775211e+13 1.01330805641e+15 6.77039625016e+14 6.66227030597e+15 5.94866506735e+14 5.75553621548e+14 1.99790194634e+15 2.19205693344e+16 1.82421350773e+16 7.58629318298e+15 1.6513334381e+16 1.67516523858e+16 1.7200558953e+16 2.51088914133e+16 3.00972010971e+16 3.55517692159e+16 2.69022256716e+16 4.11287966676e+16 6.43908039152e+16 5.04389737817e+16 5.81462325148e+16 6.74611113178e+16 4.58776591218e+16 7.07495186077e+16 6.66349606164e+16 6.06315520212e+16 7.66155281434e+16 6.23271936935e+16 8.36173198811e+16 6.02053801268e+16 6.60339118869e+16 9.31080619396e+16 7.19985771474e+16 4.22631292211e+16 5.72452561563e+16 2.78978048088e+16 3.44001948814e+16 4.19426326451e+16 3.2463274397e+16 1.47336705627e+16 1.9113038505e+16 1.54857669699e+16 8.97583383935e+15 1.56613212767e+16 1.72423165199e+16 9.26272343568e+15 5.60048942191e+15 2.3643974073e+15 3.72496817772e+15 6.58376706304e+15 4.5723632603e+14 1.92254123203e+15 2.4085410461e+13 1.60327064026e+14 2.65305937359e+14 2.93869302204e+15 0 0 0 0 0 2.81343964249e+14 1.91477220829e+12 0 0 0 0 0 0 0 0 0 
0 1.37201286605e+12 0 0 0 0 0 0 3.45528274136e+12 0 326412004232 8.859650393e+14 3.25707866087e+12 3.60798539125e+13 4.464027785e+12 1.6586600949e+14 4.16753760935e+14 5.18730201293e+15 1.10012670184e+15 2.41089749733e+15 1.62217434678e+15 1.28532078297e+15 6.8066940134e+15 1.0133816002e+16 1.32042104616e+16 1.26068650515e+16 1.37977151361e+16 1.66580212734e+16 1.9290357403e+16 3.06138273771e+16 3.11789747951e+16 3.71180805031e+16 4.39320045333e+16 6.67241372991e+16 4.06954576663e+16 5.87166197297e+16 8.69660746695e+16 7.75690961953e+16 1.00941121473e+17 1.05285572569e+17 1.21545294098e+17 1.1104088264e+17 1.02044640813e+17 1.10076179625e+17 1.23408039593e+17 1.19586082467e+17 1.06121704639e+17 1.15781771943e+17 1.000140567e+17 1.06907636522e+17 1.00876780296e+17 8.16102600848e+16 9.10714769931e+16 8.94291972261e+16 4.50632659909e+16 5.94925803185e+16 6.23154455248e+16 3.44618434738e+16 4.67678089254e+16 3.62446403501e+16 1.30898855338e+16 3.05271982489e+16 1.12728297087e+16 1.88598639086e+16 9.22950617959e+15 2.82184817156e+15 9.5213490533e+15 2.60622734716e+15 4.01417183183e+15 2.18521715241e+15 5.9530819355e+14 1.27930141604e+14 4.65157156077e+14 1.60533251457e+15 1.33229857676e+12 6.92695883737e+12 2.85972342617e+12 0 4.93550316687e+12 0 0 0 0 0 0 0 0 0 0 0 
0 0 0 0 0 0 0 0 0 1.05012878522e+12 1.41301733022e+13 0 4.47089879809e+12 0 1.66830242127e+15 9.73148008209e+12 2.95623369849e+14 4.50482859477e+12 1.72182356026e+15 5.80046173714e+15 2.59561927705e+15 8.21255640422e+15 2.62899919111e+15 1.06122017506e+16 1.02034872436e+16 1.66698333578e+16 2.08709041326e+16 1.58121471549e+16 3.46641951474e+16 5.9527297438e+16 3.40974163097e+16 5.33508301455e+16 3.89577828271e+16 8.67217412296e+16 9.6475937509e+16 9.14990195228e+16 1.02575851703e+17 1.27294519629e+17 1.02449165886e+17 1.31770882747e+17 1.63219166839e+17 1.57937511431e+17 1.68863027653e+17 1.6390861723e+17 1.59718860685e+17 1.9943173993e+17 1.48282498736e+17 1.43056024827e+17 1.31393272359e+17 1.78901944153e+17 1.29894632619e+17 1.37148440072e+17 1.17765558908e+17 1.13070069513e+17 9.03190070721e+16 6.87794620641e+16 7.7493186077e+16 6.34480278953e+16 6.89025373341e+16 4.34254997781e+16 4.7546807275e+16 3.94318422456e+16 3.12001402973e+16 1.95048160643e+16 1.19078736795e+16 7.81943128641e+15 8.09339736112e+15 9.08870148319e+15 3.57231324281e+15 3.75202525885e+15 9.13666933467e+13 2.76599194062e+13 3.68122691428e+14 6.52811404291e+14 4.59074042576e+12 3.65169404803e+15 3.28050444274e+12 6.06486787949e+12 0 730645586035 0 0 0 0 0 0 0 0 0 0 
0 0 0 0 0 0 0 0 4.06273673327e+12 5.29943162747e+12 0 8.3066777454e+13 1.66890450579e+13 9.83324150533e+12 1.25369639595e+15 4.06403885901e+15 9.44900495655e+14 4.67395544571e+15 1.55908868381e+15 4.9881746319e+15 7.84431378171e+15 9.49005920137e+15 8.91914565571e+15 1.21750381494e+16 1.40694911657e+16 1.83614090018e+16 2.72221351296e+16 3.30341049263e+16 3.0875619803e+16 5.76669289498e+16 6.69893818998e+16 8.41632219455e+16 8.4153494199e+16 1.03766449248e+17 1.01623172516e+17 1.10987676705e+17 1.40544534958e+17 1.35915682862e+17 1.63622931744e+17 1.92294583173e+17 1.82038567705e+17 1.6631430269e+17 2.30540372659e+17 2.09025653302e+17 2.40059684741e+17 2.08965000779e+17 2.37099286485e+17 1.9434613597e+17 2.17959348252e+17 1.71039177142e+17 1.65309577676e+17 1.85441968521e+17 1.57344181037e+17 1.68816593493e+17 1.43005771163e+17 1.12300731325e+17 1.04800843528e+17 1.05195241245e+17 9.77193773657e+16 4.9465169886e+16 7.07806832314e+16 4.129529893e+16 2.34497433564e+16 3.15575817334e+16 3.304538736e+16 1.17384789194e+16 2.09468329235e+16 1.29697981933e+16 4.06855397711e+15 8.61731915016e+15 6.41158249836e+15 3.77015959898e+15 3.96479367653e+15 3.88402069206e+14 1.35459645178e+13 6.15606925868e+13 4.3421383694e+14 1.23389865769e+14 0 2.10446167042e+13 0 1.07397301137e+13 0 4.80319718908e+12 0 0 0 0 0 0 
0 0 0 0 0 0 0 0 0 0 738279115888 4.58086101073e+12 5.57832442093e+12 1.62343532574e+13 2.60208044683e+13 1.8743405764e+14 1.0520495075e+15 6.75648045732e+13 6.47974602781e+15 6.27613754427e+15 1.32086513906e+16 1.40147378692e+16 2.73907687771e+16 1.83448729614e+16 1.45027932415e+16 2.7419869735e+16 4.96358567614e+16 6.57180394826e+16 5.01612708735e+16 5.78572391775e+16 6.61535374751e+16 1.09655190972e+17 1.09301694283e+17 1.77816075149e+17 1.69239653912e+17 1.8441400388e+17 2.28708095517e+17 2.28260260517e+17 2.54507930615e+17 2.74740697177e+17 2.59421600123e+17 2.56485226353e+17 3.1703933017e+17 2.94932546015e+17 3.12363095166e+17 3.24419368797e+17 3.80544935276e+17 3.07794186436e+17 2.78278026351e+17 2.67808557119e+17 2.64842478403e+17 2.20880452071e+17 2.3468808617e+17 1.94145704634e+17 1.76173975955e+17 1.79406978211e+17 1.21122056951e+17 1.03034771543e+17 9.57009430811e+16 7.5249364764e+16 7.94778461506e+16 4.76798679176e+16 4.00923089765e+16 3.52597050788e+16 2.25055433879e+16 2.62142575031e+16 2.6993928271e+16 2.1594822333e+16 1.60422286229e+16 6.03692980958e+15 1.28531589281e+16 1.21065039473e+16 1.91409176912e+14 4.85538852946e+14 1.06028307825e+13 6.28872672338e+12 2.50359849328e+13 3.75811367192e+15 0 1.36143490761e+14 0 0 0 4.82776956812e+12 0 0 0 0 0 0 
0 0 0 0 0 0 0 1.69323848372e+12 0 3.45360275184e+12 3.77037287625e+12 1.0061590484e+13 9.19554345885e+13 3.69373587875e+15 1.89456158537e+14 2.86452548614e+15 5.00067076339e+15 1.22072581352e+16 5.02954330395e+15 6.85891953423e+15 6.93785452193e+15 1.45544705261e+16 1.84108766775e+16 2.39442425566e+16 3.00023189573e+16 2.46506500371e+16 5.38981882054e+16 3.84871034393e+16 7.86026697389e+16 8.41473880673e+16 1.15461336608e+17 1.41393239255e+17 1.53226309752e+17 1.69412314174e+17 2.21600825125e+17 2.09350665791e+17 2.69272516039e+17 2.84916705893e+17 2.85512106344e+17 3.21246970078e+17 2.86786116013e+17 3.76551335695e+17 3.53687169125e+17 3.61652908365e+17 4.10946359686e+17 4.15028110866e+17 3.64196535337e+17 3.58548836495e+17 3.31735148966e+17 3.51815847448e+17 3.19346580424e+17 3.14026322131e+17 2.98271730369e+17 2.42510605164e+17 2.13864441673e+17 2.44698176601e+17 1.84012175837e+17 1.69999001824e+17 1.27371004577e+17 1.19736984888e+17 8.92660937483e+16 8.27263291718e+16 6.46247698345e+16 5.16043467612e+16 3.08286823104e+16 2.54825269417e+16 1.21291315941e+16 1.52878419893e+16 2.80635780017e+15 9.62660438852e+15 4.77000659944e+15 7.07231712164e+15 1.86917306874e+15 1.01310139298e+15 3.42106129469e+15 1.26209562956e+13 6.89560471314e+12 1.38903530347e+15 3.00130789259e+13 1.45279313745e+13 2.48859960317e+14 0 0 0 0 0 0 0 0 0 
0 0 0 0 0 0 0 0 0 0 3.02369316926e+12 0 7.72386550368e+12 8.63561459601e+14 3.9428826833e+15 1.4408963724e+15 2.89459052121e+15 4.12711695266e+15 1.6730634357e+15 6.73075128781e+15 1.10536354631e+16 1.83341968863e+16 2.65087549066e+16 3.20340494803e+16 2.2773401059e+16 4.91755880389e+16 3.38464443314e+16 6.40391183433e+16 8.64515303224e+16 1.02770231707e+17 1.22562618252e+17 1.62407711014e+17 1.80204164249e+17 2.6413441413e+17 2.66831516597e+17 3.39734266339e+17 2.51243651466e+17 3.22620422081e+17 3.75782451892e+17 4.17632121542e+17 3.95911847641e+17 4.50728918782e+17 4.41897402108e+17 4.94740814118e+17 4.21026277528e+17 4.80845910269e+17 5.05342040706e+17 4.96764280777e+17 5.02655713959e+17 3.91811426884e+17 4.06330119385e+17 4.24697621271e+17 3.70038882304e+17 3.30177816148e+17 2.4603817189e+17 2.37586293286e+17 2.22191772315e+17 1.90002598292e+17 1.85795332205e+17 1.46338244506e+17 9.57693701001e+16 1.03495964848e+17 8.07425043674e+16 6.32532381365e+16 5.10104475054e+16 5.2594687296e+16 1.99375874355e+16 2.09372225938e+16 1.70718209516e+16 3.89615512497e+15 3.97454736172e+14 1.16166391332e+16 7.42683595286e+14 1.75761952546e+14 7.57560570301e+14 1.61687004027e+12 4.7024421604e+14 1.40286259524e+13 1.13657020713e+15 3.75451497957e+15 3.61299097277e+15 0 9.95860859818e+13 0 0 0 0 0 0 0 
0 0 0 0 0 0 0 424410275486 5.1290856565e+12 3.64287243345e+12 1.11632972419e+13 5.41854113252e+12 7.2576391503e+12 1.35518095456e+15 2.36972396816e+14 9.27099571672e+15 3.3558812781e+14 6.62918536127e+14 2.26977534059e+15 2.04928430206e+15 1.45878824455e+16 3.62728376502e+16 3.21774653511e+16 2.69626332557e+16 5.02189060625e+16 4.32527270823e+16 6.99786149521e+16 9.93400939009e+16 1.17938590016e+17 1.09211698247e+17 1.78369910108e+17 1.54366871418e+17 2.34917826429e+17 2.29678651386e+17 3.24078812039e+17 3.00714341545e+17 3.92223435448e+17 4.46775241953e+17 3.89600544018e+17 5.38634254694e+17 4.87158616012e+17 5.03199739804e+17 5.2800967691e+17 5.4893144759e+17 5.81527039471e+17 5.08726237112e+17 5.78865647476e+17 5.04759001527e+17 4.49839525254e+17 4.72834968312e+17 4.50833201073e+17 4.21422419131e+17 3.91210591898e+17 3.51275152738e+17 3.2889699781e+17 2.92031931082e+17 2.71031911603e+17 2.13314385883e+17 1.94300643298e+17 1.68441014359e+17 1.24693124998e+17 1.04916913021e+17 7.89193098839e+16 6.41118260851e+16 5.88461963082e+16 5.19729111729e+16 2.00057207835e+16 3.06485928012e+16 2.31524881319e+16 2.58209284837e+16 1.54958239709e+16 3.0081482348e+15 8.29903063874e+15 9.95681039299e+15 6.35200367199e+13 2.2021117198e+15 2.77402989488e+13 4.33261167593e+14 1.32662841431e+14 1.06405982797e+14 3.1149485581e+14 0 0 0 0 0 0 0 0 0 
0 0 0 0 1.43313159353e+14 0 1.79989524343e+14 0 4.62449833146e+12 2.50001059736e+14 1.8043182694e+13 4.42446046879e+14 5.0259955551e+12 5.68141012838e+14 7.1190366574e+14 1.39770575908e+14 6.78354498617e+15 1.9191707359e+15 3.14051684715e+15 9.63104528389e+15 2.12346739077e+16 2.81186293188e+16 3.56438061335e+16 3.25945264628e+16 4.24042707101e+16 6.56539122199e+16 9.73874996289e+16 8.36299665332e+16 1.29887463631e+17 1.46753486653e+17 1.33308585163e+17 2.04859683538e+17 2.02018584032e+17 2.50090330893e+17 3.04519728475e+17 3.36998983897e+17 3.69199130396e+17 4.33376855842e+17 4.5271913609e+17 5.4763087214e+17 5.1220046847e+17 5.6246889344e+17 5.38816024714e+17 6.3866512987e+17 6.289203319e+17 6.420581153e+17 5.48693647566e+17 5.73980047949e+17 5.99346014967e+17 5.46723159594e+17 4.86071937822e+17 4.4371543055e+17 4.53604755633e+17 3.41899158888e+17 3.67542048309e+17 2.94942158319e+17 2.68124842234e+17 2.44331295306e+17 1.75794933654e+17 1.44822575704e+17 1.4164508098e+17 1.13314778293e+17 8.79882931838e+16 7.76349156238e+16 6.66262036802e+16 3.21780704846e+16 3.49292625993e+16 3.08023372999e+16 1.54109439126e+16 1.55957725446e+16 1.52745935917e+16 5.32570624495e+15 8.09119140218e+15 2.04162554989e+15 3.93568291922e+15 6.68504903981e+15 5.78404614656e+15 1.79234374732e+13 336844569419 1.161557719e+13 817246474374 1.29223359223e+12 1.33819330735e+14 2.69475616615e+12 1.60312716771e+12 0 0 0 0 0 
0 0 0 0 0 0 0 1.18468650889e+14 3.77830507264e+13 5.07973383967e+12 1.31158838725e+15 8.10070870613e+14 1.06783029044e+14 1.10173138834e+15 3.07833785129e+15 2.40460324071e+15 3.39162321021e+15 1.39901921029e+16 1.24990479565e+16 1.21712430543e+16 1.71369657772e+16 1.24607862638e+16 3.08410986083e+16 2.898007997e+16 7.46504174301e+16 5.53279629267e+16 7.98710026486e+16 1.10504801042e+17 1.10011049824e+17 1.57498002719e+17 2.0035034845e+17 2.25398814098e+17 2.81976311711e+17 3.00991459672e+17 3.16369106846e+17 3.68757934184e+17 4.03562273127e+17 4.80129416581e+17 4.77896901831e+17 4.49751981203e+17 5.3449424686e+17 5.38548045421e+17 6.45402449452e+17 6.74745762279e+17 5.96138921102e+17 6.82501977626e+17 5.70449297269e+17 5.83705499016e+17 5.73403031556e+17 5.68487520354e+17 5.59333009338e+17 4.95659951801e+17 4.83264255224e+17 4.32290874623e+17 3.58792225696e+17 2.61056038137e+17 2.74696726429e+17 2.64859345098e+17 2.45700086064e+17 1.62649426801e+17 1.27110117246e+17 1.36489912428e+17 9.84404159581e+16 8.96513128718e+16 6.96885062177e+16 4.88073586495e+16 3.49308517289e+16 2.46707737501e+16 2.87536535304e+16 1.04677594761e+16 1.3753388872e+16 9.71259350133e+15 6.75203151965e+15 3.75661866325e+15 6.43052020969e+13 5.12762139649e+13 9.46730528248e+12 1.56508478071e+15 2.2955275412e+13 3.67823327959e+15 6.26833723981e+12 1.09199749448e+13 0 0 329335588399 0 0 0 0 0 
0 0 0 0 0 0 4.17944913191e+12 0 880379476700 1.20600997011e+13 3.51320915739e+13 2.61191722332e+14 3.82051546084e+15 1.65796964815e+15 4.90847598018e+14 7.15038252705e+15 1.98023041534e+15 4.83615730437e+15 5.81756510831e+15 1.4609224636e+16 1.09286572724e+16 1.2187517233e+16 2.60772722615e+16 2.79974201908e+16 5.42453490017e+16 6.7526571368e+16 8.36803033262e+16 8.53404280438e+16 1.04348888821e+17 1.09589241003e+17 1.90314164831e+17 2.31027603686e+17 2.27472974527e+17 3.50038451066e+17 3.09399012188e+17 4.25236058011e+17 4.03244990367e+17 4.98815225269e+17 4.83716707591e+17 4.91304828976e+17 5.40283517157e+17 5.5939339365e+17 5.79957978819e+17 6.58280836968e+17 6.73611807907e+17 6.73535122515e+17 6.05319006895e+17 5.72608412869e+17 6.20325166592e+17 6.18998312655e+17 5.54466601153e+17 5.03877211104e+17 4.63801272221e+17 4.49482251004e+17 3.70466599126e+17 3.14453710075e+17 2.95395589723e+17 2.62570550608e+17 2.02818562891e+17 1.99736749837e+17 1.2231336562e+17 1.18068584191e+17 7.99282700233e+16 6.55749474858e+16 3.80587363624e+16 3.93811813299e+16 3.52490804186e+16 2.44143857095e+16 2.33997917743e+16 9.34487015848e+15 7.03869634092e+15 1.10894481163e+15 7.04440225363e+15 6.49171097215e+15 7.57001544087e+15 2.57736895189e+15 4.49140274049e+15 2.31111437091e+15 2.23947341316e+14 0 3.53700307773e+12 0 0 1.46289343012e+13 0 0 0 5.07795471712e+12 0 0 
0 0 0 0 0 1.86002759425e+13 5.91536059484e+12 559452686061 8.22339704566e+13 5.4273826223e+12 5.05863231351e+12 4.41147171497e+14 3.67508800674e+15 5.43761428107e+14 3.09123309262e+15 7.15245621386e+15 8.32308098782e+14 1.3582386967e+16 1.22055313087e+16 1.64956022398e+16 1.17032033972e+16 1.72201844555e+16 2.49772655663e+16 4.10620572344e+16 5.48669965148e+16 5.63102152036e+16 7.54297161725e+16 8.2065485371e+16 1.09155301155e+17 1.39455592416e+17 1.39668161872e+17 2.10488261452e+17 2.49655857112e+17 2.55626899463e+17 2.99771001251e+17 3.8189243216e+17 4.49494115565e+17 4.44947175975e+17 4.46316174307e+17 5.11435901632e+17 5.3816506173e+17 5.23676149561e+17 6.24422503078e+17 6.19689377335e+17 5.56891044192e+17 5.98621352872e+17 5.90089593592e+17 6.61716187438e+17 5.59665793635e+17 4.99820880097e+17 5.35663523804e+17 4.49458991201e+17 4.56216382983e+17 4.34171076711e+17 3.29245425559e+17 2.85204104384e+17 2.47069551406e+17 2.07507128789e+17 2.0823002645e+17 1.8085435506e+17 1.66663919586e+17 9.06895633073e+16 8.62203579544e+16 6.78809944831e+16 4.84497172662e+16 3.29529956652e+16 1.5466907825e+16 3.71175730154e+16 2.3072781812e+16 2.21302149233e+16 8.02197910748e+15 7.6076303946e+15 4.4959066903e+15 9.30296480312e+15 7.31551147829e+15 1.4028505811e+15 1.7222962776e+14 1.50639694259e+13 3.5246558839e+14 2.81029896558e+12 1.79866667192e+15 612788062366 4.20536005701e+14 4.78951586899e+12 0 0 0 0 0 0 
0 0 0 0 0 0 0 0 2.97771940953e+12 0 9.98814841997e+13 4.1985913795e+12 6.14414872704e+12 4.94616126263e+14 1.61650894175e+15 2.97477086438e+15 5.60854210331e+15 1.63119767983e+16 6.17486779182e+15 1.10393449963e+16 2.96803851494e+16 2.09644110996e+16 2.02409617704e+16 5.60103983336e+16 5.05415869755e+16 3.78373196318e+16 7.70682615844e+16 1.11922985823e+17 9.61861504966e+16 1.18475367369e+17 1.54452627862e+17 1.65339545997e+17 1.81803932346e+17 2.60719958183e+17 2.97668575289e+17 3.05504501192e+17 3.74152801232e+17 3.20961604008e+17 4.15470808146e+17 4.59095293366e+17 4.97754468983e+17 5.44816048039e+17 5.55713427515e+17 5.02794227995e+17 5.48224563646e+17 5.45314765306e+17 5.55006164774e+17 5.06970874582e+17 5.09750528734e+17 4.65264730096e+17 4.16999840836e+17 3.94126080366e+17 4.30182766031e+17 3.31556414559e+17 3.0789863472e+17 2.87970058727e+17 2.51835187358e+17 1.92066540856e+17 2.03253553838e+17 1.3338905057e+17 1.26271257404e+17 1.06939103792e+17 9.26616565045e+16 4.43010686039e+16 6.01372223495e+16 3.0069647721e+16 2.06855599435e+16 2.09494395297e+16 1.00986880492e+16 1.73440106452e+16 6.01054516557e+15 3.56913640395e+15 2.00116651588e+15 8.56520952729e+14 3.92020590471e+15 3.40091378214e+15 6.01902807879e+13 2.4437438436e+14 3.02355023728e+14 1.11513198755e+13 0 4.21151740692e+12 820568919001 728684863840 4.38392568406e+12 0 0 0 0 0 
0 0 0 0 0 0 0 388253930491 0 3.57917543323e+15 6.4706175828e+12 2.60918607999e+13 3.36970376029e+15 8.47688539842e+14 1.80646829269e+14 3.85887229803e+13 9.35259339731e+15 1.7522919646e+15 1.15690776565e+16 1.88084247834e+15 1.68766612491e+16 2.10925748316e+16 2.18738776296e+16 2.38738092544e+16 3.39364542604e+16 5.67312752845e+16 6.69415142876e+16 7.69446776009e+16 1.13968197585e+17 1.2352795497e+17 1.70691925423e+17 2.0239335587e+17 1.28578606328e+17 2.26999499198e+17 2.11951572693e+17 3.07414070173e+17 3.17208241262e+17 3.27183569229e+17 3.14322800716e+17 3.78759693171e+17 3.75367185948e+17 4.08483831539e+17 4.66015547318e+17 4.67566905063e+17 4.70215579346e+17 4.70498868965e+17 4.58784792923e+17 4.26474931541e+17 4.16598082685e+17 4.15821549761e+17 3.59224015362e+17 3.8628346389e+17 3.73440814125e+17 3.21089010472e+17 2.87389095094e+17 2.45944976559e+17 1.90597517391e+17 1.78448975662e+17 1.33481765918e+17 1.06833165863e+17 8.66950735467e+16 9.52520084067e+16 5.87964148494e+16 5.39138368422e+16 2.67747150929e+16 4.41180748119e+16 3.19489614936e+16 1.95518462974e+16 9.16339313588e+15 1.37459082081e+16 1.55658454563e+16 2.35731946208e+15 4.7047909193e+15 2.49720286849e+15 1.53223177376e+14 1.86601292031e+14 3.89635164236e+15 5.39667476907e+14 3.46711626952e+13 3.57408843903e+12 2.08427115587e+14 5.16629755175e+12 556773083190 0 0 0 0 0 0 0 
0 0 0 0 4.09472129006e+12 0 4.44350943581e+12 0 2.57655890181e+13 0 5.76620602442e+12 4.43033705404e+13 3.55191373239e+13 8.74787862101e+14 8.66883877428e+12 1.06945489598e+15 3.25798946695e+14 4.67443841638e+15 3.90314907727e+15 8.7591418096e+15 1.40892757695e+16 1.85687999673e+16 6.51233707845e+15 3.83337339047e+16 8.2369640147e+15 3.4623411316e+16 3.06982742536e+16 4.92444318512e+16 8.28252530798e+16 8.7691602968e+16 1.11664778859e+17 1.49643203152e+17 1.39905422114e+17 1.85507904416e+17 2.08417852158e+17 2.3995948493e+17 2.5348338099e+17 2.92922396978e+17 3.07249499935e+17 3.49578965512e+17 3.24108547035e+17 3.89301167225e+17 3.6342594374e+17 4.01431479728e+17 3.83450151472e+17 4.1317734716e+17 3.96596760136e+17 3.98730110554e+17 3.57033784152e+17 3.26350797454e+17 3.48928693212e+17 2.93882936878e+17 2.89745595593e+17 2.64427307485e+17 2.1954172834e+17 2.13127281376e+17 1.72145453273e+17 1.48916755859e+17 1.47683241697e+17 1.46000704841e+17 7.11083808185e+16 9.2756468864e+16 6.58632480475e+16 7.52109476826e+16 5.38753201112e+16 3.17937665851e+16 1.75838628342e+16 2.82015202878e+16 1.85599997115e+16 9.11027402697e+15 7.44274699284e+15 5.14358437152e+15 1.77426681006e+15 6.15834547123e+15 4.58828733927e+15 3.68824691864e+13 5.42985409466e+14 1.32615989018e+12 5.1339906625e+12 1.64361916221e+12 0 0 0 0 0 0 0 0 0 0 
0 0 0 0 0 0 0 0 0 1.03496108923e+15 0 7.70175220906e+13 1.66731884569e+13 2.85771462985e+13 3.34814905585e+12 1.69806998253e+14 1.35888408262e+14 8.9691755654e+15 3.23713870046e+15 5.29007505549e+15 8.93098418543e+15 1.20803003388e+16 2.17238316393e+16 2.46595146579e+16 2.30684147245e+16 4.44633202844e+16 4.52968502313e+16 6.37266242357e+16 7.64136187078e+16 7.75242905033e+16 5.90628921185e+16 1.07595199233e+17 1.54375354736e+17 1.29871430951e+17 1.57592078904e+17 1.62696688633e+17 2.02322164857e+17 2.05457086606e+17 2.78828409434e+17 2.75241085646e+17 2.83242235939e+17 2.82847280934e+17 2.84186420272e+17 3.34558054117e+17 3.00384967492e+17 3.05234245815e+17 2.70406331935e+17 2.7917453842e+17 3.0836936458e+17 2.34410129055e+17 2.40897458756e+17 2.45054681861e+17 1.91146395382e+17 2.15912198253e+17 1.74206763672e+17 1.44402077027e+17 1.11405126581e+17 1.13536080591e+17 1.02943228314e+17 1.01384884824e+17 7.19438393625e+16 5.50157698684e+16 4.88312335961e+16 2.16326801144e+16 2.20496381645e+16 1.81858692976e+16 1.4209420406e+16 1.60818223822e+16 7.56944702263e+15 9.78403762517e+15 3.90687350636e+15 1.18765440055e+16 2.3765364511e+15 4.08951247187e+15 3.3132359098e+14 7.70332843756e+12 3.98031310143e+14 3.96871979429e+12 1.43387634754e+13 9.04388786081e+12 0 4.97221477446e+12 1.26452103492e+12 0 0 0 0 0 0 0 
0 0 0 0 0 0 0 0 1.43464270522e+13 0 2.98696553431e+13 5.095603002e+12 1.01994294607e+12 2.75161206736e+13 1.38052199003e+14 5.97586168967e+14 1.11252553992e+14 1.24712389797e+16 3.21737890861e+15 5.42149741095e+15 9.10361359247e+15 1.05209362388e+16 6.41441221568e+15 1.69651178429e+16 1.93222490908e+16 2.59039525761e+16 2.13602914041e+16 3.70409910647e+16 5.39829890711e+16 2.72968518904e+16 6.58714856815e+16 7.05675093796e+16 9.38276664585e+16 1.11507781851e+17 1.3518461134e+17 1.36067537833e+17 1.5952346632e+17 1.60262455992e+17 1.979608594e+17 1.89349486196e+17 1.90132977039e+17 2.15630463095e+17 2.6838967896e+17 2.23391094033e+17 1.93570636311e+17 2.12839639629e+17 2.32519795161e+17 2.02115285361e+17 1.62367334122e+17 2.06056373431e+17 2.00610137829e+17 2.02074652515e+17 1.49266433341e+17 1.62892397625e+17 1.43549562e+17 1.39161016834e+17 1.01736136025e+17 9.4384108122e+16 8.66626682277e+16 5.42115663592e+16 5.07611193827e+16 4.19626171438e+16 2.89827728208e+16 1.60828962788e+16 2.06290414652e+16 2.72494694413e+16 1.26110950532e+16 1.31665288105e+16 2.67487854285e+15 7.03992122384e+15 2.78466550303e+15 6.15149972871e+15 4.62417680027e+15 2.85625963686e+14 1.49305112325e+15 2.20618723113e+14 3.94347317017e+14 1.90227413582e+13 2.78595376532e+12 3.19448096302e+12 5.1606887329e+12 0 0 4.82337545158e+12 0 0 0 0 0 0 
0 0 437732304188 0 0 0 0 0 0 0 0 0 2.6203947851e+13 4.22526261968e+15 1.34030858739e+13 4.13945512171e+14 1.32394821974e+13 3.83798407145e+15 2.40669424235e+15 3.55343235244e+15 3.57317260976e+15 6.34840120879e+15 9.7468509867e+15 1.12555843662e+16 6.12927495804e+15 1.67015898746e+16 1.66415638896e+16 1.75366569842e+16 3.10437690955e+16 3.7319830999e+16 4.10482144421e+16 6.27716632901e+16 7.24876562696e+16 6.49304699022e+16 7.28584687801e+16 8.90381220413e+16 1.05665355862e+17 9.28523300683e+16 1.21163047376e+17 1.32686022831e+17 1.56233112739e+17 1.51252669335e+17 1.48029191511e+17 1.53761951733e+17 1.20269636632e+17 1.61952546616e+17 1.76608866432e+17 1.43600428714e+17 1.92861902529e+17 1.39051440163e+17 1.19807664221e+17 1.60933497564e+17 9.76488895477e+16 1.14091042037e+17 9.86997947227e+16 8.09946125724e+16 6.85460419891e+16 6.94699914622e+16 5.25488189774e+16 4.42244854936e+16 1.8513107364e+16 2.75822133658e+16 1.60292277602e+16 3.78515332309e+16 2.07768750197e+16 1.43582036594e+16 1.15152561142e+16 1.16657895733e+16 4.23768136698e+15 3.03618880985e+15 2.83644388071e+15 3.51111105507e+15 3.84267500412e+13 2.2152440944e+15 4.76753101555e+14 0 1.37838777007e+15 0 0 1.44731624622e+12 3.41137213012e+12 0 0 2.1652853939e+14 0 0 0 0 0 0 
0 0 0 0 0 0 297246495993 0 0 0 0 0 1.11508725949e+14 7.91574149896e+12 458261081070 4.22936449385e+12 4.45224875635e+13 1.35415711675e+13 6.27998400698e+15 3.53676204959e+15 3.39009305173e+15 1.1437492059e+14 1.56584998425e+15 8.29211930713e+15 8.13948029497e+15 1.45168939763e+16 1.27570460178e+16 7.01253584112e+15 1.53705209927e+16 1.93267414774e+16 3.31251452778e+16 5.16536221803e+16 3.9519501693e+16 4.8989135514e+16 3.68248519222e+16 5.79179514502e+16 9.34949520668e+16 5.28847334274e+16 6.67429095398e+16 1.08906124586e+17 9.23812559944e+16 1.11175722673e+17 9.01232130997e+16 1.01825975791e+17 1.2266406236e+17 1.16383323718e+17 1.26594650881e+17 9.55627786417e+16 1.28738391777e+17 9.62800881896e+16 1.03410738474e+17 6.62547223595e+16 9.27841020729e+16 8.18137870624e+16 6.77175568145e+16 4.66819703216e+16 5.96931922735e+16 3.75129044502e+16 3.70182735212e+16 1.77476042464e+16 2.23321510794e+16 2.10381783459e+16 2.44313245329e+16 7.13196972308e+15 6.86207177719e+15 5.05683903488e+15 2.26102897022e+15 4.79854407879e+15 5.18330044339e+14 6.68647425954e+15 1.79565149669e+15 2.15368955866e+13 4.88873878793e+15 1.00122763231e+15 5.4237236408e+12 4.98497594312e+12 8.4383935848e+14 7.0412947849e+14 977045429725 331634610137 0 0 5.18113990228e+12 0 0 0 0 0 0 0 
0 0 0 0 0 0 0 0 0 0 4.80370620551e+14 0 2.94311228956e+15 327545169710 0 4.58162281905e+13 1.15845107465e+14 1.62558526194e+13 2.00038332149e+14 3.24601241494e+15 1.19248615033e+14 6.31725248837e+15 1.22883799305e+14 1.81731372334e+15 3.03569845014e+15 1.61419692696e+16 1.56931456318e+15 1.55927657201e+16 1.58299255562e+16 9.94313481936e+15 2.24669296992e+16 1.38835069267e+16 3.80812570194e+16 2.87686403688e+16 4.52684593661e+16 3.53394698759e+16 2.46711176852e+16 5.2289950999e+16 3.50180341771e+16 6.82116021887e+16 4.31091671546e+16 8.32828163392e+16 8.6103963062e+16 6.90492536819e+16 7.10513638719e+16 6.03089414253e+16 8.02495053462e+16 6.65235502484e+16 5.8872023444e+16 5.89019609673e+16 6.50700953515e+16 4.27695482029e+16 7.3835632572e+16 5.0766566033e+16 6.42024478309e+16 3.45280842722e+16 2.87411795024e+16 2.695281288e+16 3.83846648135e+16 2.48076818244e+16 1.3113112402e+16 7.60664697943e+15 7.77159395391e+15 4.8844914725e+15 1.16552043315e+15 7.87392291786e+15 6.19298848552e+15 4.29124504975e+15 1.50611162058e+15 3.8482121947e+15 5.80963430981e+15 9.7439382004e+12 6.80749257488e+14 7.522648563e+12 3.75379422818e+15 0 0 7.08649514665e+12 1.03801951298e+15 0 0 0 0 0 0 0 0 0 0 0 
0 0 0 0 0 0 0 0 0 0 0 3.55577418498e+12 4.37355180735e+12 0 5.45872043763e+13 6.58320231328e+12 0 3.21705008883e+12 4.48000048659e+12 1.65938749386e+13 1.59562249384e+15 4.66719312814e+15 3.8515470893e+14 5.27676116927e+15 3.84758899794e+15 1.02317487118e+15 8.58577308692e+15 4.75728983068e+15 5.51561652751e+15 1.60088024357e+16 1.97192210891e+16 1.12259968078e+16 2.38005427789e+16 2.20433224131e+16 2.29841216725e+16 3.13085127472e+16 2.98538739351e+16 3.62744461845e+16 3.07288180854e+16 3.62104085466e+16 3.0684075477e+16 4.39295765343e+16 4.71302506177e+16 4.32051319879e+16 4.69518199315e+16 3.67008149592e+16 4.42778255901e+16 3.37198149391e+16 4.06044336537e+16 4.82653947537e+16 2.97994718465e+16 4.85009670609e+16 3.95375331776e+16 3.38641251075e+16 1.30574289351e+16 3.02863134465e+16 2.22819202507e+16 1.95991434056e+16 2.18063511559e+16 1.6378286042e+16 1.35426679993e+16 8.09915935629e+15 1.49006440968e+16 1.31614432316e+15 7.69167582145e+14 7.70678068195e+15 5.84144123176e+15 1.05331967064e+15 8.70461970595e+14 3.79325429882e+13 6.57646534097e+14 0 4.90171068987e+12 2.02735055035e+14 1.24256818645e+13 6.84243162277e+14 6.83017063878e+12 0 0 0 0 0 0 0 0 0 0 0 0 0 
0 0 0 0 0 0 0 0 0 0 0 0 0 0 1.48648580699e+14 0 4.52290196861e+12 1.71078450661e+14 2.48599026172e+14 3.71560793014e+15 2.30987088363e+13 3.31135771747e+15 3.89238059432e+13 3.53675859599e+15 3.58605353308e+15 2.99027879317e+13 2.73262957761e+15 1.42475310845e+15 1.4926566625e+15 6.85986475071e+15 6.05929546046e+15 9.68689577882e+15 1.47509767324e+16 1.51554537734e+16 1.34383595887e+16 1.45866162825e+16 1.80326119879e+16 2.51073046172e+16 2.17687787111e+16 2.02600023041e+16 1.78078316227e+16 3.93643017368e+16 3.36266406909e+16 2.88371079727e+16 3.77446338045e+16 3.04729353679e+16 1.4148406382e+16 2.05773981276e+16 2.80588738441e+16 2.00678582655e+16 2.08105194546e+16 2.86949643916e+16 1.99741641438e+16 1.40674728824e+16 1.28276899429e+16 8.15770628766e+15 5.95468877497e+15 2.62706347145e+15 2.1919982417e+15 6.31398067239e+15 5.84383561713e+15 6.78978403382e+15 3.92491507794e+14 8.31495262515e+14 5.01474107772e+14 2.22950507075e+13 4.59244055976e+15 2.59551585574e+15 3.25700650256e+13 3.88417234071e+14 0 4.5693373491e+12 1.07039091562e+14 0 8.76952114186e+12 0 0 0 0 0 0 0 0 0 0 0 0 0 0 0 
0 0 0 0 0 0 0 0 0 0 0 0 1.18061973163e+13 0 0 0 973568281022 4.66626901453e+12 0 2.94824907208e+13 405764668780 762346719831 6.11064288696e+12 2.84592305745e+13 9.17054546033e+14 2.99234018716e+15 2.11917830798e+13 9.24162638396e+14 6.60940436198e+15 1.35098856689e+16 2.2452099689e+15 5.78008316456e+15 5.56233552731e+15 3.24347398746e+15 7.84563238276e+15 1.01645878869e+16 5.02697914059e+15 1.82080517079e+16 4.18173917061e+15 7.53074042413e+15 1.33639957064e+16 1.71185217381e+16 1.79182798221e+16 1.63561442621e+15 1.65810146351e+16 2.04372415515e+16 1.72914437916e+16 1.66130690304e+16 1.05404437815e+16 1.31327701979e+16 1.94980235979e+16 1.39010365473e+16 1.58974145463e+16 1.15266186245e+16 9.78911484512e+15 1.03609302305e+15 7.41986525854e+15 3.97966424545e+15 1.01107128601e+15 2.42647356739e+15 5.3042088538e+15 2.26858604312e+15 2.02911562297e+13 4.22263717435e+15 2.24497579769e+14 6.17288886248e+12 3.50803527237e+14 5.02097820159e+12 3.54934911153e+14 1.94595961171e+15 2.72052104284e+15 0 8.81968678142e+13 3.53835583401e+12 0 0 0 0 294748658161 0 0 0 0 0 0 0 0 0 0 0 
0 0 0 0 0 0 0 0 0 0 0 0 0 0 0 0 3.17752679399e+12 0 0 6.52579612366e+12 9.26251354386e+12 4.81973578367e+12 1.43610716932e+12 3.25272372099e+12 1.241656936e+13 2.9531663085e+13 2.85844163779e+15 3.91055871066e+14 6.91063290936e+15 1.97224577485e+14 1.38178848215e+15 4.28217606057e+15 3.45411326511e+15 6.92981642402e+14 5.601830384e+14 7.96041075686e+15 6.32844645722e+15 6.72786990958e+15 6.57897799168e+15 7.8125236917e+15 8.80694042111e+15 1.42864668943e+16 1.12514818665e+15 1.24056172456e+16 9.08518220741e+15 4.63854094674e+15 1.55293514316e+16 4.09541259949e+15 2.92685635784e+15 6.15311750635e+15 2.21126179843e+15 2.20271638228e+15 2.75989180534e+15 4.75107871056e+15 4.7591336813e+15 1.38095610414e+15 2.89303494882e+15 1.85211509071e+15 1.29527932424e+15 5.60008846697e+14 1.81529633438e+15 1.83437877272e+13 3.69305738163e+15 5.57992422718e+14 9.42707662089e+12 5.11014025279e+13 6.33636436171e+12 1.41904485448e+14 1.33564011798e+12 0 0 1.65714729967e+13 0 1.64392328823e+12 0 0 0 0 0 0 0 0 0 0 0 0 0 0 0 0 
0 0 0 0 0 0 0 0 0 0 0 0 0 0 0 0 0 0 0 5.03131331994e+12 0 5.75335773101e+12 0 0 1.73287925178e+13 1.00282945678e+15 5.64371356028e+14 6.94484714063e+13 8.09307452216e+12 1.05986552946e+14 6.85373107947e+13 7.97305282718e+13 2.20953508144e+13 1.1529687562e+15 3.04242209152e+14 5.85262482222e+15 5.88057020211e+15 6.51685204336e+14 8.08534319006e+15 2.19254159398e+15 8.25114822874e+13 5.39843327838e+15 3.81034715817e+15 4.58362858263e+15 1.46619313353e+15 3.7026051205e+15 7.57974115074e+15 5.68882754962e+15 2.4740738071e+15 7.64411109577e+15 6.45225389002e+15 3.03818493568e+15 1.56106907502e+15 3.02798774299e+14 6.03829432522e+14 1.0516444533e+15 1.63124000316e+14 4.51626953108e+14 6.30701838423e+13 9.69083291067e+14 2.33611482106e+14 4.43083303784e+12 6.05057507935e+14 3.18361908465e+15 3.02502979809e+14 5.65512324152e+12 0 5.14135668244e+13 475621844886 0 9.24948306054e+13 0 0 0 0 0 0 0 0 0 0 0 0 0 0 0 0 0 0 0 
0 0 0 0 0 0 0 0 0 0 0 0 0 0 0 0 0 0 0 0 0 0 0 0 363029402260 0 3.48292346181e+14 2.13180058892e+12 9.13354535495e+13 8.85208932495e+12 1.83345330821e+13 8.05062855955e+13 1.76810888939e+15 4.80689981056e+12 3.24226143355e+15 1.39636192935e+12 3.49996355743e+13 7.09731733332e+14 9.81572050925e+12 2.90808992272e+14 1.66102035061e+14 4.01896235925e+15 4.2360911867e+15 2.39956748081e+14 5.38317391827e+15 3.56579105878e+15 1.92913415106e+14 1.78850807866e+15 1.44851961375e+14 6.95198540947e+14 3.43093426607e+15 8.35403638875e+14 3.53458713033e+15 5.77546654943e+13 2.79774264953e+13 8.11705998396e+14 1.87798639495e+15 1.93066580969e+13 1.42978201507e+15 8.38361709562e+12 9.00955964922e+12 1.05338510534e+15 2.08086378041e+12 1.06381393309e+15 1.5618728401e+15 579773440778 0 1.2595038329e+14 0 0 0 0 0 0 0 0 0 0 0 0 0 0 0 0 0 0 0 0 0 0 
0 0 0 0 0 0 0 0 0 0 0 0 0 0 0 0 0 0 0 0 0 0 0 7.10884529479e+12 0 0 0 365650301718 0 0 1.59573053316e+12 0 5.15065308253e+12 7.93265453533e+12 6.15572543159e+12 1.42006011222e+13 3.18078155488e+13 1.77218558654e+14 3.73018009875e+15 5.93676246097e+14 7.8228842365e+14 1.15408184775e+13 2.10729102203e+13 6.54468556989e+14 1.03259230309e+14 9.61496170645e+13 1.16151065474e+15 1.6373076036e+15 2.17491959108e+13 4.83528891376e+15 1.14220561023e+13 7.2053259365e+14 0 1.04890441822e+13 1.54350222426e+12 1.18142039914e+13 5.95244743263e+13 5.7900731752e+14 3.55033119996e+12 4.47775390829e+12 0 3.28168001733e+12 1.01289349282e+13 4.38600685614e+12 1.16839986704e+14 0 0 0 0 0 0 0 0 0 0 0 0 0 0 0 0 0 0 0 0 0 0 0 0 0 
0 0 0 0 0 0 0 0 0 0 0 0 0 0 0 0 0 0 0 0 0 0 0 0 0 0 4.36198032724e+12 0 3.10913840238e+13 0 0 5.30911171784e+12 0 0 867864587889 1.36289075792e+15 7.03074571335e+12 8.00707543509e+13 9.52514504142e+12 0 3.45816634136e+12 1.52139789621e+15 1.15670233162e+15 7.16587926231e+12 1.24708236191e+13 1.78048262596e+14 0 6.65570609583e+12 6.55713873843e+12 0 7.58968468593e+12 5.12507300944e+13 5.12367669362e+12 3.50556733734e+14 0 0 9.49678353091e+12 4.82237747251e+12 0 0 0 0 0 0 0 0 1.07045182531e+15 0 0 0 0 0 0 0 0 0 0 0 0 0 0 0 0 0 0 0 0 0 0 0 
0 0 0 0 0 0 0 0 0 0 0 0 0 0 0 0 0 0 0 0 0 0 0 0 0 2.39316955779e+13 6.63583444456e+13 0 3.66829933414e+12 0 0 1.08346714287e+12 0 649541875776 0 3.17947027947e+14 466195576384 568584652519 0 0 3.65925835034e+15 0 1.72336203663e+12 1.63783952117e+12 0 1.29038294006e+12 0 4.89265886379e+12 5.92441792543e+12 1.23222363117e+14 2.75202980667e+12 4.81730819405e+12 0 0 749352249901 0 0 0 0 0 4.93740258623e+12 0 0 0 0 0 0 0 0 0 0 0 0 0 0 0 0 0 0 0 0 0 0 0 0 0 0 0 0 0 
0 0 0 0 0 0 0 0 0 0 0 0 0 0 0 0 0 0 0 0 0 0 0 0 0 0 0 0 0 0 0 0 868955512835 0 0 0 2.9812302276e+12 0 298236749283 449232753642 0 2.59090071122e+12 1.03501681224e+15 0 0 0 5.46566860096e+13 0 0 0 1.28491699787e+14 0 6.27116249591e+13 0 0 0 0 0 334729704208 0 0 611342634869 0 0 0 0 0 0 1.4617613899e+12 0 0 0 0 0 0 0 0 0 0 0 0 0 0 0 0 0 0 0 0 0 
0 0 0 0 0 0 0 0 0 0 0 0 0 0 0 0 0 0 0 0 0 0 0 0 0 0 0 0 0 0 0 0 0 0 0 0 0 0 0 0 0 0 0 0 0 0 0 0 0 0 0 0 0 0 0 0 0 0 0 0 0 0 0 0 8.25289093772e+12 0 0 0 0 0 0 0 0 0 0 0 0 0 0 0 0 0 0 0 0 0 0 0 0 0 
0 0 0 0 0 0 0 0 0 0 0 0 0 0 0 0 0 0 0 0 0 0 0 0 0 0 0 0 0 0 0 0 0 0 0 0 0 0 0 0 0 0 0 0 0 0 0 0 0 0 0 0 0 0 0 0 0 0 0 0 0 0 0 0 0 0 0 0 0 0 0 0 0 0 0 0 0 0 0 0 0 0 0 0 0 0 0 0 0 0 
0 0 0 0 0 0 0 0 0 0 0 0 0 0 0 0 0 0 0 0 0 0 0 0 0 0 0 0 0 0 0 0 0 0 0 0 0 0 0 0 0 0 0 0 0 0 0 0 0 0 0 0 0 0 0 0 0 0 0 0 0 0 0 0 0 0 0 0 0 0 0 0 0 0 0 0 0 0 0 0 0 0 0 0 0 0 0 0 0 0 
0 0 0 0 0 0 0 0 0 0 0 0 0 0 0 0 0 0 0 0 0 0 0 0 0 0 0 0 0 0 0 0 0 0 0 0 0 0 0 0 0 0 0 0 0 0 0 0 0 0 0 0 0 0 0 0 0 0 0 0 0 0 0 0 0 0 0 0 0 0 0 0 0 0 0 0 0 0 0 0 0 0 0 0 0 0 0 0 0 0 
0 0 0 0 0 0 0 0 0 0 0 0 0 0 0 0 0 0 0 0 0 0 0 0 0 0 0 0 0 0 0 0 0 0 0 0 0 0 0 0 0 0 0 0 0 0 0 0 0 0 0 0 0 0 0 0 0 0 0 0 0 0 0 0 0 0 0 0 0 0 0 0 0 0 0 0 0 0 0 0 0 0 0 0 0 0 0 0 0 0 
0 0 0 0 0 0 0 0 0 0 0 0 0 0 0 0 0 0 0 0 0 0 0 0 0 0 0 0 0 0 0 0 0 0 0 0 0 0 0 0 0 0 0 0 0 0 0 0 0 0 0 0 0 0 0 0 0 0 0 0 0 0 0 0 0 0 0 0 0 0 0 0 0 0 0 0 0 0 0 0 0 0 0 0 0 0 0 0 0 0 
0 0 0 0 0 0 0 0 0 0 0 0 0 0 0 0 0 0 0 0 0 0 0 0 0 0 0 0 0 0 0 0 0 0 0 0 0 0 0 0 0 0 0 0 0 0 0 0 0 0 0 0 0 0 0 0 0 0 0 0 0 0 0 0 0 0 0 0 0 0 0 0 0 0 0 0 0 0 0 0 0 0 0 0 0 0 0 0 0 0 
0 0 0 0 0 0 0 0 0 0 0 0 0 0 0 0 0 0 0 0 0 0 0 0 0 0 0 0 0 0 0 0 0 0 0 0 0 0 0 0 0 0 0 0 0 0 0 0 0 0 0 0 0 0 0 0 0 0 0 0 0 0 0 0 0 0 0 0 0 0 0 0 0 0 0 0 0 0 0 0 0 0 0 0 0 0 0 0 0 0 
0 0 0 0 0 0 0 0 0 0 0 0 0 0 0 0 0 0 0 0 0 0 0 0 0 0 0 0 0 0 0 0 0 0 0 0 0 0 0 0 0 0 0 0 0 0 0 0 0 0 0 0 0 0 0 0 0 0 0 0 0 0 0 0 0 0 0 0 0 0 0 0 0 0 0 0 0 0 0 0 0 0 0 0 0 0 0 0 0 0 
0 0 0 0 0 0 0 0 0 0 0 0 0 0 0 0 0 0 0 0 0 0 0 0 0 0 0 0 0 0 0 0 0 0 0 0 0 0 0 0 0 0 0 0 0 0 0 0 0 0 0 0 0 0 0 0 0 0 0 0 0 0 0 0 0 0 0 0 0 0 0 0 0 0 0 0 0 0 0 0 0 0 0 0 0 0 0 0 0 0 
0 0 0 0 0 0 0 0 0 0 0 0 0 0 0 0 0 0 0 0 0 0 0 0 0 0 0 0 0 0 0 0 0 0 0 0 0 0 0 0 0 0 0 0 0 0 0 0 0 0 0 0 0 0 0 0 0 0 0 0 0 0 0 0 0 0 0 0 0 0 0 0 0 0 0 0 0 0 0 0 0 0 0 0 0 0 0 0 0 0 
0 0 0 0 0 0 0 0 0 0 0 0 0 0 0 0 0 0 0 0 0 0 0 0 0 0 0 0 0 0 0 0 0 0 0 0 0 0 0 0 0 0 0 0 0 0 0 0 0 0 0 0 0 0 0 0 0 0 0 0 0 0 0 0 0 0 0 0 0 0 0 0 0 0 0 0 0 0 0 0 0 0 0 0 0 0 0 0 0 0 
0 0 0 0 0 0 0 0 0 0 0 0 0 0 0 0 0 0 0 0 0 0 0 0 0 0 0 0 0 0 0 0 0 0 0 0 0 0 0 0 0 0 0 0 0 0 0 0 0 0 0 0 0 0 0 0 0 0 0 0 0 0 0 0 0 0 0 0 0 0 0 0 0 0 0 0 0 0 0 0 0 0 0 0 0 0 0 0 0 0 
0 0 0 0 0 0 0 0 0 0 0 0 0 0 0 0 0 0 0 0 0 0 0 0 0 0 0 0 0 0 0 0 0 0 0 0 0 0 0 0 0 0 0 0 0 0 0 0 0 0 0 0 0 0 0 0 0 0 0 0 0 0 0 0 0 0 0 0 0 0 0 0 0 0 0 0 0 0 0 0 0 0 0 0 0 0 0 0 0 0 
0 0 0 0 0 0 0 0 0 0 0 0 0 0 0 0 0 0 0 0 0 0 0 0 0 0 0 0 0 0 0 0 0 0 0 0 0 0 0 0 0 0 0 0 0 0 0 0 0 0 0 0 0 0 0 0 0 0 0 0 0 0 0 0 0 0 0 0 0 0 0 0 0 0 0 0 0 0 0 0 0 0 0 0 0 0 0 0 0 0 
0 0 0 0 0 0 0 0 0 0 0 0 0 0 0 0 0 0 0 0 0 0 0 0 0 0 0 0 0 0 0 0 0 0 0 0 0 0 0 0 0 0 0 0 0 0 0 0 0 0 0 0 0 0 0 0 0 0 0 0 0 0 0 0 0 0 0 0 0 0 0 0 0 0 0 0 0 0 0 0 0 0 0 0 0 0 0 0 0 0 
0 0 0 0 0 0 0 0 0 0 0 0 0 0 0 0 0 0 0 0 0 0 0 0 0 0 0 0 0 0 0 0 0 0 0 0 0 0 0 0 0 0 0 0 0 0 0 0 0 0 0 0 0 0 0 0 0 0 0 0 0 0 0 0 0 0 0 0 0 0 0 0 0 0 0 0 0 0 0 0 0 0 0 0 0 0 0 0 0 0 
0 0 0 0 0 0 0 0 0 0 0 0 0 0 0 0 0 0 0 0 0 0 0 0 0 0 0 0 0 0 0 0 0 0 0 0 0 0 0 0 0 0 0 0 0 0 0 0 0 0 0 0 0 0 0 0 0 0 0 0 0 0 0 0 0 0 0 0 0 0 0 0 0 0 0 0 0 0 0 0 0 0 0 0 0 0 0 0 0 0 
0 0 0 0 0 0 0 0 0 0 0 0 0 0 0 0 0 0 0 0 0 0 0 0 0 0 0 0 0 0 0 0 0 0 0 0 0 0 0 0 0 0 0 0 0 0 0 0 0 0 0 0 0 0 0 0 0 0 0 0 0 0 0 0 0 0 0 0 0 0 0 0 0 0 0 0 0 0 0 0 0 0 0 0 0 0 0 0 0 0 
0 0 0 0 0 0 0 0 0 0 0 0 0 0 0 0 0 0 0 0 0 0 0 0 0 0 0 0 0 0 0 0 0 0 0 0 0 0 0 0 0 0 0 0 0 0 0 0 0 0 0 0 0 0 0 0 0 0 0 0 0 0 0 0 0 0 0 0 0 0 0 0 0 0 0 0 0 0 0 0 0 0 0 0 0 0 0 0 0 0 
0 0 0 0 0 0 0 0 0 0 0 0 0 0 0 0 0 0 0 0 0 0 0 0 0 0 0 0 0 0 0 0 0 0 0 0 0 0 0 0 0 0 0 0 0 0 0 0 0 0 0 0 0 0 0 0 0 0 0 0 0 0 0 0 0 0 0 0 0 0 0 0 0 0 0 0 0 0 0 0 0 0 0 0 0 0 0 0 0 0 
0 0 0 0 0 0 0 0 0 0 0 0 0 0 0 0 0 0 0 0 0 0 0 0 0 0 0 0 0 0 0 0 0 0 0 0 0 0 0 0 0 0 0 0 0 0 0 0 0 0 0 0 0 0 0 0 0 0 0 0 0 0 0 0 0 0 0 0 0 0 0 0 0 0 0 0 0 0 0 0 0 0 0 0 0 0 0 0 0 0 
0 0 0 0 0 0 0 0 0 0 0 0 0 0 0 0 0 0 0 0 0 0 0 0 0 0 0 0 0 0 0 0 0 0 0 0 0 0 0 0 0 0 0 0 0 0 0 0 0 0 0 0 0 0 0 0 0 0 0 0 0 0 0 0 0 0 0 0 0 0 0 0 0 0 0 0 0 0 0 0 0 0 0 0 0 0 0 0 0 0 
0 0 0 0 0 0 0 0 0 0 0 0 0 0 0 0 0 0 0 0 0 0 0 0 0 0 0 0 0 0 0 0 0 0 0 0 0 0 0 0 0 0 0 0 0 0 0 0 0 0 0 0 0 0 0 0 0 0 0 0 0 0 0 0 0 0 0 0 0 0 0 0 0 0 0 0 0 0 0 0 0 0 0 0 0 0 0 0 0 0 
0 0 0 0 0 0 0 0 0 0 0 0 0 0 0 0 0 0 0 0 0 0 0 0 0 0 0 0 0 0 0 0 0 0 0 0 0 0 0 0 0 0 0 0 0 0 0 0 0 0 0 0 0 0 0 0 0 0 0 0 0 0 0 0 0 0 0 0 0 0 0 0 0 0 0 0 0 0 0 0 0 0 0 0 0 0 0 0 0 0 
# Errors [psd1_dat/psd1.dat] E: 
0 0 0 0 0 0 0 0 0 0 0 0 0 0 0 0 0 0 0 0 0 0 0 0 0 0 0 0 0 0 0 0 0 0 0 0 0 0 0 0 0 0 0 0 0 0 0 0 0 0 0 0 0 0 0 0 0 0 0 0 0 0 0 0 0 0 0 0 0 0 0 0 0 0 0 0 0 0 0 0 0 0 0 0 0 0 0 0 0 0 
0 0 0 0 0 0 0 0 0 0 0 0 0 0 0 0 0 0 0 0 0 0 0 0 0 0 0 0 0 0 0 0 0 0 0 0 0 0 0 0 0 0 0 0 0 0 0 0 0 0 0 0 0 0 0 0 0 0 0 0 0 0 0 0 0 0 0 0 0 0 0 0 0 0 0 0 0 0 0 0 0 0 0 0 0 0 0 0 0 0 
0 0 0 0 0 0 0 0 0 0 0 0 0 0 0 0 0 0 0 0 0 0 0 0 0 0 0 0 0 0 0 0 0 0 0 0 0 0 0 0 0 0 0 0 0 0 0 0 0 0 0 0 0 0 0 0 0 0 0 0 0 0 0 0 0 0 0 0 0 0 0 0 0 0 0 0 0 0 0 0 0 0 0 0 0 0 0 0 0 0 
0 0 0 0 0 0 0 0 0 0 0 0 0 0 0 0 0 0 0 0 0 0 0 0 0 0 0 0 0 0 0 0 0 0 0 0 0 0 0 0 0 0 0 0 0 0 0 0 0 0 0 0 0 0 0 0 0 0 0 0 0 0 0 0 0 0 0 0 0 0 0 0 0 0 0 0 0 0 0 0 0 0 0 0 0 0 0 0 0 0 
0 0 0 0 0 0 0 0 0 0 0 0 0 0 0 0 0 0 0 0 0 0 0 0 0 0 0 0 0 0 0 0 0 0 0 0 0 0 0 0 0 0 0 0 0 0 0 0 0 0 0 0 0 0 0 0 0 0 0 0 0 0 0 0 0 0 0 0 0 0 0 0 0 0 0 0 0 0 0 0 0 0 0 0 0 0 0 0 0 0 
0 0 0 0 0 0 0 0 0 0 0 0 0 0 0 0 0 0 0 0 0 0 0 0 0 0 0 0 0 0 0 0 0 0 0 0 0 0 0 0 0 0 0 0 0 0 0 0 0 0 0 0 0 0 0 0 0 0 0 0 0 0 0 0 0 0 0 0 0 0 0 0 0 0 0 0 0 0 0 0 0 0 0 0 0 0 0 0 0 0 
0 0 0 0 0 0 0 0 0 0 0 0 0 0 0 0 0 0 0 0 0 0 0 0 0 0 0 0 0 0 0 0 0 0 0 0 0 0 0 0 0 0 0 0 0 0 0 0 0 0 0 0 0 0 0 0 0 0 0 0 0 0 0 0 0 0 0 0 0 0 0 0 0 0 0 0 0 0 0 0 0 0 0 0 0 0 0 0 0 0 
0 0 0 0 0 0 0 0 0 0 0 0 0 0 0 0 0 0 0 0 0 0 0 0 0 0 0 0 0 0 0 0 0 0 0 0 0 0 0 0 0 0 0 0 0 0 0 0 0 0 0 0 0 0 0 0 0 0 0 0 0 0 0 0 0 0 0 0 0 0 0 0 0 0 0 0 0 0 0 0 0 0 0 0 0 0 0 0 0 0 
0 0 0 0 0 0 0 0 0 0 0 0 0 0 0 0 0 0 0 0 0 0 0 0 0 0 0 0 0 0 0 0 0 0 0 0 0 0 0 0 0 0 0 0 0 0 0 0 0 0 0 0 0 0 0 0 0 0 0 0 0 0 0 0 0 0 0 0 0 0 0 0 0 0 0 0 0 0 0 0 0 0 0 0 0 0 0 0 0 0 
0 0 0 0 0 0 0 0 0 0 0 0 0 0 0 0 0 0 0 0 0 0 0 0 0 0 0 0 0 0 0 0 0 0 0 0 0 0 0 0 0 0 0 0 0 0 0 0 0 0 0 0 0 0 0 0 0 0 0 0 0 0 0 0 0 0 0 0 0 0 0 0 0 0 0 0 0 0 0 0 0 0 0 0 0 0 0 0 0 0 
0 0 0 0 0 0 0 0 0 0 0 0 0 0 0 0 0 0 0 0 0 0 0 0 0 0 0 0 0 0 0 0 0 0 0 0 0 0 0 0 0 0 0 0 0 0 0 0 0 0 0 0 0 0 0 0 0 0 0 0 0 0 0 0 0 0 0 0 0 0 0 0 0 0 0 0 0 0 0 0 0 0 0 0 0 0 0 0 0 0 
0 0 0 0 0 0 0 0 0 0 0 0 0 0 0 0 0 0 0 0 0 0 0 0 0 0 0 0 0 0 0 0 0 0 0 0 0 0 0 0 0 0 0 0 0 0 0 0 0 0 0 0 0 0 0 0 0 0 0 0 0 0 0 0 0 0 0 0 0 0 0 0 0 0 0 0 0 0 0 0 0 0 0 0 0 0 0 0 0 0 
0 0 0 0 0 0 0 0 0 0 0 0 0 0 0 0 0 0 0 0 0 0 0 0 0 0 0 0 0 0 0 0 0 0 0 0 0 0 0 0 0 0 0 0 0 0 0 0 0 0 0 0 0 0 0 0 0 0 0 0 0 0 0 0 0 0 0 0 0 0 0 0 0 0 0 0 0 0 0 0 0 0 0 0 0 0 0 0 0 0 
0 0 0 0 0 0 0 0 0 0 0 0 0 0 0 0 0 0 0 0 0 0 0 0 0 0 0 0 0 0 0 0 0 0 0 0 0 0 0 0 0 0 0 0 0 0 0 0 0 0 0 0 0 0 0 0 0 0 0 0 0 0 0 0 0 0 0 0 0 0 0 0 0 0 0 0 0 0 0 0 0 0 0 0 0 0 0 0 0 0 
0 0 0 0 0 0 0 0 0 0 0 0 0 0 0 0 0 0 0 0 0 0 0 0 0 0 0 0 0 0 0 0 0 0 0 0 0 0 0 0 0 0 0 0 0 0 0 0 0 0 0 0 0 0 0 0 0 0 0 0 0 0 0 0 0 0 0 0 0 0 0 0 0 0 0 0 0 0 0 0 0 0 0 0 0 0 0 0 0 0 
0 0 0 0 0 0 0 0 0 0 0 0 0 0 0 0 0 0 0 0 0 0 0 0 0 0 0 0 0 0 0 0 0 0 0 0 0 0 0 0 0 0 0 0 0 0 0 0 0 0 0 0 0 0 0 0 0 0 0 0 0 0 0 0 0 0 0 0 0 0 0 0 0 0 0 0 0 0 0 0 0 0 0 0 0 0 0 0 0 0 
0 0 0 0 0 0 0 0 0 0 0 0 0 0 0 0 0 0 0 0 0 0 0 0 0 0 0 0 0 0 0 0 0 0 0 0 0 0 0 0 0 0 0 0 0 0 0 0 0 0 0 0 0 0 0 0 0 0 0 0 0 0 0 0 0 0 0 0 0 0 0 0 0 0 0 0 0 0 0 0 0 0 0 0 0 0 0 0 0 0 
0 0 0 0 0 0 0 0 0 0 0 0 0 0 0 0 0 0 0 0 0 0 0 0 0 0 0 0 0 0 0 0 0 0 0 0 0 0 0 0 0 0 0 0 0 0 0 0 0 0 0 0 0 0 0 0 0 0 0 0 0 0 0 0 0 0 0 0 0 0 0 0 0 0 0 0 0 0 0 0 0 0 0 0 0 0 0 0 0 0 
0 0 0 0 0 0 0 0 0 0 0 0 0 0 0 0 0 0 0 0 0 0 0 0 0 0 0 0 0 0 0 0 0 0 0 0 0 0 0 0 0 0 0 0 0 0 0 0 0 0 0 0 0 0 0 0 0 0 0 0 0 0 0 0 0 0 0 0 0 0 0 0 0 0 0 0 0 0 0 0 0 0 0 0 0 0 0 0 0 0 
0 0 0 0 0 0 0 0 0 0 0 0 0 0 0 0 0 0 0 0 0 0 0 0 0 0 0 0 0 0 0 0 0 0 0 0 0 0 0 0 0 0 0 0 0 0 0 0 0 0 0 0 0 0 0 0 0 0 0 0 0 0 0 0 0 0 0 0 0 0 0 0 0 0 0 0 0 0 0 0 0 0 0 0 0 0 0 0 0 0 
0 0 0 0 0 0 0 0 0 0 0 0 0 0 0 0 0 0 0 0 0 0 0 0 0 0 0 0 0 0 0 0 0 0 0 0 0 0 0 0 0 0 0 0 0 0 0 0 0 0 0 0 0 0 0 0 0 0 0 0 0 0 0 0 0 0 0 0 0 0 0 0 0 0 0 0 0 0 0 0 0 0 0 0 0 0 0 0 0 0 
0 0 0 0 0 0 0 0 0 0 0 0 0 0 0 0 0 0 0 0 0 0 0 0 0 0 0 0 0 0 0 0 0 0 0 0 0 0 0 0 0 0 0 0 0 0 0 0 0 0 0 0 0 0 0 0 0 0 0 0 0 0 0 0 0 0 0 0 0 0 0 0 0 0 0 0 0 0 0 0 0 0 0 0 0 0 0 0 0 0 
0 0 0 0 0 0 0 0 0 0 0 0 0 0 0 0 0 0 0 0 0 0 0 0 0 0 0 0 0 0 0 0 0 0 0 0 0 0 0 0 0 0 0 0 0 0 0 0 0 0 0 0 0 0 0 0 0 0 0 0 0 0 0 0 0 0 0 0 0 0 0 0 0 0 0 0 0 0 0 0 0 0 0 0 0 0 0 0 0 0 
0 0 0 0 0 0 0 0 0 0 0 0 0 0 0 0 0 0 0 0 0 0 0 0 0 0 0 0 0 0 0 0 0 0 0 0 0 0 0 0 0 0 0 0 0 0 0 0 0 0 0 0 0 0 0 0 0 0 0 0 0 0 0 0 0 0 0 0 0 0 0 0 0 0 0 0 0 0 0 0 0 0 0 0 0 0 0 0 0 0 
0 0 0 0 0 0 0 0 0 0 0 0 0 0 0 0 0 0 0 0 0 0 0 0 0 0 0 0 0 0 0 0 0 0 0 0 0 0 0 0 0 0 0 0 0 0 0 0 0 0 0 0 0 0 0 0 0 0 0 0 0 0 0 0 0 0 0 0 0 0 0 0 0 0 0 0 0 0 0 0 0 0 0 0 0 0 0 0 0 0 
0 0 0 0 0 0 0 0 0 0 0 0 0 0 0 0 0 0 0 0 0 0 0 0 0 0 0 0 0 0 0 0 0 0 0 0 0 0 0 0 0 0 0 0 0 0 0 0 0 0 0 0 0 0 0 0 0 0 0 0 0 0 0 0 0 0 0 0 0 0 0 0 0 0 0 0 0 0 0 0 0 0 0 0 0 0 0 0 0 0 
0 0 0 0 0 0 0 0 0 0 0 0 0 0 0 0 0 0 0 0 0 0 0 0 0 0 0 0 0 0 0 0 0 0 0 0 0 0 0 0 0 0 0 0 0 0 0 0 0 0 0 0 0 0 0 0 0 0 0 0 0 0 0 0 0 0 0 0 0 0 0 0 0 0 0 0 0 0 0 0 0 0 0 0 0 0 0 0 0 0 
0 0 0 0 0 0 0 0 0 0 0 0 0 0 0 0 0 0 0 0 0 0 0 0 0 0 0 0 0 0 0 0 0 0 0 0 0 0 0 0 0 0 0 0 0 0 0 0 0 0 0 0 0 0 0 0 0 0 0 0 0 0 0 0 0 0 0 0 0 0 0 0 0 0 0 0 0 0 0 0 0 0 0 0 0 0 0 0 0 0 
0 0 0 0 0 0 0 0 0 0 0 0 0 0 0 0 0 0 0 0 0 0 0 0 0 0 0 0 0 0 0 0 0 0 0 0 0 0 0 0 0 0 0 0 0 0 0 0 0 0 0 0 0 0 0 0 0 0 0 0 0 0 0 0 0 0 0 0 0 0 0 0 0 0 0 0 0 0 0 0 0 0 0 0 0 0 0 0 0 0 
0 0 0 0 0 0 0 0 0 0 0 0 0 0 0 0 0 0 0 0 0 0 0 0 0 0 0 0 0 0 0 0 0 0 0 0 0 0 0 0 0 0 0 0 0 0 0 0 0 0 0 0 0 0 0 0 0 0 0 0 0 0 0 0 0 0 0 0 0 0 0 0 0 0 0 0 0 0 0 0 0 0 0 0 0 0 0 0 0 0 
0 0 0 0 0 0 0 0 0 0 0 0 0 0 0 0 0 0 0 0 0 0 0 0 0 0 0 0 0 0 0 0 0 0 0 0 0 0 0 0 0 0 0 0 0 0 0 0 0 0 0 0 0 0 0 0 0 0 0 0 0 0 0 0 0 0 0 0 0 0 0 0 0 0 0 0 0 0 0 0 0 0 0 0 0 0 0 0 0 0 
0 0 0 0 0 0 0 0 0 0 0 0 0 0 0 0 0 0 0 0 0 0 0 0 0 0 0 0 0 0 0 0 0 0 0 0 0 0 0 0 0 0 0 0 0 0 0 0 0 0 0 0 0 0 0 0 0 0 0 0 0 0 0 0 0 0 0 0 0 0 0 0 0 0 0 0 0 0 0 0 0 0 0 0 0 0 0 0 0 0 
0 0 0 0 0 0 0 0 0 0 0 0 0 0 0 0 0 0 0 0 0 0 0 0 0 0 0 0 0 0 0 0 0 0 0 0 0 0 0 0 0 0 0 0 0 0 0 0 0 0 0 0 0 0 0 0 0 0 0 0 0 0 0 0 0 0 0 0 0 0 0 0 0 0 0 0 0 0 0 0 0 0 0 0 0 0 0 0 0 0 
0 0 0 0 0 0 0 0 0 0 0 0 0 0 0 0 0 0 0 0 0 0 0 0 0 0 0 0 0 0 0 0 0 0 0 0 0 0 0 0 0 0 0 0 0 0 0 0 0 0 0 0 0 0 0 0 0 0 0 0 0 0 0 0 0 0 0 0 0 0 0 0 0 0 0 0 0 0 0 0 0 0 0 0 0 0 0 0 0 0 
0 0 0 0 0 0 0 0 0 0 0 0 0 0 0 0 0 0 0 0 0 0 0 0 0 0 0 0 0 0 0 0 0 0 0 0 0 0 0 0 0 0 0 0 0 0 0 0 0 0 0 0 0 0 0 0 0 0 0 0 0 0 0 0 0 0 0 0 0 0 0 0 0 0 0 0 0 0 0 0 0 0 0 0 0 0 0 0 0 0 
0 0 0 0 0 0 0 0 0 0 0 0 0 0 0 0 0 0 0 0 0 0 0 0 0 0 0 0 0 0 0 0 0 0 0 0 0 0 0 0 0 0 0 0 0 0 0 0 0 0 0 0 0 0 0 0 0 0 0 0 0 0 0 0 0 0 0 0 0 0 0 0 0 0 0 0 0 0 0 0 0 0 0 0 0 0 0 0 0 0 
0 0 0 0 0 0 0 0 0 0 0 0 0 0 0 0 0 0 0 0 0 0 0 0 0 0 0 0 0 0 0 0 0 0 0 0 0 0 0 0 0 0 0 0 0 0 0 0 0 0 0 0 0 0 0 0 0 0 0 0 0 0 0 0 0 0 0 0 0 0 0 0 0 0 0 0 0 0 0 0 0 0 0 0 0 0 0 0 0 0 
0 0 0 0 0 0 0 0 0 0 0 0 0 0 0 0 0 0 0 0 0 0 0 0 0 0 0 0 0 0 0 0 0 0 0 0 0 0 0 0 0 0 0 0 0 0 0 0 0 0 0 0 0 0 0 0 0 0 0 0 0 0 0 0 0 0 0 0 0 0 0 0 0 0 0 0 0 0 0 0 0 0 0 0 0 0 0 0 0 0 
0 0 0 0 0 0 0 0 0 0 0 0 0 0 0 0 0 0 0 0 0 0 0 0 0 0 0 0 0 0 0 0 0 0 0 0 0 0 0 0 0 0 0 0 0 0 0 0 0 0 0 0 0 0 0 0 0 0 0 0 0 0 0 0 0 0 0 0 0 0 0 0 0 0 0 0 0 0 0 0 0 0 0 0 0 0 0 0 0 0 
0 0 0 0 0 0 0 0 0 0 0 0 0 0 0 0 0 0 0 0 0 0 0 0 0 0 0 0 0 0 0 0 0 0 0 0 0 0 0 0 0 0 0 0 0 0 0 0 0 0 0 0 0 0 0 0 0 0 0 0 0 0 0 0 0 0 0 0 0 0 0 0 0 0 0 0 0 0 0 0 0 0 0 0 0 0 0 0 0 0 
0 0 0 0 0 0 0 0 0 0 0 0 0 0 0 0 0 0 0 0 0 0 0 0 0 0 0 0 0 0 0 0 0 0 0 0 0 0 0 0 0 0 0 0 0 0 0 0 0 0 0 0 0 0 0 0 0 0 0 0 0 0 0 0 0 0 0 0 0 0 0 0 0 0 0 0 0 0 0 0 0 0 0 0 0 0 0 0 0 0 
0 0 0 0 0 0 0 0 0 0 0 0 0 0 0 0 0 0 0 0 0 0 0 0 0 0 0 0 0 0 0 0 0 0 0 0 0 0 0 0 0 0 0 0 0 0 0 0 0 0 0 0 0 0 0 0 0 0 0 0 0 0 0 0 0 0 0 0 0 0 0 0 0 0 0 0 0 0 0 0 0 0 0 0 0 0 0 0 0 0 
0 0 0 0 0 0 0 0 0 0 0 0 0 0 0 0 0 0 0 0 0 0 0 0 0 0 0 0 0 0 0 0 0 0 0 0 0 0 0 0 0 0 0 0 0 0 0 0 0 0 0 0 0 0 0 0 0 0 0 0 0 0 0 0 0 0 0 0 0 0 0 0 0 0 0 0 0 0 0 0 0 0 0 0 0 0 0 0 0 0 
0 0 0 0 0 0 0 0 0 0 0 0 0 0 0 0 0 0 0 0 0 0 0 0 0 0 0 0 0 0 0 0 0 0 0 0 0 0 0 0 0 0 0 0 0 0 0 0 0 0 0 0 0 0 0 0 0 0 0 0 0 0 0 0 0 0 0 0 0 0 0 0 0 0 0 0 0 0 0 0 0 0 0 0 0 0 0 0 0 0 
0 0 0 0 0 0 0 0 0 0 0 0 0 0 0 0 0 0 0 0 0 0 0 0 0 0 0 0 0 0 0 0 0 0 0 0 0 0 0 0 0 0 0 0 0 0 0 0 0 0 0 0 0 0 0 0 0 0 0 0 0 0 0 0 0 0 0 0 0 0 0 0 0 0 0 0 0 0 0 0 0 0 0 0 0 0 0 0 0 0 
0 0 0 0 0 0 0 0 0 0 0 0 0 0 0 0 0 0 0 0 0 0 0 0 0 0 0 0 0 0 0 0 0 0 0 0 0 0 0 0 0 0 0 0 0 0 0 0 0 0 0 0 0 0 0 0 0 0 0 0 0 0 0 0 0 0 0 0 0 0 0 0 0 0 0 0 0 0 0 0 0 0 0 0 0 0 0 0 0 0 
0 0 0 0 0 0 0 0 0 0 0 0 0 0 0 0 0 0 0 0 0 0 0 0 0 0 0 0 0 0 0 0 0 0 0 0 0 0 0 0 0 0 0 0 0 0 0 0 0 0 0 0 0 0 0 0 0 0 0 0 0 0 0 0 0 0 0 0 0 0 0 0 0 0 0 0 0 0 0 0 0 0 0 0 0 0 0 0 0 0 
0 0 0 0 0 0 0 0 0 0 0 0 0 0 0 0 0 0 0 0 0 0 0 0 0 0 0 0 0 0 0 0 0 0 0 0 0 0 0 0 0 0 0 0 0 0 0 0 0 0 0 0 0 0 0 0 0 0 0 0 0 0 0 0 0 0 0 0 0 0 0 0 0 0 0 0 0 0 0 0 0 0 0 0 0 0 0 0 0 0 
0 0 0 0 0 0 0 0 0 0 0 0 0 0 0 0 0 0 0 0 0 0 0 0 0 0 0 0 0 0 0 0 0 0 0 0 0 0 0 0 0 0 0 0 0 0 0 0 0 0 0 0 0 0 0 0 0 0 0 0 0 0 0 0 0 0 0 0 0 0 0 0 0 0 0 0 0 0 0 0 0 0 0 0 0 0 0 0 0 0 
0 0 0 0 0 0 0 0 0 0 0 0 0 0 0 0 0 0 0 0 0 0 0 0 0 0 0 0 0 0 0 0 0 0 0 0 0 0 0 0 0 0 0 0 0 0 0 0 0 0 0 0 0 0 0 0 0 0 0 0 0 0 0 0 0 0 0 0 0 0 0 0 0 0 0 0 0 0 0 0 0 0 0 0 0 0 0 0 0 0 
0 0 0 0 0 0 0 0 0 0 0 0 0 0 0 0 0 0 0 0 0 0 0 0 0 0 0 0 0 0 0 0 0 0 0 0 0 0 0 0 0 0 0 0 0 0 0 0 0 0 0 0 0 0 0 0 0 0 0 0 0 0 0 0 0 0 0 0 0 0 0 0 0 0 0 0 0 0 0 0 0 0 0 0 0 0 0 0 0 0 
0 0 0 0 0 0 0 0 0 0 0 0 0 0 0 0 0 0 0 0 0 0 0 0 0 0 0 0 0 0 0 0 0 0 0 0 0 0 0 0 0 0 0 0 0 0 0 0 0 0 0 0 0 0 0 0 0 0 0 0 0 0 0 0 0 0 0 0 0 0 0 0 0 0 0 0 0 0 0 0 0 0 0 0 0 0 0 0 0 0 
0 0 0 0 0 0 0 0 0 0 0 0 0 0 0 0 0 0 0 0 0 0 0 0 0 0 0 0 0 0 0 0 0 0 0 0 0 0 0 0 0 0 0 0 0 0 0 0 0 0 0 0 0 0 0 0 0 0 0 0 0 0 0 0 0 0 0 0 0 0 0 0 0 0 0 0 0 0 0 0 0 0 0 0 0 0 0 0 0 0 
0 0 0 0 0 0 0 0 0 0 0 0 0 0 0 0 0 0 0 0 0 0 0 0 0 0 0 0 0 0 0 0 0 0 0 0 0 0 0 0 0 0 0 0 0 0 0 0 0 0 0 0 0 0 0 0 0 0 0 0 0 0 0 0 0 0 0 0 0 0 0 0 0 0 0 0 0 0 0 0 0 0 0 0 0 0 0 0 0 0 
0 0 0 0 0 0 0 0 0 0 0 0 0 0 0 0 0 0 0 0 0 0 0 0 0 0 0 0 0 0 0 0 0 0 0 0 0 0 0 0 0 0 0 0 0 0 0 0 0 0 0 0 0 0 0 0 0 0 0 0 0 0 0 0 0 0 0 0 0 0 0 0 0 0 0 0 0 0 0 0 0 0 0 0 0 0 0 0 0 0 
0 0 0 0 0 0 0 0 0 0 0 0 0 0 0 0 0 0 0 0 0 0 0 0 0 0 0 0 0 0 0 0 0 0 0 0 0 0 0 0 0 0 0 0 0 0 0 0 0 0 0 0 0 0 0 0 0 0 0 0 0 0 0 0 0 0 0 0 0 0 0 0 0 0 0 0 0 0 0 0 0 0 0 0 0 0 0 0 0 0 
0 0 0 0 0 0 0 0 0 0 0 0 0 0 0 0 0 0 0 0 0 0 0 0 0 0 0 0 0 0 0 0 0 0 0 0 0 0 0 0 0 0 0 0 0 0 0 0 0 0 0 0 0 0 0 0 0 0 0 0 0 0 0 0 0 0 0 0 0 0 0 0 0 0 0 0 0 0 0 0 0 0 0 0 0 0 0 0 0 0 
0 0 0 0 0 0 0 0 0 0 0 0 0 0 0 0 0 0 0 0 0 0 0 0 0 0 0 0 0 0 0 0 0 0 0 0 0 0 0 0 0 0 0 0 0 0 0 0 0 0 0 0 0 0 0 0 0 0 0 0 0 0 0 0 0 0 0 0 0 0 0 0 0 0 0 0 0 0 0 0 0 0 0 0 0 0 0 0 0 0 
0 0 0 0 0 0 0 0 0 0 0 0 0 0 0 0 0 0 0 0 0 0 0 0 0 0 0 0 0 0 0 0 0 0 0 0 0 0 0 0 0 0 0 0 0 0 0 0 0 0 0 0 0 0 0 0 0 0 0 0 0 0 0 0 0 0 0 0 0 0 0 0 0 0 0 0 0 0 0 0 0 0 0 0 0 0 0 0 0 0 
0 0 0 0 0 0 0 0 0 0 0 0 0 0 0 0 0 0 0 0 0 0 0 0 0 0 0 0 0 0 0 0 0 0 0 0 0 0 0 0 0 0 0 0 0 0 0 0 0 0 0 0 0 0 0 0 0 0 0 0 0 0 0 0 0 0 0 0 0 0 0 0 0 0 0 0 0 0 0 0 0 0 0 0 0 0 0 0 0 0 
0 0 0 0 0 0 0 0 0 0 0 0 0 0 0 0 0 0 0 0 0 0 0 0 0 0 0 0 0 0 0 0 0 0 0 0 0 0 0 0 0 0 0 0 0 0 0 0 0 0 0 0 0 0 0 0 0 0 0 0 0 0 0 0 0 0 0 0 0 0 0 0 0 0 0 0 0 0 0 0 0 0 0 0 0 0 0 0 0 0 
0 0 0 0 0 0 0 0 0 0 0 0 0 0 0 0 0 0 0 0 0 0 0 0 0 0 0 0 0 0 0 0 0 0 0 0 0 0 0 0 0 0 0 0 0 0 0 0 0 0 0 0 0 0 0 0 0 0 0 0 0 0 0 0 0 0 0 0 0 0 0 0 0 0 0 0 0 0 0 0 0 0 0 0 0 0 0 0 0 0 
0 0 0 0 0 0 0 0 0 0 0 0 0 0 0 0 0 0 0 0 0 0 0 0 0 0 0 0 0 0 0 0 0 0 0 0 0 0 0 0 0 0 0 0 0 0 0 0 0 0 0 0 0 0 0 0 0 0 0 0 0 0 0 0 0 0 0 0 0 0 0 0 0 0 0 0 0 0 0 0 0 0 0 0 0 0 0 0 0 0 
0 0 0 0 0 0 0 0 0 0 0 0 0 0 0 0 0 0 0 0 0 0 0 0 0 0 0 0 0 0 0 0 0 0 0 0 0 0 0 0 0 0 0 0 0 0 0 0 0 0 0 0 0 0 0 0 0 0 0 0 0 0 0 0 0 0 0 0 0 0 0 0 0 0 0 0 0 0 0 0 0 0 0 0 0 0 0 0 0 0 
0 0 0 0 0 0 0 0 0 0 0 0 0 0 0 0 0 0 0 0 0 0 0 0 0 0 0 0 0 0 0 0 0 0 0 0 0 0 0 0 0 0 0 0 0 0 0 0 0 0 0 0 0 0 0 0 0 0 0 0 0 0 0 0 0 0 0 0 0 0 0 0 0 0 0 0 0 0 0 0 0 0 0 0 0 0 0 0 0 0 
0 0 0 0 0 0 0 0 0 0 0 0 0 0 0 0 0 0 0 0 0 0 0 0 0 0 0 0 0 0 0 0 0 0 0 0 0 0 0 0 0 0 0 0 0 0 0 0 0 0 0 0 0 0 0 0 0 0 0 0 0 0 0 0 0 0 0 0 0 0 0 0 0 0 0 0 0 0 0 0 0 0 0 0 0 0 0 0 0 0 
0 0 0 0 0 0 0 0 0 0 0 0 0 0 0 0 0 0 0 0 0 0 0 0 0 0 0 0 0 0 0 0 0 0 0 0 0 0 0 0 0 0 0 0 0 0 0 0 0 0 0 0 0 0 0 0 0 0 0 0 0 0 0 0 0 0 0 0 0 0 0 0 0 0 0 0 0 0 0 0 0 0 0 0 0 0 0 0 0 0 
0 0 0 0 0 0 0 0 0 0 0 0 0 0 0 0 0 0 0 0 0 0 0 0 0 0 0 0 0 0 0 0 0 0 0 0 0 0 0 0 0 0 0 0 0 0 0 0 0 0 0 0 0 0 0 0 0 0 0 0 0 0 0 0 0 0 0 0 0 0 0 0 0 0 0 0 0 0 0 0 0 0 0 0 0 0 0 0 0 0 
0 0 0 0 0 0 0 0 0 0 0 0 0 0 0 0 0 0 0 0 0 0 0 0 0 0 0 0 0 0 0 0 0 0 0 0 0 0 0 0 0 0 0 0 0 0 0 0 0 0 0 0 0 0 0 0 0 0 0 0 0 0 0 0 0 0 0 0 0 0 0 0 0 0 0 0 0 0 0 0 0 0 0 0 0 0 0 0 0 0 
0 0 0 0 0 0 0 0 0 0 0 0 0 0 0 0 0 0 0 0 0 0 0 0 0 0 0 0 0 0 0 0 0 0 0 0 0 0 0 0 0 0 0 0 0 0 0 0 0 0 0 0 0 0 0 0 0 0 0 0 0 0 0 0 0 0 0 0 0 0 0 0 0 0 0 0 0 0 0 0 0 0 0 0 0 0 0 0 0 0 
0 0 0 0 0 0 0 0 0 0 0 0 0 0 0 0 0 0 0 0 0 0 0 0 0 0 0 0 0 0 0 0 0 0 0 0 0 0 0 0 0 0 0 0 0 0 0 0 0 0 0 0 0 0 0 0 0 0 0 0 0 0 0 0 0 0 0 0 0 0 0 0 0 0 0 0 0 0 0 0 0 0 0 0 0 0 0 0 0 0 
0 0 0 0 0 0 0 0 0 0 0 0 0 0 0 0 0 0 0 0 0 0 0 0 0 0 0 0 0 0 0 0 0 0 0 0 0 0 0 0 0 0 0 0 0 0 0 0 0 0 0 0 0 0 0 0 0 0 0 0 0 0 0 0 0 0 0 0 0 0 0 0 0 0 0 0 0 0 0 0 0 0 0 0 0 0 0 0 0 0 
0 0 0 0 0 0 0 0 0 0 0 0 0 0 0 0 0 0 0 0 0 0 0 0 0 0 0 0 0 0 0 0 0 0 0 0 0 0 0 0 0 0 0 0 0 0 0 0 0 0 0 0 0 0 0 0 0 0 0 0 0 0 0 0 0 0 0 0 0 0 0 0 0 0 0 0 0 0 0 0 0 0 0 0 0 0 0 0 0 0 
0 0 0 0 0 0 0 0 0 0 0 0 0 0 0 0 0 0 0 0 0 0 0 0 0 0 0 0 0 0 0 0 0 0 0 0 0 0 0 0 0 0 0 0 0 0 0 0 0 0 0 0 0 0 0 0 0 0 0 0 0 0 0 0 0 0 0 0 0 0 0 0 0 0 0 0 0 0 0 0 0 0 0 0 0 0 0 0 0 0 
0 0 0 0 0 0 0 0 0 0 0 0 0 0 0 0 0 0 0 0 0 0 0 0 0 0 0 0 0 0 0 0 0 0 0 0 0 0 0 0 0 0 0 0 0 0 0 0 0 0 0 0 0 0 0 0 0 0 0 0 0 0 0 0 0 0 0 0 0 0 0 0 0 0 0 0 0 0 0 0 0 0 0 0 0 0 0 0 0 0 
0 0 0 0 0 0 0 0 0 0 0 0 0 0 0 0 0 0 0 0 0 0 0 0 0 0 0 0 0 0 0 0 0 0 0 0 0 0 0 0 0 0 0 0 0 0 0 0 0 0 0 0 0 0 0 0 0 0 0 0 0 0 0 0 0 0 0 0 0 0 0 0 0 0 0 0 0 0 0 0 0 0 0 0 0 0 0 0 0 0 
0 0 0 0 0 0 0 0 0 0 0 0 0 0 0 0 0 0 0 0 0 0 0 0 0 0 0 0 0 0 0 0 0 0 0 0 0 0 0 0 0 0 0 0 0 0 0 0 0 0 0 0 0 0 0 0 0 0 0 0 0 0 0 0 0 0 0 0 0 0 0 0 0 0 0 0 0 0 0 0 0 0 0 0 0 0 0 0 0 0 
0 0 0 0 0 0 0 0 0 0 0 0 0 0 0 0 0 0 0 0 0 0 0 0 0 0 0 0 0 0 0 0 0 0 0 0 0 0 0 0 0 0 0 0 0 0 0 0 0 0 0 0 0 0 0 0 0 0 0 0 0 0 0 0 0 0 0 0 0 0 0 0 0 0 0 0 0 0 0 0 0 0 0 0 0 0 0 0 0 0 
0 0 0 0 0 0 0 0 0 0 0 0 0 0 0 0 0 0 0 0 0 0 0 0 0 0 0 0 0 0 0 0 0 0 0 0 0 0 0 0 0 0 0 0 0 0 0 0 0 0 0 0 0 0 0 0 0 0 0 0 0 0 0 0 0 0 0 0 0 0 0 0 0 0 0 0 0 0 0 0 0 0 0 0 0 0 0 0 0 0 
0 0 0 0 0 0 0 0 0 0 0 0 0 0 0 0 0 0 0 0 0 0 0 0 0 0 0 0 0 0 0 0 0 0 0 0 0 0 0 0 0 0 0 0 0 0 0 0 0 0 0 0 0 0 0 0 0 0 0 0 0 0 0 0 0 0 0 0 0 0 0 0 0 0 0 0 0 0 0 0 0 0 0 0 0 0 0 0 0 0 
0 0 0 0 0 0 0 0 0 0 0 0 0 0 0 0 0 0 0 0 0 0 0 0 0 0 0 0 0 0 0 0 0 0 0 0 0 0 0 0 0 0 0 0 0 0 0 0 0 0 0 0 0 0 0 0 0 0 0 0 0 0 0 0 0 0 0 0 0 0 0 0 0 0 0 0 0 0 0 0 0 0 0 0 0 0 0 0 0 0 
0 0 0 0 0 0 0 0 0 0 0 0 0 0 0 0 0 0 0 0 0 0 0 0 0 0 0 0 0 0 0 0 0 0 0 0 0 0 0 0 0 0 0 0 0 0 0 0 0 0 0 0 0 0 0 0 0 0 0 0 0 0 0 0 0 0 0 0 0 0 0 0 0 0 0 0 0 0 0 0 0 0 0 0 0 0 0 0 0 0 
0 0 0 0 0 0 0 0 0 0 0 0 0 0 0 0 0 0 0 0 0 0 0 0 0 0 0 0 0 0 0 0 0 0 0 0 0 0 0 0 0 0 0 0 0 0 0 0 0 0 0 0 0 0 0 0 0 0 0 0 0 0 0 0 0 0 0 0 0 0 0 0 0 0 0 0 0 0 0 0 0 0 0 0 0 0 0 0 0 0 
0 0 0 0 0 0 0 0 0 0 0 0 0 0 0 0 0 0 0 0 0 0 0 0 0 0 0 0 0 0 0 0 0 0 0 0 0 0 0 0 0 0 0 0 0 0 0 0 0 0 0 0 0 0 0 0 0 0 0 0 0 0 0 0 0 0 0 0 0 0 0 0 0 0 0 0 0 0 0 0 0 0 0 0 0 0 0 0 0 0 
0 0 0 0 0 0 0 0 0 0 0 0 0 0 0 0 0 0 0 0 0 0 0 0 0 0 0 0 0 0 0 0 0 0 0 0 0 0 0 0 0 0 0 0 0 0 0 0 0 0 0 0 0 0 0 0 0 0 0 0 0 0 0 0 0 0 0 0 0 0 0 0 0 0 0 0 0 0 0 0 0 0 0 0 0 0 0 0 0 0 
0 0 0 0 0 0 0 0 0 0 0 0 0 0 0 0 0 0 0 0 0 0 0 0 0 0 0 0 0 0 0 0 0 0 0 0 0 0 0 0 0 0 0 0 0 0 0 0 0 0 0 0 0 0 0 0 0 0 0 0 0 0 0 0 0 0 0 0 0 0 0 0 0 0 0 0 0 0 0 0 0 0 0 0 0 0 0 0 0 0 
0 0 0 0 0 0 0 0 0 0 0 0 0 0 0 0 0 0 0 0 0 0 0 0 0 0 0 0 0 0 0 0 0 0 0 0 0 0 0 0 0 0 0 0 0 0 0 0 0 0 0 0 0 0 0 0 0 0 0 0 0 0 0 0 0 0 0 0 0 0 0 0 0 0 0 0 0 0 0 0 0 0 0 0 0 0 0 0 0 0 
0 0 0 0 0 0 0 0 0 0 0 0 0 0 0 0 0 0 0 0 0 0 0 0 0 0 0 0 0 0 0 0 0 0 0 0 0 0 0 0 0 0 0 0 0 0 0 0 0 0 0 0 0 0 0 0 0 0 0 0 0 0 0 0 0 0 0 0 0 0 0 0 0 0 0 0 0 0 0 0 0 0 0 0 0 0 0 0 0 0 
0 0 0 0 0 0 0 0 0 0 0 0 0 0 0 0 0 0 0 0 0 0 0 0 0 0 0 0 0 0 0 0 0 0 0 0 0 0 0 0 0 0 0 0 0 0 0 0 0 0 0 0 0 0 0 0 0 0 0 0 0 0 0 0 0 0 0 0 0 0 0 0 0 0 0 0 0 0 0 0 0 0 0 0 0 0 0 0 0 0 
0 0 0 0 0 0 0 0 0 0 0 0 0 0 0 0 0 0 0 0 0 0 0 0 0 0 0 0 0 0 0 0 0 0 0 0 0 0 0 0 0 0 0 0 0 0 0 0 0 0 0 0 0 0 0 0 0 0 0 0 0 0 0 0 0 0 0 0 0 0 0 0 0 0 0 0 0 0 0 0 0 0 0 0 0 0 0 0 0 0 
# Events [psd1_dat/psd1.dat] N: 
0 0 0 0 0 0 0 0 0 0 0 0 0 0 0 0 0 0 0 0 0 0 0 0 0 0 0 0 0 0 0 0 0 0 0 0 0 0 0 0 0 0 0 0 0 0 0 0 0 0 0 0 0 0 0 0 0 0 0 0 0 0 0 0 0 0 0 0 0 0 0 0 0 0 0 0 0 0 0 0 0 0 0 0 0 0 0 0 0 0 
0 0 0 0 0 0 0 0 0 0 0 0 0 0 0 0 0 0 0 0 0 0 0 0 0 0 0 0 0 0 0 0 0 0 0 0 0 0 0 0 0 0 0 0 0 0 0 0 0 0 0 0 0 0 0 0 0 0 0 0 0 0 0 0 0 0 0 0 0 0 0 0 0 0 0 0 0 0 0 0 0 0 0 0 0 0 0 0 0 0 
0 0 0 0 0 0 0 0 0 0 0 0 0 0 0 0 0 0 0 0 0 0 0 0 0 0 0 0 0 0 0 0 0 0 0 0 0 0 0 0 0 0 0 0 0 0 0 0 0 0 0 0 0 0 0 0 0 0 0 0 0 0 0 0 0 0 0 0 0 0 0 0 0 0 0 0 0 0 0 0 0 0 0 0 0 0 0 0 0 0 
0 0 0 0 0 0 0 0 0 0 0 0 0 0 0 0 0 0 0 0 0 0 0 0 0 0 0 0 0 0 0 0 0 0 0 0 0 0 0 0 0 0 0 0 0 0 0 0 0 0 0 0 0 0 0 0 0 0 0 0 0 0 0 0 0 0 0 0 0 0 0 0 0 0 0 0 0 0 0 0 0 0 0 0 0 0 0 0 0 0 
0 0 0 0 0 0 0 0 0 0 0 0 0 0 0 0 0 0 0 0 0 0 0 0 0 0 0 0 0 0 0 0 0 0 0 0 0 0 0 0 0 0 0 0 0 0 0 0 0 0 0 0 0 0 0 0 0 0 0 0 0 0 0 0 0 0 0 0 0 0 0 0 0 0 0 0 0 0 0 0 0 0 0 0 0 0 0 0 0 0 
0 0 0 0 0 0 0 0 0 0 0 0 0 0 0 0 0 0 0 0 0 0 0 0 0 0 0 0 0 0 0 0 0 0 0 0 0 0 0 0 0 0 0 0 0 0 0 0 0 0 0 0 0 0 0 0 0 0 0 0 0 0 0 0 0 0 0 0 0 0 0 0 0 0 0 0 0 0 0 0 0 0 0 0 0 0 0 0 0 0 
0 0 0 0 0 0 0 0 0 0 0 0 0 0 0 0 0 0 0 0 0 0 0 0 0 0 0 0 0 0 0 0 0 0 0 0 0 0 0 0 0 0 0 0 0 0 0 0 0 0 0 0 0 0 0 0 0 0 0 0 0 0 0 0 0 0 0 0 0 0 0 0 0 0 0 0 0 0 0 0 0 0 0 0 0 0 0 0 0 0 
0 0 0 0 0 0 0 0 0 0 0 0 0 0 0 0 0 0 0 0 0 0 0 0 0 0 0 0 0 0 0 0 0 0 0 0 0 0 0 0 0 0 0 0 0 0 0 0 0 0 0 0 0 0 0 0 0 0 0 0 0 0 0 0 0 0 0 0 0 0 0 0 0 0 0 0 0 0 0 0 0 0 0 0 0 0 0 0 0 0 
0 0 0 0 0 0 0 0 0 0 0 0 0 0 0 0 0 0 0 0 0 0 0 0 0 0 0 0 0 0 0 0 0 0 0 0 0 0 0 0 0 0 0 0 0 0 0 0 0 0 0 0 0 0 0 0 0 0 0 0 0 0 0 0 0 0 0 0 0 0 0 0 0 0 0 0 0 0 0 0 0 0 0 0 0 0 0 0 0 0 
0 0 0 0 0 0 0 0 0 0 0 0 0 0 0 0 0 0 0 0 0 0 0 0 0 0 0 0 0 0 0 0 0 0 0 0 0 0 0 0 0 0 0 0 0 0 0 0 0 0 0 0 0 0 0 0 0 0 0 0 0 0 0 0 0 0 0 0 0 0 0 0 0 0 0 0 0 0 0 0 0 0 0 0 0 0 0 0 0 0 
0 0 0 0 0 0 0 0 0 0 0 0 0 0 0 0 0 0 0 0 0 0 0 0 0 0 0 0 0 0 0 0 0 0 0 0 0 0 0 0 0 0 0 0 0 0 0 0 0 0 0 0 0 0 0 0 0 0 0 0 0 0 0 0 0 0 0 0 0 0 0 0 0 0 0 0 0 0 0 0 0 0 0 0 0 0 0 0 0 0 
0 0 0 0 0 0 0 0 0 0 0 0 0 0 0 0 0 0 0 0 0 0 0 0 0 0 0 0 0 0 0 0 0 0 0 0 0 0 0 0 0 0 0 0 0 0 0 0 0 0 0 0 0 0 0 0 0 0 0 0 0 0 0 0 0 0 0 0 0 0 0 0 0 0 0 0 0 0 0 0 0 0 0 0 0 0 0 0 0 0 
0 0 0 0 0 0 0 0 0 0 0 0 0 0 0 0 0 0 0 0 0 0 0 0 0 0 0 0 0 0 0 0 0 0 0 0 0 0 0 0 0 0 0 0 0 0 0 0 0 0 0 0 0 0 0 0 0 0 0 0 0 0 0 0 0 0 0 0 0 0 0 0 0 0 0 0 0 0 0 0 0 0 0 0 0 0 0 0 0 0 
0 0 0 0 0 0 0 0 0 0 0 0 0 0 0 0 0 0 0 0 0 0 0 0 0 0 0 0 0 0 0 0 0 0 0 0 0 0 0 0 0 0 0 0 0 0 0 0 0 0 0 0 0 0 0 0 0 0 0 0 0 0 0 0 0 0 0 0 0 0 0 0 0 0 0 0 0 0 0 0 0 0 0 0 0 0 0 0 0 0 
0 0 0 0 0 0 0 0 0 0 0 0 0 0 0 0 0 0 0 0 0 0 0 0 0 0 0 0 0 0 0 0 0 0 0 0 0 0 0 0 0 0 0 0 0 0 0 0 0 0 0 0 0 0 0 0 0 0 0 0 0 0 0 0 0 0 0 0 0 0 0 0 0 0 0 0 0 0 0 0 0 0 0 0 0 0 0 0 0 0 
0 0 0 0 0 0 0 0 0 0 0 0 0 0 0 0 0 0 0 0 0 0 0 0 0 0 0 0 0 0 0 0 0 0 0 0 0 0 0 0 0 0 0 0 0 0 0 0 0 0 0 0 0 0 0 0 0 0 0 0 0 0 0 0 0 0 0 0 0 0 0 0 0 0 0 0 0 0 0 0 0 0 0 0 0 0 0 0 0 0 
0 0 0 0 0 0 0 0 0 0 0 0 0 0 0 0 0 0 0 0 0 0 0 0 0 0 0 0 0 0 0 0 0 0 0 0 0 0 0 0 0 0 0 0 0 0 0 0 0 0 0 0 0 0 0 0 0 0 0 0 0 0 0 0 0 0 0 0 0 0 0 0 0 0 0 0 0 0 0 0 0 0 0 0 0 0 0 0 0 0 
0 0 0 0 0 0 0 0 0 0 0 0 0 0 0 0 0 0 0 0 0 0 0 0 0 0 0 0 0 0 0 0 0 0 0 0 0 0 0 0 0 0 0 0 0 0 0 0 0 0 0 0 0 0 0 0 0 0 0 0 0 0 0 0 0 0 0 0 0 0 0 0 0 0 0 0 0 0 0 0 0 0 0 0 0 0 0 0 0 0 
0 0 0 0 0 0 0 0 0 0 0 0 0 0 0 0 0 0 0 0 0 0 0 0 0 0 0 0 0 0 0 0 0 0 0 0 0 0 0 0 0 0 0 0 0 0 0 0 0 0 0 0 0 0 0 0 0 0 0 0 0 0 0 0 0 0 0 0 0 0 0 0 0 0 0 0 0 0 0 0 0 0 0 0 0 0 0 0 0 0 
0 0 0 0 0 0 0 0 0 0 0 0 0 0 0 0 0 0 0 0 0 0 0 0 0 0 0 0 0 0 0 0 0 0 0 0 0 0 0 0 0 0 0 0 0 0 0 0 0 0 0 0 0 0 0 0 0 0 0 0 0 0 0 0 0 0 0 0 0 0 0 0 0 0 0 0 0 0 0 0 0 0 0 0 0 0 0 0 0 0 
0 0 0 0 0 0 0 0 0 0 0 0 0 0 0 0 0 0 0 0 0 0 0 0 0 0 0 0 0 0 0 0 0 0 0 0 0 0 0 0 0 0 0 0 0 0 0 0 0 0 0 0 0 0 0 0 0 0 0 0 0 0 0 0 0 0 0 0 0 0 0 0 0 0 0 0 0 0 0 0 0 0 0 0 0 0 0 0 0 0 
0 0 0 0 0 0 0 0 0 0 0 0 0 0 0 0 0 0 0 0 0 0 0 0 0 0 0 0 0 0 0 0 0 0 0 0 0 0 0 0 0 0 0 0 0 0 0 0 0 0 0 0 0 0 0 0 0 0 0 0 0 0 0 0 0 0 0 0 0 0 0 0 0 0 0 0 0 0 0 0 0 0 0 0 0 0 0 0 0 0 
0 0 0 0 0 0 0 0 0 0 0 0 0 0 0 0 0 0 0 0 0 0 0 0 0 0 0 0 0 0 0 0 0 0 0 0 0 0 0 0 0 0 0 0 0 0 0 0 0 0 0 0 0 0 0 0 0 0 0 0 0 0 0 0 0 0 0 0 0 0 0 0 0 0 0 0 0 0 0 0 0 0 0 0 0 0 0 0 0 0 
0 0 0 0 0 0 0 0 0 0 0 0 0 0 0 0 0 0 0 0 0 0 0 0 0 0 0 0 0 0 0 0 0 0 0 0 0 0 0 0 0 0 0 0 1 0 0 0 0 0 0 0 0 0 0 0 0 0 0 0 0 0 0 0 0 0 0 0 0 0 1 0 0 0 0 0 0 0 0 0 0 0 0 0 0 0 0 0 0 0 
0 0 0 0 0 0 0 0 0 0 0 0 0 0 0 0 0 0 0 0 0 0 0 0 0 0 0 0 0 0 0 0 0 0 0 0 0 0 0 0 0 0 0 0 0 0 0 0 0 0 0 0 0 0 0 0 0 0 0 0 0 0 0 0 0 0 0 0 0 0 0 0 0 0 0 0 0 0 0 0 0 0 0 0 0 0 0 0 0 0 
0 0 0 0 0 0 0 0 0 0 0 0 0 0 0 0 0 0 0 0 0 0 0 0 0 0 0 0 0 0 0 1 0 0 0 0 0 0 0 1 0 0 0 0 0 0 0 0 0 0 1 2 0 0 0 0 0 0 0 0 0 0 0 0 0 1 0 0 0 0 0 0 0 0 0 0 0 0 0 0 0 0 0 0 0 0 0 0 0 0 
0 0 0 0 0 0 0 0 0 0 0 0 0 0 0 0 0 0 0 0 0 0 0 0 0 1 0 0 0 0 0 1 0 0 0 2 0 1 1 1 1 0 1 1 0 0 0 1 1 0 1 0 1 0 0 0 0 0 1 0 0 0 0 1 1 0 0 0 0 0 0 0 0 0 0 0 0 0 0 0 0 0 0 0 0 0 0 0 0 0 
0 0 0 0 0 0 0 0 0 0 0 0 0 0 0 0 1 0 0 0 0 0 0 1 0 0 0 0 2 1 0 2 3 0 2 2 2 1 1 1 3 4 5 3 4 2 4 1 1 1 0 3 0 1 1 1 0 0 1 0 0 0 0 1 0 2 0 0 0 0 0 0 0 0 0 0 0 0 0 0 0 0 0 0 0 0 0 0 0 0 
0 0 0 0 0 0 0 0 0 0 0 0 0 0 0 0 0 0 1 0 0 0 0 0 0 0 0 0 1 3 0 3 2 1 1 2 1 3 2 4 4 3 2 3 8 4 4 2 2 6 4 2 4 3 3 2 4 2 2 2 0 1 0 2 0 0 1 0 0 0 1 0 0 0 0 0 0 0 0 0 0 0 0 0 0 0 0 0 0 0 
0 0 0 0 0 0 0 0 0 0 0 0 0 0 0 0 0 0 0 0 0 1 0 0 4 0 2 1 5 2 0 1 4 3 5 12 7 14 7 8 6 15 9 15 10 11 15 12 11 12 4 9 7 5 6 8 5 5 2 4 2 0 3 1 1 0 0 1 0 0 0 0 0 0 0 0 0 0 0 0 0 0 0 0 0 0 0 0 0 0 
0 0 0 0 0 0 0 0 0 0 0 0 0 0 0 0 0 0 0 0 1 0 1 0 1 2 4 4 5 5 5 8 9 8 9 14 17 16 21 22 14 15 23 31 25 20 23 22 21 20 17 18 26 15 12 17 13 9 6 5 2 3 7 4 2 3 0 3 2 0 0 1 0 0 0 0 0 0 0 0 0 0 0 0 0 0 0 0 0 0 
0 0 0 0 0 0 0 0 0 0 0 0 0 0 0 0 0 1 0 1 3 4 2 2 3 1 4 7 16 16 16 20 26 19 24 36 30 31 45 37 33 58 44 52 53 51 51 44 41 43 52 30 31 25 41 28 18 24 15 14 15 10 4 5 5 7 2 5 2 0 1 2 0 0 0 0 0 0 0 0 0 0 0 0 0 0 0 0 0 0 
0 0 0 0 0 0 0 0 0 0 0 0 0 0 1 2 1 1 2 0 4 6 7 4 7 10 11 19 17 23 22 29 22 33 40 53 59 57 69 56 88 93 78 78 77 88 75 72 83 75 70 73 58 59 61 42 39 27 26 27 24 18 15 18 12 11 5 5 0 5 2 2 1 1 0 0 0 0 0 0 0 0 0 0 0 0 0 0 0 0 
0 0 0 0 0 0 0 0 0 0 0 0 0 1 0 0 1 1 5 2 2 6 2 5 14 14 19 19 31 30 50 50 51 63 75 85 96 89 135 120 136 139 139 157 158 161 165 175 148 138 134 111 89 113 88 71 74 58 61 42 43 29 17 21 14 9 11 7 9 5 3 1 0 2 0 0 0 0 0 0 0 1 0 0 0 0 0 0 0 0 
0 0 0 0 0 0 0 0 1 0 0 0 0 0 3 2 2 0 4 8 11 8 8 23 14 16 36 29 61 58 76 67 108 115 132 186 177 182 202 240 229 279 262 236 249 240 247 275 266 227 223 198 183 174 155 148 99 105 85 68 63 39 40 36 27 22 11 13 10 8 6 6 2 4 2 2 1 0 1 0 0 0 0 0 0 0 0 0 0 0 
0 0 0 0 0 1 0 0 0 1 0 1 3 1 1 4 6 5 11 11 13 13 13 18 29 43 49 63 77 97 124 122 174 184 180 241 285 313 340 337 382 385 397 408 403 377 441 405 393 392 362 327 300 261 259 244 191 187 128 139 109 82 74 48 48 31 28 16 8 9 6 3 8 8 0 0 0 0 0 1 1 0 0 0 0 0 0 0 0 0 
0 1 0 0 0 0 0 0 1 0 1 1 1 4 2 4 2 12 7 14 18 23 30 37 53 67 76 116 127 164 200 211 269 336 349 379 472 475 509 524 593 593 617 648 687 686 646 630 627 604 515 521 481 422 374 331 288 257 216 184 159 140 99 84 66 47 50 18 19 13 14 8 8 9 2 2 1 0 1 0 0 0 0 0 0 0 0 0 0 0 
0 0 0 0 0 0 0 0 0 2 1 0 2 0 3 3 9 3 16 20 30 33 47 69 92 96 135 157 187 239 283 314 365 463 501 571 665 732 764 799 880 897 957 948 942 954 926 936 895 862 804 830 684 661 547 473 423 394 327 287 242 204 161 108 91 81 61 41 37 25 16 12 6 11 5 2 2 3 0 1 0 0 0 0 0 0 0 0 0 0 
0 0 0 0 0 0 0 0 1 2 0 3 2 2 4 8 12 12 18 34 40 41 62 91 101 133 189 231 259 310 389 485 514 642 695 769 875 973 1083 1176 1182 1348 1358 1417 1345 1378 1367 1306 1292 1221 1171 1074 981 956 780 708 658 524 487 387 313 261 199 185 153 85 82 60 48 27 24 22 13 12 8 2 2 3 0 2 0 1 0 1 0 0 0 0 0 0 
0 0 0 0 0 0 0 0 0 0 1 1 3 3 3 14 10 13 24 26 52 67 92 110 130 178 247 324 353 431 523 662 736 863 947 1065 1212 1293 1376 1563 1668 1771 1814 1845 1931 1843 1900 1827 1729 1594 1521 1428 1357 1212 1062 969 821 702 605 510 404 331 287 234 174 161 94 90 55 38 34 30 12 9 3 2 4 4 0 2 0 0 0 1 0 0 0 0 0 0 
0 0 0 0 0 0 0 2 0 1 1 2 5 9 9 6 14 31 28 53 65 83 114 129 183 246 303 346 467 554 644 767 913 1055 1246 1345 1497 1755 1884 1984 2018 2159 2211 2316 2335 2316 2318 2318 2166 2050 1921 1824 1733 1551 1463 1170 1112 923 750 686 565 464 370 289 249 162 143 101 79 65 48 33 26 19 17 6 5 5 2 2 1 0 0 0 0 0 0 0 0 0 
0 0 0 0 0 0 0 0 0 0 1 0 4 8 16 15 22 19 42 58 76 97 137 149 212 314 341 465 555 688 863 893 1163 1298 1420 1645 1884 2013 2159 2497 2436 2609 2718 2896 2792 2970 2781 2697 2749 2637 2413 2266 2082 1813 1720 1497 1345 1108 959 724 689 516 462 369 293 248 147 123 91 65 45 40 35 23 12 3 9 6 3 4 4 0 3 0 0 0 0 0 0 0 
0 0 0 0 0 0 0 1 1 2 3 4 2 14 11 18 24 30 38 60 94 111 159 217 260 315 436 541 634 767 953 1040 1250 1504 1647 1927 2180 2319 2559 2861 2926 3043 3243 3213 3380 3346 3309 3219 3110 2904 2789 2553 2305 2173 1976 1698 1530 1300 1107 916 730 671 502 413 327 261 197 176 100 73 62 41 37 36 18 5 9 10 6 4 3 0 0 0 0 0 0 0 0 0 
0 0 0 0 1 0 1 0 1 4 3 3 1 8 11 18 26 36 47 60 86 140 167 206 266 418 479 543 721 855 1030 1248 1445 1637 1828 2071 2385 2605 2802 3086 3247 3398 3463 3602 3690 3581 3553 3598 3439 3217 3087 2837 2657 2337 2121 1870 1595 1396 1249 1002 842 693 574 438 370 284 197 155 126 94 65 44 44 26 20 16 10 5 1 4 2 2 1 1 2 0 0 0 0 0 
0 0 0 0 0 0 0 1 2 1 4 5 10 11 12 23 34 36 57 69 96 128 175 224 349 394 475 613 696 843 1122 1334 1409 1778 1994 2255 2494 2705 3027 3112 3388 3557 3737 3803 3813 3865 3757 3584 3460 3425 3296 2991 2795 2511 2185 1948 1672 1521 1268 1053 873 762 589 476 389 308 225 174 134 91 73 47 39 33 16 18 2 6 3 1 2 2 0 0 1 0 0 0 0 0 
0 0 0 0 0 0 1 0 1 2 3 7 4 8 12 26 18 41 50 63 96 111 176 241 336 378 511 664 667 921 1026 1244 1534 1849 1964 2251 2618 2790 3054 3145 3318 3582 3698 3789 3835 3854 3741 3763 3708 3492 3166 2968 2716 2495 2238 1906 1707 1484 1269 1123 861 768 569 464 351 313 254 151 144 84 70 54 41 24 22 18 11 4 8 0 1 0 0 1 0 0 0 1 0 0 
0 0 0 0 0 1 1 1 3 2 1 3 3 5 14 20 25 48 63 75 100 124 180 204 258 390 457 567 690 836 1016 1272 1442 1639 1794 2127 2437 2563 2827 3123 3370 3304 3597 3605 3712 3642 3607 3499 3318 3275 3005 2911 2653 2380 2055 1834 1549 1355 1224 1069 867 676 564 497 384 274 190 140 145 106 77 54 33 27 16 9 14 5 4 1 4 2 1 1 0 0 0 0 0 0 
0 0 0 0 0 0 0 0 1 0 3 2 2 11 8 23 26 33 48 64 82 123 149 221 266 332 473 476 616 755 903 1100 1260 1529 1741 1943 2158 2268 2541 2772 2904 2978 3170 3275 3407 3347 3307 3140 3075 2939 2680 2626 2428 2127 1990 1693 1447 1273 1126 930 717 620 532 387 359 259 174 139 119 79 55 47 37 22 22 12 9 4 4 2 0 2 1 1 1 0 0 0 0 0 
0 0 0 0 0 0 0 1 0 1 2 3 6 5 9 14 27 27 37 51 76 92 142 195 205 267 340 449 579 695 776 962 1143 1260 1453 1707 1878 2028 2131 2417 2570 2590 2847 2825 2896 2819 2819 2723 2690 2475 2376 2155 2059 1792 1684 1435 1219 1064 936 781 627 545 433 346 316 229 156 122 105 83 70 30 28 16 14 12 14 6 4 1 2 1 1 0 0 0 0 0 0 0 
0 0 0 0 1 0 1 0 2 0 1 5 4 8 4 15 15 23 42 48 70 99 108 146 172 220 302 353 453 542 619 766 898 1065 1236 1382 1535 1645 1851 1920 2048 2249 2269 2388 2388 2343 2381 2330 2203 2047 1978 1755 1654 1521 1380 1248 1060 922 782 688 546 435 387 313 268 203 124 117 89 55 39 33 21 21 16 5 6 2 1 2 0 0 0 0 0 0 0 0 0 0 
0 0 0 0 0 0 0 0 0 1 0 1 4 2 6 7 14 23 35 39 51 50 93 122 165 175 236 295 384 430 553 626 732 820 923 1024 1212 1311 1443 1673 1611 1658 1782 1873 1881 1825 1756 1755 1781 1643 1482 1417 1336 1240 1087 851 774 687 618 547 458 357 256 199 198 145 100 71 47 58 30 32 23 10 8 5 4 1 1 3 0 1 1 0 0 0 0 0 0 0 
0 0 0 0 0 0 0 0 1 0 2 1 1 2 7 10 12 13 21 24 28 52 65 87 121 139 163 236 257 304 373 454 531 656 743 772 858 968 1093 1136 1244 1261 1317 1385 1398 1464 1379 1330 1290 1237 1150 1065 977 912 786 695 656 527 448 374 310 273 229 165 145 106 91 68 32 39 23 20 13 6 6 9 2 3 1 1 1 0 0 1 0 0 0 0 0 0 
0 0 1 0 0 0 0 0 0 0 0 0 1 4 4 2 6 12 19 18 26 25 53 62 80 93 129 154 176 215 261 360 347 421 488 556 642 686 787 784 872 914 936 1011 931 934 937 938 899 874 830 760 754 644 597 526 426 371 313 269 235 193 143 123 103 75 55 45 30 27 22 15 7 9 5 0 3 0 0 2 1 0 0 1 0 0 0 0 0 0 
0 0 0 0 0 0 1 0 0 0 0 0 2 2 1 3 4 3 5 14 19 19 31 41 54 72 82 107 117 137 174 224 264 315 341 388 477 426 484 587 598 629 625 660 694 672 670 656 602 582 545 526 526 444 396 342 316 248 200 146 164 137 101 66 73 57 27 23 16 17 16 7 6 5 3 1 1 2 1 1 0 0 1 0 0 0 0 0 0 0 
0 0 0 0 0 0 0 0 0 0 2 0 2 1 0 5 7 5 9 9 8 18 15 31 33 46 46 67 76 93 112 121 170 175 230 280 309 302 292 377 363 415 425 402 393 416 433 427 374 369 377 344 307 282 268 221 206 172 150 135 101 89 63 65 41 37 33 13 12 11 7 2 4 2 8 0 0 2 1 0 0 0 0 0 0 0 0 0 0 0 
0 0 0 0 0 0 0 0 0 0 0 1 2 0 2 2 0 1 1 7 5 14 11 24 22 27 43 45 62 79 79 95 102 130 146 160 188 188 229 217 229 235 253 287 265 261 243 236 258 248 216 193 188 165 154 166 136 98 74 77 69 35 36 35 18 22 18 9 11 6 5 0 2 3 3 2 1 0 0 0 0 0 0 0 0 0 0 0 0 0 
0 0 0 0 0 0 0 0 0 0 0 0 0 0 1 0 2 2 3 2 5 8 10 4 8 11 25 24 30 32 45 50 69 66 75 88 93 106 133 127 142 150 154 163 160 175 137 149 172 119 120 102 107 99 85 74 59 70 47 43 30 35 19 15 11 9 12 13 3 3 0 1 1 0 2 0 0 0 0 0 0 0 0 0 0 0 0 0 0 0 
0 0 0 0 0 0 0 0 0 0 0 0 1 0 0 0 1 1 0 2 1 1 2 10 10 8 8 15 18 17 24 27 28 33 38 49 68 57 63 72 70 76 84 85 91 92 97 95 67 93 81 63 43 65 56 36 36 24 23 22 20 16 9 8 6 5 6 1 6 3 3 0 1 1 0 0 0 0 1 0 0 0 0 0 0 0 0 0 0 0 
0 0 0 0 0 0 0 0 0 0 0 0 0 0 0 0 1 0 0 2 3 1 1 1 6 5 10 6 9 10 14 16 18 20 17 25 29 33 39 40 43 48 43 55 36 49 37 44 44 42 36 32 32 24 24 21 22 16 15 11 10 8 7 6 3 4 3 4 1 0 0 1 0 1 0 0 0 0 0 0 0 0 0 0 0 0 0 0 0 0 
0 0 0 0 0 0 0 0 0 0 0 0 0 0 0 0 0 0 0 1 0 2 0 0 2 4 3 2 4 7 7 5 9 15 6 16 15 19 17 22 19 22 20 24 26 17 38 18 12 18 24 14 15 11 6 8 3 10 7 9 6 5 6 4 6 2 0 1 1 0 1 0 0 0 0 0 0 0 0 0 0 0 0 0 0 0 0 0 0 0 
0 0 0 0 0 0 0 0 0 0 0 0 0 0 0 0 0 0 0 0 0 0 0 0 1 0 2 1 5 3 5 3 4 3 10 2 4 9 8 5 10 9 14 6 20 12 6 14 8 8 7 6 9 8 8 3 9 7 3 4 3 2 1 3 2 1 0 2 0 0 0 0 0 0 0 0 0 0 0 0 0 0 0 0 0 0 0 0 0 0 
0 0 0 0 0 0 0 0 0 0 0 0 0 0 0 0 0 0 0 0 0 0 0 1 0 0 0 1 0 0 2 0 1 2 2 5 8 3 6 6 5 4 7 7 3 5 4 9 4 6 2 6 0 4 1 3 3 4 4 1 0 2 2 2 2 0 0 0 0 0 0 0 0 0 0 0 0 0 0 0 0 0 0 0 0 0 0 0 0 0 
0 0 0 0 0 0 0 0 0 0 0 0 0 0 0 0 0 0 0 0 0 0 0 0 0 0 2 0 3 0 0 2 0 0 1 1 1 4 2 0 1 2 2 2 4 1 0 2 1 0 2 3 1 2 0 0 3 1 0 0 0 0 0 0 0 0 1 0 0 0 0 0 0 0 0 0 0 0 0 0 0 0 0 0 0 0 0 0 0 0 
0 0 0 0 0 0 0 0 0 0 0 0 0 0 0 0 0 0 0 0 0 0 0 0 0 1 1 0 1 0 0 1 0 1 0 1 1 1 0 0 1 0 1 1 0 1 0 1 3 1 1 1 0 0 1 0 0 0 0 0 1 0 0 0 0 0 0 0 0 0 0 0 0 0 0 0 0 0 0 0 0 0 0 0 0 0 0 0 0 0 
0 0 0 0 0 0 0 0 0 0 0 0 0 0 0 0 0 0 0 0 0 0 0 0 0 0 0 0 0 0 0 0 1 0 0 0 1 0 1 1 0 1 2 0 0 0 1 0 0 0 1 0 1 0 0 0 0 0 1 0 0 1 0 0 0 0 0 0 1 0 0 0 0 0 0 0 0 0 0 0 0 0 0 0 0 0 0 0 0 0 
0 0 0 0 0 0 0 0 0 0 0 0 0 0 0 0 0 0 0 0 0 0 0 0 0 0 0 0 0 0 0 0 0 0 0 0 0 0 0 0 0 0 0 0 0 0 0 0 0 0 0 0 0 0 0 0 0 0 0 0 0 0 0 0 1 0 0 0 0 0 0 0 0 0 0 0 0 0 0 0 0 0 0 0 0 0 0 0 0 0 
0 0 0 0 0 0 0 0 0 0 0 0 0 0 0 0 0 0 0 0 0 0 0 0 0 0 0 0 0 0 0 0 0 0 0 0 0 0 0 0 0 0 0 0 0 0 0 0 0 0 0 0 0 0 0 0 0 0 0 0 0 0 0 0 0 0 0 0 0 0 0 0 0 0 0 0 0 0 0 0 0 0 0 0 0 0 0 0 0 0 
0 0 0 0 0 0 0 0 0 0 0 0 0 0 0 0 0 0 0 0 0 0 0 0 0 0 0 0 0 0 0 0 0 0 0 0 0 0 0 0 0 0 0 0 0 0 0 0 0 0 0 0 0 0 0 0 0 0 0 0 0 0 0 0 0 0 0 0 0 0 0 0 0 0 0 0 0 0 0 0 0 0 0 0 0 0 0 0 0 0 
0 0 0 0 0 0 0 0 0 0 0 0 0 0 0 0 0 0 0 0 0 0 0 0 0 0 0 0 0 0 0 0 0 0 0 0 0 0 0 0 0 0 0 0 0 0 0 0 0 0 0 0 0 0 0 0 0 0 0 0 0 0 0 0 0 0 0 0 0 0 0 0 0 0 0 0 0 0 0 0 0 0 0 0 0 0 0 0 0 0 
0 0 0 0 0 0 0 0 0 0 0 0 0 0 0 0 0 0 0 0 0 0 0 0 0 0 0 0 0 0 0 0 0 0 0 0 0 0 0 0 0 0 0 0 0 0 0 0 0 0 0 0 0 0 0 0 0 0 0 0 0 0 0 0 0 0 0 0 0 0 0 0 0 0 0 0 0 0 0 0 0 0 0 0 0 0 0 0 0 0 
0 0 0 0 0 0 0 0 0 0 0 0 0 0 0 0 0 0 0 0 0 0 0 0 0 0 0 0 0 0 0 0 0 0 0 0 0 0 0 0 0 0 0 0 0 0 0 0 0 0 0 0 0 0 0 0 0 0 0 0 0 0 0 0 0 0 0 0 0 0 0 0 0 0 0 0 0 0 0 0 0 0 0 0 0 0 0 0 0 0 
0 0 0 0 0 0 0 0 0 0 0 0 0 0 0 0 0 0 0 0 0 0 0 0 0 0 0 0 0 0 0 0 0 0 0 0 0 0 0 0 0 0 0 0 0 0 0 0 0 0 0 0 0 0 0 0 0 0 0 0 0 0 0 0 0 0 0 0 0 0 0 0 0 0 0 0 0 0 0 0 0 0 0 0 0 0 0 0 0 0 
0 0 0 0 0 0 0 0 0 0 0 0 0 0 0 0 0 0 0 0 0 0 0 0 0 0 0 0 0 0 0 0 0 0 0 0 0 0 0 0 0 0 0 0 0 0 0 0 0 0 0 0 0 0 0 0 0 0 0 0 0 0 0 0 0 0 0 0 0 0 0 0 0 0 0 0 0 0 0 0 0 0 0 0 0 0 0 0 0 0 
0 0 0 0 0 0 0 0 0 0 0 0 0 0 0 0 0 0 0 0 0 0 0 0 0 0 0 0 0 0 0 0 0 0 0 0 0 0 0 0 0 0 0 0 0 0 0 0 0 0 0 0 0 0 0 0 0 0 0 0 0 0 0 0 0 0 0 0 0 0 0 0 0 0 0 0 0 0 0 0 0 0 0 0 0 0 0 0 0 0 
0 0 0 0 0 0 0 0 0 0 0 0 0 0 0 0 0 0 0 0 0 0 0 0 0 0 0 0 0 0 0 0 0 0 0 0 0 0 0 0 0 0 0 0 0 0 0 0 0 0 0 0 0 0 0 0 0 0 0 0 0 0 0 0 0 0 0 0 0 0 0 0 0 0 0 0 0 0 0 0 0 0 0 0 0 0 0 0 0 0 
0 0 0 0 0 0 0 0 0 0 0 0 0 0 0 0 0 0 0 0 0 0 0 0 0 0 0 0 0 0 0 0 0 0 0 0 0 0 0 0 0 0 0 0 0 0 0 0 0 0 0 0 0 0 0 0 0 0 0 0 0 0 0 0 0 0 0 0 0 0 0 0 0 0 0 0 0 0 0 0 0 0 0 0 0 0 0 0 0 0 
0 0 0 0 0 0 0 0 0 0 0 0 0 0 0 0 0 0 0 0 0 0 0 0 0 0 0 0 0 0 0 0 0 0 0 0 0 0 0 0 0 0 0 0 0 0 0 0 0 0 0 0 0 0 0 0 0 0 0 0 0 0 0 0 0 0 0 0 0 0 0 0 0 0 0 0 0 0 0 0 0 0 0 0 0 0 0 0 0 0 
0 0 0 0 0 0 0 0 0 0 0 0 0 0 0 0 0 0 0 0 0 0 0 0 0 0 0 0 0 0 0 0 0 0 0 0 0 0 0 0 0 0 0 0 0 0 0 0 0 0 0 0 0 0 0 0 0 0 0 0 0 0 0 0 0 0 0 0 0 0 0 0 0 0 0 0 0 0 0 0 0 0 0 0 0 0 0 0 0 0 
0 0 0 0 0 0 0 0 0 0 0 0 0 0 0 0 0 0 0 0 0 0 0 0 0 0 0 0 0 0 0 0 0 0 0 0 0 0 0 0 0 0 0 0 0 0 0 0 0 0 0 0 0 0 0 0 0 0 0 0 0 0 0 0 0 0 0 0 0 0 0 0 0 0 0 0 0 0 0 0 0 0 0 0 0 0 0 0 0 0 
0 0 0 0 0 0 0 0 0 0 0 0 0 0 0 0 0 0 0 0 0 0 0 0 0 0 0 0 0 0 0 0 0 0 0 0 0 0 0 0 0 0 0 0 0 0 0 0 0 0 0 0 0 0 0 0 0 0 0 0 0 0 0 0 0 0 0 0 0 0 0 0 0 0 0 0 0 0 0 0 0 0 0 0 0 0 0 0 0 0 
0 0 0 0 0 0 0 0 0 0 0 0 0 0 0 0 0 0 0 0 0 0 0 0 0 0 0 0 0 0 0 0 0 0 0 0 0 0 0 0 0 0 0 0 0 0 0 0 0 0 0 0 0 0 0 0 0 0 0 0 0 0 0 0 0 0 0 0 0 0 0 0 0 0 0 0 0 0 0 0 0 0 0 0 0 0 0 0 0 0 
0 0 0 0 0 0 0 0 0 0 0 0 0 0 0 0 0 0 0 0 0 0 0 0 0 0 0 0 0 0 0 0 0 0 0 0 0 0 0 0 0 0 0 0 0 0 0 0 0 0 0 0 0 0 0 0 0 0 0 0 0 0 0 0 0 0 0 0 0 0 0 0 0 0 0 0 0 0 0 0 0 0 0 0 0 0 0 0 0 0 
0 0 0 0 0 0 0 0 0 0 0 0 0 0 0 0 0 0 0 0 0 0 0 0 0 0 0 0 0 0 0 0 0 0 0 0 0 0 0 0 0 0 0 0 0 0 0 0 0 0 0 0 0 0 0 0 0 0 0 0 0 0 0 0 0 0 0 0 0 0 0 0 0 0 0 0 0 0 0 0 0 0 0 0 0 0 0 0 0 0 
0 0 0 0 0 0 0 0 0 0 0 0 0 0 0 0 0 0 0 0 0 0 0 0 0 0 0 0 0 0 0 0 0 0 0 0 0 0 0 0 0 0 0 0 0 0 0 0 0 0 0 0 0 0 0 0 0 0 0 0 0 0 0 0 0 0 0 0 0 0 0 0 0 0 0 0 0 0 0 0 0 0 0 0 0 0 0 0 0 0 
0 0 0 0 0 0 0 0 0 0 0 0 0 0 0 0 0 0 0 0 0 0 0 0 0 0 0 0 0 0 0 0 0 0 0 0 0 0 0 0 0 0 0 0 0 0 0 0 0 0 0 0 0 0 0 0 0 0 0 0 0 0 0 0 0 0 0 0 0 0 0 0 0 0 0 0 0 0 0 0 0 0 0 0 0 0 0 0 0 0 
0 0 0 0 0 0 0 0 0 0 0 0 0 0 0 0 0 0 0 0 0 0 0 0 0 0 0 0 0 0 0 0 0 0 0 0 0 0 0 0 0 0 0 0 0 0 0 0 0 0 0 0 0 0 0 0 0 0 0 0 0 0 0 0 0 0 0 0 0 0 0 0 0 0 0 0 0 0 0 0 0 0 0 0 0 0 0 0 0 0 
0 0 0 0 0 0 0 0 0 0 0 0 0 0 0 0 0 0 0 0 0 0 0 0 0 0 0 0 0 0 0 0 0 0 0 0 0 0 0 0 0 0 0 0 0 0 0 0 0 0 0 0 0 0 0 0 0 0 0 0 0 0 0 0 0 0 0 0 0 0 0 0 0 0 0 0 0 0 0 0 0 0 0 0 0 0 0 0 0 0 
0 0 0 0 0 0 0 0 0 0 0 0 0 0 0 0 0 0 0 0 0 0 0 0 0 0 0 0 0 0 0 0 0 0 0 0 0 0 0 0 0 0 0 0 0 0 0 0 0 0 0 0 0 0 0 0 0 0 0 0 0 0 0 0 0 0 0 0 0 0 0 0 0 0 0 0 0 0 0 0 0 0 0 0 0 0 0 0 0 0 
0 0 0 0 0 0 0 0 0 0 0 0 0 0 0 0 0 0 0 0 0 0 0 0 0 0 0 0 0 0 0 0 0 0 0 0 0 0 0 0 0 0 0 0 0 0 0 0 0 0 0 0 0 0 0 0 0 0 0 0 0 0 0 0 0 0 0 0 0 0 0 0 0 0 0 0 0 0 0 0 0 0 0 0 0 0 0 0 0 0 
0 0 0 0 0 0 0 0 0 0 0 0 0 0 0 0 0 0 0 0 0 0 0 0 0 0 0 0 0 0 0 0 0 0 0 0 0 0 0 0 0 0 0 0 0 0 0 0 0 0 0 0 0 0 0 0 0 0 0 0 0 0 0 0 0 0 0 0 0 0 0 0 0 0 0 0 0 0 0 0 0 0 0 0 0 0 0 0 0 0 
# EndDate:Tue Feb  5 17:50:15 2013
