# Format: McStas with text headers file. Use mcplot/PGPLOT to view.
# URL:    http://www.mccode.org/
# Editor: erkn on localhost
# Creator:Test_src_gaussian (Test_src_gaussian.instr) simulation (McXtrace x.y.z - Jan. 22, 2013)
# Date:   Simulation started (1359026620) Thu Jan 24 12:23:40 2013
# File:   emon00.dat
# Ncount: 1e+06
# Trace: no
# Gravitation: no
# Seed: 1359026607
# Param: XW=0
# Param: YH=0
# Param: DIST=10
# Param: SRC=2
# Param: E0=5.1
# type: array_1d(100)
# Source: Test_src_gaussian.instr
# component: emon00
# position: 0 0 0.09
# title: Energy monitor
# Ncount: 1e+06
# filename: emon00.dat
# format: McStas with text headers
# statistics: X0=6.90795; dX=2.94181;
# signal: Min=0; Max=9.35611e+14; Mean=4.30511e+14;
# values: 4.30511e+16 4.56742e+13 1e+06
# xvar: E
# yvar: (I,I_err)
# xlabel: Energy [keV]
# ylabel: Intensity
# xlimits: 0 20
# variables: E I I_err N
# Data [emon00_dat/emon00.dat] I: 
0.1 1.59865385864e+13 146434598345 16500 
0.3 5.54370229644e+13 439946804269 16650 
0.5 9.98553745597e+13 778273544223 16744 
0.7 1.48097163728e+14 1.14197669665e+12 16964 
0.9 1.92970052238e+14 1.49815219419e+12 16674 
1.1 2.39699527182e+14 1.86039443962e+12 16654 
1.3 2.88769808848e+14 2.2305984534e+12 16796 
1.5 3.31116606121e+14 2.57302546491e+12 16586 
1.7 3.73846735032e+14 2.91169299345e+12 16504 
1.9 4.19220583944e+14 3.25606816625e+12 16591 
2.1 4.64420337351e+14 3.59283461006e+12 16720 
2.3 5.01193084521e+14 3.89134736816e+12 16597 
2.5 5.45689945005e+14 4.21194740903e+12 16792 
2.7 5.70833583387e+14 4.45043946893e+12 16457 
2.9 6.15177814657e+14 4.75742946102e+12 16725 
3.1 6.47788710547e+14 5.01024918647e+12 16720 
3.3 6.75910985761e+14 5.23752475733e+12 16657 
3.5 7.03549351489e+14 5.45635609578e+12 16628 
3.7 7.42635910567e+14 5.71136178644e+12 16909 
3.9 7.56948330159e+14 5.86366050754e+12 16666 
4.1 7.8202285699e+14 6.04950596651e+12 16712 
4.3 8.07509637201e+14 6.22986551869e+12 16802 
4.5 8.17251969724e+14 6.34247506836e+12 16604 
4.7 8.41111682399e+14 6.50317928818e+12 16729 
4.9 8.54908802243e+14 6.61774861625e+12 16689 
5.1 8.62304872658e+14 6.70113041833e+12 16559 
5.3 8.75477661736e+14 6.80081253984e+12 16572 
5.5 8.92927157025e+14 6.91075145814e+12 16695 
5.7 8.95761315311e+14 6.95856424587e+12 16571 
5.9 9.00643911474e+14 7.00876362121e+12 16513 
6.1 9.13351292435e+14 7.08451027137e+12 16621 
6.3 9.21916140572e+14 7.13764336922e+12 16683 
6.5 9.21334555954e+14 7.15116241587e+12 16599 
6.7 9.17544763544e+14 7.14762820736e+12 16479 
6.9 9.20104640445e+14 7.16430809835e+12 16494 
7.1 9.33339784625e+14 7.21807921144e+12 16720 
7.3 9.3561093197e+14 7.22549526415e+12 16767 
7.5 9.2027882665e+14 7.1608910534e+12 16516 
7.7 9.27307788568e+14 7.17938069587e+12 16683 
7.9 9.16742155652e+14 7.12647372042e+12 16548 
8.1 9.15353748259e+14 7.10602826325e+12 16593 
8.3 9.20037584682e+14 7.10587035601e+12 16764 
8.5 9.11496520171e+14 7.05190606914e+12 16707 
8.7 8.97937961507e+14 6.97567104569e+12 16570 
8.9 9.01598638213e+14 6.96409037497e+12 16761 
9.1 8.88979021084e+14 6.88698723968e+12 16662 
9.3 8.92064743897e+14 6.86856595951e+12 16868 
9.5 8.75230710846e+14 6.77094221167e+12 16709 
9.7 8.69849279766e+14 6.71606143938e+12 16775 
9.9 8.65078808337e+14 6.66198000528e+12 16862 
10.1 8.47023920762e+14 6.54392079636e+12 16755 
10.3 8.32711192194e+14 6.4541868108e+12 16646 
10.5 8.34450662393e+14 6.4278383989e+12 16853 
10.7 8.03893319582e+14 6.26823101596e+12 16448 
10.9 7.97407015285e+14 6.20146763254e+12 16534 
11.1 7.9549734952e+14 6.15119318136e+12 16725 
11.3 7.8240504419e+14 6.05684386397e+12 16687 
11.5 7.71773911342e+14 5.97132844338e+12 16705 
11.7 7.5325329178e+14 5.85455606098e+12 16554 
11.9 7.48462411664e+14 5.78635722017e+12 16732 
12.1 0 0 0 
12.3 0 0 0 
12.5 0 0 0 
12.7 0 0 0 
12.9 0 0 0 
13.1 0 0 0 
13.3 0 0 0 
13.5 0 0 0 
13.7 0 0 0 
13.9 0 0 0 
14.1 0 0 0 
14.3 0 0 0 
14.5 0 0 0 
14.7 0 0 0 
14.9 0 0 0 
15.1 0 0 0 
15.3 0 0 0 
15.5 0 0 0 
15.7 0 0 0 
15.9 0 0 0 
16.1 0 0 0 
16.3 0 0 0 
16.5 0 0 0 
16.7 0 0 0 
16.9 0 0 0 
17.1 0 0 0 
17.3 0 0 0 
17.5 0 0 0 
17.7 0 0 0 
17.9 0 0 0 
18.1 0 0 0 
18.3 0 0 0 
18.5 0 0 0 
18.7 0 0 0 
18.9 0 0 0 
19.1 0 0 0 
19.3 0 0 0 
19.5 0 0 0 
19.7 0 0 0 
19.9 0 0 0 
# EndDate:Thu Jan 24 12:23:40 2013
