# Format: McStas with text headers file. Use mcplot/PGPLOT to view.
# URL:    http://www.mccode.org/
# Editor: erkn on localhost
# Creator:Test_src_gaussian (Test_src_gaussian.instr) simulation (McXtrace x.y.z - Jan. 22, 2013)
# Date:   Simulation started (1359026326) Thu Jan 24 12:18:46 2013
# File:   emon00.dat
# Ncount: 1e+06
# Trace: no
# Gravitation: no
# Seed: 1359026313
# Param: XW=0
# Param: YH=0
# Param: DIST=10
# Param: SRC=2
# Param: E0=0.5
# type: array_1d(100)
# Source: Test_src_gaussian.instr
# component: emon00
# position: 0 0 0.09
# title: Energy monitor
# Ncount: 1e+06
# filename: emon00.dat
# format: McStas with text headers
# statistics: X0=6.90564; dX=2.93973;
# signal: Min=0; Max=9.39015e+14; Mean=4.30734e+14;
# values: 4.30734e+16 4.56903e+13 999998
# xvar: E
# yvar: (I,I_err)
# xlabel: Energy [keV]
# ylabel: Intensity
# xlimits: 0 20
# variables: E I I_err N
# Data [emon00_dat/emon00.dat] I: 
0.1 1.61210488926e+13 147308603531 16621 
0.3 5.50943129369e+13 438618637961 16546 
0.5 9.85414989997e+13 773531886988 16512 
0.7 1.45920253156e+14 1.13368039261e+12 16709 
0.9 1.93687349775e+14 1.50081633384e+12 16738 
1.1 2.41583379828e+14 1.86832251969e+12 16774 
1.3 2.85399218744e+14 2.21804862067e+12 16592 
1.5 3.31006322977e+14 2.57233813573e+12 16584 
1.7 3.75022939771e+14 2.91611092885e+12 16558 
1.9 4.19703113357e+14 3.2573530875e+12 16616 
2.1 4.6119103631e+14 3.58017030271e+12 16605 
2.3 5.05400798599e+14 3.9080351018e+12 16733 
2.5 5.40745542984e+14 4.19368082703e+12 16633 
2.7 5.729998002e+14 4.45974656273e+12 16513 
2.9 6.16609052564e+14 4.76224792243e+12 16769 
3.1 6.47845427344e+14 5.01023726195e+12 16723 
3.3 6.84181364319e+14 5.26928563411e+12 16862 
3.5 7.05186278492e+14 5.462323641e+12 16669 
3.7 7.36139807755e+14 5.68650917161e+12 16760 
3.9 7.50014933636e+14 5.8369819944e+12 16512 
4.1 7.8273829611e+14 6.05232211845e+12 16727 
4.3 8.07121081695e+14 6.22853717994e+12 16793 
4.5 8.21784126158e+14 6.36024344004e+12 16695 
4.7 8.37964456117e+14 6.49108158959e+12 16666 
4.9 8.53156662579e+14 6.61072379426e+12 16656 
5.1 8.65297679851e+14 6.71264288119e+12 16617 
5.3 8.91689864486e+14 6.86346825521e+12 16879 
5.5 8.93297120341e+14 6.91237239257e+12 16701 
5.7 9.00833723875e+14 6.97820450482e+12 16665 
5.9 9.17894938084e+14 7.07562982749e+12 16829 
6.1 9.11269780144e+14 7.07645862714e+12 16583 
6.3 9.11199435503e+14 7.09605190556e+12 16489 
6.5 9.21551263772e+14 7.15198268797e+12 16603 
6.7 9.2979100915e+14 7.19515626852e+12 16699 
6.9 9.39015211504e+14 7.23755528916e+12 16833 
7.1 9.22733155897e+14 7.17694637103e+12 16530 
7.3 9.30031048074e+14 7.20391774007e+12 16667 
7.5 9.24115965903e+14 7.17577494637e+12 16585 
7.7 9.34251869332e+14 7.20619660688e+12 16808 
7.9 9.10656032984e+14 7.10280875122e+12 16438 
8.1 9.2234943089e+14 7.1330910387e+12 16720 
8.3 9.24648606988e+14 7.12365830559e+12 16848 
8.5 9.05697934373e+14 7.02937951257e+12 16601 
8.7 9.07986462802e+14 7.01468331917e+12 16755 
8.9 8.90142584703e+14 6.9197108489e+12 16548 
9.1 8.85956391899e+14 6.8751340344e+12 16606 
9.3 8.86920330511e+14 6.84867646894e+12 16771 
9.5 8.77296795911e+14 6.7790194731e+12 16748 
9.7 8.67773751295e+14 6.70803895437e+12 16735 
9.9 8.49499795297e+14 6.60158797977e+12 16559 
10.1 8.39171745482e+14 6.51365196219e+12 16599 
10.3 8.33420891336e+14 6.45697258276e+12 16660 
10.5 8.26399557332e+14 6.39663816227e+12 16691 
10.7 8.30828203906e+14 6.37239391331e+12 16999 
10.9 7.96922742105e+14 6.19957559867e+12 16524 
11.1 7.97164404384e+14 6.15764387222e+12 16760 
11.3 7.82215425802e+14 6.05592062301e+12 16684 
11.5 7.65238152677e+14 5.94608537946e+12 16563 
11.7 7.51533364224e+14 5.8479032963e+12 16516 
11.9 7.43484566586e+14 5.76738013894e+12 16619 
12.1 0 0 0 
12.3 0 0 0 
12.5 0 0 0 
12.7 0 0 0 
12.9 0 0 0 
13.1 0 0 0 
13.3 0 0 0 
13.5 0 0 0 
13.7 0 0 0 
13.9 0 0 0 
14.1 0 0 0 
14.3 0 0 0 
14.5 0 0 0 
14.7 0 0 0 
14.9 0 0 0 
15.1 0 0 0 
15.3 0 0 0 
15.5 0 0 0 
15.7 0 0 0 
15.9 0 0 0 
16.1 0 0 0 
16.3 0 0 0 
16.5 0 0 0 
16.7 0 0 0 
16.9 0 0 0 
17.1 0 0 0 
17.3 0 0 0 
17.5 0 0 0 
17.7 0 0 0 
17.9 0 0 0 
18.1 0 0 0 
18.3 0 0 0 
18.5 0 0 0 
18.7 0 0 0 
18.9 0 0 0 
19.1 0 0 0 
19.3 0 0 0 
19.5 0 0 0 
19.7 0 0 0 
19.9 0 0 0 
# EndDate:Thu Jan 24 12:18:46 2013
