# Format: McStas with text headers file. Use mcplot/PGPLOT to view.
# URL:    http://www.mccode.org/
# Editor: erkn on localhost
# Creator:Test_src_gaussian (Test_src_gaussian.instr) simulation (McXtrace x.y.z - Jan. 22, 2013)
# Date:   Simulation started (1359026326) Thu Jan 24 12:18:46 2013
# File:   emon0.dat
# Ncount: 1e+06
# Trace: no
# Gravitation: no
# Seed: 1359026313
# Param: XW=0
# Param: YH=0
# Param: DIST=10
# Param: SRC=2
# Param: E0=0.5
# type: array_1d(100)
# Source: Test_src_gaussian.instr
# component: emon0
# position: 0 0 0.1
# title: Energy monitor
# Ncount: 1e+06
# filename: emon0.dat
# format: McStas with text headers
# statistics: X0=0.500048; dX=0.000303439;
# signal: Min=0; Max=2.38972e+10; Mean=5.01386e+09;
# values: 5.01386e+11 5.47057e+10 84
# xvar: E
# yvar: (I,I_err)
# xlabel: Energy [keV]
# ylabel: Intensity
# xlimits: 0.4995 0.5005
# variables: E I I_err N
# Data [emon0_dat/emon0.dat] I: 
0.499505 0 0 0 
0.499515 0 0 0 
0.499525 5961791568.58 5961791568.58 1 
0.499535 11923706646 8431333826.49 2 
0.499545 5961982539.65 5961982539.65 1 
0.499555 5962220279.93 5962220279.93 1 
0.499565 5962287551.23 5962287551.23 1 
0.499575 5962397659.3 5962397659.3 1 
0.499585 0 0 0 
0.499595 0 0 0 
0.499605 0 0 0 
0.499615 0 0 0 
0.499625 11926157619.7 8433066926.39 2 
0.499635 0 0 0 
0.499645 5963413524.62 5963413524.62 1 
0.499655 0 0 0 
0.499665 11927327155.2 8433893912.93 2 
0.499675 11927593377 8434082161.09 2 
0.499685 0 0 0 
0.499695 11928161556 8434483924.02 2 
0.499705 0 0 0 
0.499715 0 0 0 
0.499725 5964471157.7 5964471157.7 1 
0.499735 0 0 0 
0.499745 5964765784.6 5964765784.6 1 
0.499755 0 0 0 
0.499765 17895165199.4 10331778445.3 3 
0.499775 0 0 0 
0.499785 5965265470.61 5965265470.61 1 
0.499795 11930828966.1 8436370067.09 2 
0.499805 0 0 0 
0.499815 0 0 0 
0.499825 11931620950 8436930084.57 2 
0.499835 0 0 0 
0.499845 0 0 0 
0.499855 0 0 0 
0.499865 0 0 0 
0.499875 0 0 0 
0.499885 5966680153.17 5966680153.17 1 
0.499895 5966765979.43 5966765979.43 1 
0.499905 11933880456.3 8438527796.51 2 
0.499915 5967127763.1 5967127763.1 1 
0.499925 5967155328.29 5967155328.29 1 
0.499935 5967343435.95 5967343435.95 1 
0.499945 17902381057.8 10335944523.4 3 
0.499955 5967577549.23 5967577549.23 1 
0.499965 0 0 0 
0.499975 5967837051.5 5967837051.5 1 
0.499985 5967973312.15 5967973312.15 1 
0.499995 0 0 0 
0.500005 11936628882 8440471227.11 2 
0.500015 0 0 0 
0.500025 0 0 0 
0.500035 11937394140.7 8441012346.83 2 
0.500045 0 0 0 
0.500055 0 0 0 
0.500065 5969116962.39 5969116962.39 1 
0.500075 11938542677.9 8441824485.25 2 
0.500085 0 0 0 
0.500095 0 0 0 
0.500105 0 0 0 
0.500115 5969744586.03 5969744586.03 1 
0.500125 0 0 0 
0.500135 5970139967.17 5970139967.17 1 
0.500145 0 0 0 
0.500155 5970370415.27 5970370415.27 1 
0.500165 11940865828.4 8443467200.51 2 
0.500175 0 0 0 
0.500185 5970765032.83 5970765032.83 1 
0.500195 0 0 0 
0.500205 0 0 0 
0.500215 0 0 0 
0.500225 0 0 0 
0.500235 5971501237.38 5971501237.38 1 
0.500245 0 0 0 
0.500255 11943466883.4 8445306424.18 2 
0.500265 5971806859.82 5971806859.82 1 
0.500275 11943945685.6 8445644988.41 2 
0.500285 0 0 0 
0.500295 0 0 0 
0.500305 17917164975.4 10344480021.7 3 
0.500315 0 0 0 
0.500325 0 0 0 
0.500335 0 0 0 
0.500345 11945913771.9 8447036635.83 2 
0.500355 5973126934.96 5973126934.96 1 
0.500365 11946377722.4 8447364698.27 2 
0.500375 0 0 0 
0.500385 5973547514.2 5973547514.2 1 
0.500395 11947187459.6 8447937268.83 2 
0.500405 17921231529.1 10346827847.6 3 
0.500415 5973886581.39 5973886581.39 1 
0.500425 5974065449.74 5974065449.74 1 
0.500435 0 0 0 
0.500445 23897198557.5 11948599279.1 4 
0.500455 17923255394.9 10347996327.2 3 
0.500465 5974655581.66 5974655581.66 1 
0.500475 0 0 0 
0.500485 5974853157.69 5974853157.69 1 
0.500495 5975047679.41 5975047679.41 1 
# EndDate:Thu Jan 24 12:18:46 2013
