# Format: McStas with text headers file. Use mcplot/PGPLOT to view.
# URL:    http://www.mccode.org/
# Editor: erkn on localhost
# Creator:Test_src_gaussian (Test_src_gaussian.instr) simulation (McXtrace x.y.z - Jan. 22, 2013)
# Date:   Simulation started (1359030694) Thu Jan 24 13:31:34 2013
# File:   psd1.dat
# Ncount: 1e+06
# Trace: no
# Gravitation: no
# Seed: 1359030681
# Param: XW=0
# Param: YH=0
# Param: DIST=10
# Param: SRC=2
# Param: E0=7.1
# type: array_2d(90, 90)
# Source: Test_src_gaussian.instr
# component: psd1
# position: 0 0 9.999
# title: PSD monitor
# Ncount: 1e+06
# filename: psd1.dat
# format: McStas with text headers
# statistics: X0=4.26496e-06; dX=0.0100618; Y0=-3.46659e-06; dY=0.00503498;
# signal: Min=0; Max=1.70885e+14; Mean=5.31793e+12;
# values: 4.30752e+16 4.56882e+13 999999
# xvar: X 
# yvar: Y 
# xlabel: X position [m]
# ylabel: Y position [m]
# zvar: I
# zlabel: Signal per bin
# xylimits: -0.05 0.05 -0.05 0.05
# variables: I I_err N
# Data [psd1_dat/psd1.dat] I: 
0 0 0 0 0 0 0 0 0 0 0 0 0 0 0 0 0 0 0 0 0 0 0 0 0 0 0 0 0 0 0 0 0 0 0 0 0 0 0 0 0 0 0 0 0 0 0 0 0 0 0 0 0 0 0 0 0 0 0 0 0 0 0 0 0 0 0 0 0 0 0 0 0 0 0 0 0 0 0 0 0 0 0 0 0 0 0 0 0 0 
0 0 0 0 0 0 0 0 0 0 0 0 0 0 0 0 0 0 0 0 0 0 0 0 0 0 0 0 0 0 0 0 0 0 0 0 0 0 0 0 0 0 0 0 0 0 0 0 0 0 0 0 0 0 0 0 0 0 0 0 0 0 0 0 0 0 0 0 0 0 0 0 0 0 0 0 0 0 0 0 0 0 0 0 0 0 0 0 0 0 
0 0 0 0 0 0 0 0 0 0 0 0 0 0 0 0 0 0 0 0 0 0 0 0 0 0 0 0 0 0 0 0 0 0 0 0 0 0 0 0 0 0 0 0 0 0 0 0 0 0 0 0 0 0 0 0 0 0 0 0 0 0 0 0 0 0 0 0 0 0 0 0 0 0 0 0 0 0 0 0 0 0 0 0 0 0 0 0 0 0 
0 0 0 0 0 0 0 0 0 0 0 0 0 0 0 0 0 0 0 0 0 0 0 0 0 0 0 0 0 0 0 0 0 0 0 0 0 0 0 0 0 0 0 0 0 0 0 0 0 0 0 0 0 0 0 0 0 0 0 0 0 0 0 0 0 0 0 0 0 0 0 0 0 0 0 0 0 0 0 0 0 0 0 0 0 0 0 0 0 0 
0 0 0 0 0 0 0 0 0 0 0 0 0 0 0 0 0 0 0 0 0 0 0 0 0 0 0 0 0 0 0 0 0 0 0 0 0 0 0 0 0 0 0 0 0 0 0 0 0 0 0 0 0 0 0 0 0 0 0 0 0 0 0 0 0 0 0 0 0 0 0 0 0 0 0 0 0 0 0 0 0 0 0 0 0 0 0 0 0 0 
0 0 0 0 0 0 0 0 0 0 0 0 0 0 0 0 0 0 0 0 0 0 0 0 0 0 0 0 0 0 0 0 0 0 0 0 0 0 0 0 0 0 0 0 0 0 0 0 0 0 0 0 0 0 0 0 0 0 0 0 0 0 0 0 0 0 0 0 0 0 0 0 0 0 0 0 0 0 0 0 0 0 0 0 0 0 0 0 0 0 
0 0 0 0 0 0 0 0 0 0 0 0 0 0 0 0 0 0 0 0 0 0 0 0 0 0 0 0 0 0 0 0 0 0 0 0 0 0 0 0 0 0 0 0 0 0 0 0 0 0 0 0 0 0 0 0 0 0 0 0 0 0 0 0 0 0 0 0 0 0 0 0 0 0 0 0 0 0 0 0 0 0 0 0 0 0 0 0 0 0 
0 0 0 0 0 0 0 0 0 0 0 0 0 0 0 0 0 0 0 0 0 0 0 0 0 0 0 0 0 0 0 0 0 0 0 0 0 0 0 0 0 0 0 0 0 0 0 0 0 0 0 0 0 0 0 0 0 0 0 0 0 0 0 0 0 0 0 0 0 0 0 0 0 0 0 0 0 0 0 0 0 0 0 0 0 0 0 0 0 0 
0 0 0 0 0 0 0 0 0 0 0 0 0 0 0 0 0 0 0 0 0 0 0 0 0 0 0 0 0 0 0 0 0 0 0 0 0 0 0 0 0 0 0 0 0 0 0 0 0 0 0 0 0 0 0 0 0 0 0 0 0 0 0 0 0 0 0 0 0 0 0 0 0 0 0 0 0 0 0 0 0 0 0 0 0 0 0 0 0 0 
0 0 0 0 0 0 0 0 0 0 0 0 0 0 0 0 0 0 0 0 0 0 0 0 0 0 0 0 0 0 0 0 0 0 0 0 0 0 0 0 0 0 0 0 0 0 0 0 0 0 0 0 0 0 0 0 0 0 0 0 0 0 0 0 0 0 0 0 0 0 0 0 0 0 0 0 0 0 0 0 0 0 0 0 0 0 0 0 0 0 
0 0 0 0 0 0 0 0 0 0 0 0 0 0 0 0 0 0 0 0 0 0 0 0 0 0 0 0 0 0 0 0 0 0 0 0 0 0 0 0 0 0 0 0 0 0 0 0 0 0 0 0 0 0 0 0 0 0 0 0 0 0 0 0 0 0 0 0 0 0 0 0 0 0 0 0 0 0 0 0 0 0 0 0 0 0 0 0 0 0 
0 0 0 0 0 0 0 0 0 0 0 0 0 0 0 0 0 0 0 0 0 0 0 0 0 0 0 0 0 0 0 0 0 0 0 0 0 0 0 0 0 0 0 0 0 0 0 0 0 0 0 0 0 0 0 0 0 0 0 0 0 0 0 0 0 0 0 0 0 0 0 0 0 0 0 0 0 0 0 0 0 0 0 0 0 0 0 0 0 0 
0 0 0 0 0 0 0 0 0 0 0 0 0 0 0 0 0 0 0 0 0 0 0 0 0 0 0 0 0 0 0 0 0 0 0 0 0 0 0 0 0 0 0 0 0 0 0 0 0 0 0 0 0 0 0 0 0 0 0 0 0 0 0 0 0 0 0 0 0 0 0 0 0 0 0 0 0 0 0 0 0 0 0 0 0 0 0 0 0 0 
0 0 0 0 0 0 0 0 0 0 0 0 0 0 0 0 0 0 0 0 0 0 0 0 0 0 0 0 0 0 0 0 0 0 0 0 0 0 0 0 0 0 0 0 0 0 0 0 0 0 0 0 0 0 0 0 0 0 0 0 0 0 0 0 0 0 0 0 0 0 0 0 0 0 0 0 0 0 0 0 0 0 0 0 0 0 0 0 0 0 
0 0 0 0 0 0 0 0 0 0 0 0 0 0 0 0 0 0 0 0 0 0 0 0 0 0 0 0 0 0 0 0 0 0 0 0 0 0 0 0 0 0 0 0 0 0 0 0 0 0 0 0 0 0 0 0 0 0 0 0 0 0 0 0 0 0 0 0 0 0 0 0 0 0 0 0 0 0 0 0 0 0 0 0 0 0 0 0 0 0 
0 0 0 0 0 0 0 0 0 0 0 0 0 0 0 0 0 0 0 0 0 0 0 0 0 0 0 0 0 0 0 0 0 0 0 0 0 0 0 0 0 0 0 0 0 0 0 0 0 0 0 0 0 0 0 0 0 0 0 0 0 0 0 0 0 0 0 0 0 0 0 0 0 0 0 0 0 0 0 0 0 0 0 0 0 0 0 0 0 0 
0 0 0 0 0 0 0 0 0 0 0 0 0 0 0 0 0 0 0 0 0 0 0 0 0 0 0 0 0 0 0 0 0 0 0 0 0 0 0 0 0 0 0 0 0 0 0 0 0 0 0 0 0 0 0 0 0 0 0 0 0 0 0 0 0 0 0 0 0 0 0 0 0 0 0 0 0 0 0 0 0 0 0 0 0 0 0 0 0 0 
0 0 0 0 0 0 0 0 0 0 0 0 0 0 0 0 0 0 0 0 0 0 0 0 0 0 0 0 0 0 0 0 0 0 0 0 0 0 0 0 0 0 0 0 0 0 0 0 0 0 0 0 0 0 0 0 0 0 0 0 0 0 0 0 0 0 0 0 0 0 0 0 0 0 0 0 0 0 0 0 0 0 0 0 0 0 0 0 0 0 
0 0 0 0 0 0 0 0 0 0 0 0 0 0 0 0 0 0 0 0 0 0 0 0 0 0 0 0 0 0 0 0 0 0 0 0 0 0 0 0 0 0 0 0 0 0 0 0 0 0 0 0 0 0 0 0 0 0 0 0 0 0 0 0 0 0 0 0 0 0 0 0 0 0 0 0 0 0 0 0 0 0 0 0 0 0 0 0 0 0 
0 0 0 0 0 0 0 0 0 0 0 0 0 0 0 0 0 0 0 0 0 0 0 0 0 0 0 0 0 0 0 0 0 0 0 0 0 0 0 0 0 0 0 0 0 0 0 0 0 0 0 0 0 0 0 0 0 0 0 0 0 0 0 0 0 0 0 0 0 0 0 0 0 0 0 0 0 0 0 0 0 0 0 0 0 0 0 0 0 0 
0 0 0 0 0 0 0 0 0 0 0 0 0 0 0 0 0 0 0 0 0 0 0 0 0 0 0 0 0 0 0 0 0 0 0 0 0 0 0 0 0 0 0 0 0 0 0 0 0 0 0 0 0 0 0 0 0 0 0 0 0 0 0 0 0 0 0 0 0 0 0 0 0 0 0 0 0 0 0 0 0 0 0 0 0 0 0 0 0 0 
0 0 0 0 0 0 0 0 0 0 0 0 0 0 0 0 0 0 0 0 0 0 0 0 0 0 0 0 0 0 0 0 0 0 0 0 0 0 0 0 0 0 0 0 0 0 0 0 0 0 0 0 0 0 0 0 0 0 0 0 0 0 0 0 0 0 0 0 0 0 0 0 0 0 0 0 0 0 0 0 0 0 0 0 0 0 0 0 0 0 
0 0 0 0 0 0 0 0 0 0 0 0 0 0 0 0 0 0 0 0 0 0 0 0 0 0 0 0 0 0 0 0 0 0 0 0 0 0 0 0 0 0 0 0 0 0 0 0 0 0 0 0 0 0 0 0 0 0 0 0 0 0 0 0 0 0 0 0 0 0 0 0 0 0 0 0 0 0 0 0 0 0 0 0 0 0 0 0 0 0 
0 0 0 0 0 0 0 0 0 0 0 0 0 0 0 0 0 0 0 0 0 0 0 0 0 0 0 0 0 0 0 0 0 0 0 0 0 0 0 0 0 0 0 0 0 0 0 0 0 0 0 0 0 0 0 0 0 0 0 0 0 0 0 0 0 0 0 0 0 0 0 0 0 0 0 0 0 0 0 0 0 0 0 0 0 0 0 0 0 0 
0 0 0 0 0 0 0 0 0 0 0 0 0 0 0 0 0 0 0 0 0 0 0 0 0 0 0 0 0 0 0 0 0 0 0 0 0 0 0 0 0 0 0 0 0 0 0 0 0 52596205936.3 38952395624.4 13837679453.1 45930872891.8 0 0 0 0 0 0 0 0 0 0 0 0 0 0 0 0 0 0 0 0 0 0 0 0 0 0 0 0 0 0 0 0 0 0 0 0 0 
0 0 0 0 0 0 0 0 0 0 0 0 0 0 0 0 0 0 0 0 0 0 0 0 0 0 0 0 0 0 0 0 0 0 0 0 0 0 0 0 0 0 0 0 0 109347800215 0 0 0 0 0 0 46215736284 55541841219.3 0 0 0 0 0 0 0 0 0 0 0 0 0 0 0 0 0 0 0 0 0 0 0 0 0 0 0 0 0 0 0 0 0 0 0 0 
0 0 0 0 0 0 0 0 0 0 0 0 0 0 0 0 0 0 0 0 0 0 0 0 0 0 0 0 50933675473.2 49054626042.9 0 0 0 0 0 0 47234433237.2 0 54793381864.6 438781581.569 51455981530.1 0 54018131436.1 0 100543990238 903123343.039 25654439512.3 51090958099.4 0 55820000000 50268592472.2 0 0 0 52907835472.8 54938560974.1 103640553983 0 0 0 0 0 0 0 0 0 0 0 0 0 0 0 0 0 0 0 0 0 0 0 0 0 0 0 0 0 0 0 0 0 
0 0 0 0 0 0 0 0 0 0 0 0 0 0 0 0 0 0 0 0 0 0 0 0 0 0 49827818620.2 0 55558686856.9 0 0 50522053436.9 53862010699.5 129747373465 18413851216 99000567853.4 96348227994.1 50667584353.5 144617715238 0 97543253578.8 0 121938045390 105167591810 0 54366089650.7 16689609154 149496714984 0 23292436138.5 106094827612 126602664084 0 106523599014 0 54884763681.6 30709201270.5 0 0 0 0 0 11060497468.1 0 0 0 0 0 0 0 0 0 0 0 0 0 0 0 0 0 0 0 0 0 0 0 0 0 0 0 
0 0 0 0 0 0 0 0 0 0 0 0 0 0 0 0 0 0 0 0 0 0 53685087244.7 0 0 36523783931.4 52614398897.8 105847228975 53652477676.7 0 50685506116.2 55400093313.7 59175270290.4 103365597573 159184787084 155743032468 107971052871 146978850977 175389499532 31968064972.6 188186449808 557000522926 199865673958 256371877354 227629301016 267489692274 245467787146 160630120136 252750125077 343343013828 99447872716.5 215381785649 142280641578 132734787701 103771153280 192375072691 0 48757144802.8 107451868549 123255770295 55200708337.2 0 68300400214.6 0 0 108860189283 0 0 8283711101.48 0 0 0 0 0 0 0 0 0 0 0 0 0 0 0 0 0 0 0 0 0 
0 0 0 0 0 0 0 0 0 0 0 0 22632678158.3 0 0 0 0 0 0 0 0 0 0 0 71651783804.1 109017312631 21412702509.3 23375221394 55438582847.6 16137238483.8 0 203697483099 110614613213 189156319005 262785425316 227267059659 225414028419 381463992435 274984101385 574016407841 353429052330 568276227281 391178748507 319421460336 708983862484 731381252803 457229393311 384162322458 262915448661 500975156530 473467250582 462794130832 417711205227 397902358441 406759228538 523329899657 253109804171 116925140920 53857585907.6 52594088330.9 159773410825 55168373047.4 0 39601709910.4 0 50871384968.3 99231998274.6 37894512354.2 27419808101.9 55716954758.8 0 0 0 0 0 0 0 0 0 0 0 0 0 0 0 0 0 0 0 0 
0 0 0 0 0 0 0 0 0 0 0 0 0 0 0 0 0 0 0 25460803873.3 54626644979.1 45654618653.4 33956355543 65861271991 97087833483.2 104642565886 55820000000 217423764357 228626289957 210480946171 290070884078 517845618010 341114330005 454086254638 656347935226 772496667725 722906370706 451620514343 948463599901 834738084619 808608904602 879448337488 1.16376209431e+12 918001899092 1.48345785056e+12 1.53039146198e+12 871175209872 835491642256 1.28765436677e+12 607425237296 1.07948156843e+12 472492110639 586609343326 698840754146 552833455579 463661886725 565317302898 526882869727 513286079279 314408040824 230473828261 358269640742 103912414781 143016637289 165618510405 103617126157 55043482382.5 40998337488.2 0 0 0 48014871044.7 0 0 0 0 0 0 0 0 0 0 0 0 0 0 0 0 0 0 
0 0 0 0 0 0 0 0 0 0 0 0 0 0 0 0 0 55412377471.6 60245013607.7 0 0 0 99115111444.2 100015109877 197211013529 162335810133 288186505099 140612372357 490602098696 502597943257 641230803792 568725258869 1.00216163095e+12 905598040685 825845975922 1.29160916437e+12 979568345356 926591225655 1.21928877539e+12 2.21482558065e+12 1.51668299317e+12 2.13433600784e+12 1.51907963814e+12 2.6975170021e+12 1.53504722028e+12 1.64882155602e+12 2.04925950373e+12 1.83515192619e+12 1.70409694098e+12 1.84530243011e+12 1.52019545555e+12 1.58618152512e+12 1.42442657534e+12 1.57490586986e+12 1.16401093006e+12 1.16890337705e+12 815116072917 859409931055 647197787130 535983912755 556699946791 575643682016 311221266820 462674127218 211422563824 248089707545 46134678270.7 0 126997744866 0 50574323044.4 50751381166.4 0 55805012399 0 0 52875162387.3 0 0 0 0 0 0 0 0 0 0 0 0 0 
0 0 0 0 0 0 0 0 0 0 0 0 0 53594101240.4 0 47671150993.1 0 3883834159.48 158784423271 0 60977017062.5 228826479182 279647963216 209412836091 264743645768 320371682425 463904046248 542241467698 611878602615 805060324037 978538418820 1.1638870526e+12 870075912785 2.12227260872e+12 1.96540154249e+12 1.99414086713e+12 2.43318490435e+12 2.84037098898e+12 2.53668813667e+12 3.37246638414e+12 2.79303131918e+12 3.71753206563e+12 4.09500167731e+12 4.38175778784e+12 3.14645817092e+12 4.15197948627e+12 3.6898383362e+12 4.30545272522e+12 4.3163725729e+12 3.22354180781e+12 3.33885305009e+12 2.74397433932e+12 2.37481834162e+12 2.23557937209e+12 2.17809229197e+12 1.99789733473e+12 1.81607476153e+12 1.1574249224e+12 1.18380774311e+12 1.22252228749e+12 857829339962 403233596441 811660006906 603866013475 154069592589 575615852732 266618215696 194854454632 11825150710.5 98803538241.9 0 52086923095.7 0 46325694164.8 0 0 0 0 0 55798586524.5 0 0 0 0 0 0 0 0 0 0 
0 55752241614 0 0 0 0 0 0 0 0 0 49045478502.8 0 0 55823532566.5 33459582147.9 53816274305.3 80863859867.8 33903777410.7 53440540476.6 199945400195 49773929207 200987457173 278528160936 649224973241 842765773160 783125037296 1.31325954346e+12 1.32327536482e+12 1.8900398565e+12 1.65573521646e+12 1.9427416965e+12 2.08027445454e+12 2.59476273607e+12 3.43688056108e+12 4.1349379578e+12 5.17454883402e+12 4.58405397591e+12 3.77278572952e+12 5.30343220454e+12 6.6904730726e+12 6.29759892788e+12 6.59294958258e+12 5.84211770377e+12 7.16024159966e+12 7.63737276591e+12 7.09052638811e+12 5.69367190008e+12 5.85448299568e+12 6.52664155491e+12 5.80309230714e+12 5.5317266026e+12 5.00814434276e+12 4.35191745825e+12 3.03937884192e+12 3.12181029523e+12 2.90368117206e+12 1.76182884893e+12 2.13229148032e+12 2.23094144612e+12 1.70069830245e+12 1.2626342269e+12 769513312599 820666446656 521963835156 612106458664 670377149294 170720498068 157848934650 276465700680 216400613181 151655932625 55790601041.5 0 6841824107.95 0 0 0 0 0 0 0 0 0 55572374837.5 0 0 0 0 0 
0 0 0 0 0 0 0 0 0 0 0 0 53171727491.4 13585700401.5 0 0 55655532911 107946705934 75935813868.5 306558472469 428738022248 444941328175 554740239825 863772956405 783529345623 1.17851893851e+12 1.29252306092e+12 1.85120602789e+12 1.97667450178e+12 2.36594984163e+12 2.98088486482e+12 3.51026216747e+12 3.98717553086e+12 5.73215313207e+12 6.28083935008e+12 6.96570777988e+12 7.19364706774e+12 7.49448044112e+12 8.86520484905e+12 9.86696561503e+12 1.18108150037e+13 1.04903452477e+13 1.18235614334e+13 1.13177066236e+13 1.12641665667e+13 1.04403210952e+13 9.92219717412e+12 1.13218099576e+13 1.03549294799e+13 9.43997658655e+12 1.02826513436e+13 9.17192137838e+12 8.15380095326e+12 8.1320072577e+12 5.18440453398e+12 5.86330641972e+12 5.1428296666e+12 4.68289494222e+12 4.28482921714e+12 3.51847642509e+12 2.54075253371e+12 2.13336237744e+12 2.26714593844e+12 1.17724395502e+12 1.24895325334e+12 1.1200267741e+12 814615690142 559316842958 655795272016 399607256145 237927998965 48029733399.6 157434078045 47112099948.2 74765168844.3 20771727245.9 0 55508321354.2 0 0 0 0 0 0 0 0 0 0 0 0 
0 0 0 0 0 0 55294667110.6 0 0 0 62806973202.1 53703338600.8 21998908388.7 107950132240 29524263779.5 107417751288 299760054412 321398740512 307660296323 251934516412 467887305203 763618324078 936978403910 1.49624011017e+12 1.00487849158e+12 2.18729109984e+12 1.97853813474e+12 2.38745100294e+12 3.71313493536e+12 4.95251207091e+12 5.16847431303e+12 6.81816559975e+12 7.47252374931e+12 8.45254305024e+12 9.21637881888e+12 1.02070861535e+13 1.18330368726e+13 1.34337505924e+13 1.47491977615e+13 1.58777687855e+13 1.82983095423e+13 1.66133895125e+13 1.83234614663e+13 1.91596522493e+13 1.8278155078e+13 1.85136660755e+13 1.84588818848e+13 1.85646146224e+13 1.77292680008e+13 1.47412295484e+13 1.51094636653e+13 1.39972679141e+13 1.3813100626e+13 1.16085101436e+13 9.51099497825e+12 9.52674387544e+12 8.76486552681e+12 6.13319213498e+12 6.65821374719e+12 4.68478634506e+12 4.20784895068e+12 3.55204990757e+12 2.64881154149e+12 2.49555300782e+12 1.94565399021e+12 1.79101633842e+12 1.10671624921e+12 690494864604 711393583559 392817750219 438011564721 176498242258 122175566677 420189505725 108848346015 47764078621.6 98232974111.4 98976856988.8 0 0 0 0 0 0 0 0 0 0 0 0 
0 0 0 0 0 0 0 0 0 0 0 0 85842035122.7 0 0 137939632168 58337607031.3 362119519584 154486568299 335483362643 659221632481 1.2459307434e+12 1.69226125554e+12 1.68056550852e+12 2.6840869342e+12 2.63368658383e+12 3.80559335788e+12 3.12981686783e+12 5.50978307167e+12 6.62571501599e+12 8.89490804729e+12 8.57013743338e+12 1.18292113008e+13 1.33926279756e+13 1.52649791509e+13 1.62457175451e+13 1.86179254752e+13 2.0151680575e+13 2.24972807992e+13 2.3248793758e+13 2.38233913939e+13 2.63739087355e+13 2.89322633574e+13 2.87024380044e+13 2.73479055317e+13 2.89898805784e+13 2.76494251119e+13 2.73130395586e+13 2.53691843719e+13 2.44331019906e+13 2.52966580392e+13 2.39416638581e+13 1.92648824048e+13 1.79262779811e+13 1.68627069777e+13 1.4690508251e+13 1.20748277603e+13 1.07467113838e+13 8.92309423573e+12 7.63305087732e+12 6.97089088997e+12 5.48871415431e+12 4.96414404092e+12 2.95141311425e+12 2.1571055935e+12 2.15943860006e+12 1.37372924586e+12 1.07277418204e+12 1.00102344737e+12 838873266488 407780745652 322552161682 312006684197 625103241597 145501693714 152610746752 201011836438 53767235317.6 47875545706.5 51934268174.3 24561023669.2 0 0 0 0 0 0 0 0 0 
0 0 0 0 0 0 0 0 0 51064400804.4 0 107265649084 100585183483 108073554294 168520710442 273691861486 418361197391 270488768207 573306742247 574074742529 813326511837 1.71539733e+12 1.72273856724e+12 1.91832587338e+12 3.03715068482e+12 3.45782625702e+12 5.60695488037e+12 6.466725974e+12 7.60379286495e+12 9.60370489293e+12 1.07104430229e+13 1.43343861284e+13 1.66005890628e+13 2.02067626434e+13 2.17886499991e+13 2.37438568311e+13 2.75513269106e+13 3.2077995678e+13 3.32100899873e+13 3.48128593424e+13 3.56566984932e+13 4.06022692949e+13 3.97177088381e+13 4.21838953627e+13 4.3548697811e+13 4.04009354343e+13 4.05745741585e+13 4.19077511516e+13 3.93221550221e+13 3.70668407449e+13 3.69192629819e+13 3.14395097587e+13 3.1258003663e+13 2.68485152858e+13 2.3358212273e+13 2.13089164431e+13 1.83478309518e+13 1.6243465047e+13 1.45204792035e+13 1.18741773371e+13 1.08475521543e+13 8.1306392073e+12 7.98415006426e+12 5.28408541846e+12 4.33831515473e+12 2.50328376825e+12 2.08405276442e+12 2.27038189218e+12 1.59864459218e+12 1.42288408383e+12 727472890295 752927276763 295891390100 455971753231 250907519049 188715803262 121661256029 106892211367 0 51903170386.4 0 0 0 0 0 0 0 0 0 0 
0 0 0 0 0 0 0 0 0 0 0 48088147510.8 88351240334.2 40008582029 285333047137 399343928959 645351820434 550992978268 626645338876 1.14613037589e+12 1.76228630195e+12 1.52673264126e+12 3.48761409457e+12 3.41467382952e+12 5.64957879952e+12 5.71079109787e+12 7.7709724944e+12 9.65314099851e+12 1.29681443133e+13 1.34467009373e+13 1.63535080898e+13 2.0331257327e+13 2.28655868057e+13 2.68048198903e+13 3.0202731863e+13 3.45044782978e+13 3.8183290653e+13 4.30672942337e+13 4.67252481872e+13 4.90483668655e+13 5.62579950482e+13 5.37500934989e+13 5.92682902926e+13 6.01014279024e+13 5.7915611508e+13 5.95884174842e+13 6.39923251374e+13 5.77649973241e+13 5.37289241178e+13 5.33501530907e+13 4.98703578129e+13 4.85191471828e+13 4.34438275074e+13 4.18223618267e+13 3.1679062919e+13 3.16644563886e+13 2.68483815425e+13 2.26628291358e+13 2.04696769771e+13 1.68734460681e+13 1.4178956756e+13 1.18555081332e+13 9.45214679653e+12 6.53211283152e+12 6.02176074133e+12 4.62195078017e+12 4.03180845872e+12 2.8382589522e+12 2.13043446143e+12 1.98433080634e+12 662504782045 1.08664115332e+12 444325733668 629393264288 456902858742 189932210971 0 52852851384.6 0 55483514003 0 37921821455.7 24338916741.5 0 0 0 0 0 0 0 
0 0 0 0 0 0 0 0 0 0 100479067715 117368854065 330542539841 263144335233 152282203827 252645437234 283809988124 1.08801905338e+12 1.20374061495e+12 1.73548619412e+12 2.04132214026e+12 2.37773315151e+12 3.78353126342e+12 5.35449308731e+12 6.60983627025e+12 7.18688576702e+12 1.09808504878e+13 1.18268422557e+13 1.47997457039e+13 1.77962187848e+13 2.32610849269e+13 2.52078116346e+13 3.06196370659e+13 3.72171658721e+13 4.22891157849e+13 4.72958117435e+13 5.53374932494e+13 5.50129112732e+13 5.94694026643e+13 6.7796777915e+13 6.85170616021e+13 7.41070997185e+13 7.40247783724e+13 7.66970298945e+13 7.56440442879e+13 7.82835579766e+13 7.7141510215e+13 8.29893426765e+13 7.60994668386e+13 6.99129194001e+13 6.72377312672e+13 6.35424241568e+13 5.56380916827e+13 5.02561009057e+13 4.64254950814e+13 4.10738267212e+13 3.39534753097e+13 3.00293459831e+13 2.54402514673e+13 2.06329211214e+13 2.01582869584e+13 1.36820362556e+13 1.23212090264e+13 9.66762336177e+12 9.3099006386e+12 6.12488575755e+12 5.44886121501e+12 3.17401647575e+12 2.45600846734e+12 1.67297314795e+12 1.4219470767e+12 1.04587122134e+12 790935610010 1.14845483553e+12 538480780609 285670257896 24183956928.9 216116972778 95085803026 49447093555.4 5518996311.82 0 52757084098.3 0 0 0 0 0 0 0 
0 0 0 0 0 52380162727.7 36716656809.9 0 0 0 54456681344.2 164542453727 47174589376.4 179624054908 166576117749 492531941560 879421914621 823626366224 1.82923671436e+12 2.12218526238e+12 3.02760492409e+12 3.5743972462e+12 4.79942270907e+12 5.88624333505e+12 6.43545012593e+12 1.02057828354e+13 1.28167945479e+13 1.4965743821e+13 2.01657658637e+13 2.39525254834e+13 2.89988369485e+13 3.36200761466e+13 4.03871017028e+13 4.72258561921e+13 5.28594124107e+13 5.7530302217e+13 6.7372943518e+13 7.42177925452e+13 7.8386582134e+13 8.38640758325e+13 8.99299169717e+13 9.40822928245e+13 1.00663328805e+14 1.0027916927e+14 1.02491856835e+14 1.02593948055e+14 9.83557216529e+13 9.7697204364e+13 9.45923613897e+13 9.30316318387e+13 8.74454075212e+13 7.79753746113e+13 7.33113901566e+13 6.81258176915e+13 5.93520814732e+13 5.11814044102e+13 4.40760833647e+13 3.98773062793e+13 3.24735373516e+13 2.62990086545e+13 2.56370053211e+13 2.03837986473e+13 1.70566503024e+13 1.37990866743e+13 8.73112349244e+12 6.90262251217e+12 5.94354712929e+12 4.17061663989e+12 2.60151443897e+12 3.1388485026e+12 1.61508104378e+12 1.61197638277e+12 539467283629 752924437199 414098724901 301401015840 365149628631 224923877994 58892247978.1 183162485024 21875653086.8 0 0 0 0 0 0 0 0 34855417971.3 
17139209327 0 0 0 0 0 55190195462.6 79754358918.2 49494982689 28642656974.9 79660244844.9 0 302185305448 208412691411 476673512933 620517105643 1.22266921577e+12 1.51409043165e+12 2.05449628512e+12 2.75762809641e+12 3.1436500873e+12 3.70699161262e+12 5.92599866723e+12 7.67099877058e+12 9.69231393293e+12 1.26607263339e+13 1.41309377156e+13 1.95522228002e+13 2.2700089158e+13 3.00358864229e+13 3.34836006898e+13 4.15424177507e+13 4.4903853204e+13 5.62934877393e+13 6.33400403459e+13 7.50018304999e+13 8.08731443887e+13 8.52011729778e+13 9.2472632305e+13 1.00982228689e+14 1.0308629052e+14 1.09445397047e+14 1.18019580364e+14 1.24779715055e+14 1.24102284654e+14 1.22528585118e+14 1.23172071748e+14 1.1827759767e+14 1.14752944498e+14 1.06095078793e+14 9.93931393463e+13 9.98709551811e+13 9.12572602762e+13 8.12830439682e+13 7.13755085862e+13 6.28911073088e+13 5.47861507707e+13 4.70364457732e+13 4.04222872751e+13 3.49448150404e+13 2.93563272028e+13 2.29188472994e+13 1.94109685426e+13 1.50553088211e+13 1.14473399059e+13 1.00283593386e+13 7.77406956805e+12 4.93774855742e+12 3.81353709659e+12 2.86345771585e+12 2.01109370102e+12 2.15789076833e+12 1.09902857656e+12 933982153801 610255158873 626255412922 117937793314 148624566481 46711593633.2 92671013426.6 0 0 45644375339.6 0 0 0 0 0 0 0 
0 0 0 0 15249600021.3 0 0 0 0 143491686045 46715373446.7 147706899813 198794527328 402016273987 474448843431 676870752809 1.08171376343e+12 1.67036645579e+12 1.50824873173e+12 2.66412550101e+12 3.98857444887e+12 4.41621418016e+12 6.5034293542e+12 8.92516058628e+12 1.04093030611e+13 1.35568442177e+13 1.91467400467e+13 2.29718887334e+13 2.89333145372e+13 3.33613940253e+13 3.95541695133e+13 4.70876154204e+13 5.5421204731e+13 6.52113465519e+13 7.04870920994e+13 8.2035418887e+13 9.40422007992e+13 1.00398115655e+14 1.12398098788e+14 1.17107930604e+14 1.26487949757e+14 1.32153246413e+14 1.36268850755e+14 1.4345294809e+14 1.40282229605e+14 1.47766212571e+14 1.39631145329e+14 1.36115722298e+14 1.33394676775e+14 1.2275648253e+14 1.17874190522e+14 1.12257174659e+14 1.03033384729e+14 9.54938931314e+13 8.00540054065e+13 7.3181502651e+13 6.41968444533e+13 5.59328331489e+13 4.71884058911e+13 4.15409824679e+13 3.32062624571e+13 2.63910732196e+13 2.29968294106e+13 1.73907887112e+13 1.45685757807e+13 1.04919652741e+13 9.20816966423e+12 7.34108512611e+12 4.33729734835e+12 3.73160061373e+12 2.70262094472e+12 2.29670080296e+12 2.27909597378e+12 1.49162852508e+12 1.01794325542e+12 711992792191 221206951504 110952433533 177847773461 52690409525.6 55245677613.5 0 0 0 0 0 0 0 0 0 
0 0 0 0 46558290887.7 0 68940152803.7 0 0 49311328922 144145141072 130455557166 213124464987 379111694293 569996202745 1.04124014042e+12 866028407331 1.57117091173e+12 2.17698445347e+12 3.6711509169e+12 4.37078628663e+12 5.13691910596e+12 6.75966002844e+12 9.83615397575e+12 1.2554091927e+13 1.61129123872e+13 1.93870841273e+13 2.43373393247e+13 3.12151535829e+13 3.67537620925e+13 4.35998950143e+13 4.96332217098e+13 6.13100427023e+13 7.16753999386e+13 7.86507991136e+13 9.04379940871e+13 1.04195588278e+14 1.11809129263e+14 1.22897000951e+14 1.28315338279e+14 1.45300105473e+14 1.47625529148e+14 1.52528760868e+14 1.52925085967e+14 1.52568578659e+14 1.53680344361e+14 1.56147238017e+14 1.47157932701e+14 1.47154708778e+14 1.41958970751e+14 1.33014382208e+14 1.23298273453e+14 1.09093738459e+14 9.73501326332e+13 9.50355217946e+13 7.8781891741e+13 7.16341930949e+13 6.00188914031e+13 5.04304035181e+13 4.3792633335e+13 3.75092543496e+13 3.10805249581e+13 2.27908868686e+13 1.74269725104e+13 1.50425147332e+13 1.25144882466e+13 8.96008045389e+12 6.78319072059e+12 5.03975418367e+12 4.03941603859e+12 2.97813685631e+12 2.00739882249e+12 1.39658895155e+12 768515107605 721335632906 744130600336 449076820185 151401249133 70501267559.9 87828077936.6 48212464584.2 109242368382 85522575048.4 0 39613017688.9 0 0 0 0 0 
0 0 0 0 0 0 0 0 166933472163 0 85753321143.3 249476434990 226277113882 502569208234 362955464042 923806945729 1.28702041087e+12 1.06407929292e+12 2.47260151351e+12 3.10141092557e+12 4.06705305475e+12 6.07161687919e+12 7.43942915956e+12 1.06371387453e+13 1.25861279705e+13 1.56902296771e+13 2.16394923231e+13 2.43030646218e+13 3.02245338408e+13 3.55970144252e+13 4.84965514723e+13 5.15880079611e+13 6.21560595573e+13 7.47071016096e+13 8.49631113089e+13 9.67517888964e+13 1.06345433687e+14 1.17360704958e+14 1.28547452715e+14 1.42497560851e+14 1.49763300922e+14 1.59142662542e+14 1.60286427375e+14 1.65741207577e+14 1.64415396125e+14 1.67686613749e+14 1.61709502121e+14 1.6357712848e+14 1.52734672705e+14 1.43108926435e+14 1.40700959281e+14 1.26888650984e+14 1.16616542781e+14 1.1167667024e+14 9.14119186378e+13 8.69644742524e+13 7.3984015265e+13 6.49286064261e+13 5.33656531735e+13 4.47792459211e+13 3.91108684889e+13 3.18081836154e+13 2.57251783756e+13 2.05631593354e+13 1.58029652392e+13 1.17222416438e+13 1.08054363249e+13 8.1534619157e+12 5.40951786161e+12 4.22380790433e+12 3.17715757356e+12 2.5893822084e+12 1.7838657581e+12 1.08013366382e+12 510176793464 484864565716 515096354792 208373072417 156249053914 227773557194 0 21134560886.1 46996802972.5 91238816411.9 0 55345373726.6 0 0 0 0 
0 0 0 0 0 0 0 95134123746.9 36243136036.1 0 62516771348 53058205210.3 69162736590.5 257661963279 530423951452 840041539315 1.12411629763e+12 1.08303827211e+12 2.46850971047e+12 3.0495400482e+12 5.43141559331e+12 6.29788406176e+12 8.54540853508e+12 1.07173009378e+13 1.3318925771e+13 1.70972720239e+13 2.06616136799e+13 2.41853751593e+13 3.36367924467e+13 3.84746645592e+13 4.48362841363e+13 5.55307202953e+13 6.46678614411e+13 7.16730357655e+13 8.42428593998e+13 9.28673520719e+13 1.06230892734e+14 1.20904457593e+14 1.21959898398e+14 1.35369840409e+14 1.47880780984e+14 1.52945263145e+14 1.57664891329e+14 1.63642723248e+14 1.65863100192e+14 1.70885455189e+14 1.61503873881e+14 1.64381964629e+14 1.55077366963e+14 1.48409256603e+14 1.32520673411e+14 1.2911583095e+14 1.17430189894e+14 1.07541888517e+14 9.75366259478e+13 8.35559890078e+13 7.44566985364e+13 6.40829648362e+13 5.39577290526e+13 4.67841539483e+13 3.78485425607e+13 3.07340908511e+13 2.4644709742e+13 1.92779164423e+13 1.79045446459e+13 1.26039002011e+13 1.07265804571e+13 8.14282206037e+12 6.96485593181e+12 4.18728674101e+12 3.79506150898e+12 2.73056217446e+12 1.35409930514e+12 1.37134225732e+12 548868727150 561560738073 270973968521 327776795855 257177441884 55326992807.9 137678250863 0 0 0 0 0 0 0 0 0 
0 0 0 0 0 0 0 95553440293.4 90951159090.8 55824914219.9 210423389485 241625074126 471911936226 571201909412 335867822480 942909568620 1.49307663652e+12 1.29892029211e+12 2.09523660849e+12 2.98440557999e+12 3.88622450117e+12 5.53964890938e+12 7.54631164639e+12 9.12633746741e+12 1.20859016749e+13 1.41942712788e+13 1.93833868571e+13 2.40084979173e+13 2.91615987963e+13 3.49244210009e+13 4.43027071369e+13 5.20250407033e+13 5.91522214724e+13 7.26728328579e+13 8.26185770711e+13 9.18103157253e+13 1.02864004218e+14 1.1212981471e+14 1.23493308384e+14 1.36275412065e+14 1.37365702046e+14 1.47148504168e+14 1.53965233148e+14 1.58597478658e+14 1.58761049763e+14 1.57208017986e+14 1.54814745484e+14 1.55848692209e+14 1.45659516345e+14 1.41461113012e+14 1.27967877343e+14 1.24386538258e+14 1.12963796732e+14 9.98212583252e+13 8.79397219268e+13 8.10973765596e+13 7.21732792301e+13 6.14673410852e+13 5.20639308023e+13 4.50166866357e+13 3.57509432425e+13 2.99610429976e+13 2.27268373067e+13 2.18630165233e+13 1.550632682e+13 1.25947361904e+13 1.01862069374e+13 7.09123098273e+12 5.74714432583e+12 4.59882333991e+12 3.13458032802e+12 1.77334371072e+12 1.25428701374e+12 1.17737555865e+12 675380407955 703189415307 442650435819 186106418507 321895668949 130320207889 0 36851376286.1 55197657285.9 0 0 0 0 0 0 0 
0 0 0 55815891330.7 0 0 0 0 55821719118.9 161590620815 55159913646 215600598453 251195653048 517247353374 737164922609 841161199011 1.37066908333e+12 1.24078200384e+12 1.71067844701e+12 2.27244917713e+12 3.98427191093e+12 4.48897343181e+12 6.90831249329e+12 8.0692531817e+12 1.07203335226e+13 1.3487364843e+13 1.7416346689e+13 2.31114575471e+13 2.8796955259e+13 3.18991933822e+13 3.82170457396e+13 4.88588576448e+13 5.16550469765e+13 6.42437208667e+13 7.07396653516e+13 8.60516032445e+13 9.18082264177e+13 1.04912032649e+14 1.12142807922e+14 1.13585264372e+14 1.2287400774e+14 1.30959248062e+14 1.38960298813e+14 1.41603768296e+14 1.41418510508e+14 1.43598877538e+14 1.43532390033e+14 1.37209101712e+14 1.34704136189e+14 1.25417247262e+14 1.18691509498e+14 1.12676882983e+14 1.01991199558e+14 9.39314861393e+13 8.10373347018e+13 7.19529589678e+13 6.50124128913e+13 5.49881518965e+13 4.72048114332e+13 3.90701711222e+13 3.42836489048e+13 2.66372280077e+13 2.36813563096e+13 1.77836564495e+13 1.36386920786e+13 1.14059594267e+13 8.41390051873e+12 5.78990870134e+12 5.41837038366e+12 3.9313223955e+12 3.37698856728e+12 1.65273199212e+12 893128235778 1.2308221512e+12 432074766108 405214972608 331516611892 268541259505 42206727850.6 75751232407.4 0 55820000000 62291983842.5 0 0 0 0 0 0 0 
0 0 0 0 0 0 0 0 0 51956150985.8 161165049567 102566201033 200104593477 359512773296 508791574585 705031482240 658581732123 1.40354339595e+12 1.75240366032e+12 1.97732964008e+12 3.15367455736e+12 4.68305002347e+12 5.98888927802e+12 7.5426796369e+12 1.03557463254e+13 1.2171613236e+13 1.55930952281e+13 1.9870438922e+13 2.33211784874e+13 2.95063033909e+13 3.43193908506e+13 4.22749954575e+13 5.00336843566e+13 5.63774180948e+13 6.75082147706e+13 7.0480079672e+13 7.77058925338e+13 9.01349333094e+13 9.87416160882e+13 1.03569926293e+14 1.14746248723e+14 1.12554196537e+14 1.22187614065e+14 1.24045519128e+14 1.2255153903e+14 1.23111067357e+14 1.26719845092e+14 1.18946469254e+14 1.1317453352e+14 1.0670603832e+14 1.04216261492e+14 9.52479993585e+13 9.01477132403e+13 7.83069883429e+13 7.28800820619e+13 6.21755405632e+13 5.44067651055e+13 4.82545074455e+13 3.97427068155e+13 3.51782280989e+13 2.88684182369e+13 2.33455805304e+13 2.07642017916e+13 1.57199184686e+13 1.28571532708e+13 8.00797150214e+12 7.73945960783e+12 5.7060747543e+12 4.48676696975e+12 3.27585539394e+12 3.23208387192e+12 1.59106358139e+12 1.0950533431e+12 990042743148 975763125496 404116732847 275862796269 160431832958 177373093365 101856725458 111854030033 45365721111.1 48143783265.1 0 0 0 13452944155.7 0 0 0 
0 0 0 0 0 0 0 0 0 0 49640409563.5 197476934053 297600670752 238623562675 334212934167 451337017220 821505735186 951890078875 1.40965453848e+12 1.5812961452e+12 2.74734199856e+12 3.2579877887e+12 4.86766404361e+12 5.23532311041e+12 7.74362347623e+12 9.18700475985e+12 1.3130620109e+13 1.62768174266e+13 2.06275152534e+13 2.44224154429e+13 2.78341593506e+13 3.30580656648e+13 3.73943136137e+13 4.3519787643e+13 5.52199982276e+13 5.82631513728e+13 6.57318393086e+13 7.02727154891e+13 8.08728728086e+13 8.58990414382e+13 9.65227602237e+13 9.38003797022e+13 1.00950104799e+14 1.03307572816e+14 1.03319477807e+14 1.039984985e+14 1.00971877998e+14 9.79211949298e+13 9.40033247021e+13 9.12736711428e+13 8.65315057969e+13 7.55070990698e+13 7.15646613288e+13 6.72287483879e+13 5.94256746335e+13 5.51945804622e+13 4.51476646932e+13 4.00276238668e+13 3.39384141622e+13 2.8857103451e+13 2.34559038559e+13 1.87001921248e+13 1.54370291933e+13 1.27485599852e+13 9.86731291609e+12 8.02654358725e+12 6.75092888642e+12 4.99132039049e+12 2.53692029472e+12 2.33629187165e+12 2.21023682502e+12 1.46648904922e+12 772159854453 678019412933 242516187359 194498777825 268932499703 152168896737 36833397826.9 0 0 0 55720084763.1 0 0 0 0 0 0 0 
0 0 0 0 0 0 0 0 46245280272.6 52955752873.2 33669538760.1 14837731003.6 202288623103 255589513702 269389473342 388633153173 324494415972 759874013809 1.06316835234e+12 1.21345721561e+12 1.94501020894e+12 2.10241228515e+12 2.83811518901e+12 4.44573606002e+12 6.53967947353e+12 7.77431130093e+12 9.52648068593e+12 1.22834349342e+13 1.49181173433e+13 1.69306435253e+13 2.3032588275e+13 2.59571316863e+13 2.98412836834e+13 3.60269770284e+13 4.14459247477e+13 4.59284700121e+13 5.19684281232e+13 5.30004567218e+13 5.96121624686e+13 6.38276421705e+13 6.81702635686e+13 7.20355934425e+13 8.03248207938e+13 7.49222512264e+13 8.0037588253e+13 8.19170549674e+13 7.85495042099e+13 7.8684305484e+13 7.54512513328e+13 7.2620686462e+13 6.66575812909e+13 6.28900856977e+13 5.63283379721e+13 5.54630363391e+13 4.67750907153e+13 4.03682095561e+13 3.41449875766e+13 2.86734129716e+13 2.58901725235e+13 2.33385503705e+13 1.73044976353e+13 1.45957921532e+13 1.35848240538e+13 1.05607085457e+13 7.64392027221e+12 5.61487263321e+12 4.18398159517e+12 4.15713984909e+12 2.93780651478e+12 2.01937401015e+12 1.83662419413e+12 1.26465150653e+12 1.00390377179e+12 534713010091 382125494734 221830082665 202343758244 154165196657 102357984512 105709844074 0 0 53690778392.2 0 0 0 0 0 0 0 
0 0 0 0 0 0 0 0 0 47147953292.1 74321940735.9 0 21798598569.9 55917347720.6 459870024867 277583092333 389830252582 586367889815 724468432431 1.19518675249e+12 1.41994230807e+12 2.08399043286e+12 2.46472856416e+12 3.80901704352e+12 5.19481273589e+12 5.38795755396e+12 7.02012467754e+12 8.15914190391e+12 1.1860668618e+13 1.32411893302e+13 1.48107592531e+13 1.90962077221e+13 2.33662671542e+13 2.61429808598e+13 3.07248159011e+13 3.34517238394e+13 3.80760917846e+13 4.16208042751e+13 4.48217670493e+13 4.81771511277e+13 5.20315960421e+13 5.56305270352e+13 5.71909968771e+13 6.05979292068e+13 6.01700509845e+13 5.88912583096e+13 6.01822121639e+13 5.75532180134e+13 5.60801077936e+13 5.38255180827e+13 4.78963663433e+13 4.62456618878e+13 4.32750987944e+13 4.00993851601e+13 3.49299268675e+13 3.1049718161e+13 2.66728769897e+13 2.13072147289e+13 1.94120665064e+13 1.63211858492e+13 1.32458549775e+13 1.03359189452e+13 8.366931251e+12 7.10168119096e+12 5.55212215222e+12 4.17047161969e+12 3.24087179962e+12 2.32761062505e+12 2.69161315547e+12 1.39273713547e+12 1.19330632246e+12 967395608320 762391125584 655754514210 477431469243 158157110948 151649868232 132753913721 108055334584 166998475804 55797652633.1 0 1525024553.2 0 0 0 0 0 0 0 
0 0 0 0 0 37902213532.6 0 0 0 0 50106829201.7 147186654767 154019686194 55345879645.5 276134961835 143076213952 518602182771 390440284131 655984626176 762633944406 1.11448215068e+12 1.19539484527e+12 1.74003924956e+12 2.43904798692e+12 3.23786340877e+12 4.7876617443e+12 5.91562984872e+12 7.26059506836e+12 7.08474131777e+12 1.00162012372e+13 1.10360213129e+13 1.28389804926e+13 1.73455540216e+13 1.9486971983e+13 1.95438852549e+13 2.4801463699e+13 2.7898610026e+13 2.91631951599e+13 3.18827118732e+13 3.55431712643e+13 3.64147476088e+13 3.98274315336e+13 4.18366560088e+13 4.24845547119e+13 4.35408863056e+13 4.05816091596e+13 4.41047694418e+13 4.17468431444e+13 4.00889329965e+13 3.69832158333e+13 3.60000621171e+13 3.02397596979e+13 3.21958598462e+13 2.65756810017e+13 2.54294994736e+13 2.06067390328e+13 1.91639014402e+13 1.64200861564e+13 1.36831567893e+13 1.26524778954e+13 9.62639441968e+12 8.10037404787e+12 6.77889529889e+12 6.16202296122e+12 3.91866099621e+12 3.62973359187e+12 2.40106801524e+12 1.93142450485e+12 1.58486090815e+12 619249803708 754181465873 682660710253 254393718737 317945512946 232961238781 207098554954 81392940882.9 53521432236.6 0 0 0 0 0 0 0 0 0 52393882929.4 0 0 
0 0 0 0 0 0 0 0 0 0 0 51743506035.6 0 0 87599736826.2 98631801647.2 184423671371 513182289619 422073567671 665775472963 1.09973274823e+12 771175660606 1.57276985783e+12 2.3543301813e+12 2.36863270962e+12 2.37735718315e+12 3.52102620321e+12 4.21811702742e+12 4.45527843512e+12 5.79568023882e+12 8.03520143506e+12 9.28655638739e+12 1.07725486345e+13 1.30571670667e+13 1.57269367899e+13 1.59601725238e+13 1.74468641295e+13 1.87086070414e+13 2.09483019479e+13 2.36858932801e+13 2.51429803832e+13 2.74837969e+13 2.97040762816e+13 2.89496102761e+13 2.69261302095e+13 2.85042793291e+13 2.65225536526e+13 2.71841745531e+13 2.53054806895e+13 2.53111848246e+13 2.33584174585e+13 2.16143336754e+13 1.99765139027e+13 1.92857928835e+13 1.61648543448e+13 1.5248296446e+13 1.31969262008e+13 1.13068398418e+13 1.04647941255e+13 8.06070316596e+12 7.82922504639e+12 4.98386354992e+12 3.28867156733e+12 3.8929885048e+12 3.07328616813e+12 2.03952980495e+12 1.65931356398e+12 1.02746464501e+12 989923741530 617656171283 597304372861 378577311590 342257889606 148693686156 365569733100 108359086631 212896495765 0 55820000000 55586588668.5 54329553636.1 0 0 55223387263.7 0 0 0 0 0 0 
0 0 0 0 0 0 0 0 0 0 0 0 55658639649.5 109049033054 99844032703.2 91069054337.8 91453216757.8 232533604632 236439250726 541139660298 602620533942 975781359262 878140391554 1.24147419911e+12 1.25021752588e+12 2.11893797842e+12 2.60905823905e+12 2.84024542239e+12 3.3807868205e+12 4.10799032034e+12 4.83740911321e+12 5.03174393756e+12 6.96790708337e+12 9.32264677482e+12 9.02550804942e+12 1.07083017652e+13 1.23948160458e+13 1.35775354085e+13 1.47834885508e+13 1.55915540942e+13 1.6463427551e+13 1.69663874385e+13 1.85045175221e+13 1.8571389384e+13 1.81673085569e+13 1.92545237077e+13 1.91950095454e+13 1.76450410297e+13 1.56207310843e+13 1.71521564441e+13 1.6057931781e+13 1.51243690157e+13 1.37291520815e+13 1.17303844591e+13 1.06621247285e+13 9.056909082e+12 9.08012558063e+12 5.96600584304e+12 5.54396758536e+12 4.84329508025e+12 4.67354770087e+12 3.01594401057e+12 2.49928394447e+12 2.7622675367e+12 2.1216092003e+12 1.63946413239e+12 1.07045388995e+12 1.22200310563e+12 639180839962 453165481894 414281775299 409597833399 313348645808 182085114404 158116938229 0 49102938319.9 6098334015.21 0 0 0 0 0 0 0 0 0 0 0 0 
0 0 0 0 0 0 49389178030.7 0 0 0 0 0 0 1440853853.87 0 102363445483 47515623844.3 0 47578821139 296951310555 265383969289 365962448838 496527870189 644332523635 866036986386 1.07047568648e+12 1.53227684267e+12 1.65769027554e+12 2.27618067869e+12 2.43914588974e+12 2.70745585458e+12 3.23459456653e+12 4.43446117089e+12 4.98569553155e+12 5.71094305821e+12 5.78351953663e+12 7.11711380908e+12 8.46745080068e+12 8.8061993449e+12 1.01557970373e+13 9.40306196613e+12 1.1788641074e+13 1.15055679062e+13 1.04324536431e+13 1.25025653657e+13 1.17000386612e+13 1.10067363202e+13 1.10553626704e+13 1.10822532438e+13 1.09059812337e+13 9.69166391008e+12 7.78540996574e+12 9.03911169036e+12 7.70715736973e+12 6.30737950156e+12 5.4329537057e+12 4.24033101526e+12 3.96786781151e+12 3.39375191641e+12 3.06013543922e+12 2.80868074899e+12 2.41340704027e+12 1.02000250286e+12 1.78361793579e+12 828939775524 813667798968 808506659346 377798862512 457240938165 141072313162 161462711139 153450265773 138024213966 104455543615 55505915207.9 0 0 0 0 0 0 0 0 0 0 0 0 0 0 0 
0 0 0 0 0 0 0 0 0 47910119922.4 50854888689.6 0 0 53942523462 0 0 0 0 125347399557 344491849143 226365931630 119280176076 45153819570.2 258708998459 349860987951 522028967070 719136888676 1.06418640515e+12 887672061783 1.53060269882e+12 2.36271612485e+12 1.83159736534e+12 2.56699469025e+12 2.91527475468e+12 3.1509419798e+12 4.16811049809e+12 4.50413331961e+12 4.52619567336e+12 4.76511436996e+12 5.5663961979e+12 6.57030124135e+12 6.23836772676e+12 7.33737904171e+12 6.10381135542e+12 6.65988537235e+12 5.8719347995e+12 7.21352474683e+12 6.53564091089e+12 6.49473585574e+12 6.63890602929e+12 5.58099814364e+12 5.29016366667e+12 4.38262031552e+12 4.52739249865e+12 3.83320657039e+12 3.76636319473e+12 3.15767333678e+12 2.71988436581e+12 2.36542354735e+12 2.04959039363e+12 1.30611048939e+12 984059944678 911035441755 436076385552 403108954837 374149432707 282122526722 658593196944 256529239292 234974107350 105642805093 228168933341 157900815189 46172720166.8 0 55488422503.5 0 55306693675.5 0 0 0 0 0 0 0 0 0 0 0 0 
0 0 0 0 0 0 0 0 0 0 0 0 0 0 44301838863.8 108255815901 0 75050795286.4 0 107932885778 0 111044430701 170681525248 106230167770 226279858736 482990173638 395390214758 611980204203 505364895375 847444108063 1.0696177234e+12 1.56589466252e+12 1.4461285793e+12 1.5051306673e+12 1.94276536802e+12 2.41414124048e+12 2.26271566399e+12 2.56720273978e+12 3.22309726693e+12 3.46963447099e+12 3.40666517059e+12 3.59613422708e+12 4.24704590613e+12 3.08291817582e+12 3.65672047033e+12 3.17030585981e+12 3.70744868706e+12 3.66093909828e+12 3.45494428469e+12 3.23499454375e+12 2.96605822733e+12 2.26499644928e+12 2.30950564593e+12 2.00119473662e+12 2.29433039801e+12 1.75630429807e+12 1.29955997166e+12 1.30828449808e+12 1.07548890829e+12 813470000394 695565194389 904472844910 550901586167 669791774452 547518690674 305424446541 138483062528 130729279601 92424801632.3 110050104215 11178181430.7 41315121045.5 0 0 0 51240516979.5 0 0 0 0 0 0 0 0 0 0 0 0 0 0 
0 0 0 0 0 0 0 0 0 0 43229714734 0 0 0 0 0 35654584887.8 52821227519.5 50850686519.1 0 52224700174.8 51558155666.8 40184170064.6 97724649322.8 190915949549 286540227062 14582946134.7 446060179285 411713026239 338513752171 390994038806 810230605849 1.11834790422e+12 889545197052 1.15387911983e+12 1.31558603715e+12 1.17964779212e+12 1.010808028e+12 1.41633193344e+12 1.6855797829e+12 1.54465370326e+12 2.00130907973e+12 1.62510793928e+12 1.59531596567e+12 1.51175886981e+12 2.34005620684e+12 1.92942895006e+12 1.9477454805e+12 1.79744466746e+12 1.97405324663e+12 1.43004525967e+12 1.82918952472e+12 1.70991969741e+12 738683325589 903050222952 791990345714 1.2985159384e+12 951423783712 338066198546 417556621228 587478343011 320221326983 58228830809.6 166691833250 100581906687 390612751268 178681872327 155870389808 55344797058 19936424724.3 48982706487.7 0 0 46940591257 0 0 0 0 0 0 0 0 0 0 0 0 0 0 0 0 
0 0 0 0 0 0 0 0 0 0 0 0 0 0 0 0 0 52977550581.2 0 0 55023023317.1 28421923521.4 55625620052 102297563344 75877689517.4 0 151290098870 113870859264 230223855268 146889712449 92433360136.8 348601074517 385142194547 192062509829 642581626711 671618064203 614550048220 1.03095869443e+12 860026651975 987510290510 921907275508 1.09937101294e+12 1.21476741752e+12 1.10360771318e+12 963458808826 742136675773 664573272447 524018358735 1.09106691079e+12 798909779446 398356669967 677376318948 568703673765 411064563191 310001041276 455664181108 286489067493 322349797725 355668483419 477899423863 297037271279 103152096927 0 300716411055 161226895321 48576596983.6 28726187094 46334644060.8 0 0 46930355875.5 0 0 0 0 0 0 0 0 0 0 0 0 0 0 0 0 0 0 0 
0 0 0 0 0 0 0 0 0 0 0 0 0 0 0 0 0 0 0 0 46310144422.6 0 0 0 48754249032.1 55412083915.5 50765135379.7 0 114525602250 161649722859 53884407085.2 144641653972 205292047935 54242756140.8 90394302758.9 266441829192 428978478975 269239887161 252979917977 114140607230 442031500420 378377582691 473983176151 487977854906 393025620732 518196733871 618607415239 600629593132 539286564459 448303001545 308338144468 287965459010 398095383982 332452278681 112449962609 189720498342 155289888035 105375248795 57384022134.7 159073291587 20257000011.9 55109278033.1 43424580261 107776669863 55609606012.8 0 0 50982692820.8 0 0 0 0 0 0 0 53928150667.7 38442484630.1 0 0 0 0 0 0 0 0 0 0 0 0 0 
0 0 0 0 0 0 0 0 0 0 0 0 0 0 0 0 0 0 0 18747149032.5 0 14885268489.4 0 0 0 0 55366573006 0 0 46910167334.4 52713426027.9 0 51949558168.1 64535351439 163294130368 176361273526 157159844406 73756032107.4 106032643503 109398024343 106983970620 241707787828 151965110269 358060913378 196463309505 211775358925 100355580339 263210000922 168399257261 187512799231 239090719502 25718122580.7 243705956593 55688808042.2 103273086151 108203830969 201624815758 45616462064 51227209345 34270893631.9 0 0 2731158437.37 0 55787934269.9 0 0 0 55313648188 0 0 0 0 0 0 0 0 0 0 0 0 0 0 0 0 0 0 0 0 0 
0 0 0 0 0 0 0 0 0 0 0 0 0 0 0 0 0 0 0 0 0 0 0 0 0 0 0 0 3086245829.39 7553834070.16 39884483924.3 55736921635.7 51630579874.7 0 202248626531 55714641381.4 37737573293.4 144044547506 103381539192 47858608603 104089943002 49924929814.9 0 293831546709 0 159609419413 99395277595.8 0 140220998060 21762835056.2 48397179696.5 198821591988 52871055300.5 49770618919.3 122058934765 98800143647.4 49951852212.5 51168573914.8 0 78454897458.8 0 0 53585891735.6 51752659506.1 0 0 0 0 0 0 0 0 0 0 0 0 0 0 0 0 0 0 0 0 0 0 0 0 0 0 
0 0 0 0 0 0 0 0 0 0 0 0 0 0 0 0 0 0 0 0 0 2210696364.89 0 0 0 30050084916.2 0 0 0 0 0 0 0 0 0 0 101448897548 0 101468578278 62249030002.3 51211669345.1 208172569488 0 61353496439.4 0 0 9150862512.23 0 106973673878 50415098533.2 0 0 67348986565.8 0 0 49496378579.1 0 20524598561 0 0 0 0 0 0 0 0 0 0 0 0 0 0 0 0 0 0 0 0 0 0 0 0 0 0 0 0 0 0 0 0 
0 0 0 0 0 0 0 0 0 0 0 0 0 0 0 0 0 0 0 0 0 0 0 0 0 0 28530771375.3 0 0 0 0 0 0 0 0 33264709826.6 55797744755 0 0 0 104862415611 0 87671993967.2 0 0 55803684788.3 0 0 55347763417.9 6565757147.78 0 0 0 55143620281.1 41814020033.9 0 0 0 0 0 0 0 0 0 0 0 0 0 0 0 0 0 0 0 0 0 0 0 0 0 0 0 0 0 0 0 0 0 0 0 
0 0 0 0 0 0 0 0 0 0 0 0 0 0 0 0 0 0 0 0 0 0 0 0 0 0 0 0 0 0 0 0 46709928550.1 0 0 0 0 0 0 0 0 0 0 0 0 47478852030 0 0 55788815131.7 39653226300.9 0 0 0 0 0 0 0 0 0 0 0 0 0 0 0 0 0 0 0 0 0 0 0 0 0 0 0 0 0 0 0 0 0 0 0 0 0 0 0 0 
0 0 0 0 0 0 0 0 0 0 0 0 0 0 0 0 0 0 0 0 0 0 0 0 0 0 0 0 0 0 0 0 0 0 0 0 0 0 0 0 0 0 0 46478835331.9 0 0 0 0 0 0 0 0 0 0 0 0 0 0 0 0 0 0 0 0 0 0 0 0 0 0 0 0 0 0 0 0 0 0 0 0 0 0 0 0 0 0 0 0 0 0 
0 0 0 0 0 0 0 0 0 0 0 0 0 0 0 0 0 0 0 0 0 0 0 0 0 0 0 0 0 0 0 0 0 0 0 0 0 0 0 0 0 0 0 0 0 0 0 0 0 0 0 0 0 0 0 0 0 0 0 0 0 0 0 0 0 0 0 0 0 0 0 0 0 0 0 0 0 0 0 0 0 0 0 0 0 0 0 0 0 0 
0 0 0 0 0 0 0 0 0 0 0 0 0 0 0 0 0 0 0 0 0 0 0 0 0 0 0 0 0 0 0 0 0 0 0 0 0 0 0 0 0 0 0 0 0 0 0 0 0 0 0 0 0 0 0 0 0 0 0 0 0 0 0 0 0 0 0 0 0 0 0 0 0 0 0 0 0 0 0 0 0 0 0 0 0 0 0 0 0 0 
0 0 0 0 0 0 0 0 0 0 0 0 0 0 0 0 0 0 0 0 0 0 0 0 0 0 0 0 0 0 0 0 0 0 0 0 0 0 0 0 0 0 0 0 0 0 0 0 0 0 0 0 0 0 0 0 0 0 0 0 0 0 0 0 0 0 0 0 0 0 0 0 0 0 0 0 0 0 0 0 0 0 0 0 0 0 0 0 0 0 
0 0 0 0 0 0 0 0 0 0 0 0 0 0 0 0 0 0 0 0 0 0 0 0 0 0 0 0 0 0 0 0 0 0 0 0 0 0 0 0 0 0 0 0 0 0 0 0 0 0 0 0 0 0 0 0 0 0 0 0 0 0 0 0 0 0 0 0 0 0 0 0 0 0 0 0 0 0 0 0 0 0 0 0 0 0 0 0 0 0 
0 0 0 0 0 0 0 0 0 0 0 0 0 0 0 0 0 0 0 0 0 0 0 0 0 0 0 0 0 0 0 0 0 0 0 0 0 0 0 0 0 0 0 0 0 0 0 0 0 0 0 0 0 0 0 0 0 0 0 0 0 0 0 0 0 0 0 0 0 0 0 0 0 0 0 0 0 0 0 0 0 0 0 0 0 0 0 0 0 0 
0 0 0 0 0 0 0 0 0 0 0 0 0 0 0 0 0 0 0 0 0 0 0 0 0 0 0 0 0 0 0 0 0 0 0 0 0 0 0 0 0 0 0 0 0 0 0 0 0 0 0 0 0 0 0 0 0 0 0 0 0 0 0 0 0 0 0 0 0 0 0 0 0 0 0 0 0 0 0 0 0 0 0 0 0 0 0 0 0 0 
0 0 0 0 0 0 0 0 0 0 0 0 0 0 0 0 0 0 0 0 0 0 0 0 0 0 0 0 0 0 0 0 0 0 0 0 0 0 0 0 0 0 0 0 0 0 0 0 0 0 0 0 0 0 0 0 0 0 0 0 0 0 0 0 0 0 0 0 0 0 0 0 0 0 0 0 0 0 0 0 0 0 0 0 0 0 0 0 0 0 
0 0 0 0 0 0 0 0 0 0 0 0 0 0 0 0 0 0 0 0 0 0 0 0 0 0 0 0 0 0 0 0 0 0 0 0 0 0 0 0 0 0 0 0 0 0 0 0 0 0 0 0 0 0 0 0 0 0 0 0 0 0 0 0 0 0 0 0 0 0 0 0 0 0 0 0 0 0 0 0 0 0 0 0 0 0 0 0 0 0 
0 0 0 0 0 0 0 0 0 0 0 0 0 0 0 0 0 0 0 0 0 0 0 0 0 0 0 0 0 0 0 0 0 0 0 0 0 0 0 0 0 0 0 0 0 0 0 0 0 0 0 0 0 0 0 0 0 0 0 0 0 0 0 0 0 0 0 0 0 0 0 0 0 0 0 0 0 0 0 0 0 0 0 0 0 0 0 0 0 0 
0 0 0 0 0 0 0 0 0 0 0 0 0 0 0 0 0 0 0 0 0 0 0 0 0 0 0 0 0 0 0 0 0 0 0 0 0 0 0 0 0 0 0 0 0 0 0 0 0 0 0 0 0 0 0 0 0 0 0 0 0 0 0 0 0 0 0 0 0 0 0 0 0 0 0 0 0 0 0 0 0 0 0 0 0 0 0 0 0 0 
0 0 0 0 0 0 0 0 0 0 0 0 0 0 0 0 0 0 0 0 0 0 0 0 0 0 0 0 0 0 0 0 0 0 0 0 0 0 0 0 0 0 0 0 0 0 0 0 0 0 0 0 0 0 0 0 0 0 0 0 0 0 0 0 0 0 0 0 0 0 0 0 0 0 0 0 0 0 0 0 0 0 0 0 0 0 0 0 0 0 
0 0 0 0 0 0 0 0 0 0 0 0 0 0 0 0 0 0 0 0 0 0 0 0 0 0 0 0 0 0 0 0 0 0 0 0 0 0 0 0 0 0 0 0 0 0 0 0 0 0 0 0 0 0 0 0 0 0 0 0 0 0 0 0 0 0 0 0 0 0 0 0 0 0 0 0 0 0 0 0 0 0 0 0 0 0 0 0 0 0 
0 0 0 0 0 0 0 0 0 0 0 0 0 0 0 0 0 0 0 0 0 0 0 0 0 0 0 0 0 0 0 0 0 0 0 0 0 0 0 0 0 0 0 0 0 0 0 0 0 0 0 0 0 0 0 0 0 0 0 0 0 0 0 0 0 0 0 0 0 0 0 0 0 0 0 0 0 0 0 0 0 0 0 0 0 0 0 0 0 0 
0 0 0 0 0 0 0 0 0 0 0 0 0 0 0 0 0 0 0 0 0 0 0 0 0 0 0 0 0 0 0 0 0 0 0 0 0 0 0 0 0 0 0 0 0 0 0 0 0 0 0 0 0 0 0 0 0 0 0 0 0 0 0 0 0 0 0 0 0 0 0 0 0 0 0 0 0 0 0 0 0 0 0 0 0 0 0 0 0 0 
0 0 0 0 0 0 0 0 0 0 0 0 0 0 0 0 0 0 0 0 0 0 0 0 0 0 0 0 0 0 0 0 0 0 0 0 0 0 0 0 0 0 0 0 0 0 0 0 0 0 0 0 0 0 0 0 0 0 0 0 0 0 0 0 0 0 0 0 0 0 0 0 0 0 0 0 0 0 0 0 0 0 0 0 0 0 0 0 0 0 
0 0 0 0 0 0 0 0 0 0 0 0 0 0 0 0 0 0 0 0 0 0 0 0 0 0 0 0 0 0 0 0 0 0 0 0 0 0 0 0 0 0 0 0 0 0 0 0 0 0 0 0 0 0 0 0 0 0 0 0 0 0 0 0 0 0 0 0 0 0 0 0 0 0 0 0 0 0 0 0 0 0 0 0 0 0 0 0 0 0 
0 0 0 0 0 0 0 0 0 0 0 0 0 0 0 0 0 0 0 0 0 0 0 0 0 0 0 0 0 0 0 0 0 0 0 0 0 0 0 0 0 0 0 0 0 0 0 0 0 0 0 0 0 0 0 0 0 0 0 0 0 0 0 0 0 0 0 0 0 0 0 0 0 0 0 0 0 0 0 0 0 0 0 0 0 0 0 0 0 0 
0 0 0 0 0 0 0 0 0 0 0 0 0 0 0 0 0 0 0 0 0 0 0 0 0 0 0 0 0 0 0 0 0 0 0 0 0 0 0 0 0 0 0 0 0 0 0 0 0 0 0 0 0 0 0 0 0 0 0 0 0 0 0 0 0 0 0 0 0 0 0 0 0 0 0 0 0 0 0 0 0 0 0 0 0 0 0 0 0 0 
0 0 0 0 0 0 0 0 0 0 0 0 0 0 0 0 0 0 0 0 0 0 0 0 0 0 0 0 0 0 0 0 0 0 0 0 0 0 0 0 0 0 0 0 0 0 0 0 0 0 0 0 0 0 0 0 0 0 0 0 0 0 0 0 0 0 0 0 0 0 0 0 0 0 0 0 0 0 0 0 0 0 0 0 0 0 0 0 0 0 
0 0 0 0 0 0 0 0 0 0 0 0 0 0 0 0 0 0 0 0 0 0 0 0 0 0 0 0 0 0 0 0 0 0 0 0 0 0 0 0 0 0 0 0 0 0 0 0 0 0 0 0 0 0 0 0 0 0 0 0 0 0 0 0 0 0 0 0 0 0 0 0 0 0 0 0 0 0 0 0 0 0 0 0 0 0 0 0 0 0 
0 0 0 0 0 0 0 0 0 0 0 0 0 0 0 0 0 0 0 0 0 0 0 0 0 0 0 0 0 0 0 0 0 0 0 0 0 0 0 0 0 0 0 0 0 0 0 0 0 0 0 0 0 0 0 0 0 0 0 0 0 0 0 0 0 0 0 0 0 0 0 0 0 0 0 0 0 0 0 0 0 0 0 0 0 0 0 0 0 0 
0 0 0 0 0 0 0 0 0 0 0 0 0 0 0 0 0 0 0 0 0 0 0 0 0 0 0 0 0 0 0 0 0 0 0 0 0 0 0 0 0 0 0 0 0 0 0 0 0 0 0 0 0 0 0 0 0 0 0 0 0 0 0 0 0 0 0 0 0 0 0 0 0 0 0 0 0 0 0 0 0 0 0 0 0 0 0 0 0 0 
0 0 0 0 0 0 0 0 0 0 0 0 0 0 0 0 0 0 0 0 0 0 0 0 0 0 0 0 0 0 0 0 0 0 0 0 0 0 0 0 0 0 0 0 0 0 0 0 0 0 0 0 0 0 0 0 0 0 0 0 0 0 0 0 0 0 0 0 0 0 0 0 0 0 0 0 0 0 0 0 0 0 0 0 0 0 0 0 0 0 
# Errors [psd1_dat/psd1.dat] E: 
0 0 0 0 0 0 0 0 0 0 0 0 0 0 0 0 0 0 0 0 0 0 0 0 0 0 0 0 0 0 0 0 0 0 0 0 0 0 0 0 0 17139209327 0 0 0 0 0 0 0 0 0 0 0 0 0 0 0 0 0 0 0 0 0 0 0 0 0 0 0 0 0 0 0 0 0 0 0 0 0 0 0 0 0 0 0 0 0 0 0 0 
0 0 0 0 0 0 0 0 0 0 0 0 0 0 0 0 0 0 0 0 0 0 0 0 0 0 0 0 0 0 0 0 0 0 0 0 0 0 0 0 0 17139209327 0 0 0 0 0 0 0 0 0 0 0 0 0 0 0 0 0 0 0 0 0 0 0 0 0 0 0 0 0 0 0 0 0 0 0 0 0 0 0 0 0 0 0 0 0 0 0 0 
0 0 0 0 0 0 0 0 0 0 0 0 0 0 0 0 0 0 0 0 0 0 0 0 0 0 0 0 0 0 0 0 0 0 0 0 0 0 0 0 0 17139209327 0 0 0 0 0 0 0 0 0 0 0 0 0 0 0 0 0 0 0 0 0 0 0 0 0 0 0 0 0 0 0 0 0 0 0 0 0 0 0 0 0 0 0 0 0 0 0 0 
0 0 0 0 0 0 0 0 0 0 0 0 0 0 0 0 0 0 0 0 0 0 0 0 0 0 0 0 0 0 0 0 0 0 0 0 0 0 0 0 0 17139209327 0 0 0 0 0 0 0 0 0 0 0 0 0 0 0 0 0 0 0 0 0 0 0 0 0 0 0 0 0 0 0 0 0 0 0 0 0 0 0 0 0 0 0 0 0 0 0 0 
0 0 0 0 0 0 0 0 0 0 0 0 0 0 0 0 0 0 0 0 0 0 0 0 0 0 0 0 0 0 0 0 0 0 0 0 0 0 0 0 0 17139209327 0 0 0 0 0 0 0 0 0 0 0 0 0 0 0 0 0 0 0 0 0 0 0 0 0 0 0 0 0 0 0 0 0 0 0 0 0 0 0 0 0 0 0 0 0 0 0 0 
0 0 0 0 0 0 0 0 0 0 0 0 0 0 0 0 0 0 0 0 0 0 0 0 0 0 0 0 0 0 0 0 0 0 0 0 0 0 0 0 0 17139209327 0 0 0 0 0 0 0 0 0 0 0 0 0 0 0 0 0 0 0 0 0 0 0 0 0 0 0 0 0 0 0 0 0 0 0 0 0 0 0 0 0 0 0 0 0 0 0 0 
0 0 0 0 0 0 0 0 0 0 0 0 0 0 0 0 0 0 0 0 0 0 0 0 0 0 0 0 0 0 0 0 0 0 0 0 0 0 0 0 0 17139209327 0 0 0 0 0 0 0 0 0 0 0 0 0 0 0 0 0 0 0 0 0 0 0 0 0 0 0 0 0 0 0 0 0 0 0 0 0 0 0 0 0 0 0 0 0 0 0 0 
0 0 0 0 0 0 0 0 0 0 0 0 0 0 0 0 0 0 0 0 0 0 0 0 0 0 0 0 0 0 0 0 0 0 0 0 0 0 0 0 0 17139209327 0 0 0 0 0 0 0 0 0 0 0 0 0 0 0 0 0 0 0 0 0 0 0 0 0 0 0 0 0 0 0 0 0 0 0 0 0 0 0 0 0 0 0 0 0 0 0 0 
0 0 0 0 0 0 0 0 0 0 0 0 0 0 0 0 0 0 0 0 0 0 0 0 0 0 0 0 0 0 0 0 0 0 0 0 0 0 0 0 0 17139209327 0 0 0 0 0 0 0 0 0 0 0 0 0 0 0 0 0 0 0 0 0 0 0 0 0 0 0 0 0 0 0 0 0 0 0 0 0 0 0 0 0 0 0 0 0 0 0 0 
0 0 0 0 0 0 0 0 0 0 0 0 0 0 0 0 0 0 0 0 0 0 0 0 0 0 0 0 0 0 0 0 0 0 0 0 0 0 0 0 0 17139209327 0 0 0 0 0 0 0 0 0 0 0 0 0 0 0 0 0 0 0 0 0 0 0 0 0 0 0 0 0 0 0 0 0 0 0 0 0 0 0 0 0 0 0 0 0 0 0 0 
0 0 0 0 0 0 0 0 0 0 0 0 0 0 0 0 0 0 0 0 0 0 0 0 0 0 0 0 0 0 0 0 0 0 0 0 0 0 0 0 0 17139209327 0 0 0 0 0 0 0 0 0 0 0 0 0 0 0 0 0 0 0 0 0 0 0 0 0 0 0 0 0 0 0 0 0 0 0 0 0 0 0 0 0 0 0 0 0 0 0 0 
0 0 0 0 0 0 0 0 0 0 0 0 0 0 0 0 0 0 0 0 0 0 0 0 0 0 0 0 0 0 0 0 0 0 0 0 0 0 0 0 0 17139209327 0 0 0 0 0 0 0 0 0 0 0 0 0 0 0 0 0 0 0 0 0 0 0 0 0 0 0 0 0 0 0 0 0 0 0 0 0 0 0 0 0 0 0 0 0 0 0 0 
0 0 0 0 0 0 0 0 0 0 0 0 0 0 0 0 0 0 0 0 0 0 0 0 0 0 0 0 0 0 0 0 0 0 0 0 0 0 0 0 0 17139209327 0 0 0 0 0 0 0 0 0 0 0 0 0 0 0 0 0 0 0 0 0 0 0 0 0 0 0 0 0 0 0 0 0 0 0 0 0 0 0 0 0 0 0 0 0 0 0 0 
0 0 0 0 0 0 0 0 0 0 0 0 0 0 0 0 0 0 0 0 0 0 0 0 0 0 0 0 0 0 0 0 0 0 0 0 0 0 0 0 0 17139209327 0 0 0 0 0 0 0 0 0 0 0 0 0 0 0 0 0 0 0 0 0 0 0 0 0 0 0 0 0 0 0 0 0 0 0 0 0 0 0 0 0 0 0 0 0 0 0 0 
0 0 0 0 0 0 0 0 0 0 0 0 0 0 0 0 0 0 0 0 0 0 0 0 0 0 0 0 0 0 0 0 0 0 0 0 0 0 0 0 0 17139209327 0 0 0 0 0 0 0 0 0 0 0 0 0 0 0 0 0 0 0 0 0 0 0 0 0 0 0 0 0 0 0 0 0 0 0 0 0 0 0 0 0 0 0 0 0 0 0 0 
0 0 0 0 0 0 0 0 0 0 0 0 0 0 0 0 0 0 0 0 0 0 0 0 0 0 0 0 0 0 0 0 0 0 0 0 0 0 0 0 0 17139209327 0 0 0 0 0 0 0 0 0 0 0 0 0 0 0 0 0 0 0 0 0 0 0 0 0 0 0 0 0 0 0 0 0 0 0 0 0 0 0 0 0 0 0 0 0 0 0 0 
0 0 0 0 0 0 0 0 0 0 0 0 0 0 0 0 0 0 0 0 0 0 0 0 0 0 0 0 0 0 0 0 0 0 0 0 0 0 0 0 0 17139209327 0 0 0 0 0 0 0 0 0 0 0 0 0 0 0 0 0 0 0 0 0 0 0 0 0 0 0 0 0 0 0 0 0 0 0 0 0 0 0 0 0 0 0 0 0 0 0 0 
0 0 0 0 0 0 0 0 0 0 0 0 0 0 0 0 0 0 0 0 0 0 0 0 0 0 0 0 0 0 0 0 0 0 0 0 0 0 0 0 0 17139209327 0 0 0 0 0 0 0 0 0 0 0 0 0 0 0 0 0 0 0 0 0 0 0 0 0 0 0 0 0 0 0 0 0 0 0 0 0 0 0 0 0 0 0 0 0 0 0 0 
0 0 0 0 0 0 0 0 0 0 0 0 0 0 0 0 0 0 0 0 0 0 0 0 0 0 0 0 0 0 0 0 0 0 0 0 0 0 0 0 0 17139209327 0 0 0 0 0 0 0 0 0 0 0 0 0 0 0 0 0 0 0 0 0 0 0 0 0 0 0 0 0 0 0 0 0 0 0 0 0 0 0 0 0 0 0 0 0 0 0 0 
0 0 0 0 0 0 0 0 0 0 0 0 0 0 0 0 0 0 0 0 0 0 0 0 0 0 0 0 0 0 0 0 0 0 0 0 0 0 0 0 0 17139209327 0 0 0 0 0 0 0 0 0 0 0 0 0 0 0 0 0 0 0 0 0 0 0 0 0 0 0 0 0 0 0 0 0 0 0 0 0 0 0 0 0 0 0 0 0 0 0 0 
0 0 0 0 0 0 0 0 0 0 0 0 0 0 0 0 0 0 0 0 0 0 0 0 0 0 0 0 0 0 0 0 0 0 0 0 0 0 0 0 0 17139209327 0 0 0 0 0 0 0 0 0 0 0 0 0 0 0 0 0 0 0 0 0 0 0 0 0 0 0 0 0 0 0 0 0 0 0 0 0 0 0 0 0 0 0 0 0 0 0 0 
0 0 0 0 0 0 0 0 0 0 0 0 0 0 0 0 0 0 0 0 0 0 0 0 0 0 0 0 0 0 0 0 0 0 0 0 0 0 0 0 0 17139209327 0 0 0 0 0 0 0 0 0 0 0 0 0 0 0 0 0 0 0 0 0 0 0 0 0 0 0 0 0 0 0 0 0 0 0 0 0 0 0 0 0 0 0 0 0 0 0 0 
0 0 0 0 0 0 0 0 0 0 0 0 0 0 0 0 0 0 0 0 0 0 0 0 0 0 0 0 0 0 0 0 0 0 0 0 0 0 0 0 0 17139209327 0 0 0 0 0 0 0 0 0 0 0 0 0 0 0 0 0 0 0 0 0 0 0 0 0 0 0 0 0 0 0 0 0 0 0 0 0 0 0 0 0 0 0 0 0 0 0 0 
0 0 0 0 0 0 0 0 0 0 0 0 0 0 0 0 0 0 0 0 0 0 0 0 0 0 0 0 0 0 0 0 0 0 0 0 0 0 0 0 0 17139209327 0 0 0 0 0 0 0 0 0 0 0 0 0 0 0 0 0 0 0 0 0 0 0 0 0 0 0 0 0 0 0 0 0 0 0 0 0 0 0 0 0 0 0 0 0 0 0 0 
0 0 0 0 0 0 0 0 0 0 0 0 0 0 0 0 0 0 0 0 0 0 0 0 0 0 0 0 0 0 0 0 0 0 0 0 0 0 0 0 0 17139209327 0 0 0 0 0 0 0 0 0 0 0 0 0 0 0 0 0 0 0 0 0 0 0 0 0 0 0 0 0 0 0 0 0 0 0 0 0 0 0 0 0 0 0 0 0 0 0 0 
0 0 0 0 0 0 0 0 0 0 0 0 0 0 0 0 0 0 0 0 0 0 0 0 0 0 0 0 0 0 0 0 0 0 0 0 0 0 0 0 0 17139209327 0 0 0 0 0 0 0 0 0 0 0 0 0 0 0 0 0 0 0 0 0 0 0 0 0 0 0 0 0 0 0 0 0 0 0 0 0 0 0 0 0 0 0 0 0 0 0 0 
0 0 0 0 0 0 0 0 0 0 0 0 0 0 0 0 0 0 0 0 0 0 0 0 0 0 0 0 0 0 0 0 0 0 0 0 0 0 0 0 0 17139209327 0 0 0 0 0 0 0 0 0 0 0 0 0 0 0 0 0 0 0 0 0 0 0 0 0 0 0 0 0 0 0 0 0 0 0 0 0 0 0 0 0 0 0 0 0 0 0 0 
0 0 0 0 0 0 0 0 0 0 0 0 0 0 0 0 0 0 0 0 0 0 0 0 0 0 0 0 0 0 0 0 0 0 0 0 0 0 0 0 0 17139209327 0 0 0 0 0 0 0 0 0 0 0 0 0 0 0 0 0 0 0 0 0 0 0 0 0 0 0 0 0 0 0 0 0 0 0 0 0 0 0 0 0 0 0 0 0 0 0 0 
0 0 0 0 0 0 0 0 0 0 0 0 0 0 0 0 0 0 0 0 0 0 0 0 0 0 0 0 0 0 0 0 0 0 0 0 0 0 0 0 0 17139209327 0 0 0 0 0 0 0 0 0 0 0 0 0 0 0 0 0 0 0 0 0 0 0 0 0 0 0 0 0 0 0 0 0 0 0 0 0 0 0 0 0 0 0 0 0 0 0 0 
0 0 0 0 0 0 0 0 0 0 0 0 0 0 0 0 0 0 0 0 0 0 0 0 0 0 0 0 0 0 0 0 0 0 0 0 0 0 0 0 0 17139209327 0 0 0 0 0 0 0 0 0 0 0 0 0 0 0 0 0 0 0 0 0 0 0 0 0 0 0 0 0 0 0 0 0 0 0 0 0 0 0 0 0 0 0 0 0 0 0 0 
0 0 0 0 0 0 0 0 0 0 0 0 0 0 0 0 0 0 0 0 0 0 0 0 0 0 0 0 0 0 0 0 0 0 0 0 0 0 0 0 0 17139209327 0 0 0 0 0 0 0 0 0 0 0 0 0 0 0 0 0 0 0 0 0 0 0 0 0 0 0 0 0 0 0 0 0 0 0 0 0 0 0 0 0 0 0 0 0 0 0 0 
0 0 0 0 0 0 0 0 0 0 0 0 0 0 0 0 0 0 0 0 0 0 0 0 0 0 0 0 0 0 0 0 0 0 0 0 0 0 0 0 0 17139209327 0 0 0 0 0 0 0 0 0 0 0 0 0 0 0 0 0 0 0 0 0 0 0 0 0 0 0 0 0 0 0 0 0 0 0 0 0 0 0 0 0 0 0 0 0 0 0 0 
0 0 0 0 0 0 0 0 0 0 0 0 0 0 0 0 0 0 0 0 0 0 0 0 0 0 0 0 0 0 0 0 0 0 0 0 0 0 0 0 0 17139209327 0 0 0 0 0 0 0 0 0 0 0 0 0 0 0 0 0 0 0 0 0 0 0 0 0 0 0 0 0 0 0 0 0 0 0 0 0 0 0 0 0 0 0 0 0 0 0 0 
0 0 0 0 0 0 0 0 0 0 0 0 0 0 0 0 0 0 0 0 0 0 0 0 0 0 0 0 0 0 0 0 0 0 0 0 0 0 0 0 0 17139209327 0 0 0 0 0 0 0 0 0 0 0 0 0 0 0 0 0 0 0 0 0 0 0 0 0 0 0 0 0 0 0 0 0 0 0 0 0 0 0 0 0 0 0 0 0 0 0 0 
0 0 0 0 0 0 0 0 0 0 0 0 0 0 0 0 0 0 0 0 0 0 0 0 0 0 0 0 0 0 0 0 0 0 0 0 0 0 0 0 0 17139209327 0 0 0 0 0 0 0 0 0 0 0 0 0 0 0 0 0 0 0 0 0 0 0 0 0 0 0 0 0 0 0 0 0 0 0 0 0 0 0 0 0 0 0 0 0 0 0 0 
0 0 0 0 0 0 0 0 0 0 0 0 0 0 0 0 0 0 0 0 0 0 0 0 0 0 0 0 0 0 0 0 0 0 0 0 0 0 0 0 0 17139209327 0 0 0 0 0 0 0 0 0 0 0 0 0 0 0 0 0 0 0 0 0 0 0 0 0 0 0 0 0 0 0 0 0 0 0 0 0 0 0 0 0 0 0 0 0 0 0 0 
0 0 0 0 0 0 0 0 0 0 0 0 0 0 0 0 0 0 0 0 0 0 0 0 0 0 0 0 0 0 0 0 0 0 0 0 0 0 0 0 0 17139209327 0 0 0 0 0 0 0 0 0 0 0 0 0 0 0 0 0 0 0 0 0 0 0 0 0 0 0 0 0 0 0 0 0 0 0 0 0 0 0 0 0 0 0 0 0 0 0 0 
0 0 0 0 0 0 0 0 0 0 0 0 0 0 0 0 0 0 0 0 0 0 0 0 0 0 0 0 0 0 0 0 0 0 0 0 0 0 0 0 0 17139209327 0 0 0 0 0 0 0 0 0 0 0 0 0 0 0 0 0 0 0 0 0 0 0 0 0 0 0 0 0 0 0 0 0 0 0 0 0 0 0 0 0 0 0 0 0 0 0 0 
0 0 0 0 0 0 0 0 0 0 0 0 0 0 0 0 0 0 0 0 0 0 0 0 0 0 0 0 0 0 0 0 0 0 0 0 0 0 0 0 0 17139209327 0 0 0 0 0 0 0 0 0 0 0 0 0 0 0 0 0 0 0 0 0 0 0 0 0 0 0 0 0 0 0 0 0 0 0 0 0 0 0 0 0 0 0 0 0 0 0 0 
0 0 0 0 0 0 0 0 0 0 0 0 0 0 0 0 0 0 0 0 0 0 0 0 0 0 0 0 0 0 0 0 0 0 0 0 0 0 0 0 0 17139209327 0 0 0 0 0 0 0 0 0 0 0 0 0 0 0 0 0 0 0 0 0 0 0 0 0 0 0 0 0 0 0 0 0 0 0 0 0 0 0 0 0 0 0 0 0 0 0 0 
0 0 0 0 0 0 0 0 0 0 0 0 0 0 0 0 0 0 0 0 0 0 0 0 0 0 0 0 0 0 0 0 0 0 0 0 0 0 0 0 0 17139209327 0 0 0 0 0 0 0 0 0 0 0 0 0 0 0 0 0 0 0 0 0 0 0 0 0 0 0 0 0 0 0 0 0 0 0 0 0 0 0 0 0 0 0 0 0 0 0 0 
0 0 0 0 0 0 0 0 0 0 0 0 0 0 0 0 0 0 0 0 0 0 0 0 0 0 0 0 0 0 0 0 0 0 0 0 0 0 0 0 0 17139209327 0 0 0 0 0 0 0 0 0 0 0 0 0 0 0 0 0 0 0 0 0 0 0 0 0 0 0 0 0 0 0 0 0 0 0 0 0 0 0 0 0 0 0 0 0 0 0 0 
0 0 0 0 0 0 0 0 0 0 0 0 0 0 0 0 0 0 0 0 0 0 0 0 0 0 0 0 0 0 0 0 0 0 0 0 0 0 0 0 0 17139209327 0 0 0 0 0 0 0 0 0 0 0 0 0 0 0 0 0 0 0 0 0 0 0 0 0 0 0 0 0 0 0 0 0 0 0 0 0 0 0 0 0 0 0 0 0 0 0 0 
0 0 0 0 0 0 0 0 0 0 0 0 0 0 0 0 0 0 0 0 0 0 0 0 0 0 0 0 0 0 0 0 0 0 0 0 0 0 0 0 0 17139209327 0 0 0 0 0 0 0 0 0 0 0 0 0 0 0 0 0 0 0 0 0 0 0 0 0 0 0 0 0 0 0 0 0 0 0 0 0 0 0 0 0 0 0 0 0 0 0 0 
0 0 0 0 0 0 0 0 0 0 0 0 0 0 0 0 0 0 0 0 0 0 0 0 0 0 0 0 0 0 0 0 0 0 0 0 0 0 0 0 0 17139209327 0 0 0 0 0 0 0 0 0 0 0 0 0 0 0 0 0 0 0 0 0 0 0 0 0 0 0 0 0 0 0 0 0 0 0 0 0 0 0 0 0 0 0 0 0 0 0 0 
0 0 0 0 0 0 0 0 0 0 0 0 0 0 0 0 0 0 0 0 0 0 0 0 0 0 0 0 0 0 0 0 0 0 0 0 0 0 0 0 0 17139209327 0 0 0 0 0 0 0 0 0 0 0 0 0 0 0 0 0 0 0 0 0 0 0 0 0 0 0 0 0 0 0 0 0 0 0 0 0 0 0 0 0 0 0 0 0 0 0 0 
0 0 0 0 0 0 0 0 0 0 0 0 0 0 0 0 0 0 0 0 0 0 0 0 0 0 0 0 0 0 0 0 0 0 0 0 0 0 0 0 0 17139209327 0 0 0 0 0 0 0 0 0 0 0 0 0 0 0 0 0 0 0 0 0 0 0 0 0 0 0 0 0 0 0 0 0 0 0 0 0 0 0 0 0 0 0 0 0 0 0 0 
0 0 0 0 0 0 0 0 0 0 0 0 0 0 0 0 0 0 0 0 0 0 0 0 0 0 0 0 0 0 0 0 0 0 0 0 0 0 0 0 0 17139209327 0 0 0 0 0 0 0 0 0 0 0 0 0 0 0 0 0 0 0 0 0 0 0 0 0 0 0 0 0 0 0 0 0 0 0 0 0 0 0 0 0 0 0 0 0 0 0 0 
0 0 0 0 0 0 0 0 0 0 0 0 0 0 0 0 0 0 0 0 0 0 0 0 0 0 0 0 0 0 0 0 0 0 0 0 0 0 0 0 0 17139209327 0 0 0 0 0 0 0 0 0 0 0 0 0 0 0 0 0 0 0 0 0 0 0 0 0 0 0 0 0 0 0 0 0 0 0 0 0 0 0 0 0 0 0 0 0 0 0 0 
0 0 0 0 0 0 0 0 0 0 0 0 0 0 0 0 0 0 0 0 0 0 0 0 0 0 0 0 0 0 0 0 0 0 0 0 0 0 0 0 0 17139209327 0 0 0 0 0 0 0 0 0 0 0 0 0 0 0 0 0 0 0 0 0 0 0 0 0 0 0 0 0 0 0 0 0 0 0 0 0 0 0 0 0 0 0 0 0 0 0 0 
0 0 0 0 0 0 0 0 0 0 0 0 0 0 0 0 0 0 0 0 0 0 0 0 0 0 0 0 0 0 0 0 0 0 0 0 0 0 0 0 0 17139209327 0 0 0 0 0 0 0 0 0 0 0 0 0 0 0 0 0 0 0 0 0 0 0 0 0 0 0 0 0 0 0 0 0 0 0 0 0 0 0 0 0 0 0 0 0 0 0 0 
0 0 0 0 0 0 0 0 0 0 0 0 0 0 0 0 0 0 0 0 0 0 0 0 0 0 0 0 0 0 0 0 0 0 0 0 0 0 0 0 0 17139209327 0 0 0 0 0 0 0 0 0 0 0 0 0 0 0 0 0 0 0 0 0 0 0 0 0 0 0 0 0 0 0 0 0 0 0 0 0 0 0 0 0 0 0 0 0 0 0 0 
0 0 0 0 0 0 0 0 0 0 0 0 0 0 0 0 0 0 0 0 0 0 0 0 0 0 0 0 0 0 0 0 0 0 0 0 0 0 0 0 0 17139209327 0 0 0 0 0 0 0 0 0 0 0 0 0 0 0 0 0 0 0 0 0 0 0 0 0 0 0 0 0 0 0 0 0 0 0 0 0 0 0 0 0 0 0 0 0 0 0 0 
0 0 0 0 0 0 0 0 0 0 0 0 0 0 0 0 0 0 0 0 0 0 0 0 0 0 0 0 0 0 0 0 0 0 0 0 0 0 0 0 0 17139209327 0 0 0 0 0 0 0 0 0 0 0 0 0 0 0 0 0 0 0 0 0 0 0 0 0 0 0 0 0 0 0 0 0 0 0 0 0 0 0 0 0 0 0 0 0 0 0 0 
0 0 0 0 0 0 0 0 0 0 0 0 0 0 0 0 0 0 0 0 0 0 0 0 0 0 0 0 0 0 0 0 0 0 0 0 0 0 0 0 0 17139209327 0 0 0 0 0 0 0 0 0 0 0 0 0 0 0 0 0 0 0 0 0 0 0 0 0 0 0 0 0 0 0 0 0 0 0 0 0 0 0 0 0 0 0 0 0 0 0 0 
0 0 0 0 0 0 0 0 0 0 0 0 0 0 0 0 0 0 0 0 0 0 0 0 0 0 0 0 0 0 0 0 0 0 0 0 0 0 0 0 0 17139209327 0 0 0 0 0 0 0 0 0 0 0 0 0 0 0 0 0 0 0 0 0 0 0 0 0 0 0 0 0 0 0 0 0 0 0 0 0 0 0 0 0 0 0 0 0 0 0 0 
0 0 0 0 0 0 0 0 0 0 0 0 0 0 0 0 0 0 0 0 0 0 0 0 0 0 0 0 0 0 0 0 0 0 0 0 0 0 0 0 0 17139209327 0 0 0 0 0 0 0 0 0 0 0 0 0 0 0 0 0 0 0 0 0 0 0 0 0 0 0 0 0 0 0 0 0 0 0 0 0 0 0 0 0 0 0 0 0 0 0 0 
0 0 0 0 0 0 0 0 0 0 0 0 0 0 0 0 0 0 0 0 0 0 0 0 0 0 0 0 0 0 0 0 0 0 0 0 0 0 0 0 0 17139209327 0 0 0 0 0 0 0 0 0 0 0 0 0 0 0 0 0 0 0 0 0 0 0 0 0 0 0 0 0 0 0 0 0 0 0 0 0 0 0 0 0 0 0 0 0 0 0 0 
0 0 0 0 0 0 0 0 0 0 0 0 0 0 0 0 0 0 0 0 0 0 0 0 0 0 0 0 0 0 0 0 0 0 0 0 0 0 0 0 0 17139209327 0 0 0 0 0 0 0 0 0 0 0 0 0 0 0 0 0 0 0 0 0 0 0 0 0 0 0 0 0 0 0 0 0 0 0 0 0 0 0 0 0 0 0 0 0 0 0 0 
0 0 0 0 0 0 0 0 0 0 0 0 0 0 0 0 0 0 0 0 0 0 0 0 0 0 0 0 0 0 0 0 0 0 0 0 0 0 0 0 0 17139209327 0 0 0 0 0 0 0 0 0 0 0 0 0 0 0 0 0 0 0 0 0 0 0 0 0 0 0 0 0 0 0 0 0 0 0 0 0 0 0 0 0 0 0 0 0 0 0 0 
0 0 0 0 0 0 0 0 0 0 0 0 0 0 0 0 0 0 0 0 0 0 0 0 0 0 0 0 0 0 0 0 0 0 0 0 0 0 0 0 0 17139209327 0 0 0 0 0 0 0 0 0 0 0 0 0 0 0 0 0 0 0 0 0 0 0 0 0 0 0 0 0 0 0 0 0 0 0 0 0 0 0 0 0 0 0 0 0 0 0 0 
0 0 0 0 0 0 0 0 0 0 0 0 0 0 0 0 0 0 0 0 0 0 0 0 0 0 0 0 0 0 0 0 0 0 0 0 0 0 0 0 0 17139209327 0 0 0 0 0 0 0 0 0 0 0 0 0 0 0 0 0 0 0 0 0 0 0 0 0 0 0 0 0 0 0 0 0 0 0 0 0 0 0 0 0 0 0 0 0 0 0 0 
0 0 0 0 0 0 0 0 0 0 0 0 0 0 0 0 0 0 0 0 0 0 0 0 0 0 0 0 0 0 0 0 0 0 0 0 0 0 0 0 0 17139209327 0 0 0 0 0 0 0 0 0 0 0 0 0 0 0 0 0 0 0 0 0 0 0 0 0 0 0 0 0 0 0 0 0 0 0 0 0 0 0 0 0 0 0 0 0 0 0 0 
0 0 0 0 0 0 0 0 0 0 0 0 0 0 0 0 0 0 0 0 0 0 0 0 0 0 0 0 0 0 0 0 0 0 0 0 0 0 0 0 0 17139209327 0 0 0 0 0 0 0 0 0 0 0 0 0 0 0 0 0 0 0 0 0 0 0 0 0 0 0 0 0 0 0 0 0 0 0 0 0 0 0 0 0 0 0 0 0 0 0 0 
0 0 0 0 0 0 0 0 0 0 0 0 0 0 0 0 0 0 0 0 0 0 0 0 0 0 0 0 0 0 0 0 0 0 0 0 0 0 0 0 0 17139209327 0 0 0 0 0 0 0 0 0 0 0 0 0 0 0 0 0 0 0 0 0 0 0 0 0 0 0 0 0 0 0 0 0 0 0 0 0 0 0 0 0 0 0 0 0 0 0 0 
0 0 0 0 0 0 0 0 0 0 0 0 0 0 0 0 0 0 0 0 0 0 0 0 0 0 0 0 0 0 0 0 0 0 0 0 0 0 0 0 0 17139209327 0 0 0 0 0 0 0 0 0 0 0 0 0 0 0 0 0 0 0 0 0 0 0 0 0 0 0 0 0 0 0 0 0 0 0 0 0 0 0 0 0 0 0 0 0 0 0 0 
0 0 0 0 0 0 0 0 0 0 0 0 0 0 0 0 0 0 0 0 0 0 0 0 0 0 0 0 0 0 0 0 0 0 0 0 0 0 0 0 0 17139209327 0 0 0 0 0 0 0 0 0 0 0 0 0 0 0 0 0 0 0 0 0 0 0 0 0 0 0 0 0 0 0 0 0 0 0 0 0 0 0 0 0 0 0 0 0 0 0 0 
0 0 0 0 0 0 0 0 0 0 0 0 0 0 0 0 0 0 0 0 0 0 0 0 0 0 0 0 0 0 0 0 0 0 0 0 0 0 0 0 0 17139209327 0 0 0 0 0 0 0 0 0 0 0 0 0 0 0 0 0 0 0 0 0 0 0 0 0 0 0 0 0 0 0 0 0 0 0 0 0 0 0 0 0 0 0 0 0 0 0 0 
0 0 0 0 0 0 0 0 0 0 0 0 0 0 0 0 0 0 0 0 0 0 0 0 0 0 0 0 0 0 0 0 0 0 0 0 0 0 0 0 0 17139209327 0 0 0 0 0 0 0 0 0 0 0 0 0 0 0 0 0 0 0 0 0 0 0 0 0 0 0 0 0 0 0 0 0 0 0 0 0 0 0 0 0 0 0 0 0 0 0 0 
0 0 0 0 0 0 0 0 0 0 0 0 0 0 0 0 0 0 0 0 0 0 0 0 0 0 0 0 0 0 0 0 0 0 0 0 0 0 0 0 0 17139209327 0 0 0 0 0 0 0 0 0 0 0 0 0 0 0 0 0 0 0 0 0 0 0 0 0 0 0 0 0 0 0 0 0 0 0 0 0 0 0 0 0 0 0 0 0 0 0 0 
0 0 0 0 0 0 0 0 0 0 0 0 0 0 0 0 0 0 0 0 0 0 0 0 0 0 0 0 0 0 0 0 0 0 0 0 0 0 0 0 0 17139209327 0 0 0 0 0 0 0 0 0 0 0 0 0 0 0 0 0 0 0 0 0 0 0 0 0 0 0 0 0 0 0 0 0 0 0 0 0 0 0 0 0 0 0 0 0 0 0 0 
0 0 0 0 0 0 0 0 0 0 0 0 0 0 0 0 0 0 0 0 0 0 0 0 0 0 0 0 0 0 0 0 0 0 0 0 0 0 0 0 0 17139209327 0 0 0 0 0 0 0 0 0 0 0 0 0 0 0 0 0 0 0 0 0 0 0 0 0 0 0 0 0 0 0 0 0 0 0 0 0 0 0 0 0 0 0 0 0 0 0 0 
0 0 0 0 0 0 0 0 0 0 0 0 0 0 0 0 0 0 0 0 0 0 0 0 0 0 0 0 0 0 0 0 0 0 0 0 0 0 0 0 0 17139209327 0 0 0 0 0 0 0 0 0 0 0 0 0 0 0 0 0 0 0 0 0 0 0 0 0 0 0 0 0 0 0 0 0 0 0 0 0 0 0 0 0 0 0 0 0 0 0 0 
0 0 0 0 0 0 0 0 0 0 0 0 0 0 0 0 0 0 0 0 0 0 0 0 0 0 0 0 0 0 0 0 0 0 0 0 0 0 0 0 0 17139209327 0 0 0 0 0 0 0 0 0 0 0 0 0 0 0 0 0 0 0 0 0 0 0 0 0 0 0 0 0 0 0 0 0 0 0 0 0 0 0 0 0 0 0 0 0 0 0 0 
0 0 0 0 0 0 0 0 0 0 0 0 0 0 0 0 0 0 0 0 0 0 0 0 0 0 0 0 0 0 0 0 0 0 0 0 0 0 0 0 0 17139209327 0 0 0 0 0 0 0 0 0 0 0 0 0 0 0 0 0 0 0 0 0 0 0 0 0 0 0 0 0 0 0 0 0 0 0 0 0 0 0 0 0 0 0 0 0 0 0 0 
0 0 0 0 0 0 0 0 0 0 0 0 0 0 0 0 0 0 0 0 0 0 0 0 0 0 0 0 0 0 0 0 0 0 0 0 0 0 0 0 0 17139209327 0 0 0 0 0 0 0 0 0 0 0 0 0 0 0 0 0 0 0 0 0 0 0 0 0 0 0 0 0 0 0 0 0 0 0 0 0 0 0 0 0 0 0 0 0 0 0 0 
0 0 0 0 0 0 0 0 0 0 0 0 0 0 0 0 0 0 0 0 0 0 0 0 0 0 0 0 0 0 0 0 0 0 0 0 0 0 0 0 0 17139209327 0 0 0 0 0 0 0 0 0 0 0 0 0 0 0 0 0 0 0 0 0 0 0 0 0 0 0 0 0 0 0 0 0 0 0 0 0 0 0 0 0 0 0 0 0 0 0 0 
0 0 0 0 0 0 0 0 0 0 0 0 0 0 0 0 0 0 0 0 0 0 0 0 0 0 0 0 0 0 0 0 0 0 0 0 0 0 0 0 0 17139209327 0 0 0 0 0 0 0 0 0 0 0 0 0 0 0 0 0 0 0 0 0 0 0 0 0 0 0 0 0 0 0 0 0 0 0 0 0 0 0 0 0 0 0 0 0 0 0 0 
0 0 0 0 0 0 0 0 0 0 0 0 0 0 0 0 0 0 0 0 0 0 0 0 0 0 0 0 0 0 0 0 0 0 0 0 0 0 0 0 0 17139209327 0 0 0 0 0 0 0 0 0 0 0 0 0 0 0 0 0 0 0 0 0 0 0 0 0 0 0 0 0 0 0 0 0 0 0 0 0 0 0 0 0 0 0 0 0 0 0 0 
0 0 0 0 0 0 0 0 0 0 0 0 0 0 0 0 0 0 0 0 0 0 0 0 0 0 0 0 0 0 0 0 0 0 0 0 0 0 0 0 0 17139209327 0 0 0 0 0 0 0 0 0 0 0 0 0 0 0 0 0 0 0 0 0 0 0 0 0 0 0 0 0 0 0 0 0 0 0 0 0 0 0 0 0 0 0 0 0 0 0 0 
0 0 0 0 0 0 0 0 0 0 0 0 0 0 0 0 0 0 0 0 0 0 0 0 0 0 0 0 0 0 0 0 0 0 0 0 0 0 0 0 0 17139209327 0 0 0 0 0 0 0 0 0 0 0 0 0 0 0 0 0 0 0 0 0 0 0 0 0 0 0 0 0 0 0 0 0 0 0 0 0 0 0 0 0 0 0 0 0 0 0 0 
0 0 0 0 0 0 0 0 0 0 0 0 0 0 0 0 0 0 0 0 0 0 0 0 0 0 0 0 0 0 0 0 0 0 0 0 0 0 0 0 0 17139209327 0 0 0 0 0 0 0 0 0 0 0 0 0 0 0 0 0 0 0 0 0 0 0 0 0 0 0 0 0 0 0 0 0 0 0 0 0 0 0 0 0 0 0 0 0 0 0 0 
0 0 0 0 0 0 0 0 0 0 0 0 0 0 0 0 0 0 0 0 0 0 0 0 0 0 0 0 0 0 0 0 0 0 0 0 0 0 0 0 0 17139209327 0 0 0 0 0 0 0 0 0 0 0 0 0 0 0 0 0 0 0 0 0 0 0 0 0 0 0 0 0 0 0 0 0 0 0 0 0 0 0 0 0 0 0 0 0 0 0 0 
0 0 0 0 0 0 0 0 0 0 0 0 0 0 0 0 0 0 0 0 0 0 0 0 0 0 0 0 0 0 0 0 0 0 0 0 0 0 0 0 0 17139209327 0 0 0 0 0 0 0 0 0 0 0 0 0 0 0 0 0 0 0 0 0 0 0 0 0 0 0 0 0 0 0 0 0 0 0 0 0 0 0 0 0 0 0 0 0 0 0 0 
0 0 0 0 0 0 0 0 0 0 0 0 0 0 0 0 0 0 0 0 0 0 0 0 0 0 0 0 0 0 0 0 0 0 0 0 0 0 0 0 0 17139209327 0 0 0 0 0 0 0 0 0 0 0 0 0 0 0 0 0 0 0 0 0 0 0 0 0 0 0 0 0 0 0 0 0 0 0 0 0 0 0 0 0 0 0 0 0 0 0 0 
0 0 0 0 0 0 0 0 0 0 0 0 0 0 0 0 0 0 0 0 0 0 0 0 0 0 0 0 0 0 0 0 0 0 0 0 0 0 0 0 0 17139209327 0 0 0 0 0 0 0 0 0 0 0 0 0 0 0 0 0 0 0 0 0 0 0 0 0 0 0 0 0 0 0 0 0 0 0 0 0 0 0 0 0 0 0 0 0 0 0 0 
0 0 0 0 0 0 0 0 0 0 0 0 0 0 0 0 0 0 0 0 0 0 0 0 0 0 0 0 0 0 0 0 0 0 0 0 0 0 0 0 0 17139209327 0 0 0 0 0 0 0 0 0 0 0 0 0 0 0 0 0 0 0 0 0 0 0 0 0 0 0 0 0 0 0 0 0 0 0 0 0 0 0 0 0 0 0 0 0 0 0 0 
0 0 0 0 0 0 0 0 0 0 0 0 0 0 0 0 0 0 0 0 0 0 0 0 0 0 0 0 0 0 0 0 0 0 0 0 0 0 0 0 0 17139209327 0 0 0 0 0 0 0 0 0 0 0 0 0 0 0 0 0 0 0 0 0 0 0 0 0 0 0 0 0 0 0 0 0 0 0 0 0 0 0 0 0 0 0 0 0 0 0 0 
0 0 0 0 0 0 0 0 0 0 0 0 0 0 0 0 0 0 0 0 0 0 0 0 0 0 0 0 0 0 0 0 0 0 0 0 0 0 0 0 0 17139209327 0 0 0 0 0 0 0 0 0 0 0 0 0 0 0 0 0 0 0 0 0 0 0 0 0 0 0 0 0 0 0 0 0 0 0 0 0 0 0 0 0 0 0 0 0 0 0 0 
0 0 0 0 0 0 0 0 0 0 0 0 0 0 0 0 0 0 0 0 0 0 0 0 0 0 0 0 0 0 0 0 0 0 0 0 0 0 0 0 0 17139209327 0 0 0 0 0 0 0 0 0 0 0 0 0 0 0 0 0 0 0 0 0 0 0 0 0 0 0 0 0 0 0 0 0 0 0 0 0 0 0 0 0 0 0 0 0 0 0 0 
# Events [psd1_dat/psd1.dat] N: 
0 0 0 0 0 0 0 0 0 0 0 0 0 0 0 0 0 0 0 0 0 0 0 0 0 0 0 0 0 0 0 0 0 0 0 0 0 0 0 0 0 0 0 0 0 0 0 0 0 0 0 0 0 0 0 0 0 0 0 0 0 0 0 0 0 0 0 0 0 0 0 0 0 0 0 0 0 0 0 0 0 0 0 0 0 0 0 0 0 0 
0 0 0 0 0 0 0 0 0 0 0 0 0 0 0 0 0 0 0 0 0 0 0 0 0 0 0 0 0 0 0 0 0 0 0 0 0 0 0 0 0 0 0 0 0 0 0 0 0 0 0 0 0 0 0 0 0 0 0 0 0 0 0 0 0 0 0 0 0 0 0 0 0 0 0 0 0 0 0 0 0 0 0 0 0 0 0 0 0 0 
0 0 0 0 0 0 0 0 0 0 0 0 0 0 0 0 0 0 0 0 0 0 0 0 0 0 0 0 0 0 0 0 0 0 0 0 0 0 0 0 0 0 0 0 0 0 0 0 0 0 0 0 0 0 0 0 0 0 0 0 0 0 0 0 0 0 0 0 0 0 0 0 0 0 0 0 0 0 0 0 0 0 0 0 0 0 0 0 0 0 
0 0 0 0 0 0 0 0 0 0 0 0 0 0 0 0 0 0 0 0 0 0 0 0 0 0 0 0 0 0 0 0 0 0 0 0 0 0 0 0 0 0 0 0 0 0 0 0 0 0 0 0 0 0 0 0 0 0 0 0 0 0 0 0 0 0 0 0 0 0 0 0 0 0 0 0 0 0 0 0 0 0 0 0 0 0 0 0 0 0 
0 0 0 0 0 0 0 0 0 0 0 0 0 0 0 0 0 0 0 0 0 0 0 0 0 0 0 0 0 0 0 0 0 0 0 0 0 0 0 0 0 0 0 0 0 0 0 0 0 0 0 0 0 0 0 0 0 0 0 0 0 0 0 0 0 0 0 0 0 0 0 0 0 0 0 0 0 0 0 0 0 0 0 0 0 0 0 0 0 0 
0 0 0 0 0 0 0 0 0 0 0 0 0 0 0 0 0 0 0 0 0 0 0 0 0 0 0 0 0 0 0 0 0 0 0 0 0 0 0 0 0 0 0 0 0 0 0 0 0 0 0 0 0 0 0 0 0 0 0 0 0 0 0 0 0 0 0 0 0 0 0 0 0 0 0 0 0 0 0 0 0 0 0 0 0 0 0 0 0 0 
0 0 0 0 0 0 0 0 0 0 0 0 0 0 0 0 0 0 0 0 0 0 0 0 0 0 0 0 0 0 0 0 0 0 0 0 0 0 0 0 0 0 0 0 0 0 0 0 0 0 0 0 0 0 0 0 0 0 0 0 0 0 0 0 0 0 0 0 0 0 0 0 0 0 0 0 0 0 0 0 0 0 0 0 0 0 0 0 0 0 
0 0 0 0 0 0 0 0 0 0 0 0 0 0 0 0 0 0 0 0 0 0 0 0 0 0 0 0 0 0 0 0 0 0 0 0 0 0 0 0 0 0 0 0 0 0 0 0 0 0 0 0 0 0 0 0 0 0 0 0 0 0 0 0 0 0 0 0 0 0 0 0 0 0 0 0 0 0 0 0 0 0 0 0 0 0 0 0 0 0 
0 0 0 0 0 0 0 0 0 0 0 0 0 0 0 0 0 0 0 0 0 0 0 0 0 0 0 0 0 0 0 0 0 0 0 0 0 0 0 0 0 0 0 0 0 0 0 0 0 0 0 0 0 0 0 0 0 0 0 0 0 0 0 0 0 0 0 0 0 0 0 0 0 0 0 0 0 0 0 0 0 0 0 0 0 0 0 0 0 0 
0 0 0 0 0 0 0 0 0 0 0 0 0 0 0 0 0 0 0 0 0 0 0 0 0 0 0 0 0 0 0 0 0 0 0 0 0 0 0 0 0 0 0 0 0 0 0 0 0 0 0 0 0 0 0 0 0 0 0 0 0 0 0 0 0 0 0 0 0 0 0 0 0 0 0 0 0 0 0 0 0 0 0 0 0 0 0 0 0 0 
0 0 0 0 0 0 0 0 0 0 0 0 0 0 0 0 0 0 0 0 0 0 0 0 0 0 0 0 0 0 0 0 0 0 0 0 0 0 0 0 0 0 0 0 0 0 0 0 0 0 0 0 0 0 0 0 0 0 0 0 0 0 0 0 0 0 0 0 0 0 0 0 0 0 0 0 0 0 0 0 0 0 0 0 0 0 0 0 0 0 
0 0 0 0 0 0 0 0 0 0 0 0 0 0 0 0 0 0 0 0 0 0 0 0 0 0 0 0 0 0 0 0 0 0 0 0 0 0 0 0 0 0 0 0 0 0 0 0 0 0 0 0 0 0 0 0 0 0 0 0 0 0 0 0 0 0 0 0 0 0 0 0 0 0 0 0 0 0 0 0 0 0 0 0 0 0 0 0 0 0 
0 0 0 0 0 0 0 0 0 0 0 0 0 0 0 0 0 0 0 0 0 0 0 0 0 0 0 0 0 0 0 0 0 0 0 0 0 0 0 0 0 0 0 0 0 0 0 0 0 0 0 0 0 0 0 0 0 0 0 0 0 0 0 0 0 0 0 0 0 0 0 0 0 0 0 0 0 0 0 0 0 0 0 0 0 0 0 0 0 0 
0 0 0 0 0 0 0 0 0 0 0 0 0 0 0 0 0 0 0 0 0 0 0 0 0 0 0 0 0 0 0 0 0 0 0 0 0 0 0 0 0 0 0 0 0 0 0 0 0 0 0 0 0 0 0 0 0 0 0 0 0 0 0 0 0 0 0 0 0 0 0 0 0 0 0 0 0 0 0 0 0 0 0 0 0 0 0 0 0 0 
0 0 0 0 0 0 0 0 0 0 0 0 0 0 0 0 0 0 0 0 0 0 0 0 0 0 0 0 0 0 0 0 0 0 0 0 0 0 0 0 0 0 0 0 0 0 0 0 0 0 0 0 0 0 0 0 0 0 0 0 0 0 0 0 0 0 0 0 0 0 0 0 0 0 0 0 0 0 0 0 0 0 0 0 0 0 0 0 0 0 
0 0 0 0 0 0 0 0 0 0 0 0 0 0 0 0 0 0 0 0 0 0 0 0 0 0 0 0 0 0 0 0 0 0 0 0 0 0 0 0 0 0 0 0 0 0 0 0 0 0 0 0 0 0 0 0 0 0 0 0 0 0 0 0 0 0 0 0 0 0 0 0 0 0 0 0 0 0 0 0 0 0 0 0 0 0 0 0 0 0 
0 0 0 0 0 0 0 0 0 0 0 0 0 0 0 0 0 0 0 0 0 0 0 0 0 0 0 0 0 0 0 0 0 0 0 0 0 0 0 0 0 0 0 0 0 0 0 0 0 0 0 0 0 0 0 0 0 0 0 0 0 0 0 0 0 0 0 0 0 0 0 0 0 0 0 0 0 0 0 0 0 0 0 0 0 0 0 0 0 0 
0 0 0 0 0 0 0 0 0 0 0 0 0 0 0 0 0 0 0 0 0 0 0 0 0 0 0 0 0 0 0 0 0 0 0 0 0 0 0 0 0 0 0 0 0 0 0 0 0 0 0 0 0 0 0 0 0 0 0 0 0 0 0 0 0 0 0 0 0 0 0 0 0 0 0 0 0 0 0 0 0 0 0 0 0 0 0 0 0 0 
0 0 0 0 0 0 0 0 0 0 0 0 0 0 0 0 0 0 0 0 0 0 0 0 0 0 0 0 0 0 0 0 0 0 0 0 0 0 0 0 0 0 0 0 0 0 0 0 0 0 0 0 0 0 0 0 0 0 0 0 0 0 0 0 0 0 0 0 0 0 0 0 0 0 0 0 0 0 0 0 0 0 0 0 0 0 0 0 0 0 
0 0 0 0 0 0 0 0 0 0 0 0 0 0 0 0 0 0 0 0 0 0 0 0 0 0 0 0 0 0 0 0 0 0 0 0 0 0 0 0 0 0 0 0 0 0 0 0 0 0 0 0 0 0 0 0 0 0 0 0 0 0 0 0 0 0 0 0 0 0 0 0 0 0 0 0 0 0 0 0 0 0 0 0 0 0 0 0 0 0 
0 0 0 0 0 0 0 0 0 0 0 0 0 0 0 0 0 0 0 0 0 0 0 0 0 0 0 0 0 0 0 0 0 0 0 0 0 0 0 0 0 0 0 0 0 0 0 0 0 0 0 0 0 0 0 0 0 0 0 0 0 0 0 0 0 0 0 0 0 0 0 0 0 0 0 0 0 0 0 0 0 0 0 0 0 0 0 0 0 0 
0 0 0 0 0 0 0 0 0 0 0 0 0 0 0 0 0 0 0 0 0 0 0 0 0 0 0 0 0 0 0 0 0 0 0 0 0 0 0 0 0 0 0 0 0 0 0 0 0 0 0 0 0 0 0 0 0 0 0 0 0 0 0 0 0 0 0 0 0 0 0 0 0 0 0 0 0 0 0 0 0 0 0 0 0 0 0 0 0 0 
0 0 0 0 0 0 0 0 0 0 0 0 0 0 0 0 0 0 0 0 0 0 0 0 0 0 0 0 0 0 0 0 0 0 0 0 0 0 0 0 0 0 0 0 0 0 0 0 0 0 0 0 0 0 0 0 0 0 0 0 0 0 0 0 0 0 0 0 0 0 0 0 0 0 0 0 0 0 0 0 0 0 0 0 0 0 0 0 0 0 
0 0 0 0 0 0 0 0 0 0 0 0 0 0 0 0 0 0 0 0 0 0 0 0 0 0 0 0 0 0 0 0 0 0 0 0 0 0 0 0 0 0 0 0 0 0 0 0 0 0 0 0 0 0 0 0 0 0 0 0 0 0 0 0 0 0 0 0 0 0 0 0 0 0 0 0 0 0 0 0 0 0 0 0 0 0 0 0 0 0 
0 0 0 0 0 0 0 0 0 0 0 0 0 0 0 0 0 0 0 0 0 0 0 0 0 0 0 0 0 0 0 0 0 0 0 0 0 0 0 0 0 0 0 0 0 0 0 0 0 1 1 1 1 0 0 0 0 0 0 0 0 0 0 0 0 0 0 0 0 0 0 0 0 0 0 0 0 0 0 0 0 0 0 0 0 0 0 0 0 0 
0 0 0 0 0 0 0 0 0 0 0 0 0 0 0 0 0 0 0 0 0 0 0 0 0 0 0 0 0 0 0 0 0 0 0 0 0 0 0 0 0 0 0 0 0 2 0 0 0 0 0 0 1 1 0 0 0 0 0 0 0 0 0 0 0 0 0 0 0 0 0 0 0 0 0 0 0 0 0 0 0 0 0 0 0 0 0 0 0 0 
0 0 0 0 0 0 0 0 0 0 0 0 0 0 0 0 0 0 0 0 0 0 0 0 0 0 0 0 1 1 0 0 0 0 0 0 1 0 1 1 1 0 1 0 2 1 1 1 0 1 1 0 0 0 1 1 3 0 0 0 0 0 0 0 0 0 0 0 0 0 0 0 0 0 0 0 0 0 0 0 0 0 0 0 0 0 0 0 0 0 
0 0 0 0 0 0 0 0 0 0 0 0 0 0 0 0 0 0 0 0 0 0 0 0 0 0 1 0 1 0 0 1 1 3 1 3 2 2 3 0 2 0 3 2 0 1 1 3 0 1 2 3 0 2 0 1 1 0 0 0 0 0 1 0 0 0 0 0 0 0 0 0 0 0 0 0 0 0 0 0 0 0 0 0 0 0 0 0 0 0 
0 0 0 0 0 0 0 0 0 0 0 0 0 0 0 0 0 0 0 0 0 0 1 0 0 1 1 2 1 0 1 1 2 2 3 3 2 4 4 3 4 11 6 7 5 6 6 4 5 8 2 5 3 3 3 4 0 2 2 3 1 0 2 0 0 2 0 0 1 0 0 0 0 0 0 0 0 0 0 0 0 0 0 0 0 0 0 0 0 0 
0 0 0 0 0 0 0 0 0 0 0 0 1 0 0 0 0 0 0 0 0 0 0 0 2 2 1 1 1 1 0 4 2 4 6 5 5 9 7 12 9 14 9 7 17 16 10 10 6 11 10 9 10 10 8 12 7 3 2 2 3 1 0 1 0 2 2 1 1 1 0 0 0 0 0 0 0 0 0 0 0 0 0 0 0 0 0 0 0 0 
0 0 0 0 0 0 0 0 0 0 0 0 0 0 0 0 0 0 0 1 1 1 1 2 2 3 1 6 5 4 8 12 7 11 15 16 17 12 23 18 19 21 29 23 32 33 24 19 27 17 27 12 14 15 12 12 13 13 12 6 5 7 2 3 3 2 1 1 0 0 0 1 0 0 0 0 0 0 0 0 0 0 0 0 0 0 0 0 0 0 
0 0 0 0 0 0 0 0 0 0 0 0 0 0 0 0 0 1 2 0 0 0 2 2 4 3 7 4 12 12 16 14 21 21 20 27 21 20 28 48 33 47 39 62 38 42 49 45 40 42 32 40 32 35 25 26 19 19 16 12 13 14 8 10 4 6 1 0 3 0 1 1 0 1 0 0 1 0 0 0 0 0 0 0 0 0 0 0 0 0 
0 0 0 0 0 0 0 0 0 0 0 0 0 1 0 1 0 1 3 0 2 5 6 4 5 6 13 13 15 20 22 26 21 49 45 47 55 68 61 81 69 88 94 96 77 97 82 97 99 72 74 61 54 51 51 46 41 29 31 26 22 11 19 14 4 13 5 5 1 2 0 1 0 1 0 0 0 0 0 1 0 0 0 0 0 0 0 0 0 0 
0 1 0 0 0 0 0 0 0 0 0 1 0 0 1 1 1 2 1 1 4 1 4 7 19 19 18 28 30 43 36 45 50 62 84 98 117 105 90 126 155 147 160 129 168 174 165 137 140 145 135 128 114 104 74 77 64 39 48 45 39 27 19 19 11 13 16 4 4 6 6 3 1 0 1 0 0 0 0 0 0 0 0 0 1 0 0 0 0 0 
0 0 0 0 0 0 0 0 0 0 0 0 1 1 0 0 1 2 2 8 10 9 13 20 21 26 30 47 46 54 68 75 96 134 142 154 173 172 200 224 264 244 281 260 265 237 230 264 236 214 236 209 196 192 121 132 122 105 97 82 60 50 49 26 29 24 17 14 15 9 5 1 3 1 2 1 0 1 0 0 0 0 0 0 0 0 0 0 0 0 
0 0 0 0 0 0 1 0 0 0 2 1 1 2 1 2 6 6 7 5 12 17 22 32 24 49 49 56 86 117 120 150 169 196 224 234 270 318 340 365 420 379 434 450 437 428 417 434 411 350 346 320 314 273 224 221 211 149 157 107 106 83 60 59 46 39 27 16 17 9 9 4 3 8 2 1 2 2 0 0 0 0 0 0 0 0 0 0 0 0 
0 0 0 0 0 0 0 0 0 0 0 0 2 0 0 3 2 8 3 8 15 27 36 36 58 64 91 81 123 158 208 201 273 304 359 366 447 465 531 542 560 599 666 653 640 656 641 630 596 559 595 548 446 413 382 343 283 254 201 168 153 128 109 70 50 49 33 27 23 20 10 7 7 13 3 3 4 1 1 1 1 0 0 0 0 0 0 0 0 0 
0 0 0 0 0 0 0 0 0 1 0 3 2 2 5 5 9 6 14 12 20 42 45 46 69 79 138 149 179 222 237 327 380 458 496 555 641 736 780 827 824 946 926 959 1006 935 953 976 900 861 840 744 719 607 547 485 432 382 331 272 236 188 172 128 102 58 51 56 38 32 19 16 7 12 5 4 3 2 0 1 0 0 0 0 0 0 0 0 0 0 
0 0 0 0 0 0 0 0 0 0 0 1 2 1 6 8 15 12 14 25 37 35 78 81 134 134 181 221 293 318 387 473 533 622 711 813 889 988 1095 1121 1287 1244 1358 1380 1360 1372 1457 1344 1235 1271 1176 1106 1016 945 736 725 633 518 483 399 335 280 215 146 141 104 94 65 51 44 17 25 10 15 9 4 0 1 0 1 0 1 1 0 0 0 0 0 0 0 
0 0 0 0 0 0 0 0 0 0 2 3 6 6 3 6 6 25 29 40 48 53 86 126 155 162 250 267 349 413 536 580 711 843 986 1089 1274 1276 1408 1582 1601 1719 1715 1763 1783 1852 1778 1907 1774 1627 1563 1470 1302 1185 1085 942 794 700 591 496 472 328 287 226 213 137 130 77 56 39 32 24 19 26 11 8 1 4 2 1 1 0 1 0 0 0 0 0 0 0 
0 0 0 0 0 1 1 0 0 0 1 4 1 4 4 11 18 18 43 50 70 85 108 143 151 238 290 349 464 548 677 793 920 1104 1229 1370 1559 1736 1801 1964 2084 2163 2319 2324 2359 2375 2304 2261 2221 2162 2032 1783 1706 1573 1340 1193 1019 926 757 627 583 459 394 314 209 169 135 99 59 71 37 38 13 17 9 7 7 5 2 4 1 0 0 0 0 0 0 0 0 1 
1 0 0 0 0 0 1 2 1 1 2 0 6 5 10 15 29 32 48 63 72 89 128 181 228 281 329 450 539 698 780 962 1043 1316 1478 1730 1891 1979 2144 2353 2390 2570 2748 2902 2885 2834 2881 2734 2660 2468 2338 2314 2106 1876 1644 1449 1272 1098 953 829 667 532 451 355 280 232 183 116 93 68 48 49 24 22 15 13 4 3 1 2 0 0 1 0 0 0 0 0 0 0 
0 0 0 0 1 0 0 0 0 3 1 3 4 8 11 15 27 36 36 68 97 101 149 203 251 320 444 534 658 783 924 1086 1280 1494 1652 1918 2179 2336 2613 2732 2958 3089 3166 3318 3305 3387 3243 3167 3093 2825 2749 2603 2395 2191 1847 1692 1513 1274 1097 950 781 611 525 407 333 250 209 167 102 82 62 51 50 34 20 18 4 2 5 1 1 0 0 0 0 0 0 0 0 0 
0 0 0 0 1 0 2 0 0 1 3 3 4 8 12 23 22 36 47 78 97 121 162 231 283 381 442 570 726 852 1012 1160 1421 1656 1839 2083 2373 2591 2872 3007 3350 3431 3534 3590 3539 3556 3641 3451 3395 3307 3066 2889 2559 2269 2181 1835 1660 1405 1172 1015 879 709 542 401 339 283 203 159 119 93 67 50 36 17 17 16 9 5 2 2 1 2 2 0 1 0 0 0 0 0 
0 0 0 0 0 0 0 0 3 0 2 6 6 12 8 22 32 26 55 76 97 148 175 250 300 369 506 566 720 817 1121 1205 1451 1722 1958 2241 2465 2730 2992 3296 3481 3705 3711 3835 3842 3914 3792 3781 3556 3332 3289 2949 2679 2585 2126 2024 1724 1519 1229 1018 913 741 599 484 365 275 244 186 128 105 74 60 40 29 12 11 11 7 4 5 0 1 1 2 0 1 0 0 0 0 
0 0 0 0 0 0 0 2 1 0 2 1 2 5 14 21 24 28 57 72 127 145 198 254 303 382 472 572 775 878 1064 1308 1506 1676 1940 2140 2492 2821 2876 3149 3432 3572 3659 3811 3867 3960 3723 3812 3590 3434 3108 3008 2710 2505 2261 1944 1718 1480 1259 1105 890 716 567 452 414 292 242 186 156 105 83 61 31 33 15 12 9 7 6 1 3 0 0 0 0 0 0 0 0 0 
0 0 0 0 0 0 0 3 2 1 4 5 9 12 9 23 33 31 52 72 90 129 167 220 286 332 452 548 682 823 1025 1203 1383 1680 1919 2164 2381 2603 2845 3153 3185 3381 3598 3707 3656 3645 3584 3592 3337 3256 2965 2866 2618 2314 2044 1864 1658 1415 1194 1035 829 697 530 493 351 288 235 165 131 105 73 39 28 30 17 17 10 5 7 3 0 1 1 0 0 0 0 0 0 0 
0 0 0 1 0 0 0 0 1 4 1 5 8 11 15 18 29 26 41 53 91 110 160 185 252 304 405 532 669 728 884 1147 1212 1481 1643 1988 2133 2436 2600 2650 2833 3068 3220 3266 3307 3346 3329 3208 3118 2886 2753 2647 2410 2160 1899 1691 1506 1275 1097 916 793 619 564 408 317 261 200 139 121 85 79 37 25 29 13 10 8 6 1 3 0 1 2 0 0 0 0 0 0 0 
0 0 0 0 0 0 0 0 0 1 5 2 7 7 12 19 16 35 41 46 80 101 134 181 233 277 351 465 549 668 797 983 1169 1286 1552 1628 1809 2091 2293 2434 2646 2627 2856 2920 2903 2873 2912 2762 2617 2487 2419 2211 2093 1838 1681 1448 1276 1097 932 823 668 550 477 362 308 188 183 128 102 75 74 35 28 23 20 8 6 4 4 2 3 1 1 0 0 0 1 0 0 0 
0 0 0 0 0 0 0 0 0 0 1 4 6 5 7 13 20 22 33 35 65 79 109 126 173 211 307 377 480 556 661 790 880 1001 1280 1351 1512 1642 1881 1970 2221 2181 2321 2378 2386 2425 2321 2274 2175 2114 1993 1765 1685 1566 1385 1279 1053 930 779 653 553 451 353 293 236 177 156 115 61 53 54 34 19 14 5 4 6 3 1 0 0 0 1 0 0 0 0 0 0 0 
0 0 0 0 0 0 0 0 1 1 1 1 4 5 6 8 8 20 24 33 43 50 66 111 154 182 221 285 344 386 527 605 693 829 949 1084 1211 1247 1412 1510 1597 1672 1838 1732 1838 1888 1845 1813 1754 1669 1542 1451 1312 1269 1103 939 788 683 614 553 402 342 314 248 184 130 99 94 64 44 40 29 21 11 8 7 4 3 2 2 0 0 1 0 0 0 0 0 0 0 
0 0 0 0 0 0 0 0 0 2 2 0 1 2 10 7 8 14 15 27 31 48 54 79 119 137 162 196 279 319 346 442 540 618 709 771 879 969 1047 1136 1202 1276 1315 1405 1404 1367 1413 1362 1298 1256 1122 1084 993 936 815 715 633 486 451 376 313 245 197 171 126 96 74 55 64 33 27 22 19 14 11 3 3 3 2 3 1 0 1 0 0 0 0 0 0 0 
0 0 0 0 0 1 0 0 0 0 1 3 4 1 6 3 13 9 14 19 26 27 41 56 74 115 135 175 164 236 263 294 400 450 464 573 636 680 730 823 837 915 958 985 1006 944 1022 979 931 854 836 701 735 620 594 476 444 382 312 287 221 188 153 147 87 78 56 44 36 15 18 16 7 8 6 4 2 1 0 0 0 0 0 0 0 0 0 1 0 0 
0 0 0 0 0 0 0 0 0 0 0 1 0 0 3 2 6 12 9 14 24 18 34 52 54 55 86 101 108 133 187 221 242 296 373 364 410 440 498 560 577 618 690 653 645 670 623 620 598 587 541 486 488 445 388 354 303 269 244 182 181 112 81 88 70 52 38 24 22 14 14 9 7 6 7 2 5 0 1 1 1 0 0 1 0 0 0 0 0 0 
0 0 0 0 0 0 0 0 0 0 0 0 1 2 3 2 2 5 6 12 15 22 18 30 32 48 61 66 81 94 105 119 162 208 209 242 284 318 342 346 378 389 429 438 421 439 437 410 371 398 363 336 317 278 249 215 206 140 136 119 110 72 58 59 49 36 28 28 15 11 10 9 6 4 4 0 1 1 0 0 0 0 0 0 0 0 0 0 0 0 
0 0 0 0 0 0 1 0 0 0 0 0 0 1 0 2 1 0 1 6 5 8 12 19 19 23 34 39 55 63 65 70 105 122 135 137 166 208 203 236 219 266 266 240 295 279 253 261 245 254 225 186 211 177 147 127 103 86 78 71 64 54 28 41 19 19 18 9 13 4 3 3 3 2 1 0 0 0 0 0 0 0 0 0 0 0 0 0 0 0 
0 0 0 0 0 0 0 0 0 1 1 0 0 1 0 0 0 0 3 7 5 3 1 6 8 12 17 23 24 35 52 44 62 73 79 97 105 104 112 129 157 145 169 135 151 134 169 156 154 158 133 128 103 106 94 82 74 62 57 47 32 21 24 12 8 8 6 16 5 5 3 6 3 1 0 1 0 1 0 0 0 0 0 0 0 0 0 0 0 0 
0 0 0 0 0 0 0 0 0 0 0 0 0 0 1 2 0 2 0 3 0 2 4 2 5 9 11 15 11 23 24 32 35 37 46 53 54 55 76 76 76 82 100 70 83 72 92 86 79 82 67 57 59 46 52 40 28 30 28 19 16 20 12 17 11 7 3 5 2 3 1 1 0 0 0 1 0 0 0 0 0 0 0 0 0 0 0 0 0 0 
0 0 0 0 0 0 0 0 0 0 1 0 0 0 0 0 1 1 1 0 1 1 1 2 4 6 1 11 11 9 10 17 23 21 26 33 25 25 33 39 33 46 40 33 34 56 47 42 44 45 33 45 43 18 19 17 29 21 9 9 12 7 2 3 2 8 4 3 1 1 1 0 0 1 0 0 0 0 0 0 0 0 0 0 0 0 0 0 0 0 
0 0 0 0 0 0 0 0 0 0 0 0 0 0 0 0 0 1 0 0 1 1 1 2 2 0 3 4 5 4 2 9 10 6 15 14 15 26 19 23 19 26 26 24 22 16 14 12 24 20 10 18 12 11 7 9 6 7 9 11 8 2 0 6 3 1 1 1 0 0 1 0 0 0 0 0 0 0 0 0 0 0 0 0 0 0 0 0 0 0 
0 0 0 0 0 0 0 0 0 0 0 0 0 0 0 0 0 0 0 0 1 0 0 0 1 1 1 0 3 4 1 4 5 1 3 7 9 8 7 3 9 7 10 12 9 12 13 12 12 11 7 6 10 9 4 4 3 3 2 4 1 1 1 2 1 0 0 1 0 0 0 0 0 0 0 1 1 0 0 0 0 0 0 0 0 0 0 0 0 0 
0 0 0 0 0 0 0 0 0 0 0 0 0 0 0 0 0 0 0 1 0 1 0 0 0 0 2 0 0 2 1 0 1 3 4 4 4 2 2 2 3 6 5 8 7 5 3 7 4 5 7 1 6 1 2 4 5 1 2 1 0 0 1 0 1 0 0 0 1 0 0 0 0 0 0 0 0 0 0 0 0 0 0 0 0 0 0 0 0 0 
0 0 0 0 0 0 0 0 0 0 0 0 0 0 0 0 0 0 0 0 0 0 0 0 0 0 0 0 1 1 1 1 1 0 4 1 1 3 2 1 2 1 0 6 0 3 2 0 3 1 1 4 1 1 4 2 1 1 0 2 0 0 1 1 0 0 0 0 0 0 0 0 0 0 0 0 0 0 0 0 0 0 0 0 0 0 0 0 0 0 
0 0 0 0 0 0 0 0 0 0 0 0 0 0 0 0 0 0 0 0 0 1 0 0 0 1 0 0 0 0 0 0 0 0 0 0 2 0 2 2 1 4 0 2 0 0 1 0 2 1 0 0 2 0 0 1 0 1 0 0 0 0 0 0 0 0 0 0 0 0 0 0 0 0 0 0 0 0 0 0 0 0 0 0 0 0 0 0 0 0 
0 0 0 0 0 0 0 0 0 0 0 0 0 0 0 0 0 0 0 0 0 0 0 0 0 0 1 0 0 0 0 0 0 0 0 1 1 0 0 0 2 0 2 0 0 1 0 0 1 2 0 0 0 1 1 0 0 0 0 0 0 0 0 0 0 0 0 0 0 0 0 0 0 0 0 0 0 0 0 0 0 0 0 0 0 0 0 0 0 0 
0 0 0 0 0 0 0 0 0 0 0 0 0 0 0 0 0 0 0 0 0 0 0 0 0 0 0 0 0 0 0 0 1 0 0 0 0 0 0 0 0 0 0 0 0 1 0 0 1 1 0 0 0 0 0 0 0 0 0 0 0 0 0 0 0 0 0 0 0 0 0 0 0 0 0 0 0 0 0 0 0 0 0 0 0 0 0 0 0 0 
0 0 0 0 0 0 0 0 0 0 0 0 0 0 0 0 0 0 0 0 0 0 0 0 0 0 0 0 0 0 0 0 0 0 0 0 0 0 0 0 0 0 0 1 0 0 0 0 0 0 0 0 0 0 0 0 0 0 0 0 0 0 0 0 0 0 0 0 0 0 0 0 0 0 0 0 0 0 0 0 0 0 0 0 0 0 0 0 0 0 
0 0 0 0 0 0 0 0 0 0 0 0 0 0 0 0 0 0 0 0 0 0 0 0 0 0 0 0 0 0 0 0 0 0 0 0 0 0 0 0 0 0 0 0 0 0 0 0 0 0 0 0 0 0 0 0 0 0 0 0 0 0 0 0 0 0 0 0 0 0 0 0 0 0 0 0 0 0 0 0 0 0 0 0 0 0 0 0 0 0 
0 0 0 0 0 0 0 0 0 0 0 0 0 0 0 0 0 0 0 0 0 0 0 0 0 0 0 0 0 0 0 0 0 0 0 0 0 0 0 0 0 0 0 0 0 0 0 0 0 0 0 0 0 0 0 0 0 0 0 0 0 0 0 0 0 0 0 0 0 0 0 0 0 0 0 0 0 0 0 0 0 0 0 0 0 0 0 0 0 0 
0 0 0 0 0 0 0 0 0 0 0 0 0 0 0 0 0 0 0 0 0 0 0 0 0 0 0 0 0 0 0 0 0 0 0 0 0 0 0 0 0 0 0 0 0 0 0 0 0 0 0 0 0 0 0 0 0 0 0 0 0 0 0 0 0 0 0 0 0 0 0 0 0 0 0 0 0 0 0 0 0 0 0 0 0 0 0 0 0 0 
0 0 0 0 0 0 0 0 0 0 0 0 0 0 0 0 0 0 0 0 0 0 0 0 0 0 0 0 0 0 0 0 0 0 0 0 0 0 0 0 0 0 0 0 0 0 0 0 0 0 0 0 0 0 0 0 0 0 0 0 0 0 0 0 0 0 0 0 0 0 0 0 0 0 0 0 0 0 0 0 0 0 0 0 0 0 0 0 0 0 
0 0 0 0 0 0 0 0 0 0 0 0 0 0 0 0 0 0 0 0 0 0 0 0 0 0 0 0 0 0 0 0 0 0 0 0 0 0 0 0 0 0 0 0 0 0 0 0 0 0 0 0 0 0 0 0 0 0 0 0 0 0 0 0 0 0 0 0 0 0 0 0 0 0 0 0 0 0 0 0 0 0 0 0 0 0 0 0 0 0 
0 0 0 0 0 0 0 0 0 0 0 0 0 0 0 0 0 0 0 0 0 0 0 0 0 0 0 0 0 0 0 0 0 0 0 0 0 0 0 0 0 0 0 0 0 0 0 0 0 0 0 0 0 0 0 0 0 0 0 0 0 0 0 0 0 0 0 0 0 0 0 0 0 0 0 0 0 0 0 0 0 0 0 0 0 0 0 0 0 0 
0 0 0 0 0 0 0 0 0 0 0 0 0 0 0 0 0 0 0 0 0 0 0 0 0 0 0 0 0 0 0 0 0 0 0 0 0 0 0 0 0 0 0 0 0 0 0 0 0 0 0 0 0 0 0 0 0 0 0 0 0 0 0 0 0 0 0 0 0 0 0 0 0 0 0 0 0 0 0 0 0 0 0 0 0 0 0 0 0 0 
0 0 0 0 0 0 0 0 0 0 0 0 0 0 0 0 0 0 0 0 0 0 0 0 0 0 0 0 0 0 0 0 0 0 0 0 0 0 0 0 0 0 0 0 0 0 0 0 0 0 0 0 0 0 0 0 0 0 0 0 0 0 0 0 0 0 0 0 0 0 0 0 0 0 0 0 0 0 0 0 0 0 0 0 0 0 0 0 0 0 
0 0 0 0 0 0 0 0 0 0 0 0 0 0 0 0 0 0 0 0 0 0 0 0 0 0 0 0 0 0 0 0 0 0 0 0 0 0 0 0 0 0 0 0 0 0 0 0 0 0 0 0 0 0 0 0 0 0 0 0 0 0 0 0 0 0 0 0 0 0 0 0 0 0 0 0 0 0 0 0 0 0 0 0 0 0 0 0 0 0 
0 0 0 0 0 0 0 0 0 0 0 0 0 0 0 0 0 0 0 0 0 0 0 0 0 0 0 0 0 0 0 0 0 0 0 0 0 0 0 0 0 0 0 0 0 0 0 0 0 0 0 0 0 0 0 0 0 0 0 0 0 0 0 0 0 0 0 0 0 0 0 0 0 0 0 0 0 0 0 0 0 0 0 0 0 0 0 0 0 0 
0 0 0 0 0 0 0 0 0 0 0 0 0 0 0 0 0 0 0 0 0 0 0 0 0 0 0 0 0 0 0 0 0 0 0 0 0 0 0 0 0 0 0 0 0 0 0 0 0 0 0 0 0 0 0 0 0 0 0 0 0 0 0 0 0 0 0 0 0 0 0 0 0 0 0 0 0 0 0 0 0 0 0 0 0 0 0 0 0 0 
0 0 0 0 0 0 0 0 0 0 0 0 0 0 0 0 0 0 0 0 0 0 0 0 0 0 0 0 0 0 0 0 0 0 0 0 0 0 0 0 0 0 0 0 0 0 0 0 0 0 0 0 0 0 0 0 0 0 0 0 0 0 0 0 0 0 0 0 0 0 0 0 0 0 0 0 0 0 0 0 0 0 0 0 0 0 0 0 0 0 
0 0 0 0 0 0 0 0 0 0 0 0 0 0 0 0 0 0 0 0 0 0 0 0 0 0 0 0 0 0 0 0 0 0 0 0 0 0 0 0 0 0 0 0 0 0 0 0 0 0 0 0 0 0 0 0 0 0 0 0 0 0 0 0 0 0 0 0 0 0 0 0 0 0 0 0 0 0 0 0 0 0 0 0 0 0 0 0 0 0 
0 0 0 0 0 0 0 0 0 0 0 0 0 0 0 0 0 0 0 0 0 0 0 0 0 0 0 0 0 0 0 0 0 0 0 0 0 0 0 0 0 0 0 0 0 0 0 0 0 0 0 0 0 0 0 0 0 0 0 0 0 0 0 0 0 0 0 0 0 0 0 0 0 0 0 0 0 0 0 0 0 0 0 0 0 0 0 0 0 0 
0 0 0 0 0 0 0 0 0 0 0 0 0 0 0 0 0 0 0 0 0 0 0 0 0 0 0 0 0 0 0 0 0 0 0 0 0 0 0 0 0 0 0 0 0 0 0 0 0 0 0 0 0 0 0 0 0 0 0 0 0 0 0 0 0 0 0 0 0 0 0 0 0 0 0 0 0 0 0 0 0 0 0 0 0 0 0 0 0 0 
0 0 0 0 0 0 0 0 0 0 0 0 0 0 0 0 0 0 0 0 0 0 0 0 0 0 0 0 0 0 0 0 0 0 0 0 0 0 0 0 0 0 0 0 0 0 0 0 0 0 0 0 0 0 0 0 0 0 0 0 0 0 0 0 0 0 0 0 0 0 0 0 0 0 0 0 0 0 0 0 0 0 0 0 0 0 0 0 0 0 
0 0 0 0 0 0 0 0 0 0 0 0 0 0 0 0 0 0 0 0 0 0 0 0 0 0 0 0 0 0 0 0 0 0 0 0 0 0 0 0 0 0 0 0 0 0 0 0 0 0 0 0 0 0 0 0 0 0 0 0 0 0 0 0 0 0 0 0 0 0 0 0 0 0 0 0 0 0 0 0 0 0 0 0 0 0 0 0 0 0 
0 0 0 0 0 0 0 0 0 0 0 0 0 0 0 0 0 0 0 0 0 0 0 0 0 0 0 0 0 0 0 0 0 0 0 0 0 0 0 0 0 0 0 0 0 0 0 0 0 0 0 0 0 0 0 0 0 0 0 0 0 0 0 0 0 0 0 0 0 0 0 0 0 0 0 0 0 0 0 0 0 0 0 0 0 0 0 0 0 0 
0 0 0 0 0 0 0 0 0 0 0 0 0 0 0 0 0 0 0 0 0 0 0 0 0 0 0 0 0 0 0 0 0 0 0 0 0 0 0 0 0 0 0 0 0 0 0 0 0 0 0 0 0 0 0 0 0 0 0 0 0 0 0 0 0 0 0 0 0 0 0 0 0 0 0 0 0 0 0 0 0 0 0 0 0 0 0 0 0 0 
0 0 0 0 0 0 0 0 0 0 0 0 0 0 0 0 0 0 0 0 0 0 0 0 0 0 0 0 0 0 0 0 0 0 0 0 0 0 0 0 0 0 0 0 0 0 0 0 0 0 0 0 0 0 0 0 0 0 0 0 0 0 0 0 0 0 0 0 0 0 0 0 0 0 0 0 0 0 0 0 0 0 0 0 0 0 0 0 0 0 
0 0 0 0 0 0 0 0 0 0 0 0 0 0 0 0 0 0 0 0 0 0 0 0 0 0 0 0 0 0 0 0 0 0 0 0 0 0 0 0 0 0 0 0 0 0 0 0 0 0 0 0 0 0 0 0 0 0 0 0 0 0 0 0 0 0 0 0 0 0 0 0 0 0 0 0 0 0 0 0 0 0 0 0 0 0 0 0 0 0 
0 0 0 0 0 0 0 0 0 0 0 0 0 0 0 0 0 0 0 0 0 0 0 0 0 0 0 0 0 0 0 0 0 0 0 0 0 0 0 0 0 0 0 0 0 0 0 0 0 0 0 0 0 0 0 0 0 0 0 0 0 0 0 0 0 0 0 0 0 0 0 0 0 0 0 0 0 0 0 0 0 0 0 0 0 0 0 0 0 0 
0 0 0 0 0 0 0 0 0 0 0 0 0 0 0 0 0 0 0 0 0 0 0 0 0 0 0 0 0 0 0 0 0 0 0 0 0 0 0 0 0 0 0 0 0 0 0 0 0 0 0 0 0 0 0 0 0 0 0 0 0 0 0 0 0 0 0 0 0 0 0 0 0 0 0 0 0 0 0 0 0 0 0 0 0 0 0 0 0 0 
# EndDate:Thu Jan 24 13:31:34 2013
