# Format: McStas with text headers file. Use mcplot/PGPLOT to view.
# URL:    http://www.mccode.org/
# Editor: erkn on localhost
# Creator:Test_src_gaussian (Test_src_gaussian.instr) simulation (McXtrace x.y.z - Jan. 22, 2013)
# Date:   Simulation started (1360083160) Tue Feb  5 17:52:40 2013
# File:   emon02.dat
# Ncount: 1e+06
# Trace: no
# Gravitation: no
# Seed: 1360083154
# Param: XW=0
# Param: YH=0
# Param: DIST=10
# Param: SRC=3
# Param: E0=9.9
# type: array_1d(100)
# Source: Test_src_gaussian.instr
# component: emon02
# position: 0 0 0.09
# title: Energy monitor
# Ncount: 1e+06
# filename: emon02.dat
# format: McStas with text headers
# statistics: X0=8.9531; dX=0.0891411;
# signal: Min=2.92747e+15; Max=3.59679e+19; Mean=1.67037e+18;
# values: 1.67037e+20 6.05118e+17 1e+06
# xvar: E
# yvar: (I,I_err)
# xlabel: Energy [keV]
# ylabel: Intensity
# xlimits: 8 10
# variables: E I I_err N
# Data [emon02_dat/emon02.dat] I: 
8.01 2.97526526378e+16 3.02381495663e+14 9685 
8.03 3.2373116975e+16 3.25776163438e+14 9878 
8.05 3.45629049404e+16 3.46964060377e+14 9926 
8.07 3.70603459427e+16 3.69561785831e+14 10059 
8.09 3.87282423816e+16 3.88005790482e+14 9965 
8.11 4.05856764321e+16 4.07096615777e+14 9941 
8.13 4.26708754575e+16 4.26914190817e+14 9992 
8.15 4.3782487291e+16 4.41896412905e+14 9818 
8.17 4.614068382e+16 4.63061310904e+14 9930 
8.19 4.86328426122e+16 4.84857604744e+14 10062 
8.21 4.89146440115e+16 4.92360181231e+14 9870 
8.23 5.05397973328e+16 5.03441312128e+14 10078 
8.25 5.14105106145e+16 5.10748120063e+14 10132 
8.27 5.11075361885e+16 5.12180520049e+14 9957 
8.29 5.25147092128e+16 5.22130262985e+14 10116 
8.31 5.24731283234e+16 5.19731882663e+14 10194 
8.33 5.0485912614e+16 5.02396507007e+14 10099 
8.35 4.86791914681e+16 4.86057560764e+14 10031 
8.37 4.68783931225e+16 4.69766351427e+14 9959 
8.39 4.56314317654e+16 4.56265145378e+14 10003 
8.41 4.2918677915e+16 4.29876748268e+14 9974 
8.43 3.96824335892e+16 3.95293553707e+14 10085 
8.45 3.49446406412e+16 3.53097582139e+14 9803 
8.47 3.2025210192e+16 3.20344743492e+14 10005 
8.49 2.83988490875e+16 2.83912736719e+14 10019 
8.51 2.72884382162e+16 2.72502937414e+14 10030 
8.53 2.8983373012e+16 2.87511212615e+14 10164 
8.55 2.98209024072e+16 2.98247516414e+14 9999 
8.57 3.13079407896e+16 3.12198233972e+14 10058 
8.59 3.17655283234e+16 3.20950680948e+14 9797 
8.61 5.61050124568e+16 5.76884740929e+14 9995 
8.63 1.0272198226e+17 1.03444594226e+15 10024 
8.65 1.4586415974e+17 1.47797223874e+15 9818 
8.67 1.90185056628e+17 1.9255437916e+15 9801 
8.69 2.36480584962e+17 2.38425867103e+15 9867 
8.71 3.87094401044e+17 3.9331278475e+15 10022 
8.73 6.35381706318e+17 6.3906483647e+15 10011 
8.75 8.69145237446e+17 8.77166610252e+15 9882 
8.77 1.12257283776e+18 1.12645061841e+16 9970 
8.79 1.40548769646e+18 1.3897879932e+16 10254 
8.81 1.89815859972e+18 1.8888111672e+16 10230 
8.83 2.57874026626e+18 2.58597167146e+16 10008 
8.85 3.43444458132e+18 3.41167541091e+16 10208 
8.87 4.51796103574e+18 4.57141969311e+16 9842 
8.89 6.46296184727e+18 6.45552231744e+16 10106 
8.91 8.84766716509e+18 8.93199746198e+16 9914 
8.93 1.2874479582e+19 1.28931073121e+17 10083 
8.95 1.89410033928e+19 1.91076386938e+17 9985 
8.97 2.95805519756e+19 2.97304494311e+17 10032 
8.99 3.59678906362e+19 3.62934372891e+17 9824 
9.01 2.59730845113e+19 2.62699987073e+17 10165 
9.03 6.41301920324e+18 8.21216008898e+16 9778 
9.05 1.44193565539e+18 1.49333248141e+16 9773 
9.07 5.62177157322e+17 6.06364986864e+15 9861 
9.09 2.36311463334e+17 2.40438298427e+15 9866 
9.11 1.60397138908e+17 1.60240882218e+15 10068 
9.13 1.20811162601e+17 1.21310398722e+15 10001 
9.15 8.55701035953e+16 8.58803613822e+14 10009 
9.17 6.78054177494e+16 6.83759953544e+14 9866 
9.19 5.45594365528e+16 5.49680600025e+14 9902 
9.21 4.48444164298e+16 4.53100833514e+14 9806 
9.23 4.03787826928e+16 4.04949763354e+14 9956 
9.25 3.60520879293e+16 3.5794628342e+14 10162 
9.27 2.98849048478e+16 3.01499653011e+14 9848 
9.29 2.56585947437e+16 2.55338857432e+14 10132 
9.31 2.19964400502e+16 2.19050019298e+14 10090 
9.33 2.01685397104e+16 2.00471525123e+14 10129 
9.35 1.81178762135e+16 1.80772948819e+14 10054 
9.37 1.62036039728e+16 1.61859702705e+14 10033 
9.39 1.4178445607e+16 1.42358016792e+14 9934 
9.41 1.29710180285e+16 1.29362505701e+14 10058 
9.43 1.21539820733e+16 1.20797504387e+14 10128 
9.45 1.11736585578e+16 1.11405945703e+14 10065 
9.47 1.01703959194e+16 1.01894195276e+14 9969 
9.49 9.39594263323e+15 9.35887821767e+13 10087 
9.51 8.71230053713e+15 8.66726639289e+13 10107 
9.53 8.10473551462e+15 8.11451310354e+13 9979 
9.55 7.65279454474e+15 7.64111687468e+13 10034 
9.57 7.10151459707e+15 7.11966121327e+13 9953 
9.59 6.77982381903e+15 6.71388625703e+13 10202 
9.61 6.20579724628e+15 6.2279264799e+13 9931 
9.63 6.01803372415e+15 5.98436009831e+13 10115 
9.65 5.66754452423e+15 5.65915944003e+13 10032 
9.67 5.30772034781e+15 5.33083526057e+13 9916 
9.69 5.05479181839e+15 5.05703023657e+13 9994 
9.71 4.82157053646e+15 4.81755217719e+13 10018 
9.73 4.6614582017e+15 4.64232540718e+13 10084 
9.75 4.54916168577e+15 4.49083920863e+13 10263 
9.77 4.25249976935e+15 4.24797102041e+13 10023 
9.79 4.02185465153e+15 4.03799533464e+13 9922 
9.81 3.87542910679e+15 3.88649490792e+13 9944 
9.83 3.78593217814e+15 3.77855373369e+13 10040 
9.85 3.69874444635e+15 3.67239853834e+13 10145 
9.87 3.47304269108e+15 3.49726197033e+13 9863 
9.89 3.38390224042e+15 3.39070851656e+13 9961 
9.91 3.37075661315e+15 3.33192606694e+13 10235 
9.93 3.24984911633e+15 3.22949927657e+13 10127 
9.95 3.12557676298e+15 3.12567007992e+13 10000 
9.97 3.03459782135e+15 3.03864509993e+13 9974 
9.99 2.92746768564e+15 2.9433519655e+13 9893 
# EndDate:Tue Feb  5 17:52:40 2013
