# Format: McStas with text headers file. Use mcplot/PGPLOT to view.
# URL:    http://www.mccode.org/
# Editor: erkn on localhost
# Creator:Test_src_gaussian (Test_src_gaussian.instr) simulation (McXtrace x.y.z - Jan. 22, 2013)
# Date:   Simulation started (1360083064) Tue Feb  5 17:51:04 2013
# File:   emon2.dat
# Ncount: 1e+06
# Trace: no
# Gravitation: no
# Seed: 1360083058
# Param: XW=0
# Param: YH=0
# Param: DIST=10
# Param: SRC=3
# Param: E0=6.7
# type: array_1d(100)
# Source: Test_src_gaussian.instr
# component: emon2
# position: 0 0 10.001
# title: Energy monitor
# Ncount: 1e+06
# filename: emon2.dat
# format: McStas with text headers
# statistics: X0=8.93385; dX=0.111371;
# signal: Min=0; Max=1.58583e+18; Mean=2.13069e+16;
# values: 2.13069e+18 6.87919e+16 12633
# xvar: E
# yvar: (I,I_err)
# xlabel: Energy [keV]
# ylabel: Intensity
# xlimits: 0 20
# variables: E I I_err N
# Data [emon2_dat/emon2.dat] I: 
0.1 0 0 0 
0.3 0 0 0 
0.5 0 0 0 
0.7 0 0 0 
0.9 0 0 0 
1.1 0 0 0 
1.3 0 0 0 
1.5 0 0 0 
1.7 0 0 0 
1.9 0 0 0 
2.1 0 0 0 
2.3 0 0 0 
2.5 0 0 0 
2.7 0 0 0 
2.9 0 0 0 
3.1 0 0 0 
3.3 0 0 0 
3.5 0 0 0 
3.7 0 0 0 
3.9 0 0 0 
4.1 0 0 0 
4.3 0 0 0 
4.5 0 0 0 
4.7 0 0 0 
4.9 0 0 0 
5.1 0 0 0 
5.3 0 0 0 
5.5 0 0 0 
5.7 0 0 0 
5.9 0 0 0 
6.1 0 0 0 
6.3 0 0 0 
6.5 0 0 0 
6.7 0 0 0 
6.9 0 0 0 
7.1 0 0 0 
7.3 0 0 0 
7.5 0 0 0 
7.7 0 0 0 
7.9 0 0 0 
8.1 4.9576886702e+15 1.4155155912e+14 1252 
8.3 6.30373445256e+15 1.77021958972e+14 1270 
8.5 4.14950894299e+15 1.17646776577e+14 1272 
8.7 6.56016731963e+16 2.42478967099e+15 1288 
8.9 1.58583302459e+18 6.11085742436e+16 1234 
9.1 4.58189504396e+17 3.15246820112e+16 1250 
9.3 3.43129083304e+15 1.03122603183e+14 1266 
9.5 1.13858810787e+15 3.34179557679e+13 1214 
9.7 6.50304853385e+14 1.82501038272e+13 1295 
9.9 4.36276012825e+14 1.21860478691e+13 1292 
10.1 0 0 0 
10.3 0 0 0 
10.5 0 0 0 
10.7 0 0 0 
10.9 0 0 0 
11.1 0 0 0 
11.3 0 0 0 
11.5 0 0 0 
11.7 0 0 0 
11.9 0 0 0 
12.1 0 0 0 
12.3 0 0 0 
12.5 0 0 0 
12.7 0 0 0 
12.9 0 0 0 
13.1 0 0 0 
13.3 0 0 0 
13.5 0 0 0 
13.7 0 0 0 
13.9 0 0 0 
14.1 0 0 0 
14.3 0 0 0 
14.5 0 0 0 
14.7 0 0 0 
14.9 0 0 0 
15.1 0 0 0 
15.3 0 0 0 
15.5 0 0 0 
15.7 0 0 0 
15.9 0 0 0 
16.1 0 0 0 
16.3 0 0 0 
16.5 0 0 0 
16.7 0 0 0 
16.9 0 0 0 
17.1 0 0 0 
17.3 0 0 0 
17.5 0 0 0 
17.7 0 0 0 
17.9 0 0 0 
18.1 0 0 0 
18.3 0 0 0 
18.5 0 0 0 
18.7 0 0 0 
18.9 0 0 0 
19.1 0 0 0 
19.3 0 0 0 
19.5 0 0 0 
19.7 0 0 0 
19.9 0 0 0 
# EndDate:Tue Feb  5 17:51:04 2013
