# Format: McStas with text headers file. Use mcplot/PGPLOT to view.
# URL:    http://www.mccode.org/
# Editor: erkn on localhost
# Creator:Test_src_gaussian (Test_src_gaussian.instr) simulation (McXtrace x.y.z - Jan. 22, 2013)
# Date:   Simulation started (1360080703) Tue Feb  5 17:11:43 2013
# File:   lmon1.dat
# Ncount: 1e+06
# Trace: no
# Gravitation: no
# Seed: 1360080697
# Param: XW=0
# Param: YH=0
# Param: DIST=10
# Param: SRC=3
# Param: E0=8.5
# type: array_1d(100)
# Source: Test_src_gaussian.instr
# component: lmon1
# position: 0 0 9.998
# title: Wavelength monitor
# Ncount: 1e+06
# filename: lmon1.dat
# format: McStas with text headers
# statistics: X0=1.38442; dX=0.0162046;
# signal: Min=0; Max=8.02618e+18; Mean=1.49672e+17;
# values: 1.49672e+19 5.43995e+16 999999
# xvar: L
# yvar: (I,I_err)
# xlabel: Wavelength [AA]
# ylabel: Intensity
# xlimits: 0 2
# variables: L I I_err N
# Data [lmon1_dat/lmon1.dat] I: 
0.01 0 0 0 
0.03 0 0 0 
0.05 0 0 0 
0.07 0 0 0 
0.09 0 0 0 
0.11 0 0 0 
0.13 0 0 0 
0.15 0 0 0 
0.17 0 0 0 
0.19 0 0 0 
0.21 0 0 0 
0.23 0 0 0 
0.25 0 0 0 
0.27 0 0 0 
0.29 0 0 0 
0.31 0 0 0 
0.33 0 0 0 
0.35 0 0 0 
0.37 0 0 0 
0.39 0 0 0 
0.41 0 0 0 
0.43 0 0 0 
0.45 0 0 0 
0.47 0 0 0 
0.49 0 0 0 
0.51 0 0 0 
0.53 0 0 0 
0.55 0 0 0 
0.57 0 0 0 
0.59 0 0 0 
0.61 0 0 0 
0.63 0 0 0 
0.65 0 0 0 
0.67 0 0 0 
0.69 0 0 0 
0.71 0 0 0 
0.73 0 0 0 
0.75 0 0 0 
0.77 0 0 0 
0.79 0 0 0 
0.81 0 0 0 
0.83 0 0 0 
0.85 0 0 0 
0.87 0 0 0 
0.89 0 0 0 
0.91 0 0 0 
0.93 0 0 0 
0.95 0 0 0 
0.97 0 0 0 
0.99 0 0 0 
1.01 0 0 0 
1.03 0 0 0 
1.05 0 0 0 
1.07 0 0 0 
1.09 0 0 0 
1.11 0 0 0 
1.13 0 0 0 
1.15 0 0 0 
1.17 0 0 0 
1.19 0 0 0 
1.21 0 0 0 
1.23 1.86368703619e+13 737840851308 638 
1.25 2.57097591098e+15 9.15876018185e+12 79115 
1.27 3.2336533608e+15 1.17351228545e+13 76524 
1.29 4.51927305816e+15 1.67278206526e+13 74083 
1.31 7.18619471017e+15 2.71091640302e+13 72105 
1.33 1.43222373075e+16 5.57618850432e+13 70285 
1.35 4.27025127199e+16 1.78950313687e+14 68146 
1.37 5.6938368693e+18 3.82570107795e+16 66005 
1.39 8.02618102112e+18 3.84382268084e+16 64097 
1.41 9.44590118106e+17 4.21876617952e+15 62324 
1.43 1.2457593662e+17 6.01102917929e+14 60761 
1.45 1.57042114809e+16 6.53343266813e+13 59347 
1.47 1.85945857909e+16 7.83057344797e+13 57591 
1.49 2.33947771205e+16 9.88004159798e+13 56124 
1.51 2.19270267147e+16 9.40908005598e+13 54386 
1.53 1.72043097012e+16 7.50772333312e+13 52831 
1.55 6.64664863012e+15 4.15603561163e+13 25637 
1.57 0 0 0 
1.59 0 0 0 
1.61 0 0 0 
1.63 0 0 0 
1.65 0 0 0 
1.67 0 0 0 
1.69 0 0 0 
1.71 0 0 0 
1.73 0 0 0 
1.75 0 0 0 
1.77 0 0 0 
1.79 0 0 0 
1.81 0 0 0 
1.83 0 0 0 
1.85 0 0 0 
1.87 0 0 0 
1.89 0 0 0 
1.91 0 0 0 
1.93 0 0 0 
1.95 0 0 0 
1.97 0 0 0 
1.99 0 0 0 
# EndDate:Tue Feb  5 17:11:43 2013
