# Format: McStas with text headers file. Use mcplot/PGPLOT to view.
# URL:    http://www.mccode.org/
# Editor: erkn on localhost
# Creator:Test_src_gaussian (Test_src_gaussian.instr) simulation (McXtrace x.y.z - Jan. 22, 2013)
# Date:   Simulation started (1360082882) Tue Feb  5 17:48:02 2013
# File:   psd0.dat
# Ncount: 1e+06
# Trace: no
# Gravitation: no
# Seed: 1360082876
# Param: XW=0
# Param: YH=0
# Param: DIST=10
# Param: SRC=3
# Param: E0=0.7
# type: array_2d(90, 90)
# Source: Test_src_gaussian.instr
# component: psd0
# position: 0 0 0.102
# title: PSD monitor
# Ncount: 1e+06
# filename: psd0.dat
# format: McStas with text headers
# statistics: X0=-4.75844e-06; dX=0.000995014; Y0=-3.69693e-07; dY=0.000499301;
# signal: Min=0; Max=6.94059e+17; Mean=2.06014e+16;
# values: 1.66871e+20 6.04714e+17 999999
# xvar: X 
# yvar: Y 
# xlabel: X position [m]
# ylabel: Y position [m]
# zvar: I
# zlabel: Signal per bin
# xylimits: -0.005 0.005 -0.005 0.005
# variables: I I_err N
# Data [psd0_dat/psd0.dat] I: 
0 0 0 0 0 0 0 0 0 0 0 0 0 0 0 0 0 0 0 0 0 0 0 0 0 0 0 0 0 0 0 0 0 0 0 0 0 0 0 0 0 0 0 0 0 0 0 0 0 0 0 0 0 0 0 0 0 0 0 0 0 0 0 0 0 0 0 0 0 0 0 0 0 0 0 0 0 0 0 0 0 0 0 0 0 0 0 0 0 0 
0 0 0 0 0 0 0 0 0 0 0 0 0 0 0 0 0 0 0 0 0 0 0 0 0 0 0 0 0 0 0 0 0 0 0 0 0 0 0 0 0 0 0 0 0 0 0 0 0 0 0 0 0 0 0 0 0 0 0 0 0 0 0 0 0 0 0 0 0 0 0 0 0 0 0 0 0 0 0 0 0 0 0 0 0 0 0 0 0 0 
0 0 0 0 0 0 0 0 0 0 0 0 0 0 0 0 0 0 0 0 0 0 0 0 0 0 0 0 0 0 0 0 0 0 0 0 0 0 0 0 0 0 0 0 0 0 0 0 0 0 0 0 0 0 0 0 0 0 0 0 0 0 0 0 0 0 0 0 0 0 0 0 0 0 0 0 0 0 0 0 0 0 0 0 0 0 0 0 0 0 
0 0 0 0 0 0 0 0 0 0 0 0 0 0 0 0 0 0 0 0 0 0 0 0 0 0 0 0 0 0 0 0 0 0 0 0 0 0 0 0 0 0 0 0 0 0 0 0 0 0 0 0 0 0 0 0 0 0 0 0 0 0 0 0 0 0 0 0 0 0 0 0 0 0 0 0 0 0 0 0 0 0 0 0 0 0 0 0 0 0 
0 0 0 0 0 0 0 0 0 0 0 0 0 0 0 0 0 0 0 0 0 0 0 0 0 0 0 0 0 0 0 0 0 0 0 0 0 0 0 0 0 0 0 0 0 0 0 0 0 0 0 0 0 0 0 0 0 0 0 0 0 0 0 0 0 0 0 0 0 0 0 0 0 0 0 0 0 0 0 0 0 0 0 0 0 0 0 0 0 0 
0 0 0 0 0 0 0 0 0 0 0 0 0 0 0 0 0 0 0 0 0 0 0 0 0 0 0 0 0 0 0 0 0 0 0 0 0 0 0 0 0 0 0 0 0 0 0 0 0 0 0 0 0 0 0 0 0 0 0 0 0 0 0 0 0 0 0 0 0 0 0 0 0 0 0 0 0 0 0 0 0 0 0 0 0 0 0 0 0 0 
0 0 0 0 0 0 0 0 0 0 0 0 0 0 0 0 0 0 0 0 0 0 0 0 0 0 0 0 0 0 0 0 0 0 0 0 0 0 0 0 0 0 0 0 0 0 0 0 0 0 0 0 0 0 0 0 0 0 0 0 0 0 0 0 0 0 0 0 0 0 0 0 0 0 0 0 0 0 0 0 0 0 0 0 0 0 0 0 0 0 
0 0 0 0 0 0 0 0 0 0 0 0 0 0 0 0 0 0 0 0 0 0 0 0 0 0 0 0 0 0 0 0 0 0 0 0 0 0 0 0 0 0 0 0 0 0 0 0 0 0 0 0 0 0 0 0 0 0 0 0 0 0 0 0 0 0 0 0 0 0 0 0 0 0 0 0 0 0 0 0 0 0 0 0 0 0 0 0 0 0 
0 0 0 0 0 0 0 0 0 0 0 0 0 0 0 0 0 0 0 0 0 0 0 0 0 0 0 0 0 0 0 0 0 0 0 0 0 0 0 0 0 0 0 0 0 0 0 0 0 0 0 0 0 0 0 0 0 0 0 0 0 0 0 0 0 0 0 0 0 0 0 0 0 0 0 0 0 0 0 0 0 0 0 0 0 0 0 0 0 0 
0 0 0 0 0 0 0 0 0 0 0 0 0 0 0 0 0 0 0 0 0 0 0 0 0 0 0 0 0 0 0 0 0 0 0 0 0 0 0 0 0 0 0 0 0 0 0 0 0 0 0 0 0 0 0 0 0 0 0 0 0 0 0 0 0 0 0 0 0 0 0 0 0 0 0 0 0 0 0 0 0 0 0 0 0 0 0 0 0 0 
0 0 0 0 0 0 0 0 0 0 0 0 0 0 0 0 0 0 0 0 0 0 0 0 0 0 0 0 0 0 0 0 0 0 0 0 0 0 0 0 0 0 0 0 0 0 0 0 0 0 0 0 0 0 0 0 0 0 0 0 0 0 0 0 0 0 0 0 0 0 0 0 0 0 0 0 0 0 0 0 0 0 0 0 0 0 0 0 0 0 
0 0 0 0 0 0 0 0 0 0 0 0 0 0 0 0 0 0 0 0 0 0 0 0 0 0 0 0 0 0 0 0 0 0 0 0 0 0 0 0 0 0 0 0 0 0 0 0 0 0 0 0 0 0 0 0 0 0 0 0 0 0 0 0 0 0 0 0 0 0 0 0 0 0 0 0 0 0 0 0 0 0 0 0 0 0 0 0 0 0 
0 0 0 0 0 0 0 0 0 0 0 0 0 0 0 0 0 0 0 0 0 0 0 0 0 0 0 0 0 0 0 0 0 0 0 0 0 0 0 0 0 0 0 0 0 0 0 0 0 0 0 0 0 0 0 0 0 0 0 0 0 0 0 0 0 0 0 0 0 0 0 0 0 0 0 0 0 0 0 0 0 0 0 0 0 0 0 0 0 0 
0 0 0 0 0 0 0 0 0 0 0 0 0 0 0 0 0 0 0 0 0 0 0 0 0 0 0 0 0 0 0 0 0 0 0 0 0 0 0 0 0 0 0 0 0 0 0 0 0 0 0 0 0 0 0 0 0 0 0 0 0 0 0 0 0 0 0 0 0 0 0 0 0 0 0 0 0 0 0 0 0 0 0 0 0 0 0 0 0 0 
0 0 0 0 0 0 0 0 0 0 0 0 0 0 0 0 0 0 0 0 0 0 0 0 0 0 0 0 0 0 0 0 0 0 0 0 0 0 0 0 0 0 0 0 0 0 0 0 0 0 0 0 0 0 0 0 0 0 0 0 0 0 0 0 0 0 0 0 0 0 0 0 0 0 0 0 0 0 0 0 0 0 0 0 0 0 0 0 0 0 
0 0 0 0 0 0 0 0 0 0 0 0 0 0 0 0 0 0 0 0 0 0 0 0 0 0 0 0 0 0 0 0 0 0 0 0 0 0 0 0 0 0 0 0 0 0 0 0 0 0 0 0 0 0 0 0 0 0 0 0 0 0 0 0 0 0 0 0 0 0 0 0 0 0 0 0 0 0 0 0 0 0 0 0 0 0 0 0 0 0 
0 0 0 0 0 0 0 0 0 0 0 0 0 0 0 0 0 0 0 0 0 0 0 0 0 0 0 0 0 0 0 0 0 0 0 0 0 0 0 0 0 0 0 0 0 0 0 0 0 0 0 0 0 0 0 0 0 0 0 0 0 0 0 0 0 0 0 0 0 0 0 0 0 0 0 0 0 0 0 0 0 0 0 0 0 0 0 0 0 0 
0 0 0 0 0 0 0 0 0 0 0 0 0 0 0 0 0 0 0 0 0 0 0 0 0 0 0 0 0 0 0 0 0 0 0 0 0 0 0 0 0 0 0 0 0 0 0 0 0 0 0 0 0 0 0 0 0 0 0 0 0 0 0 0 0 0 0 0 0 0 0 0 0 0 0 0 0 0 0 0 0 0 0 0 0 0 0 0 0 0 
0 0 0 0 0 0 0 0 0 0 0 0 0 0 0 0 0 0 0 0 0 0 0 0 0 0 0 0 0 0 0 0 0 0 0 0 0 0 0 0 0 0 0 0 0 0 0 0 0 0 0 0 0 0 0 0 0 0 0 0 0 0 0 0 0 0 0 0 0 0 0 0 0 0 0 0 0 0 0 0 0 0 0 0 0 0 0 0 0 0 
0 0 0 0 0 0 0 0 0 0 0 0 0 0 0 0 0 0 0 0 0 0 0 0 0 0 0 0 0 0 0 0 0 0 0 0 0 0 0 0 0 0 0 0 0 0 0 0 0 0 0 0 0 0 0 0 0 0 0 0 0 0 0 0 0 0 0 0 0 0 0 0 0 0 0 0 0 0 0 0 0 0 0 0 0 0 0 0 0 0 
0 0 0 0 0 0 0 0 0 0 0 0 0 0 0 0 0 0 0 0 0 0 0 0 0 0 0 0 0 0 0 0 0 0 0 0 0 0 0 0 0 0 0 0 0 0 0 0 0 0 0 0 0 0 0 0 0 0 0 0 0 0 0 0 0 0 0 0 0 0 0 0 0 0 0 0 0 0 0 0 0 0 0 0 0 0 0 0 0 0 
0 0 0 0 0 0 0 0 0 0 0 0 0 0 0 0 0 0 0 0 0 0 0 0 0 0 0 0 0 0 0 0 0 0 0 0 0 0 0 0 0 0 0 0 0 0 0 0 0 0 0 0 0 0 0 0 0 0 0 0 0 0 0 0 0 0 0 0 0 0 0 0 0 0 0 0 0 0 0 0 0 0 0 0 0 0 0 0 0 0 
0 0 0 0 0 0 0 0 0 0 0 0 0 0 0 0 0 0 0 0 0 0 0 0 0 0 0 0 0 0 0 0 0 0 0 0 0 0 0 0 0 0 0 0 0 0 0 0 0 0 0 0 0 0 0 0 0 0 0 0 0 0 0 0 0 0 0 0 0 0 0 0 0 0 0 0 0 0 0 0 0 0 0 0 0 0 0 0 0 0 
0 0 0 0 0 0 0 0 0 0 0 0 0 0 0 0 0 0 0 0 0 0 0 0 0 0 0 0 0 0 0 0 0 0 0 0 0 1.5478194122e+12 0 0 0 0 0 0 2.76593706586e+15 0 0 5.00938343901e+12 0 0 0 3.94668292148e+12 0 0 0 0 0 0 0 0 0 0 0 0 0 0 0 0 0 0 0 0 0 0 0 0 0 0 0 0 0 0 0 0 0 0 0 0 0 0 
0 0 0 0 0 0 0 0 0 0 0 0 0 0 0 0 0 0 0 0 0 0 0 0 0 0 0 0 0 0 0 0 0 0 0 0 0 0 0 0 0 0 0 0 0 0 0 0 0 0 0 0 4.30913215812e+12 0 4.07539756442e+12 0 0 0 0 0 0 0 0 0 0 0 0 0 0 0 0 0 0 0 0 0 0 0 0 0 0 0 0 0 0 0 0 0 0 0 
0 0 0 0 0 0 0 0 0 0 0 0 0 0 0 0 0 0 0 0 0 0 0 0 0 0 0 0 0 0 0 0 0 0 0 0 0 0 0 0 0 4.82794181585e+12 0 1.39964922819e+13 0 0 0 0 0 0 0 0 0 0 0 0 0 0 0 0 346086614851 0 0 0 0 0 0 0 0 0 0 0 0 0 0 0 0 0 0 0 0 0 0 0 0 0 0 0 0 0 
0 0 0 0 0 0 0 0 0 0 0 0 0 0 0 0 0 0 0 0 0 0 0 0 0 0 0 0 0 0 0 0 3.02279954845e+12 0 0 6.37266524903e+12 0 0 4.54577558013e+12 4.63407492638e+12 426521967829 3.91434168489e+15 0 781742732095 1.3108592973e+14 3.4778199125e+12 3.5278356207e+13 2.76887218111e+12 0 1.07944271383e+12 832304111584 853586531228 1.8551003852e+13 0 0 0 3.4946177635e+12 0 0 0 0 0 2.9796300257e+15 0 0 0 0 0 0 0 0 0 0 0 0 0 0 0 0 0 0 0 0 0 0 0 0 0 0 0 
0 0 0 0 0 0 0 0 0 0 0 0 0 0 0 0 0 0 0 0 0 0 0 0 0 0 0 0 3.14521485903e+12 0 474084202520 4.81370158208e+12 0 1.02901888536e+12 0 6.25368276124e+12 405420494986 3.70758284083e+12 4.44452169035e+12 8.58733363252e+13 665266348613 1.8272395575e+14 7.95238432964e+13 1.72021194021e+14 6.89359783025e+12 0 0 2.51031285915e+14 813725560356 4.14632060144e+14 1.71813741937e+15 1.24106529955e+15 5.13062913102e+12 0 784171275176 0 0 1.78867103406e+12 0 594839412425 0 4.27427760389e+12 0 0 0 0 0 0 0 0 0 0 0 0 0 0 0 0 0 0 0 0 0 0 0 0 0 0 0 0 
0 0 0 0 0 0 0 0 0 0 0 0 0 0 0 0 0 0 0 0 0 0 0 0 0 0 1.65396919775e+13 0 0 1.18666433931e+13 4.19281112331e+14 1.54063459558e+14 0 1.47524229934e+13 7.85655358782e+13 1.74191828969e+15 1.02949453017e+13 3.45414475636e+13 5.83298770701e+12 1.06802675995e+15 5.2253088315e+15 3.41694399631e+14 8.04730568896e+12 3.98687204517e+13 2.70447031009e+15 1.68906142427e+13 3.64825092649e+15 1.4997555956e+14 1.98479879195e+13 3.22396856934e+14 3.7435935678e+15 4.38289795294e+15 1.62312747736e+12 1.30646667594e+14 0 1.13791269146e+12 332740497745 564014947264 7.26862369022e+14 440205355438 7.63655092206e+12 6.64483857425e+14 4.85245799798e+12 0 4.28898458524e+12 0 0 0 0 0 0 0 0 0 0 0 0 0 0 0 0 0 0 0 0 0 0 0 0 0 
0 0 0 0 0 0 0 0 0 0 0 0 0 0 0 0 0 0 0 0 0 0 0 4.74871305386e+12 5.12348536433e+12 2.9351746019e+12 0 3.47636347488e+12 692579538985 0 1.15416448636e+13 6.10299573192e+14 0 2.983531956e+15 1.15839535341e+14 1.42858118425e+14 2.60969289783e+13 3.26473694408e+14 7.55693159147e+13 8.32758059245e+14 4.18286416568e+13 3.58455628581e+15 1.82425912373e+15 4.09339670132e+13 2.5965901152e+13 4.01908520606e+12 7.26164485594e+15 2.2870617299e+13 3.04204462814e+15 3.89507089642e+13 1.85788978916e+15 1.80793248116e+13 3.64447299235e+15 4.49741189897e+15 9.62118083831e+14 3.7274976585e+15 2.31788369095e+13 3.21185339934e+13 6.09738548473e+14 7.55290450258e+12 6.03463689261e+12 9.75315555658e+14 3.15591349054e+15 0 4.87964792609e+12 5.01931253331e+12 0 0 0 0 0 0 0 0 0 0 0 0 0 0 0 0 0 0 0 0 0 0 0 0 
0 0 0 0 0 0 0 0 0 0 0 0 0 0 0 6.99707602471e+12 0 571034703132 1.07184342542e+13 653117342727 0 4.27128756604e+12 1.17815810053e+12 480268170807 322136398186 1.62526862873e+14 2.80656359703e+14 6.04723462445e+12 3.86628983053e+12 4.47437631136e+13 6.62989333205e+13 8.92923216747e+13 3.66100464034e+14 6.42152794751e+14 1.54095929528e+15 2.21592718234e+15 3.71498158401e+13 5.71784080874e+14 1.02916527885e+15 3.87098819832e+15 2.01088726736e+15 1.21559036987e+15 3.60506429456e+15 1.60648602173e+15 3.71662270701e+15 3.23065520795e+15 5.63233477306e+14 3.33396797215e+14 4.80440410017e+15 3.07061997045e+15 1.28708619063e+15 7.37917796391e+13 3.33804044463e+14 3.61393551297e+15 3.78623615685e+14 2.09584136365e+14 2.41657476472e+13 2.6845456549e+13 4.42212738763e+13 9.3411963348e+14 1.88101992711e+15 3.09448570315e+13 1.77369260551e+15 2.88139209943e+12 8.36907353651e+12 1.2614623051e+13 8.21624847644e+12 2.82968779988e+12 5.77296688531e+12 7.81262062874e+12 0 0 4.93911216793e+12 0 1.78201046371e+12 0 0 0 0 0 0 0 0 0 0 0 0 0 0 0 
0 0 0 0 0 0 0 0 0 0 0 0 0 0 0 548247575152 459699077919 344858589841 0 299392608307 4.8119237656e+12 1.79040727492e+13 1.68387114464e+12 3.93581302782e+12 9.05431136624e+13 7.40951930742e+14 355137147110 3.36840532375e+15 2.58078302295e+13 9.49671756832e+14 6.75536995843e+13 2.50905658552e+15 5.97089573565e+15 4.09554767881e+15 1.65981166775e+15 1.83331543048e+15 4.79220646974e+15 1.70329257401e+15 6.45891349345e+15 1.40438963709e+16 2.40753573462e+15 1.92947029834e+15 9.4414062304e+15 1.18504121368e+16 1.30774017926e+15 1.16281506538e+16 9.49173369411e+15 6.58974743516e+15 1.11470799645e+16 3.90979643857e+15 5.95531210792e+15 4.61674669378e+15 4.74844898941e+15 3.22694003021e+15 3.61256473167e+15 3.22321029314e+15 5.30468509178e+14 3.17961953261e+15 1.10610470741e+16 9.73882540046e+13 1.50906415771e+15 7.51688078629e+15 2.74832759741e+15 3.47291624897e+15 2.73674806632e+15 4.7732226919e+14 3.90851667137e+12 1.20385797497e+15 3.97522105164e+12 326921441092 1.65841733048e+13 4.49455310955e+12 0 0 1.95935349983e+13 3.50815232681e+12 388544825488 0 0 4.1648204095e+12 0 0 0 0 0 0 0 0 0 0 
0 0 0 0 0 0 0 0 0 0 0 0 0 0 0 0 0 299957947129 7.39907381161e+12 0 0 808499444625 0 2.27943044401e+14 3.85913276241e+15 5.30105610469e+15 2.41544949401e+14 9.1467006985e+15 3.71941976616e+15 4.49560775133e+15 5.49200166895e+15 2.98398650194e+15 4.24227641152e+15 6.23521595361e+15 7.37411440756e+15 6.54999257443e+15 8.9504007348e+15 4.6702319944e+15 6.91123080657e+15 6.29701264792e+15 1.77472126695e+16 1.65158977648e+16 1.80803562589e+16 8.67813728853e+15 6.37654042897e+15 1.37428428409e+16 9.41264701089e+15 1.62862574049e+16 1.64421280331e+16 1.20556484522e+16 1.03279793546e+16 4.93589114614e+15 1.46918875808e+16 9.93918505347e+15 7.65711688607e+15 7.42016820251e+15 5.48012301002e+14 4.50568248278e+15 2.62791627538e+15 3.78546970894e+15 1.07174341947e+16 4.53029724785e+15 6.99822072277e+14 5.07051516915e+14 4.33699128311e+15 3.7633945981e+15 1.00718965417e+15 1.46479981853e+12 4.72346439029e+12 1.05798355058e+13 3.81167577759e+12 0 3.74434000659e+12 523481489656 0 0 0 0 0 0 0 0 0 0 0 0 0 0 0 0 
0 0 0 0 0 0 0 0 0 0 0 2.72606914906e+12 0 0 0 5.07530161271e+12 0 1.33344598156e+14 0 5.1078927816e+12 4.57007715431e+12 2.03584945481e+15 1.20334414652e+15 2.11760115743e+15 1.02265877368e+15 1.5526581948e+15 1.49995133401e+15 4.32009671677e+15 8.8245693997e+15 5.45707281268e+15 8.62692923595e+15 1.52397941365e+16 1.2825981665e+16 6.73125613258e+15 1.54558319566e+16 2.16534891666e+16 2.02996603292e+16 2.18020875146e+16 1.63179570518e+16 1.96652292354e+16 1.61604396532e+16 2.35525023125e+16 1.00553879782e+16 8.51967867769e+15 3.18027454854e+16 3.32305379535e+16 2.73678543596e+16 2.58441771276e+16 2.64642481497e+16 1.90975996529e+16 2.20033886169e+16 2.78530669708e+16 9.27975295063e+15 2.31804904261e+16 2.10118936681e+16 9.84479497619e+15 1.5089322482e+16 1.06463506783e+16 6.22555631056e+15 7.07553374551e+15 1.2110850272e+15 4.50620074876e+15 6.91977061398e+15 4.17279534795e+14 3.20724616498e+15 2.37041847755e+15 2.82603125872e+15 4.27781036098e+13 7.22830498215e+14 1.93958590725e+15 1.44263943734e+14 0 7.97395523926e+12 4.8098798727e+12 3.35396366047e+14 0 0 0 0 0 0 0 0 0 0 0 0 0 0 0 
0 0 0 0 0 0 0 0 0 0 0 0 0 0 4.4727754528e+12 2.83073452988e+12 4.69793858605e+12 6.21245019878e+12 2.55511964177e+13 3.84667997424e+15 7.41980072734e+14 9.48085546195e+14 2.09556041782e+14 2.80202061726e+15 1.12924941554e+16 4.26700392509e+15 6.34086489473e+15 3.18802579451e+15 4.53462758407e+15 1.21648081248e+16 1.42361116257e+16 1.40238901324e+16 2.00561614696e+16 2.78090933342e+16 3.4381024377e+16 2.72393133056e+16 3.07142676156e+16 4.30974593793e+16 2.03419771711e+16 3.2056216844e+16 3.05531900787e+16 4.54351866197e+16 6.17240020799e+16 3.36431164699e+16 5.75250789004e+16 3.17808608855e+16 6.10586526582e+16 3.91846670317e+16 3.89888786946e+16 3.19846628709e+16 2.4054158271e+16 3.61707565963e+16 3.33581934426e+16 1.92759630175e+16 1.57038579679e+16 2.12618498326e+16 1.19492550205e+16 1.89862659104e+16 9.48236930703e+15 6.54367302278e+15 1.07956074811e+16 1.5020999044e+16 7.64119028298e+15 9.68302783611e+15 8.14211621875e+15 5.02440537835e+15 6.77468444574e+15 1.92385350599e+15 2.74948665832e+15 3.39986334054e+14 1.10832892921e+13 4.23465743499e+12 4.19483298273e+12 0 1.5774677978e+15 5.18187486271e+12 2.44465214881e+14 0 2.5436123127e+13 0 0 0 0 0 0 0 0 0 0 0 
0 0 0 0 0 0 0 0 0 0 0 0 0 0 0 0 3.36538082589e+15 2.05771848359e+14 1.41395426375e+15 6.89214383346e+14 7.45699430215e+15 8.87250471446e+14 1.13604269927e+15 9.91060848112e+15 6.56300183022e+14 7.91935370705e+15 1.1880729448e+16 1.19256495498e+16 9.19189015064e+15 1.73350012513e+16 2.04821520361e+16 2.81599275607e+16 2.5584264121e+16 3.5315534076e+16 3.876238754e+16 4.34157006136e+16 4.3728136222e+16 6.34702048547e+16 4.33716120609e+16 6.93161824519e+16 8.47063839665e+16 7.0250174658e+16 7.35726312887e+16 7.52005579302e+16 5.63410306665e+16 6.22358172142e+16 6.41456940735e+16 6.39250575884e+16 5.06562250239e+16 6.47819000793e+16 6.43698291579e+16 5.09504121435e+16 6.03655384644e+16 5.33560451656e+16 2.77358738119e+16 2.67297706613e+16 3.33355012705e+16 2.34990303882e+16 1.92982466756e+16 2.25979955457e+16 1.6204147762e+16 2.03933581072e+16 9.24139730644e+15 1.88490442711e+16 4.67693963246e+15 1.17220129524e+15 5.36501877442e+15 8.02416791285e+13 1.40116729977e+14 3.66245559026e+15 3.01041272723e+13 2.07505455505e+14 3.46865735515e+12 1.16041833001e+14 331340676220 1.53864412881e+15 0 2.61378688423e+13 0 0 0 0 0 0 0 0 0 0 0 0 
0 0 0 0 0 0 0 0 0 0 0 387339893785 0 1.11737264422e+13 1.29863500816e+12 1.18305076545e+13 1.95262191935e+15 1.76716420944e+15 1.25721640323e+15 3.3065091624e+15 5.86965500827e+15 1.77848872435e+14 3.55463162889e+15 8.82260852469e+15 1.24399145429e+16 5.89283579264e+15 2.57503747415e+16 1.54382890997e+16 1.09505546856e+16 3.97672371104e+16 3.00985934946e+16 2.73794678931e+16 2.9961217768e+16 3.73303376892e+16 7.18734865481e+16 6.19485920565e+16 6.65615791567e+16 8.81014655149e+16 8.51795405739e+16 6.13954261051e+16 9.10607131409e+16 1.05297122605e+17 1.09759885678e+17 1.0660523386e+17 1.17896884261e+17 9.96580916483e+16 1.11805802872e+17 1.29073207935e+17 1.04259887927e+17 9.18338777129e+16 1.16954834552e+17 7.89171559999e+16 7.09555022367e+16 5.71239445572e+16 6.88274190752e+16 5.72528839724e+16 3.5988732144e+16 5.54623807566e+16 1.55494401857e+16 2.48246163302e+16 3.35188293093e+16 1.17916242425e+16 4.63223716514e+15 7.92049992995e+15 1.11267146726e+16 1.15505897033e+16 1.97733334984e+15 3.35662619434e+15 1.78933353962e+15 3.2596654363e+15 3.53304468087e+15 1.77479902744e+14 1.34508667887e+13 2.59299723601e+14 1.18366767646e+15 1.53124738642e+13 0 0 0 1.50475765269e+14 0 0 5.20825745177e+12 0 0 0 0 0 0 0 
0 0 0 0 0 0 0 0 0 0 0 9.04609991384e+12 0 5.62687926603e+13 3.48087174234e+15 3.36621360676e+13 5.04895156978e+15 1.08091773377e+14 2.73810384478e+15 1.49591771386e+15 5.44735581893e+14 1.54198299412e+15 1.03601201583e+16 1.25174689751e+16 4.62584486846e+15 9.01289198145e+15 9.00975239901e+15 1.32741236045e+16 2.35737724794e+16 3.23070718608e+16 4.38937793332e+16 6.53218254908e+16 1.00812060762e+17 9.35649571393e+16 7.89033027611e+16 1.06004117786e+17 1.05525842271e+17 9.99457396935e+16 1.33271419459e+17 1.45421251496e+17 1.47469109559e+17 1.6050433476e+17 1.33500743408e+17 1.49185888387e+17 1.59336174605e+17 1.70553058183e+17 1.26698449254e+17 1.49653340711e+17 1.76958230246e+17 1.37963360356e+17 1.24936413258e+17 1.13226156414e+17 1.14302760773e+17 1.278677479e+17 1.08502428849e+17 8.29113959259e+16 8.2100265516e+16 7.79400384192e+16 5.42675278055e+16 3.65322132288e+16 2.86414578017e+16 2.77423776071e+16 3.45614318062e+16 1.41470709891e+16 1.57285655344e+16 1.87525238364e+16 7.21910425165e+15 1.36938765375e+16 1.08366575863e+16 3.38990688029e+15 5.70749164785e+13 4.72876780201e+13 8.81045809465e+13 1.42461077425e+15 1.7787577322e+14 1.58307195071e+14 6.04918286879e+12 0 4.45766192249e+12 0 3.1996156889e+14 0 0 0 0 0 0 0 0 0 
0 0 0 0 0 0 0 0 4.92908882357e+12 552673329244 352860130800 5.48727176917e+12 2.8634855962e+15 6.65073591745e+12 2.185177886e+13 1.94674624131e+13 3.54148039628e+15 1.17685353036e+15 5.3624458904e+15 7.03714270318e+15 7.71094135013e+15 1.15124136598e+16 8.61432789951e+15 1.06617941913e+16 8.12568394671e+15 8.726723812e+15 1.17638715282e+16 3.86819482875e+16 3.2799369324e+16 5.04631098214e+16 6.21196746982e+16 7.06856320725e+16 1.00446013014e+17 1.26062882272e+17 1.2182760863e+17 1.46680340672e+17 1.3254108546e+17 1.70688455913e+17 1.61475405191e+17 1.90234051637e+17 1.99142058489e+17 2.22265781188e+17 2.31196973955e+17 2.19689707268e+17 2.31793059497e+17 2.54852172278e+17 2.50182211235e+17 2.35244759524e+17 2.0811256995e+17 2.08330399218e+17 1.65668547163e+17 1.82930057998e+17 1.65081315126e+17 1.5892224926e+17 1.61221586406e+17 1.22256009502e+17 9.2437217515e+16 9.78400521722e+16 7.26815130677e+16 5.84309543477e+16 5.24008639722e+16 4.01703860988e+16 3.27569418131e+16 3.93089303512e+16 1.56082428218e+16 1.24762194524e+16 1.43920936513e+16 2.18794284634e+16 1.08241325411e+16 7.82249825609e+15 3.84920088796e+15 2.21656942638e+15 1.82420498731e+15 1.60323102151e+15 1.00316977703e+13 1.10172710287e+14 5.96664117791e+12 1.2895837201e+14 7.17212830598e+12 541505692509 9.43887961375e+12 0 0 0 0 0 0 0 0 0 
0 0 0 9.11194042247e+12 0 0 0 0 0 3.81701223929e+13 0 929806083160 6.14775807664e+14 5.73278855506e+14 6.3860641543e+12 9.21767290676e+12 2.40394520746e+15 7.09618019795e+15 7.00293145973e+15 1.18319385893e+16 2.22967088125e+16 1.85707542864e+16 5.99299886762e+15 1.36297766324e+16 2.99950987908e+16 3.55089146035e+16 3.89816764309e+16 4.30847008791e+16 5.48323748337e+16 8.83946600959e+16 9.4295218637e+16 7.10346251248e+16 1.25577260551e+17 1.32869553589e+17 1.66659764643e+17 1.82344721803e+17 1.85319861382e+17 2.35604902591e+17 2.73072481609e+17 2.69777747367e+17 2.65528529582e+17 2.7994681262e+17 3.0477656713e+17 3.02954547199e+17 3.28755280604e+17 3.34136739822e+17 2.83846491174e+17 2.94376117771e+17 2.48971065035e+17 2.58335283631e+17 2.27062350594e+17 1.91924990811e+17 2.11081190414e+17 1.86923845887e+17 1.93338783161e+17 1.53561535803e+17 1.29445081185e+17 1.41394666225e+17 9.07410182623e+16 8.39671000586e+16 6.04031829738e+16 5.17330023746e+16 6.82622558438e+16 2.53144162284e+16 3.03614627652e+16 2.31504248656e+16 2.23224822141e+16 1.31439934739e+16 1.29964241499e+16 1.06203597411e+16 7.19712506021e+15 7.05302146464e+15 5.8111308553e+15 1.47431758114e+14 5.87662449948e+14 1.87480430204e+14 3.38013510807e+12 1.27681170279e+13 1.2035601832e+13 806044435402 1.55185633628e+13 0 1.14269042221e+12 0 0 0 0 0 0 0 
0 0 0 0 0 0 0 0 0 0 805406724782 2.85412343487e+13 5.68764050816e+14 932533260582 8.17190726498e+13 4.36259351361e+15 4.23829988244e+15 2.74312670026e+15 7.10702539745e+15 9.71876059461e+15 7.92835835046e+15 2.38837635086e+16 1.457970692e+16 3.13461630017e+16 1.85174436536e+16 2.41361704692e+16 6.4743819114e+16 7.11221267424e+16 7.52777441866e+16 8.82840983545e+16 1.06343319461e+17 1.34524219424e+17 1.2349557122e+17 1.56715342202e+17 1.78703309925e+17 2.23881917107e+17 2.5395124024e+17 2.85800686121e+17 2.55288956361e+17 3.44752478596e+17 3.48243167813e+17 3.3610663019e+17 3.43937923199e+17 3.79262344307e+17 4.23059158691e+17 4.41987161636e+17 3.94293834484e+17 3.80523777097e+17 3.93488442549e+17 3.16979362884e+17 3.02932267397e+17 2.53495309598e+17 2.75355682652e+17 1.80796035207e+17 2.13578996441e+17 2.02312937737e+17 1.83625365589e+17 1.40626799779e+17 1.31527201134e+17 1.10020814855e+17 8.47863586076e+16 4.36833309076e+16 4.83882491011e+16 4.49188769867e+16 3.38920545594e+16 2.96185613487e+16 2.03622379126e+16 1.08981636171e+16 1.13210429139e+16 4.06075151811e+15 3.8816987662e+15 7.30572223118e+15 6.88747434582e+15 6.95304067845e+15 1.92519881803e+14 1.96560728177e+15 3.65605447235e+15 3.98255736188e+13 7.96351468142e+12 1.70249700352e+12 0 2.44839251576e+14 0 0 0 0 0 0 0 0 
0 0 0 0 930857727075 1.01083133017e+12 5.20346105402e+12 0 2.67002393138e+14 0 2.94541818779e+15 3.68661202473e+15 6.27131184884e+12 1.59904474876e+14 9.74808302993e+12 2.50221029121e+14 5.42533341327e+14 4.60683581244e+15 1.1552407997e+16 6.33433388839e+15 9.81005239182e+15 2.10917381173e+16 1.84922775047e+16 3.46974704942e+16 3.64774698627e+16 4.0594544384e+16 5.61380171091e+16 9.2409641155e+16 7.81225506085e+16 9.60404859566e+16 1.28781821072e+17 1.77898190429e+17 1.59334107322e+17 2.0123725822e+17 2.69148131872e+17 2.45889317029e+17 2.8510424625e+17 3.6005630503e+17 4.35050487625e+17 4.71696139527e+17 4.12776789989e+17 4.55792890727e+17 4.55388881857e+17 5.0062583745e+17 4.21495068363e+17 5.07976694493e+17 4.99255514208e+17 4.25003128197e+17 4.55350868947e+17 3.80866069121e+17 3.79893829757e+17 3.24278646812e+17 3.14487847942e+17 3.61799641795e+17 2.61677235365e+17 2.37922743816e+17 2.23102281921e+17 1.38660343423e+17 1.48826246097e+17 1.34499290487e+17 1.11766554668e+17 6.89123496258e+16 9.39049372979e+16 5.94206729461e+16 5.71161722263e+16 4.17960137823e+16 3.25541783075e+16 9.77059692796e+15 2.23195763886e+16 6.0409396572e+15 1.430065636e+16 5.11347246501e+15 1.61929534226e+15 6.33325722318e+15 1.98029064882e+15 3.63973248033e+15 1.00939938009e+14 4.45294240408e+15 1.57631659098e+13 386063187963 302650590623 0 0 627841078068 7.24772159731e+12 0 0 0 0 0 
0 0 0 0 0 940317068593 0 1.23511350312e+14 1.61166902773e+12 5.92653996556e+14 317310626097 2.45907639809e+13 4.84161908197e+13 3.3099826375e+13 2.84477484063e+14 1.45454943986e+15 5.31851094475e+14 5.62816603703e+15 1.24382798915e+16 1.26653269305e+16 7.56989975425e+15 2.56150061602e+16 1.6426292206e+16 2.42950914314e+16 4.63021538762e+16 5.60462135199e+16 6.48030380458e+16 8.57879911222e+16 1.09695783592e+17 1.30409336929e+17 1.58395998172e+17 1.95267026975e+17 2.13631515704e+17 2.67848890574e+17 2.69844124299e+17 3.58676882147e+17 3.09456058879e+17 3.81643849023e+17 4.09383388983e+17 4.95838538729e+17 5.14746771184e+17 5.46557912853e+17 5.54674295768e+17 5.37039574131e+17 5.42374998748e+17 6.13013615487e+17 5.81395976733e+17 5.24178992837e+17 5.04039880586e+17 5.64685748336e+17 5.17681680331e+17 4.20648636607e+17 3.93735305416e+17 3.58344894509e+17 3.38417360804e+17 3.11502798764e+17 2.4279519643e+17 1.81019782376e+17 2.14199291952e+17 1.53412508106e+17 1.26688134014e+17 1.04986815341e+17 8.23702764106e+16 7.18576046929e+16 5.68569750745e+16 5.83174833127e+16 4.0469182478e+16 2.08606275049e+16 1.06395094341e+16 1.13541713147e+16 1.29388523545e+16 5.0167813491e+15 7.21497394373e+14 2.59408266731e+15 2.01889512345e+14 1.57175508135e+13 2.90118861904e+14 1.71777607618e+15 1.25240054868e+13 3.01608207035e+13 0 5.02891617646e+12 0 0 0 0 0 0 0 0 
0 0 0 0 0 0 0 0 0 2.0207322913e+15 0 3.87899518693e+14 4.25519198579e+14 1.78200242828e+15 1.96522313351e+13 4.21393233149e+15 2.53232506989e+15 2.42451003712e+15 1.69242729398e+16 1.13925705648e+16 2.05831761012e+15 2.36111665104e+16 3.46007713951e+16 3.05223841678e+16 6.0898681541e+16 6.98964789591e+16 6.36870638115e+16 9.86739321448e+16 1.14717243837e+17 1.31175938789e+17 1.3639632741e+17 2.03933278733e+17 2.09807550932e+17 2.9666006712e+17 3.38631129774e+17 3.69806119171e+17 3.72986728007e+17 4.13052445164e+17 5.02194887948e+17 5.57851368553e+17 5.40841310695e+17 4.95652398771e+17 6.3993450005e+17 5.97334546134e+17 6.74123712328e+17 5.7161741019e+17 6.56985291111e+17 5.75719165116e+17 5.54266613501e+17 5.41521266728e+17 5.14263613862e+17 4.46129422071e+17 4.6922190199e+17 4.55263366788e+17 3.70852031446e+17 2.74732159172e+17 3.12041298626e+17 2.69633396176e+17 1.99407540749e+17 2.01408521679e+17 9.19981929187e+16 1.28812005341e+17 1.00752466436e+17 7.08909387168e+16 5.46745324611e+16 3.99444500409e+16 3.42061953452e+16 9.36537356804e+15 2.90176222218e+16 2.05578978208e+16 1.37530567254e+16 3.08645756612e+15 1.28155477242e+16 4.18787831925e+15 3.46777685166e+14 6.82871161017e+13 1.11153287086e+13 4.24570064195e+13 2.77114297634e+13 5.36169543254e+12 2.64812876866e+12 467055045564 342817857855 0 0 0 0 0 0 0 
0 0 0 0 0 0 0 3.25266553635e+12 0 1.63052192182e+13 1.87841939014e+15 1.72685824471e+14 5.21497301415e+14 5.17830188123e+13 8.43418719936e+14 1.39098255664e+15 1.05461437914e+14 4.61427836891e+15 6.15940599407e+15 1.86116712929e+16 9.55945704217e+15 1.60441012779e+16 2.94952200381e+16 4.41845518672e+16 4.28546871673e+16 8.65859333977e+16 7.38402479326e+16 9.63047252825e+16 1.43334197874e+17 1.54263495613e+17 1.24102483132e+17 1.83729973378e+17 3.03999781615e+17 2.84631642237e+17 3.93306717956e+17 3.84401979901e+17 4.31192318939e+17 4.37566828018e+17 5.51434217243e+17 5.49604049482e+17 5.30125414469e+17 6.62433655319e+17 6.5186960735e+17 6.48405827485e+17 5.97441006814e+17 5.88632673917e+17 6.94058522537e+17 6.57613946087e+17 5.91625152432e+17 5.36955179434e+17 6.03861207478e+17 5.08589043656e+17 4.6124292032e+17 4.38773737495e+17 3.7980583517e+17 3.93899962503e+17 2.87617721782e+17 2.58587548843e+17 2.04202314568e+17 1.41281734739e+17 1.53771179111e+17 1.17465571406e+17 1.03626588769e+17 9.007027631e+16 5.12330344485e+16 5.47141441538e+16 2.81729213614e+16 2.48308077452e+16 2.2956530745e+16 1.49660745094e+16 9.83142851259e+15 1.89096954357e+16 6.41207658856e+15 6.54324875658e+15 9.03445662075e+15 3.90438663967e+15 3.70097063704e+15 2.05298530228e+13 1.14712336979e+13 1.84991027074e+13 3.17663757918e+14 0 1.14814088039e+15 333953953261 3.16050045272e+12 0 0 0 0 0 
0 0 0 0 0 0 0 4.78528949019e+12 0 8.18704251305e+12 1.93917931232e+14 1.43696731754e+13 1.84870212719e+12 5.33341596498e+12 1.27803206528e+15 2.66494284585e+15 2.1766213336e+14 7.80993157213e+15 1.02218309154e+16 1.44832523798e+16 1.85376615201e+16 1.74589780238e+16 2.88337283401e+16 3.65435836416e+16 5.39001570519e+16 5.88334153792e+16 8.79606106975e+16 1.37378038699e+17 1.08314013375e+17 1.25928938286e+17 1.94537218409e+17 2.13122264063e+17 2.30999154444e+17 2.67799233242e+17 3.32182468776e+17 3.29696651619e+17 3.82276315793e+17 4.64416303853e+17 4.86981558717e+17 5.67525637341e+17 5.0492085299e+17 6.03620637946e+17 6.08637810023e+17 6.37415084565e+17 6.4196055288e+17 6.38372976943e+17 6.4639379601e+17 6.4856836381e+17 6.20056969945e+17 5.30970203826e+17 5.06349295903e+17 5.19395415325e+17 4.68735354255e+17 4.09168442623e+17 4.55680836098e+17 3.37706156871e+17 2.85017860529e+17 2.23304660693e+17 2.11024610849e+17 1.36660800252e+17 1.66651642285e+17 1.2836403346e+17 7.88914135853e+16 9.49284022564e+16 4.98788979816e+16 3.2534283038e+16 2.27299259657e+16 3.24880804121e+16 2.63543344426e+16 1.13705465074e+16 6.06186567814e+15 2.01821258038e+15 1.94042926248e+15 3.41248463703e+15 3.74998270639e+15 2.59475006197e+15 1.54208412982e+15 1.34810782213e+13 2.9709329775e+14 1.01872622646e+12 2.32524359436e+13 1.29105672687e+12 1.87568225837e+13 0 0 3.82313160591e+12 0 0 0 0 
0 0 344436117669 0 0 4.20049887614e+12 0 0 0 2.17123184527e+13 5.51056832628e+12 1.56292301025e+13 8.33498798039e+12 8.75943175443e+14 4.1616086888e+14 2.38446779652e+15 1.21501668941e+15 1.44665943474e+15 7.19215271971e+15 2.18499510878e+16 5.69193749338e+15 2.42206300906e+16 2.51698236164e+16 3.6391868738e+16 6.89894635522e+16 6.08304896626e+16 4.93205337432e+16 8.64984359924e+16 1.15121864553e+17 1.30611014942e+17 1.70771678432e+17 1.57018175985e+17 2.14669815727e+17 2.61119794934e+17 2.84926337346e+17 3.66228932173e+17 4.06385776729e+17 4.23701515646e+17 4.5002951697e+17 5.27882814453e+17 5.78909300395e+17 6.57615780076e+17 5.79022217924e+17 5.88687062639e+17 6.90864259924e+17 6.79035303322e+17 6.34949332231e+17 6.13248861415e+17 5.80336217154e+17 5.78605123719e+17 4.96472302863e+17 4.90084013351e+17 3.63196551753e+17 3.90866414124e+17 3.68750568827e+17 2.9794955794e+17 2.67491843992e+17 2.74081731999e+17 1.66464107568e+17 1.40960454395e+17 1.2922370738e+17 1.42403221129e+17 1.13957991161e+17 6.83909026433e+16 7.12847482381e+16 4.01092194252e+16 3.20937158618e+16 1.94891084043e+16 1.77915455458e+16 1.41068801248e+16 1.38860867621e+16 9.7613986836e+15 7.5643310765e+15 8.48935341299e+15 3.27458207635e+15 1.63161972836e+15 4.96448480597e+14 9.35888307294e+13 2.63884741283e+14 8.4542122047e+12 2.89153436363e+13 0 2.45365761365e+14 0 0 0 5.17279483714e+12 0 0 0 
0 0 0 0 0 0 0 2.91110009086e+12 1.46731617288e+13 0 2.44048645223e+14 4.02837210043e+13 9.00654397536e+14 3.69012455066e+15 9.28178627664e+14 1.12285067922e+15 2.78742517681e+15 6.13000796854e+15 1.29831236461e+15 6.38881490525e+15 2.43052501491e+16 2.12196631483e+16 2.37205157347e+16 2.80325689474e+16 2.65187600021e+16 4.86499335229e+16 6.92391483521e+16 8.27019692707e+16 7.18871599664e+16 1.3016504744e+17 1.70572670322e+17 1.7914153532e+17 2.0409515663e+17 2.22685161417e+17 3.5097116505e+17 3.23498308096e+17 3.57152716634e+17 3.59950554276e+17 4.71250408637e+17 4.48019545957e+17 5.16439800715e+17 5.19775907361e+17 5.87057396557e+17 5.44534867192e+17 5.54540602879e+17 5.82205156518e+17 5.94565900472e+17 5.17920423033e+17 5.26444292751e+17 4.40596234027e+17 4.20329559587e+17 4.95907539679e+17 3.82393215356e+17 3.49549329182e+17 3.40554493488e+17 3.17306302049e+17 2.3806353307e+17 1.99084993019e+17 1.58844445274e+17 1.52085097179e+17 1.27299900396e+17 1.1328199923e+17 8.71478613199e+16 4.14630579756e+16 5.60727499165e+16 5.88306320812e+16 2.85340785957e+16 3.74324634025e+16 1.95474600162e+16 1.05499373816e+16 2.7134209103e+15 1.21462880464e+16 2.29448893422e+15 1.70893368955e+15 2.37323580326e+15 1.81081819892e+14 3.58953456448e+13 5.64798391056e+14 3.6116187684e+12 724443379996 1.17761761309e+14 3.1699817534e+12 0 0 0 704652426656 0 0 0 0 
0 0 0 0 1.36362248233e+15 0 0 3.64989727097e+12 2.90129775555e+12 6.80044941706e+12 5.81337637196e+13 1.94018777273e+13 7.0940337107e+13 1.49443975658e+14 2.5144495675e+15 3.92711154601e+15 9.23143683223e+15 3.93249698745e+14 3.05268534457e+15 7.96490451841e+15 6.17400717561e+15 1.37774041216e+16 1.88068792314e+16 2.81712758356e+16 3.06630707005e+16 4.89467592092e+16 5.46251487667e+16 8.13053275168e+16 1.09182457324e+17 1.11705091413e+17 1.38725106753e+17 1.72914544575e+17 1.90666929067e+17 2.06228685058e+17 3.13207181756e+17 2.62310900259e+17 2.95485356372e+17 3.00038658327e+17 4.29835791321e+17 4.2836587169e+17 4.73868989439e+17 4.61284514989e+17 5.46423758876e+17 5.32384299172e+17 4.65938196782e+17 4.63213899989e+17 5.32688147835e+17 4.15471690669e+17 4.33037735031e+17 4.54977653917e+17 4.01422607526e+17 4.23945603919e+17 3.57530504867e+17 3.26585627519e+17 2.75050958435e+17 2.3295665609e+17 1.93877774151e+17 1.65991163102e+17 1.38242985767e+17 1.25290852402e+17 1.08624849028e+17 8.7047182261e+16 1.03664879788e+17 3.94784014359e+16 6.77974630022e+16 4.36198444856e+16 1.91942423023e+16 1.03584875801e+16 6.49066933412e+15 1.36903842744e+16 1.75979893866e+15 7.1989152961e+15 2.01999874957e+15 6.00520008226e+15 2.30852112732e+15 2.06554201034e+15 1.94612157851e+15 7.47946025709e+12 6.45895093332e+15 9.17657903663e+13 0 0 0 0 0 0 0 0 0 0 
0 0 0 5.06058673626e+12 0 0 0 1.29523919164e+12 728136306411 1.19547914682e+14 0 0 2.17188261512e+14 2.96565422174e+13 1.09430377152e+15 1.88584329305e+15 3.20288396195e+15 2.03746509077e+15 1.1243028577e+16 9.08933717135e+15 1.55660701426e+16 1.16893025421e+16 1.38735024449e+16 3.22498510971e+16 2.13395699713e+16 2.54404662929e+16 4.22954780437e+16 4.48241915359e+16 5.40909724125e+16 1.05503494077e+17 8.41555805626e+16 1.6565608794e+17 1.33263577937e+17 1.90519620166e+17 2.06799841431e+17 2.46173762035e+17 2.3273051109e+17 2.66512824235e+17 3.25574592167e+17 3.22144716904e+17 3.36407645213e+17 3.61017072066e+17 3.81783444729e+17 4.16788638079e+17 4.34363202853e+17 4.50197981101e+17 3.6517854432e+17 3.5922104452e+17 3.56649143598e+17 3.42253810484e+17 3.5074224835e+17 3.17532545516e+17 2.48484353966e+17 2.31650602796e+17 1.88207521536e+17 2.13773004237e+17 1.97215859918e+17 1.25392389474e+17 1.27329280847e+17 1.09653834237e+17 9.28342808983e+16 5.8352805382e+16 5.13677054113e+16 5.13061602919e+16 2.40122838032e+16 3.05455175156e+16 2.3034408018e+16 1.0005923715e+16 1.17018062835e+16 9.18008238582e+15 1.27166029176e+15 3.36054942105e+15 1.28584000478e+15 4.47654735338e+15 4.72025885387e+14 4.43947866306e+14 1.26859915264e+14 9.47056981059e+14 2.72514740855e+14 1.18441901115e+13 6.10864852924e+12 650779978314 0 3.98108926107e+12 0 0 0 0 0 0 
0 0 0 0 0 0 0 0 0 381667903421 9.05443153396e+14 9.07969054475e+14 316055305144 5.99649151278e+14 5.46895386081e+12 7.4988676091e+14 2.66158579314e+15 1.11101705041e+15 1.99146027214e+14 2.31428298269e+15 9.37450528238e+15 7.75639230495e+15 8.87535372494e+15 1.65186143595e+16 3.11238731306e+16 3.13069484324e+16 4.49499177989e+16 5.32187789165e+16 7.29472992169e+16 4.97777096284e+16 7.20608119937e+16 1.03118505723e+17 1.23463361147e+17 1.66924742733e+17 1.36873094378e+17 1.58689742858e+17 1.91739284665e+17 2.20393765065e+17 2.35818273087e+17 2.4260615516e+17 2.52638108501e+17 2.98399171749e+17 2.99235863539e+17 3.74383021821e+17 3.32100659529e+17 3.27317572898e+17 2.88861686816e+17 2.73873819734e+17 2.53195889165e+17 3.07340575402e+17 2.3740038163e+17 2.46016450899e+17 2.08735614196e+17 2.47386331921e+17 2.11567041798e+17 1.75217788124e+17 1.37890855072e+17 1.24344670987e+17 6.9521678976e+16 8.98787659353e+16 7.1398088442e+16 5.40331468528e+16 4.71347779761e+16 3.05066476717e+16 3.30895176925e+16 3.65055623556e+16 1.67053165656e+16 2.65666738033e+16 6.32010289323e+15 1.04938058539e+16 4.21571788797e+15 3.30450652002e+14 3.04689664916e+14 4.51143783469e+15 1.98929792178e+14 7.04977126319e+14 2.73749782719e+14 1.04115050532e+15 0 4.72441089095e+12 0 0 0 0 0 0 0 0 0 0 
0 0 0 0 0 0 0 0 0 1.08061830238e+12 0 0 1.71056512425e+13 340434735082 3.67975251295e+14 4.31755721151e+14 3.11997326189e+14 3.85324294177e+14 8.74922366024e+15 7.01520532596e+15 3.21411230336e+15 1.55418911308e+15 1.16166384828e+16 2.1074350265e+16 2.58762131459e+16 1.85988251332e+16 2.00151633436e+16 2.4333432184e+16 4.79361623355e+16 3.36785225747e+16 5.87061438915e+16 6.1694253919e+16 9.08851622681e+16 1.3828307685e+17 1.1754908319e+17 1.598796557e+17 1.37777522554e+17 1.59721174065e+17 1.82370563687e+17 1.64063487431e+17 1.86567209163e+17 2.02764027405e+17 2.45023347344e+17 2.61636390245e+17 2.38213128115e+17 2.11837572489e+17 2.23282712614e+17 2.14082722717e+17 2.50064531362e+17 1.88825319366e+17 2.10382125498e+17 1.67929187962e+17 1.58698804633e+17 1.10955008334e+17 1.06510030311e+17 1.12317966692e+17 1.0644985488e+17 7.96685285662e+16 6.29295307847e+16 5.10330961993e+16 3.17578708775e+16 4.29420515777e+16 3.28507458756e+16 2.10729563214e+16 2.21603367903e+16 1.75397280431e+16 7.57267747744e+15 4.27581092369e+15 7.24160257223e+15 5.2794808347e+15 7.44548116522e+15 5.26329079006e+15 3.77331392364e+15 4.43179204166e+12 2.83534449309e+15 1.86315349691e+12 1.83075761471e+14 2.28825243712e+15 0 6.21687934344e+12 3.03297219088e+12 0 0 0 0 0 0 0 0 0 
0 0 0 0 0 0 0 0 0 0 4.22075480665e+14 3.70057360883e+12 1.663496745e+13 4.7390476577e+14 2.27930353488e+13 1.63961669286e+15 5.44079089248e+13 1.52344708554e+13 1.05887858443e+15 5.89340760189e+15 4.08538938164e+15 4.80151298474e+14 7.18101056703e+15 7.52365232908e+15 2.26007297696e+16 1.27713507143e+16 3.23155523186e+16 2.18754916175e+16 3.19345393815e+16 2.97177945069e+16 5.18523895209e+16 7.22899764471e+16 5.96467950142e+16 5.78159720239e+16 7.37528089862e+16 1.17538425711e+17 1.07295637502e+17 8.95358609553e+16 1.34410051149e+17 1.36521281537e+17 1.38966301032e+17 1.56084861698e+17 1.51864826821e+17 1.69005599626e+17 1.83272027793e+17 1.66236022758e+17 2.01380158589e+17 1.16572341175e+17 1.56023584712e+17 1.31104848621e+17 1.32611000053e+17 1.43770030273e+17 9.69925144078e+16 9.97935434855e+16 1.14563655128e+17 8.13927372397e+16 5.30271958925e+16 5.6956382187e+16 5.15852244441e+16 4.09741832598e+16 3.33081071377e+16 2.59056890304e+16 3.2411474958e+16 1.5044678902e+16 1.6975234789e+16 7.93394088333e+15 1.26110074391e+16 8.44133011086e+15 9.25327288423e+15 7.24757013811e+15 5.38610335175e+15 8.13975608194e+13 3.91631533835e+13 1.38089345281e+13 3.12824984237e+14 3.76631577123e+14 394689135058 1.13579632795e+12 4.76223186855e+12 4.12259557615e+13 0 0 0 0 0 0 0 0 0 0 
0 0 0 0 0 0 0 0 0 0 0 0 9.41646721873e+13 1.25686881389e+15 4.71507277832e+13 2.92077980608e+14 2.99091172075e+12 1.64234124303e+13 8.50226732896e+15 1.22828825815e+13 3.33117294655e+14 9.67036050515e+15 1.40935359879e+15 4.13066884972e+15 1.52371058944e+16 7.21318555227e+15 1.93958593112e+16 3.26362962887e+16 1.55182659407e+16 1.87749929257e+16 2.19449199953e+16 2.14302369493e+16 4.45381972016e+16 5.64712450126e+16 8.23056961556e+16 7.30470178335e+16 7.02133282176e+16 7.56466036526e+16 8.27934749355e+16 7.94936130403e+16 1.01561788244e+17 1.0189102114e+17 9.92965962209e+16 1.10478362038e+17 1.31398096892e+17 1.05799669092e+17 1.10831146593e+17 9.43082025199e+16 8.96723009315e+16 8.50245469768e+16 9.85948792633e+16 7.36710282149e+16 9.05716096628e+16 6.86898559009e+16 6.03092954821e+16 5.90199663022e+16 5.02126196439e+16 3.23390877406e+16 4.67647453367e+16 3.36896169593e+16 3.08078654346e+16 2.28890720364e+16 1.32345713463e+16 1.08973173482e+16 1.06831883203e+16 3.5296080682e+15 4.27422545345e+15 1.46542015371e+16 2.57361952151e+15 4.94713154695e+14 3.97231194556e+14 1.5013765863e+13 7.9149165892e+14 4.22516979911e+15 999824695327 1.82756343404e+13 3.09032824425e+12 7.02432306051e+12 1.31069229743e+14 292376645210 0 0 0 0 0 0 0 0 0 0 
0 0 0 0 0 0 0 0 0 0 0 0 374198971295 0 6.73155805819e+12 4.29727031175e+12 1.23509553792e+13 2.96532662964e+13 1.80570920103e+15 2.49254078348e+15 1.17476654507e+14 4.40722381619e+15 8.69897493274e+15 1.26957268765e+15 1.13438792358e+15 6.51508997995e+15 1.11446350148e+16 2.030285666e+16 1.13463908151e+16 1.56434886094e+16 1.63577964351e+16 1.69339468211e+16 2.39338002307e+16 2.59484994678e+16 4.40429586511e+16 3.57253632447e+16 5.11064157443e+16 4.4357388671e+16 3.45953141873e+16 4.09329466968e+16 5.40553714165e+16 5.96308749947e+16 6.11641438683e+16 7.15502102539e+16 5.9518091768e+16 6.61041705316e+16 6.82540133545e+16 8.87407933538e+16 4.17259089688e+16 7.23873541578e+16 5.12617286034e+16 5.53563356606e+16 4.81228664127e+16 3.55259605599e+16 4.61015735208e+16 2.05176114499e+16 3.586724588e+16 1.2531414084e+16 2.19696622604e+16 1.11709712346e+16 2.20967318807e+16 1.05664207481e+16 1.08573451162e+16 1.17813677061e+16 4.3212345432e+15 2.79592079222e+15 3.18501856586e+14 2.42801643473e+14 2.27744049573e+15 3.23470801065e+15 3.89005098399e+14 2.19230019399e+14 5.77550039248e+12 717236208365 3.54270052257e+12 7.50526297696e+12 4.37999767542e+12 1.2135797358e+12 1.27801981282e+12 0 0 0 0 0 0 0 0 0 0 0 
0 0 0 0 0 0 0 0 0 0 0 0 0 0 4.33151644548e+12 0 1.68101442672e+13 4.56897855589e+12 2.56180140888e+14 3.82564594662e+15 1.54104150059e+15 3.6688881747e+15 1.51364175718e+15 5.91525970683e+13 9.1184450025e+15 4.25209684745e+15 1.02840091656e+15 9.67015157226e+15 1.00106346922e+16 1.01307642899e+16 9.91754257244e+15 1.69897558638e+16 1.21032829999e+16 1.22243471015e+16 1.72162869272e+16 1.9229333805e+16 2.9239874863e+16 1.77380757597e+16 3.93939650629e+16 3.70553856458e+16 2.56941565296e+16 5.0763327303e+16 4.6564863067e+16 4.57120245376e+16 5.06527303845e+16 4.88568848077e+16 3.98832516295e+16 4.05006696207e+16 4.62515134599e+16 4.55738824541e+16 4.97110296018e+16 4.77435918975e+16 4.904619622e+16 1.52864296853e+16 2.78533371709e+16 1.74119361304e+16 1.82243685186e+16 8.37349769497e+15 1.63296943969e+16 1.87748831714e+16 1.52077037693e+16 3.94541708084e+15 7.60800368156e+15 2.78624586712e+15 1.98918512704e+15 5.92661915337e+13 7.00489017199e+13 4.66800851549e+15 3.90332809301e+13 3.70084454312e+13 3.67088287253e+15 1.00494720222e+13 8.30460250634e+12 1.67909804729e+12 0 9.45798506016e+12 0 0 1.07506594762e+13 1.41073066546e+12 0 0 0 0 0 0 0 0 0 0 
0 0 0 0 0 0 0 0 0 0 0 0 0 1.71854750285e+15 0 9.49324793794e+14 1.22466597401e+14 0 0 0 8.00368153807e+13 4.93683235312e+14 3.14526660567e+13 4.65901526526e+15 2.01017077103e+15 2.08661126325e+15 3.92133511449e+15 3.86941943263e+15 6.42934010587e+15 4.88196820318e+15 6.5772931914e+15 1.05899594649e+16 1.54544326508e+16 6.10661790014e+15 8.09575426105e+15 2.81075962421e+15 1.61618968143e+16 1.63969616138e+16 2.32119269924e+16 1.62130875108e+16 1.70483485766e+16 1.42448134309e+16 1.56550154388e+16 2.42570805141e+16 3.7297972364e+16 2.58113708004e+16 2.45926869496e+16 2.20102712994e+16 3.2315953332e+16 1.40593653624e+16 1.69119862426e+16 2.01132184811e+16 2.26528371954e+16 1.12056598038e+16 5.66755733286e+15 2.1088845597e+16 1.6829219111e+16 8.23637315295e+15 3.10254627645e+15 6.0141936072e+15 1.09284485559e+16 2.5370207519e+15 3.19244811939e+15 5.36763957321e+15 6.78888747179e+14 3.0079956819e+13 7.58338100147e+12 2.2661120549e+14 1.41466711965e+13 2.41146574542e+15 5.03590796371e+12 752853168433 0 0 0 0 0 0 0 0 0 0 0 0 0 0 0 0 0 0 
0 0 0 0 0 0 0 0 0 0 0 654513607649 0 0 0 3.82691078722e+15 8.35973452607e+12 5.08367692558e+12 547547402612 1.29720179569e+13 445636577034 2.05897658425e+13 1.32621430509e+13 1.45770550936e+13 1.03996227284e+13 8.13254039301e+14 2.82899344828e+15 3.99948643778e+13 9.79008399621e+14 3.74156121151e+15 7.54863457399e+15 6.61876859457e+15 1.242313403e+16 8.07951846144e+15 1.95756874142e+15 7.83177168669e+15 7.16705814427e+15 8.8895993692e+15 6.4532296171e+15 1.54588483366e+16 9.78633563083e+15 7.05042622393e+15 7.53908462286e+15 1.56250942194e+16 2.13894889689e+15 1.40995518344e+16 1.24156636449e+16 1.41262034649e+16 8.10784679813e+15 1.95091470738e+16 5.30275165045e+15 6.5199876297e+15 1.25734389184e+16 1.42767015247e+16 8.41659226719e+15 1.3519489635e+16 7.00489504685e+15 3.09448699043e+15 9.02904230305e+15 8.81416927291e+14 2.28712806659e+15 8.62283635615e+14 3.30919024458e+15 4.03801142587e+15 4.07454271611e+14 3.01146303237e+13 616281701964 8.61992889541e+12 1.18777793582e+14 2.78492823993e+14 1.21649588775e+13 0 0 1.7636925672e+13 0 0 0 3.00431056736e+12 0 0 0 0 0 0 0 0 0 0 0 0 
0 0 0 0 0 0 0 0 0 0 0 0 0 0 0 0 0 0 2.12517319204e+13 3.34697397238e+12 2.85879242463e+15 0 0 1.72731976058e+15 5.68585727195e+12 5.55617618601e+13 3.61221629703e+15 4.33700349714e+12 3.61717736298e+14 1.30808190283e+14 7.64280164609e+14 1.35799133317e+15 7.57092492543e+15 1.96382571284e+15 3.83175486081e+15 5.05384599394e+15 2.86451777364e+15 9.23212634219e+15 4.06696369734e+15 2.13819812717e+15 5.61113955089e+15 9.8499791398e+15 4.41535195353e+15 4.1012565856e+15 2.29734371069e+16 9.63452891548e+14 3.1454373522e+15 1.06682014879e+16 5.9290772226e+15 3.24948053365e+15 8.38022372261e+15 3.67236719509e+15 5.43919609115e+15 4.58381202005e+15 1.55818236563e+15 4.815595642e+15 4.76662413082e+15 8.80393137334e+15 1.46086937065e+15 5.25771680431e+15 1.98064098633e+13 4.86486742876e+15 4.55366319692e+14 1.89136382491e+15 1.99150110122e+15 1.81094080515e+13 2.04329365457e+13 1.12917489162e+13 0 311895869871 0 0 0 0 0 0 0 0 0 0 0 0 0 0 0 0 0 0 0 0 
0 0 0 0 0 0 0 0 0 0 0 0 0 0 0 0 0 0 0 295172120231 0 4.76297163284e+12 5.09285070255e+12 3.72175513854e+15 7.93149068771e+13 0 4.12738638261e+12 6.75817123638e+14 354825161746 2.21252719525e+15 8.50904939468e+12 8.96890929074e+14 1.33257223471e+14 1.23222800457e+15 7.3503302365e+13 3.18932608503e+15 4.90246693425e+14 1.96638542626e+14 2.87158832351e+14 2.58424581513e+14 4.30928862044e+15 8.71424378605e+13 6.38505689117e+15 2.16991813668e+15 7.47159199495e+14 1.52702345761e+15 3.99568344538e+15 2.89597879615e+15 3.74015872631e+15 7.72745330084e+15 1.20444859557e+15 2.51403054182e+15 3.39510284281e+13 1.69515312037e+14 5.89141401716e+14 1.05846413172e+15 3.70675513647e+14 3.21940212119e+14 2.3584710771e+14 1.99494179996e+15 2.79135866528e+14 3.40271372737e+15 619878993892 1.41587138029e+14 315403683186 0 0 0 1.0165060877e+12 410742275390 0 1.15621501077e+15 4.80926477434e+12 0 0 0 0 0 0 0 0 0 0 0 0 0 0 0 0 0 
0 0 0 0 0 0 0 0 0 0 5.03948828634e+12 0 0 0 0 0 0 0 0 0 1.42523908345e+12 0 0 0 5.93343170764e+12 1.5751122679e+14 0 8.80476879142e+12 2.00959378955e+13 5.34602339907e+14 2.49818748917e+13 2.96107173294e+15 8.6919876036e+13 3.73031950924e+15 9.44331038897e+12 2.92690137107e+13 2.92675769997e+13 6.59959055404e+12 3.65661226153e+15 1.95115060672e+14 8.25282235233e+15 1.04588626586e+14 8.43254681258e+14 1.74824202357e+15 8.85737144189e+15 1.68042015382e+14 1.29188059753e+15 3.14252268144e+14 1.15194400735e+15 1.31272469848e+14 4.72560715374e+13 1.30038375343e+14 2.27101533786e+13 4.12814517856e+15 3.32266099872e+13 7.82394069436e+12 1.19704949895e+14 6.27410085622e+14 1.3024107152e+15 6.19286641522e+13 1.17502308346e+15 3.89686416959e+12 0 2.82572071376e+14 4.2701264929e+12 7.17720020629e+12 0 0 0 0 0 0 0 0 0 4.58613682931e+12 0 0 0 0 0 0 0 0 0 0 0 0 0 0 
0 0 0 0 0 0 0 0 0 0 0 0 0 0 0 0 0 0 0 0 0 0 0 0 3.51659630916e+12 382599937598 5.21719677675e+12 0 0 8.7708073296e+14 5.02618140896e+14 463097886930 3.57800029243e+15 4.28088458619e+12 3.35696998913e+15 0 2.60933444776e+12 5.2491526041e+12 9.77064367732e+12 3.7272525487e+15 1.99358251691e+13 1.00578213493e+15 9.84907368423e+12 4.80927800313e+15 1.33339096876e+15 5.30294808904e+12 1.8448494081e+13 9.19231451014e+12 1.65945126951e+15 2.44183491391e+14 3.11357029515e+15 0 8.91174056556e+14 5.68248506232e+14 317760432540 0 1.88279193027e+13 1.49198453424e+13 0 312810066972 0 0 0 2.85461660604e+14 0 3.00495316764e+12 0 0 0 0 1.30613321115e+12 0 0 0 0 0 0 0 0 0 0 0 0 0 0 0 0 0 0 0 
0 0 0 0 0 0 0 0 0 0 0 0 0 0 0 0 0 3.33831367333e+12 0 0 0 0 0 0 4.77199123464e+12 3.02485930543e+12 0 0 0 3.44220268022e+12 0 4.46408211571e+13 7.49978370423e+13 0 376346807808 0 9.97154293135e+12 1.36810799173e+12 0 0 4.93824442252e+12 434031708152 4.72804933385e+12 3.46745841335e+12 0 2.14402976039e+14 4.9808091995e+12 425146370290 1.92490124552e+12 297091253217 2.4762011242e+14 1.48504413476e+14 0 0 4.38784134426e+12 2.76781417507e+13 3.01098067313e+12 0 0 0 0 0 0 4.52198487695e+12 0 0 0 0 0 0 0 0 0 0 0 0 0 0 0 0 0 0 0 0 0 0 0 0 0 0 
0 0 0 0 0 0 0 0 0 0 0 0 0 0 0 0 0 0 0 0 0 0 0 0 0 0 0 0 0 0 0 0 298288649277 0 0 0 0 0 618216571397 0 1.13902472199e+12 0 2.14694087905e+15 0 1.38861626888e+13 0 396476377144 0 9.94172182227e+14 0 1.56869344988e+15 5.83524842578e+12 0 0 0 0 0 0 0 0 0 0 0 0 0 0 0 0 0 0 0 0 0 0 0 0 0 0 0 0 0 0 0 0 0 0 0 0 0 0 
0 0 0 0 0 0 0 0 0 0 0 0 0 0 0 0 0 0 0 0 0 0 0 0 0 0 0 0 0 0 0 0 0 0 3.28822502832e+12 0 0 0 0 2.96626843178e+12 1.65744595402e+15 0 0 2.42884268702e+13 297633667414 0 3.18712448815e+15 1.75562609078e+14 0 0 0 0 0 910316112829 0 337312728812 0 0 0 0 0 0 0 0 4.97428244737e+12 0 0 0 0 0 0 0 0 0 0 0 0 0 0 0 0 0 0 0 0 0 0 0 0 0 
0 0 0 0 0 0 0 0 0 0 0 0 0 0 0 0 0 0 0 0 304817263885 0 0 0 0 0 0 0 0 0 0 0 0 0 0 0 0 0 0 0 0 0 0 0 0 0 0 0 0 0 0 0 0 0 0 1.72818820111e+12 0 0 0 0 0 0 0 0 0 0 0 0 0 0 0 0 0 0 0 0 0 0 0 0 0 0 0 0 0 0 0 0 0 0 
0 0 0 0 0 0 0 0 0 0 0 0 0 0 0 0 0 0 0 0 0 0 0 0 0 0 0 0 0 0 0 0 0 0 0 0 0 0 0 0 0 403228586410 0 0 0 0 0 0 0 0 0 0 0 0 0 0 0 0 0 0 0 0 0 0 0 0 0 0 0 0 0 0 0 0 0 0 0 0 0 0 0 0 0 0 0 0 0 0 0 0 
0 0 0 0 0 0 0 0 0 0 0 0 0 0 0 0 0 0 0 0 0 0 0 0 0 0 0 0 0 0 0 0 0 0 0 0 0 0 0 0 0 0 0 0 0 0 0 0 0 0 0 0 0 0 0 0 0 0 0 0 0 0 0 0 0 0 0 0 0 0 0 0 0 0 0 0 0 0 0 0 0 0 0 0 0 0 0 0 0 0 
0 0 0 0 0 0 0 0 0 0 0 0 0 0 0 0 0 0 0 0 0 0 0 0 0 0 0 0 0 0 0 0 0 0 0 0 0 0 0 0 0 0 0 0 0 0 0 0 0 0 0 0 0 0 0 0 0 0 0 0 0 0 0 0 0 0 0 0 0 0 0 0 0 0 0 0 0 0 0 0 0 0 0 0 0 0 0 0 0 0 
0 0 0 0 0 0 0 0 0 0 0 0 0 0 0 0 0 0 0 0 0 0 0 0 0 0 0 0 0 0 0 0 0 0 0 0 0 0 0 0 0 0 0 0 0 0 0 0 0 0 0 0 0 0 0 0 0 0 0 0 0 0 0 0 0 0 0 0 0 0 0 0 0 0 0 0 0 0 0 0 0 0 0 0 0 0 0 0 0 0 
0 0 0 0 0 0 0 0 0 0 0 0 0 0 0 0 0 0 0 0 0 0 0 0 0 0 0 0 0 0 0 0 0 0 0 0 0 0 0 0 0 0 0 0 0 0 0 0 0 0 0 0 0 0 0 0 0 0 0 0 0 0 0 0 0 0 0 0 0 0 0 0 0 0 0 0 0 0 0 0 0 0 0 0 0 0 0 0 0 0 
0 0 0 0 0 0 0 0 0 0 0 0 0 0 0 0 0 0 0 0 0 0 0 0 0 0 0 0 0 0 0 0 0 0 0 0 0 0 0 0 0 0 0 0 0 0 0 0 0 0 0 0 0 0 0 0 0 0 0 0 0 0 0 0 0 0 0 0 0 0 0 0 0 0 0 0 0 0 0 0 0 0 0 0 0 0 0 0 0 0 
0 0 0 0 0 0 0 0 0 0 0 0 0 0 0 0 0 0 0 0 0 0 0 0 0 0 0 0 0 0 0 0 0 0 0 0 0 0 0 0 0 0 0 0 0 0 0 0 0 0 0 0 0 0 0 0 0 0 0 0 0 0 0 0 0 0 0 0 0 0 0 0 0 0 0 0 0 0 0 0 0 0 0 0 0 0 0 0 0 0 
0 0 0 0 0 0 0 0 0 0 0 0 0 0 0 0 0 0 0 0 0 0 0 0 0 0 0 0 0 0 0 0 0 0 0 0 0 0 0 0 0 0 0 0 0 0 0 0 0 0 0 0 0 0 0 0 0 0 0 0 0 0 0 0 0 0 0 0 0 0 0 0 0 0 0 0 0 0 0 0 0 0 0 0 0 0 0 0 0 0 
0 0 0 0 0 0 0 0 0 0 0 0 0 0 0 0 0 0 0 0 0 0 0 0 0 0 0 0 0 0 0 0 0 0 0 0 0 0 0 0 0 0 0 0 0 0 0 0 0 0 0 0 0 0 0 0 0 0 0 0 0 0 0 0 0 0 0 0 0 0 0 0 0 0 0 0 0 0 0 0 0 0 0 0 0 0 0 0 0 0 
0 0 0 0 0 0 0 0 0 0 0 0 0 0 0 0 0 0 0 0 0 0 0 0 0 0 0 0 0 0 0 0 0 0 0 0 0 0 0 0 0 0 0 0 0 0 0 0 0 0 0 0 0 0 0 0 0 0 0 0 0 0 0 0 0 0 0 0 0 0 0 0 0 0 0 0 0 0 0 0 0 0 0 0 0 0 0 0 0 0 
0 0 0 0 0 0 0 0 0 0 0 0 0 0 0 0 0 0 0 0 0 0 0 0 0 0 0 0 0 0 0 0 0 0 0 0 0 0 0 0 0 0 0 0 0 0 0 0 0 0 0 0 0 0 0 0 0 0 0 0 0 0 0 0 0 0 0 0 0 0 0 0 0 0 0 0 0 0 0 0 0 0 0 0 0 0 0 0 0 0 
0 0 0 0 0 0 0 0 0 0 0 0 0 0 0 0 0 0 0 0 0 0 0 0 0 0 0 0 0 0 0 0 0 0 0 0 0 0 0 0 0 0 0 0 0 0 0 0 0 0 0 0 0 0 0 0 0 0 0 0 0 0 0 0 0 0 0 0 0 0 0 0 0 0 0 0 0 0 0 0 0 0 0 0 0 0 0 0 0 0 
0 0 0 0 0 0 0 0 0 0 0 0 0 0 0 0 0 0 0 0 0 0 0 0 0 0 0 0 0 0 0 0 0 0 0 0 0 0 0 0 0 0 0 0 0 0 0 0 0 0 0 0 0 0 0 0 0 0 0 0 0 0 0 0 0 0 0 0 0 0 0 0 0 0 0 0 0 0 0 0 0 0 0 0 0 0 0 0 0 0 
0 0 0 0 0 0 0 0 0 0 0 0 0 0 0 0 0 0 0 0 0 0 0 0 0 0 0 0 0 0 0 0 0 0 0 0 0 0 0 0 0 0 0 0 0 0 0 0 0 0 0 0 0 0 0 0 0 0 0 0 0 0 0 0 0 0 0 0 0 0 0 0 0 0 0 0 0 0 0 0 0 0 0 0 0 0 0 0 0 0 
0 0 0 0 0 0 0 0 0 0 0 0 0 0 0 0 0 0 0 0 0 0 0 0 0 0 0 0 0 0 0 0 0 0 0 0 0 0 0 0 0 0 0 0 0 0 0 0 0 0 0 0 0 0 0 0 0 0 0 0 0 0 0 0 0 0 0 0 0 0 0 0 0 0 0 0 0 0 0 0 0 0 0 0 0 0 0 0 0 0 
0 0 0 0 0 0 0 0 0 0 0 0 0 0 0 0 0 0 0 0 0 0 0 0 0 0 0 0 0 0 0 0 0 0 0 0 0 0 0 0 0 0 0 0 0 0 0 0 0 0 0 0 0 0 0 0 0 0 0 0 0 0 0 0 0 0 0 0 0 0 0 0 0 0 0 0 0 0 0 0 0 0 0 0 0 0 0 0 0 0 
0 0 0 0 0 0 0 0 0 0 0 0 0 0 0 0 0 0 0 0 0 0 0 0 0 0 0 0 0 0 0 0 0 0 0 0 0 0 0 0 0 0 0 0 0 0 0 0 0 0 0 0 0 0 0 0 0 0 0 0 0 0 0 0 0 0 0 0 0 0 0 0 0 0 0 0 0 0 0 0 0 0 0 0 0 0 0 0 0 0 
0 0 0 0 0 0 0 0 0 0 0 0 0 0 0 0 0 0 0 0 0 0 0 0 0 0 0 0 0 0 0 0 0 0 0 0 0 0 0 0 0 0 0 0 0 0 0 0 0 0 0 0 0 0 0 0 0 0 0 0 0 0 0 0 0 0 0 0 0 0 0 0 0 0 0 0 0 0 0 0 0 0 0 0 0 0 0 0 0 0 
0 0 0 0 0 0 0 0 0 0 0 0 0 0 0 0 0 0 0 0 0 0 0 0 0 0 0 0 0 0 0 0 0 0 0 0 0 0 0 0 0 0 0 0 0 0 0 0 0 0 0 0 0 0 0 0 0 0 0 0 0 0 0 0 0 0 0 0 0 0 0 0 0 0 0 0 0 0 0 0 0 0 0 0 0 0 0 0 0 0 
0 0 0 0 0 0 0 0 0 0 0 0 0 0 0 0 0 0 0 0 0 0 0 0 0 0 0 0 0 0 0 0 0 0 0 0 0 0 0 0 0 0 0 0 0 0 0 0 0 0 0 0 0 0 0 0 0 0 0 0 0 0 0 0 0 0 0 0 0 0 0 0 0 0 0 0 0 0 0 0 0 0 0 0 0 0 0 0 0 0 
0 0 0 0 0 0 0 0 0 0 0 0 0 0 0 0 0 0 0 0 0 0 0 0 0 0 0 0 0 0 0 0 0 0 0 0 0 0 0 0 0 0 0 0 0 0 0 0 0 0 0 0 0 0 0 0 0 0 0 0 0 0 0 0 0 0 0 0 0 0 0 0 0 0 0 0 0 0 0 0 0 0 0 0 0 0 0 0 0 0 
0 0 0 0 0 0 0 0 0 0 0 0 0 0 0 0 0 0 0 0 0 0 0 0 0 0 0 0 0 0 0 0 0 0 0 0 0 0 0 0 0 0 0 0 0 0 0 0 0 0 0 0 0 0 0 0 0 0 0 0 0 0 0 0 0 0 0 0 0 0 0 0 0 0 0 0 0 0 0 0 0 0 0 0 0 0 0 0 0 0 
0 0 0 0 0 0 0 0 0 0 0 0 0 0 0 0 0 0 0 0 0 0 0 0 0 0 0 0 0 0 0 0 0 0 0 0 0 0 0 0 0 0 0 0 0 0 0 0 0 0 0 0 0 0 0 0 0 0 0 0 0 0 0 0 0 0 0 0 0 0 0 0 0 0 0 0 0 0 0 0 0 0 0 0 0 0 0 0 0 0 
0 0 0 0 0 0 0 0 0 0 0 0 0 0 0 0 0 0 0 0 0 0 0 0 0 0 0 0 0 0 0 0 0 0 0 0 0 0 0 0 0 0 0 0 0 0 0 0 0 0 0 0 0 0 0 0 0 0 0 0 0 0 0 0 0 0 0 0 0 0 0 0 0 0 0 0 0 0 0 0 0 0 0 0 0 0 0 0 0 0 
# Errors [psd0_dat/psd0.dat] E: 
0 0 0 0 0 0 0 0 0 0 0 0 0 0 0 0 0 0 0 0 0 0 0 0 0 0 0 0 0 0 0 0 0 0 0 0 0 0 0 0 0 0 0 0 0 0 0 0 0 0 0 0 0 0 0 0 0 0 0 0 0 0 0 0 0 0 0 0 0 0 0 0 0 0 0 0 0 0 0 0 0 0 0 0 0 0 0 0 0 0 
0 0 0 0 0 0 0 0 0 0 0 0 0 0 0 0 0 0 0 0 0 0 0 0 0 0 0 0 0 0 0 0 0 0 0 0 0 0 0 0 0 0 0 0 0 0 0 0 0 0 0 0 0 0 0 0 0 0 0 0 0 0 0 0 0 0 0 0 0 0 0 0 0 0 0 0 0 0 0 0 0 0 0 0 0 0 0 0 0 0 
0 0 0 0 0 0 0 0 0 0 0 0 0 0 0 0 0 0 0 0 0 0 0 0 0 0 0 0 0 0 0 0 0 0 0 0 0 0 0 0 0 0 0 0 0 0 0 0 0 0 0 0 0 0 0 0 0 0 0 0 0 0 0 0 0 0 0 0 0 0 0 0 0 0 0 0 0 0 0 0 0 0 0 0 0 0 0 0 0 0 
0 0 0 0 0 0 0 0 0 0 0 0 0 0 0 0 0 0 0 0 0 0 0 0 0 0 0 0 0 0 0 0 0 0 0 0 0 0 0 0 0 0 0 0 0 0 0 0 0 0 0 0 0 0 0 0 0 0 0 0 0 0 0 0 0 0 0 0 0 0 0 0 0 0 0 0 0 0 0 0 0 0 0 0 0 0 0 0 0 0 
0 0 0 0 0 0 0 0 0 0 0 0 0 0 0 0 0 0 0 0 0 0 0 0 0 0 0 0 0 0 0 0 0 0 0 0 0 0 0 0 0 0 0 0 0 0 0 0 0 0 0 0 0 0 0 0 0 0 0 0 0 0 0 0 0 0 0 0 0 0 0 0 0 0 0 0 0 0 0 0 0 0 0 0 0 0 0 0 0 0 
0 0 0 0 0 0 0 0 0 0 0 0 0 0 0 0 0 0 0 0 0 0 0 0 0 0 0 0 0 0 0 0 0 0 0 0 0 0 0 0 0 0 0 0 0 0 0 0 0 0 0 0 0 0 0 0 0 0 0 0 0 0 0 0 0 0 0 0 0 0 0 0 0 0 0 0 0 0 0 0 0 0 0 0 0 0 0 0 0 0 
0 0 0 0 0 0 0 0 0 0 0 0 0 0 0 0 0 0 0 0 0 0 0 0 0 0 0 0 0 0 0 0 0 0 0 0 0 0 0 0 0 0 0 0 0 0 0 0 0 0 0 0 0 0 0 0 0 0 0 0 0 0 0 0 0 0 0 0 0 0 0 0 0 0 0 0 0 0 0 0 0 0 0 0 0 0 0 0 0 0 
0 0 0 0 0 0 0 0 0 0 0 0 0 0 0 0 0 0 0 0 0 0 0 0 0 0 0 0 0 0 0 0 0 0 0 0 0 0 0 0 0 0 0 0 0 0 0 0 0 0 0 0 0 0 0 0 0 0 0 0 0 0 0 0 0 0 0 0 0 0 0 0 0 0 0 0 0 0 0 0 0 0 0 0 0 0 0 0 0 0 
0 0 0 0 0 0 0 0 0 0 0 0 0 0 0 0 0 0 0 0 0 0 0 0 0 0 0 0 0 0 0 0 0 0 0 0 0 0 0 0 0 0 0 0 0 0 0 0 0 0 0 0 0 0 0 0 0 0 0 0 0 0 0 0 0 0 0 0 0 0 0 0 0 0 0 0 0 0 0 0 0 0 0 0 0 0 0 0 0 0 
0 0 0 0 0 0 0 0 0 0 0 0 0 0 0 0 0 0 0 0 0 0 0 0 0 0 0 0 0 0 0 0 0 0 0 0 0 0 0 0 0 0 0 0 0 0 0 0 0 0 0 0 0 0 0 0 0 0 0 0 0 0 0 0 0 0 0 0 0 0 0 0 0 0 0 0 0 0 0 0 0 0 0 0 0 0 0 0 0 0 
0 0 0 0 0 0 0 0 0 0 0 0 0 0 0 0 0 0 0 0 0 0 0 0 0 0 0 0 0 0 0 0 0 0 0 0 0 0 0 0 0 0 0 0 0 0 0 0 0 0 0 0 0 0 0 0 0 0 0 0 0 0 0 0 0 0 0 0 0 0 0 0 0 0 0 0 0 0 0 0 0 0 0 0 0 0 0 0 0 0 
0 0 0 0 0 0 0 0 0 0 0 0 0 0 0 0 0 0 0 0 0 0 0 0 0 0 0 0 0 0 0 0 0 0 0 0 0 0 0 0 0 0 0 0 0 0 0 0 0 0 0 0 0 0 0 0 0 0 0 0 0 0 0 0 0 0 0 0 0 0 0 0 0 0 0 0 0 0 0 0 0 0 0 0 0 0 0 0 0 0 
0 0 0 0 0 0 0 0 0 0 0 0 0 0 0 0 0 0 0 0 0 0 0 0 0 0 0 0 0 0 0 0 0 0 0 0 0 0 0 0 0 0 0 0 0 0 0 0 0 0 0 0 0 0 0 0 0 0 0 0 0 0 0 0 0 0 0 0 0 0 0 0 0 0 0 0 0 0 0 0 0 0 0 0 0 0 0 0 0 0 
0 0 0 0 0 0 0 0 0 0 0 0 0 0 0 0 0 0 0 0 0 0 0 0 0 0 0 0 0 0 0 0 0 0 0 0 0 0 0 0 0 0 0 0 0 0 0 0 0 0 0 0 0 0 0 0 0 0 0 0 0 0 0 0 0 0 0 0 0 0 0 0 0 0 0 0 0 0 0 0 0 0 0 0 0 0 0 0 0 0 
0 0 0 0 0 0 0 0 0 0 0 0 0 0 0 0 0 0 0 0 0 0 0 0 0 0 0 0 0 0 0 0 0 0 0 0 0 0 0 0 0 0 0 0 0 0 0 0 0 0 0 0 0 0 0 0 0 0 0 0 0 0 0 0 0 0 0 0 0 0 0 0 0 0 0 0 0 0 0 0 0 0 0 0 0 0 0 0 0 0 
0 0 0 0 0 0 0 0 0 0 0 0 0 0 0 0 0 0 0 0 0 0 0 0 0 0 0 0 0 0 0 0 0 0 0 0 0 0 0 0 0 0 0 0 0 0 0 0 0 0 0 0 0 0 0 0 0 0 0 0 0 0 0 0 0 0 0 0 0 0 0 0 0 0 0 0 0 0 0 0 0 0 0 0 0 0 0 0 0 0 
0 0 0 0 0 0 0 0 0 0 0 0 0 0 0 0 0 0 0 0 0 0 0 0 0 0 0 0 0 0 0 0 0 0 0 0 0 0 0 0 0 0 0 0 0 0 0 0 0 0 0 0 0 0 0 0 0 0 0 0 0 0 0 0 0 0 0 0 0 0 0 0 0 0 0 0 0 0 0 0 0 0 0 0 0 0 0 0 0 0 
0 0 0 0 0 0 0 0 0 0 0 0 0 0 0 0 0 0 0 0 0 0 0 0 0 0 0 0 0 0 0 0 0 0 0 0 0 0 0 0 0 0 0 0 0 0 0 0 0 0 0 0 0 0 0 0 0 0 0 0 0 0 0 0 0 0 0 0 0 0 0 0 0 0 0 0 0 0 0 0 0 0 0 0 0 0 0 0 0 0 
0 0 0 0 0 0 0 0 0 0 0 0 0 0 0 0 0 0 0 0 0 0 0 0 0 0 0 0 0 0 0 0 0 0 0 0 0 0 0 0 0 0 0 0 0 0 0 0 0 0 0 0 0 0 0 0 0 0 0 0 0 0 0 0 0 0 0 0 0 0 0 0 0 0 0 0 0 0 0 0 0 0 0 0 0 0 0 0 0 0 
0 0 0 0 0 0 0 0 0 0 0 0 0 0 0 0 0 0 0 0 0 0 0 0 0 0 0 0 0 0 0 0 0 0 0 0 0 0 0 0 0 0 0 0 0 0 0 0 0 0 0 0 0 0 0 0 0 0 0 0 0 0 0 0 0 0 0 0 0 0 0 0 0 0 0 0 0 0 0 0 0 0 0 0 0 0 0 0 0 0 
0 0 0 0 0 0 0 0 0 0 0 0 0 0 0 0 0 0 0 0 0 0 0 0 0 0 0 0 0 0 0 0 0 0 0 0 0 0 0 0 0 0 0 0 0 0 0 0 0 0 0 0 0 0 0 0 0 0 0 0 0 0 0 0 0 0 0 0 0 0 0 0 0 0 0 0 0 0 0 0 0 0 0 0 0 0 0 0 0 0 
0 0 0 0 0 0 0 0 0 0 0 0 0 0 0 0 0 0 0 0 0 0 0 0 0 0 0 0 0 0 0 0 0 0 0 0 0 0 0 0 0 0 0 0 0 0 0 0 0 0 0 0 0 0 0 0 0 0 0 0 0 0 0 0 0 0 0 0 0 0 0 0 0 0 0 0 0 0 0 0 0 0 0 0 0 0 0 0 0 0 
0 0 0 0 0 0 0 0 0 0 0 0 0 0 0 0 0 0 0 0 0 0 0 0 0 0 0 0 0 0 0 0 0 0 0 0 0 0 0 0 0 0 0 0 0 0 0 0 0 0 0 0 0 0 0 0 0 0 0 0 0 0 0 0 0 0 0 0 0 0 0 0 0 0 0 0 0 0 0 0 0 0 0 0 0 0 0 0 0 0 
0 0 0 0 0 0 0 0 0 0 0 0 0 0 0 0 0 0 0 0 0 0 0 0 0 0 0 0 0 0 0 0 0 0 0 0 0 0 0 0 0 0 0 0 0 0 0 0 0 0 0 0 0 0 0 0 0 0 0 0 0 0 0 0 0 0 0 0 0 0 0 0 0 0 0 0 0 0 0 0 0 0 0 0 0 0 0 0 0 0 
0 0 0 0 0 0 0 0 0 0 0 0 0 0 0 0 0 0 0 0 0 0 0 0 0 0 0 0 0 0 0 0 0 0 0 0 0 0 0 0 0 0 0 0 0 0 0 0 0 0 0 0 0 0 0 0 0 0 0 0 0 0 0 0 0 0 0 0 0 0 0 0 0 0 0 0 0 0 0 0 0 0 0 0 0 0 0 0 0 0 
0 0 0 0 0 0 0 0 0 0 0 0 0 0 0 0 0 0 0 0 0 0 0 0 0 0 0 0 0 0 0 0 0 0 0 0 0 0 0 0 0 0 0 0 0 0 0 0 0 0 0 0 0 0 0 0 0 0 0 0 0 0 0 0 0 0 0 0 0 0 0 0 0 0 0 0 0 0 0 0 0 0 0 0 0 0 0 0 0 0 
0 0 0 0 0 0 0 0 0 0 0 0 0 0 0 0 0 0 0 0 0 0 0 0 0 0 0 0 0 0 0 0 0 0 0 0 0 0 0 0 0 0 0 0 0 0 0 0 0 0 0 0 0 0 0 0 0 0 0 0 0 0 0 0 0 0 0 0 0 0 0 0 0 0 0 0 0 0 0 0 0 0 0 0 0 0 0 0 0 0 
0 0 0 0 0 0 0 0 0 0 0 0 0 0 0 0 0 0 0 0 0 0 0 0 0 0 0 0 0 0 0 0 0 0 0 0 0 0 0 0 0 0 0 0 0 0 0 0 0 0 0 0 0 0 0 0 0 0 0 0 0 0 0 0 0 0 0 0 0 0 0 0 0 0 0 0 0 0 0 0 0 0 0 0 0 0 0 0 0 0 
0 0 0 0 0 0 0 0 0 0 0 0 0 0 0 0 0 0 0 0 0 0 0 0 0 0 0 0 0 0 0 0 0 0 0 0 0 0 0 0 0 0 0 0 0 0 0 0 0 0 0 0 0 0 0 0 0 0 0 0 0 0 0 0 0 0 0 0 0 0 0 0 0 0 0 0 0 0 0 0 0 0 0 0 0 0 0 0 0 0 
0 0 0 0 0 0 0 0 0 0 0 0 0 0 0 0 0 0 0 0 0 0 0 0 0 0 0 0 0 0 0 0 0 0 0 0 0 0 0 0 0 0 0 0 0 0 0 0 0 0 0 0 0 0 0 0 0 0 0 0 0 0 0 0 0 0 0 0 0 0 0 0 0 0 0 0 0 0 0 0 0 0 0 0 0 0 0 0 0 0 
0 0 0 0 0 0 0 0 0 0 0 0 0 0 0 0 0 0 0 0 0 0 0 0 0 0 0 0 0 0 0 0 0 0 0 0 0 0 0 0 0 0 0 0 0 0 0 0 0 0 0 0 0 0 0 0 0 0 0 0 0 0 0 0 0 0 0 0 0 0 0 0 0 0 0 0 0 0 0 0 0 0 0 0 0 0 0 0 0 0 
0 0 0 0 0 0 0 0 0 0 0 0 0 0 0 0 0 0 0 0 0 0 0 0 0 0 0 0 0 0 0 0 0 0 0 0 0 0 0 0 0 0 0 0 0 0 0 0 0 0 0 0 0 0 0 0 0 0 0 0 0 0 0 0 0 0 0 0 0 0 0 0 0 0 0 0 0 0 0 0 0 0 0 0 0 0 0 0 0 0 
0 0 0 0 0 0 0 0 0 0 0 0 0 0 0 0 0 0 0 0 0 0 0 0 0 0 0 0 0 0 0 0 0 0 0 0 0 0 0 0 0 0 0 0 0 0 0 0 0 0 0 0 0 0 0 0 0 0 0 0 0 0 0 0 0 0 0 0 0 0 0 0 0 0 0 0 0 0 0 0 0 0 0 0 0 0 0 0 0 0 
0 0 0 0 0 0 0 0 0 0 0 0 0 0 0 0 0 0 0 0 0 0 0 0 0 0 0 0 0 0 0 0 0 0 0 0 0 0 0 0 0 0 0 0 0 0 0 0 0 0 0 0 0 0 0 0 0 0 0 0 0 0 0 0 0 0 0 0 0 0 0 0 0 0 0 0 0 0 0 0 0 0 0 0 0 0 0 0 0 0 
0 0 0 0 0 0 0 0 0 0 0 0 0 0 0 0 0 0 0 0 0 0 0 0 0 0 0 0 0 0 0 0 0 0 0 0 0 0 0 0 0 0 0 0 0 0 0 0 0 0 0 0 0 0 0 0 0 0 0 0 0 0 0 0 0 0 0 0 0 0 0 0 0 0 0 0 0 0 0 0 0 0 0 0 0 0 0 0 0 0 
0 0 0 0 0 0 0 0 0 0 0 0 0 0 0 0 0 0 0 0 0 0 0 0 0 0 0 0 0 0 0 0 0 0 0 0 0 0 0 0 0 0 0 0 0 0 0 0 0 0 0 0 0 0 0 0 0 0 0 0 0 0 0 0 0 0 0 0 0 0 0 0 0 0 0 0 0 0 0 0 0 0 0 0 0 0 0 0 0 0 
0 0 0 0 0 0 0 0 0 0 0 0 0 0 0 0 0 0 0 0 0 0 0 0 0 0 0 0 0 0 0 0 0 0 0 0 0 0 0 0 0 0 0 0 0 0 0 0 0 0 0 0 0 0 0 0 0 0 0 0 0 0 0 0 0 0 0 0 0 0 0 0 0 0 0 0 0 0 0 0 0 0 0 0 0 0 0 0 0 0 
0 0 0 0 0 0 0 0 0 0 0 0 0 0 0 0 0 0 0 0 0 0 0 0 0 0 0 0 0 0 0 0 0 0 0 0 0 0 0 0 0 0 0 0 0 0 0 0 0 0 0 0 0 0 0 0 0 0 0 0 0 0 0 0 0 0 0 0 0 0 0 0 0 0 0 0 0 0 0 0 0 0 0 0 0 0 0 0 0 0 
0 0 0 0 0 0 0 0 0 0 0 0 0 0 0 0 0 0 0 0 0 0 0 0 0 0 0 0 0 0 0 0 0 0 0 0 0 0 0 0 0 0 0 0 0 0 0 0 0 0 0 0 0 0 0 0 0 0 0 0 0 0 0 0 0 0 0 0 0 0 0 0 0 0 0 0 0 0 0 0 0 0 0 0 0 0 0 0 0 0 
0 0 0 0 0 0 0 0 0 0 0 0 0 0 0 0 0 0 0 0 0 0 0 0 0 0 0 0 0 0 0 0 0 0 0 0 0 0 0 0 0 0 0 0 0 0 0 0 0 0 0 0 0 0 0 0 0 0 0 0 0 0 0 0 0 0 0 0 0 0 0 0 0 0 0 0 0 0 0 0 0 0 0 0 0 0 0 0 0 0 
0 0 0 0 0 0 0 0 0 0 0 0 0 0 0 0 0 0 0 0 0 0 0 0 0 0 0 0 0 0 0 0 0 0 0 0 0 0 0 0 0 0 0 0 0 0 0 0 0 0 0 0 0 0 0 0 0 0 0 0 0 0 0 0 0 0 0 0 0 0 0 0 0 0 0 0 0 0 0 0 0 0 0 0 0 0 0 0 0 0 
0 0 0 0 0 0 0 0 0 0 0 0 0 0 0 0 0 0 0 0 0 0 0 0 0 0 0 0 0 0 0 0 0 0 0 0 0 0 0 0 0 0 0 0 0 0 0 0 0 0 0 0 0 0 0 0 0 0 0 0 0 0 0 0 0 0 0 0 0 0 0 0 0 0 0 0 0 0 0 0 0 0 0 0 0 0 0 0 0 0 
0 0 0 0 0 0 0 0 0 0 0 0 0 0 0 0 0 0 0 0 0 0 0 0 0 0 0 0 0 0 0 0 0 0 0 0 0 0 0 0 0 0 0 0 0 0 0 0 0 0 0 0 0 0 0 0 0 0 0 0 0 0 0 0 0 0 0 0 0 0 0 0 0 0 0 0 0 0 0 0 0 0 0 0 0 0 0 0 0 0 
0 0 0 0 0 0 0 0 0 0 0 0 0 0 0 0 0 0 0 0 0 0 0 0 0 0 0 0 0 0 0 0 0 0 0 0 0 0 0 0 0 0 0 0 0 0 0 0 0 0 0 0 0 0 0 0 0 0 0 0 0 0 0 0 0 0 0 0 0 0 0 0 0 0 0 0 0 0 0 0 0 0 0 0 0 0 0 0 0 0 
0 0 0 0 0 0 0 0 0 0 0 0 0 0 0 0 0 0 0 0 0 0 0 0 0 0 0 0 0 0 0 0 0 0 0 0 0 0 0 0 0 0 0 0 0 0 0 0 0 0 0 0 0 0 0 0 0 0 0 0 0 0 0 0 0 0 0 0 0 0 0 0 0 0 0 0 0 0 0 0 0 0 0 0 0 0 0 0 0 0 
0 0 0 0 0 0 0 0 0 0 0 0 0 0 0 0 0 0 0 0 0 0 0 0 0 0 0 0 0 0 0 0 0 0 0 0 0 0 0 0 0 0 0 0 0 0 0 0 0 0 0 0 0 0 0 0 0 0 0 0 0 0 0 0 0 0 0 0 0 0 0 0 0 0 0 0 0 0 0 0 0 0 0 0 0 0 0 0 0 0 
0 0 0 0 0 0 0 0 0 0 0 0 0 0 0 0 0 0 0 0 0 0 0 0 0 0 0 0 0 0 0 0 0 0 0 0 0 0 0 0 0 0 0 0 0 0 0 0 0 0 0 0 0 0 0 0 0 0 0 0 0 0 0 0 0 0 0 0 0 0 0 0 0 0 0 0 0 0 0 0 0 0 0 0 0 0 0 0 0 0 
0 0 0 0 0 0 0 0 0 0 0 0 0 0 0 0 0 0 0 0 0 0 0 0 0 0 0 0 0 0 0 0 0 0 0 0 0 0 0 0 0 0 0 0 0 0 0 0 0 0 0 0 0 0 0 0 0 0 0 0 0 0 0 0 0 0 0 0 0 0 0 0 0 0 0 0 0 0 0 0 0 0 0 0 0 0 0 0 0 0 
0 0 0 0 0 0 0 0 0 0 0 0 0 0 0 0 0 0 0 0 0 0 0 0 0 0 0 0 0 0 0 0 0 0 0 0 0 0 0 0 0 0 0 0 0 0 0 0 0 0 0 0 0 0 0 0 0 0 0 0 0 0 0 0 0 0 0 0 0 0 0 0 0 0 0 0 0 0 0 0 0 0 0 0 0 0 0 0 0 0 
0 0 0 0 0 0 0 0 0 0 0 0 0 0 0 0 0 0 0 0 0 0 0 0 0 0 0 0 0 0 0 0 0 0 0 0 0 0 0 0 0 0 0 0 0 0 0 0 0 0 0 0 0 0 0 0 0 0 0 0 0 0 0 0 0 0 0 0 0 0 0 0 0 0 0 0 0 0 0 0 0 0 0 0 0 0 0 0 0 0 
0 0 0 0 0 0 0 0 0 0 0 0 0 0 0 0 0 0 0 0 0 0 0 0 0 0 0 0 0 0 0 0 0 0 0 0 0 0 0 0 0 0 0 0 0 0 0 0 0 0 0 0 0 0 0 0 0 0 0 0 0 0 0 0 0 0 0 0 0 0 0 0 0 0 0 0 0 0 0 0 0 0 0 0 0 0 0 0 0 0 
0 0 0 0 0 0 0 0 0 0 0 0 0 0 0 0 0 0 0 0 0 0 0 0 0 0 0 0 0 0 0 0 0 0 0 0 0 0 0 0 0 0 0 0 0 0 0 0 0 0 0 0 0 0 0 0 0 0 0 0 0 0 0 0 0 0 0 0 0 0 0 0 0 0 0 0 0 0 0 0 0 0 0 0 0 0 0 0 0 0 
0 0 0 0 0 0 0 0 0 0 0 0 0 0 0 0 0 0 0 0 0 0 0 0 0 0 0 0 0 0 0 0 0 0 0 0 0 0 0 0 0 0 0 0 0 0 0 0 0 0 0 0 0 0 0 0 0 0 0 0 0 0 0 0 0 0 0 0 0 0 0 0 0 0 0 0 0 0 0 0 0 0 0 0 0 0 0 0 0 0 
0 0 0 0 0 0 0 0 0 0 0 0 0 0 0 0 0 0 0 0 0 0 0 0 0 0 0 0 0 0 0 0 0 0 0 0 0 0 0 0 0 0 0 0 0 0 0 0 0 0 0 0 0 0 0 0 0 0 0 0 0 0 0 0 0 0 0 0 0 0 0 0 0 0 0 0 0 0 0 0 0 0 0 0 0 0 0 0 0 0 
0 0 0 0 0 0 0 0 0 0 0 0 0 0 0 0 0 0 0 0 0 0 0 0 0 0 0 0 0 0 0 0 0 0 0 0 0 0 0 0 0 0 0 0 0 0 0 0 0 0 0 0 0 0 0 0 0 0 0 0 0 0 0 0 0 0 0 0 0 0 0 0 0 0 0 0 0 0 0 0 0 0 0 0 0 0 0 0 0 0 
0 0 0 0 0 0 0 0 0 0 0 0 0 0 0 0 0 0 0 0 0 0 0 0 0 0 0 0 0 0 0 0 0 0 0 0 0 0 0 0 0 0 0 0 0 0 0 0 0 0 0 0 0 0 0 0 0 0 0 0 0 0 0 0 0 0 0 0 0 0 0 0 0 0 0 0 0 0 0 0 0 0 0 0 0 0 0 0 0 0 
0 0 0 0 0 0 0 0 0 0 0 0 0 0 0 0 0 0 0 0 0 0 0 0 0 0 0 0 0 0 0 0 0 0 0 0 0 0 0 0 0 0 0 0 0 0 0 0 0 0 0 0 0 0 0 0 0 0 0 0 0 0 0 0 0 0 0 0 0 0 0 0 0 0 0 0 0 0 0 0 0 0 0 0 0 0 0 0 0 0 
0 0 0 0 0 0 0 0 0 0 0 0 0 0 0 0 0 0 0 0 0 0 0 0 0 0 0 0 0 0 0 0 0 0 0 0 0 0 0 0 0 0 0 0 0 0 0 0 0 0 0 0 0 0 0 0 0 0 0 0 0 0 0 0 0 0 0 0 0 0 0 0 0 0 0 0 0 0 0 0 0 0 0 0 0 0 0 0 0 0 
0 0 0 0 0 0 0 0 0 0 0 0 0 0 0 0 0 0 0 0 0 0 0 0 0 0 0 0 0 0 0 0 0 0 0 0 0 0 0 0 0 0 0 0 0 0 0 0 0 0 0 0 0 0 0 0 0 0 0 0 0 0 0 0 0 0 0 0 0 0 0 0 0 0 0 0 0 0 0 0 0 0 0 0 0 0 0 0 0 0 
0 0 0 0 0 0 0 0 0 0 0 0 0 0 0 0 0 0 0 0 0 0 0 0 0 0 0 0 0 0 0 0 0 0 0 0 0 0 0 0 0 0 0 0 0 0 0 0 0 0 0 0 0 0 0 0 0 0 0 0 0 0 0 0 0 0 0 0 0 0 0 0 0 0 0 0 0 0 0 0 0 0 0 0 0 0 0 0 0 0 
0 0 0 0 0 0 0 0 0 0 0 0 0 0 0 0 0 0 0 0 0 0 0 0 0 0 0 0 0 0 0 0 0 0 0 0 0 0 0 0 0 0 0 0 0 0 0 0 0 0 0 0 0 0 0 0 0 0 0 0 0 0 0 0 0 0 0 0 0 0 0 0 0 0 0 0 0 0 0 0 0 0 0 0 0 0 0 0 0 0 
0 0 0 0 0 0 0 0 0 0 0 0 0 0 0 0 0 0 0 0 0 0 0 0 0 0 0 0 0 0 0 0 0 0 0 0 0 0 0 0 0 0 0 0 0 0 0 0 0 0 0 0 0 0 0 0 0 0 0 0 0 0 0 0 0 0 0 0 0 0 0 0 0 0 0 0 0 0 0 0 0 0 0 0 0 0 0 0 0 0 
0 0 0 0 0 0 0 0 0 0 0 0 0 0 0 0 0 0 0 0 0 0 0 0 0 0 0 0 0 0 0 0 0 0 0 0 0 0 0 0 0 0 0 0 0 0 0 0 0 0 0 0 0 0 0 0 0 0 0 0 0 0 0 0 0 0 0 0 0 0 0 0 0 0 0 0 0 0 0 0 0 0 0 0 0 0 0 0 0 0 
0 0 0 0 0 0 0 0 0 0 0 0 0 0 0 0 0 0 0 0 0 0 0 0 0 0 0 0 0 0 0 0 0 0 0 0 0 0 0 0 0 0 0 0 0 0 0 0 0 0 0 0 0 0 0 0 0 0 0 0 0 0 0 0 0 0 0 0 0 0 0 0 0 0 0 0 0 0 0 0 0 0 0 0 0 0 0 0 0 0 
0 0 0 0 0 0 0 0 0 0 0 0 0 0 0 0 0 0 0 0 0 0 0 0 0 0 0 0 0 0 0 0 0 0 0 0 0 0 0 0 0 0 0 0 0 0 0 0 0 0 0 0 0 0 0 0 0 0 0 0 0 0 0 0 0 0 0 0 0 0 0 0 0 0 0 0 0 0 0 0 0 0 0 0 0 0 0 0 0 0 
0 0 0 0 0 0 0 0 0 0 0 0 0 0 0 0 0 0 0 0 0 0 0 0 0 0 0 0 0 0 0 0 0 0 0 0 0 0 0 0 0 0 0 0 0 0 0 0 0 0 0 0 0 0 0 0 0 0 0 0 0 0 0 0 0 0 0 0 0 0 0 0 0 0 0 0 0 0 0 0 0 0 0 0 0 0 0 0 0 0 
0 0 0 0 0 0 0 0 0 0 0 0 0 0 0 0 0 0 0 0 0 0 0 0 0 0 0 0 0 0 0 0 0 0 0 0 0 0 0 0 0 0 0 0 0 0 0 0 0 0 0 0 0 0 0 0 0 0 0 0 0 0 0 0 0 0 0 0 0 0 0 0 0 0 0 0 0 0 0 0 0 0 0 0 0 0 0 0 0 0 
0 0 0 0 0 0 0 0 0 0 0 0 0 0 0 0 0 0 0 0 0 0 0 0 0 0 0 0 0 0 0 0 0 0 0 0 0 0 0 0 0 0 0 0 0 0 0 0 0 0 0 0 0 0 0 0 0 0 0 0 0 0 0 0 0 0 0 0 0 0 0 0 0 0 0 0 0 0 0 0 0 0 0 0 0 0 0 0 0 0 
0 0 0 0 0 0 0 0 0 0 0 0 0 0 0 0 0 0 0 0 0 0 0 0 0 0 0 0 0 0 0 0 0 0 0 0 0 0 0 0 0 0 0 0 0 0 0 0 0 0 0 0 0 0 0 0 0 0 0 0 0 0 0 0 0 0 0 0 0 0 0 0 0 0 0 0 0 0 0 0 0 0 0 0 0 0 0 0 0 0 
0 0 0 0 0 0 0 0 0 0 0 0 0 0 0 0 0 0 0 0 0 0 0 0 0 0 0 0 0 0 0 0 0 0 0 0 0 0 0 0 0 0 0 0 0 0 0 0 0 0 0 0 0 0 0 0 0 0 0 0 0 0 0 0 0 0 0 0 0 0 0 0 0 0 0 0 0 0 0 0 0 0 0 0 0 0 0 0 0 0 
0 0 0 0 0 0 0 0 0 0 0 0 0 0 0 0 0 0 0 0 0 0 0 0 0 0 0 0 0 0 0 0 0 0 0 0 0 0 0 0 0 0 0 0 0 0 0 0 0 0 0 0 0 0 0 0 0 0 0 0 0 0 0 0 0 0 0 0 0 0 0 0 0 0 0 0 0 0 0 0 0 0 0 0 0 0 0 0 0 0 
0 0 0 0 0 0 0 0 0 0 0 0 0 0 0 0 0 0 0 0 0 0 0 0 0 0 0 0 0 0 0 0 0 0 0 0 0 0 0 0 0 0 0 0 0 0 0 0 0 0 0 0 0 0 0 0 0 0 0 0 0 0 0 0 0 0 0 0 0 0 0 0 0 0 0 0 0 0 0 0 0 0 0 0 0 0 0 0 0 0 
0 0 0 0 0 0 0 0 0 0 0 0 0 0 0 0 0 0 0 0 0 0 0 0 0 0 0 0 0 0 0 0 0 0 0 0 0 0 0 0 0 0 0 0 0 0 0 0 0 0 0 0 0 0 0 0 0 0 0 0 0 0 0 0 0 0 0 0 0 0 0 0 0 0 0 0 0 0 0 0 0 0 0 0 0 0 0 0 0 0 
0 0 0 0 0 0 0 0 0 0 0 0 0 0 0 0 0 0 0 0 0 0 0 0 0 0 0 0 0 0 0 0 0 0 0 0 0 0 0 0 0 0 0 0 0 0 0 0 0 0 0 0 0 0 0 0 0 0 0 0 0 0 0 0 0 0 0 0 0 0 0 0 0 0 0 0 0 0 0 0 0 0 0 0 0 0 0 0 0 0 
0 0 0 0 0 0 0 0 0 0 0 0 0 0 0 0 0 0 0 0 0 0 0 0 0 0 0 0 0 0 0 0 0 0 0 0 0 0 0 0 0 0 0 0 0 0 0 0 0 0 0 0 0 0 0 0 0 0 0 0 0 0 0 0 0 0 0 0 0 0 0 0 0 0 0 0 0 0 0 0 0 0 0 0 0 0 0 0 0 0 
0 0 0 0 0 0 0 0 0 0 0 0 0 0 0 0 0 0 0 0 0 0 0 0 0 0 0 0 0 0 0 0 0 0 0 0 0 0 0 0 0 0 0 0 0 0 0 0 0 0 0 0 0 0 0 0 0 0 0 0 0 0 0 0 0 0 0 0 0 0 0 0 0 0 0 0 0 0 0 0 0 0 0 0 0 0 0 0 0 0 
0 0 0 0 0 0 0 0 0 0 0 0 0 0 0 0 0 0 0 0 0 0 0 0 0 0 0 0 0 0 0 0 0 0 0 0 0 0 0 0 0 0 0 0 0 0 0 0 0 0 0 0 0 0 0 0 0 0 0 0 0 0 0 0 0 0 0 0 0 0 0 0 0 0 0 0 0 0 0 0 0 0 0 0 0 0 0 0 0 0 
0 0 0 0 0 0 0 0 0 0 0 0 0 0 0 0 0 0 0 0 0 0 0 0 0 0 0 0 0 0 0 0 0 0 0 0 0 0 0 0 0 0 0 0 0 0 0 0 0 0 0 0 0 0 0 0 0 0 0 0 0 0 0 0 0 0 0 0 0 0 0 0 0 0 0 0 0 0 0 0 0 0 0 0 0 0 0 0 0 0 
0 0 0 0 0 0 0 0 0 0 0 0 0 0 0 0 0 0 0 0 0 0 0 0 0 0 0 0 0 0 0 0 0 0 0 0 0 0 0 0 0 0 0 0 0 0 0 0 0 0 0 0 0 0 0 0 0 0 0 0 0 0 0 0 0 0 0 0 0 0 0 0 0 0 0 0 0 0 0 0 0 0 0 0 0 0 0 0 0 0 
0 0 0 0 0 0 0 0 0 0 0 0 0 0 0 0 0 0 0 0 0 0 0 0 0 0 0 0 0 0 0 0 0 0 0 0 0 0 0 0 0 0 0 0 0 0 0 0 0 0 0 0 0 0 0 0 0 0 0 0 0 0 0 0 0 0 0 0 0 0 0 0 0 0 0 0 0 0 0 0 0 0 0 0 0 0 0 0 0 0 
0 0 0 0 0 0 0 0 0 0 0 0 0 0 0 0 0 0 0 0 0 0 0 0 0 0 0 0 0 0 0 0 0 0 0 0 0 0 0 0 0 0 0 0 0 0 0 0 0 0 0 0 0 0 0 0 0 0 0 0 0 0 0 0 0 0 0 0 0 0 0 0 0 0 0 0 0 0 0 0 0 0 0 0 0 0 0 0 0 0 
0 0 0 0 0 0 0 0 0 0 0 0 0 0 0 0 0 0 0 0 0 0 0 0 0 0 0 0 0 0 0 0 0 0 0 0 0 0 0 0 0 0 0 0 0 0 0 0 0 0 0 0 0 0 0 0 0 0 0 0 0 0 0 0 0 0 0 0 0 0 0 0 0 0 0 0 0 0 0 0 0 0 0 0 0 0 0 0 0 0 
0 0 0 0 0 0 0 0 0 0 0 0 0 0 0 0 0 0 0 0 0 0 0 0 0 0 0 0 0 0 0 0 0 0 0 0 0 0 0 0 0 0 0 0 0 0 0 0 0 0 0 0 0 0 0 0 0 0 0 0 0 0 0 0 0 0 0 0 0 0 0 0 0 0 0 0 0 0 0 0 0 0 0 0 0 0 0 0 0 0 
0 0 0 0 0 0 0 0 0 0 0 0 0 0 0 0 0 0 0 0 0 0 0 0 0 0 0 0 0 0 0 0 0 0 0 0 0 0 0 0 0 0 0 0 0 0 0 0 0 0 0 0 0 0 0 0 0 0 0 0 0 0 0 0 0 0 0 0 0 0 0 0 0 0 0 0 0 0 0 0 0 0 0 0 0 0 0 0 0 0 
0 0 0 0 0 0 0 0 0 0 0 0 0 0 0 0 0 0 0 0 0 0 0 0 0 0 0 0 0 0 0 0 0 0 0 0 0 0 0 0 0 0 0 0 0 0 0 0 0 0 0 0 0 0 0 0 0 0 0 0 0 0 0 0 0 0 0 0 0 0 0 0 0 0 0 0 0 0 0 0 0 0 0 0 0 0 0 0 0 0 
0 0 0 0 0 0 0 0 0 0 0 0 0 0 0 0 0 0 0 0 0 0 0 0 0 0 0 0 0 0 0 0 0 0 0 0 0 0 0 0 0 0 0 0 0 0 0 0 0 0 0 0 0 0 0 0 0 0 0 0 0 0 0 0 0 0 0 0 0 0 0 0 0 0 0 0 0 0 0 0 0 0 0 0 0 0 0 0 0 0 
0 0 0 0 0 0 0 0 0 0 0 0 0 0 0 0 0 0 0 0 0 0 0 0 0 0 0 0 0 0 0 0 0 0 0 0 0 0 0 0 0 0 0 0 0 0 0 0 0 0 0 0 0 0 0 0 0 0 0 0 0 0 0 0 0 0 0 0 0 0 0 0 0 0 0 0 0 0 0 0 0 0 0 0 0 0 0 0 0 0 
0 0 0 0 0 0 0 0 0 0 0 0 0 0 0 0 0 0 0 0 0 0 0 0 0 0 0 0 0 0 0 0 0 0 0 0 0 0 0 0 0 0 0 0 0 0 0 0 0 0 0 0 0 0 0 0 0 0 0 0 0 0 0 0 0 0 0 0 0 0 0 0 0 0 0 0 0 0 0 0 0 0 0 0 0 0 0 0 0 0 
0 0 0 0 0 0 0 0 0 0 0 0 0 0 0 0 0 0 0 0 0 0 0 0 0 0 0 0 0 0 0 0 0 0 0 0 0 0 0 0 0 0 0 0 0 0 0 0 0 0 0 0 0 0 0 0 0 0 0 0 0 0 0 0 0 0 0 0 0 0 0 0 0 0 0 0 0 0 0 0 0 0 0 0 0 0 0 0 0 0 
0 0 0 0 0 0 0 0 0 0 0 0 0 0 0 0 0 0 0 0 0 0 0 0 0 0 0 0 0 0 0 0 0 0 0 0 0 0 0 0 0 0 0 0 0 0 0 0 0 0 0 0 0 0 0 0 0 0 0 0 0 0 0 0 0 0 0 0 0 0 0 0 0 0 0 0 0 0 0 0 0 0 0 0 0 0 0 0 0 0 
# Events [psd0_dat/psd0.dat] N: 
0 0 0 0 0 0 0 0 0 0 0 0 0 0 0 0 0 0 0 0 0 0 0 0 0 0 0 0 0 0 0 0 0 0 0 0 0 0 0 0 0 0 0 0 0 0 0 0 0 0 0 0 0 0 0 0 0 0 0 0 0 0 0 0 0 0 0 0 0 0 0 0 0 0 0 0 0 0 0 0 0 0 0 0 0 0 0 0 0 0 
0 0 0 0 0 0 0 0 0 0 0 0 0 0 0 0 0 0 0 0 0 0 0 0 0 0 0 0 0 0 0 0 0 0 0 0 0 0 0 0 0 0 0 0 0 0 0 0 0 0 0 0 0 0 0 0 0 0 0 0 0 0 0 0 0 0 0 0 0 0 0 0 0 0 0 0 0 0 0 0 0 0 0 0 0 0 0 0 0 0 
0 0 0 0 0 0 0 0 0 0 0 0 0 0 0 0 0 0 0 0 0 0 0 0 0 0 0 0 0 0 0 0 0 0 0 0 0 0 0 0 0 0 0 0 0 0 0 0 0 0 0 0 0 0 0 0 0 0 0 0 0 0 0 0 0 0 0 0 0 0 0 0 0 0 0 0 0 0 0 0 0 0 0 0 0 0 0 0 0 0 
0 0 0 0 0 0 0 0 0 0 0 0 0 0 0 0 0 0 0 0 0 0 0 0 0 0 0 0 0 0 0 0 0 0 0 0 0 0 0 0 0 0 0 0 0 0 0 0 0 0 0 0 0 0 0 0 0 0 0 0 0 0 0 0 0 0 0 0 0 0 0 0 0 0 0 0 0 0 0 0 0 0 0 0 0 0 0 0 0 0 
0 0 0 0 0 0 0 0 0 0 0 0 0 0 0 0 0 0 0 0 0 0 0 0 0 0 0 0 0 0 0 0 0 0 0 0 0 0 0 0 0 0 0 0 0 0 0 0 0 0 0 0 0 0 0 0 0 0 0 0 0 0 0 0 0 0 0 0 0 0 0 0 0 0 0 0 0 0 0 0 0 0 0 0 0 0 0 0 0 0 
0 0 0 0 0 0 0 0 0 0 0 0 0 0 0 0 0 0 0 0 0 0 0 0 0 0 0 0 0 0 0 0 0 0 0 0 0 0 0 0 0 0 0 0 0 0 0 0 0 0 0 0 0 0 0 0 0 0 0 0 0 0 0 0 0 0 0 0 0 0 0 0 0 0 0 0 0 0 0 0 0 0 0 0 0 0 0 0 0 0 
0 0 0 0 0 0 0 0 0 0 0 0 0 0 0 0 0 0 0 0 0 0 0 0 0 0 0 0 0 0 0 0 0 0 0 0 0 0 0 0 0 0 0 0 0 0 0 0 0 0 0 0 0 0 0 0 0 0 0 0 0 0 0 0 0 0 0 0 0 0 0 0 0 0 0 0 0 0 0 0 0 0 0 0 0 0 0 0 0 0 
0 0 0 0 0 0 0 0 0 0 0 0 0 0 0 0 0 0 0 0 0 0 0 0 0 0 0 0 0 0 0 0 0 0 0 0 0 0 0 0 0 0 0 0 0 0 0 0 0 0 0 0 0 0 0 0 0 0 0 0 0 0 0 0 0 0 0 0 0 0 0 0 0 0 0 0 0 0 0 0 0 0 0 0 0 0 0 0 0 0 
0 0 0 0 0 0 0 0 0 0 0 0 0 0 0 0 0 0 0 0 0 0 0 0 0 0 0 0 0 0 0 0 0 0 0 0 0 0 0 0 0 0 0 0 0 0 0 0 0 0 0 0 0 0 0 0 0 0 0 0 0 0 0 0 0 0 0 0 0 0 0 0 0 0 0 0 0 0 0 0 0 0 0 0 0 0 0 0 0 0 
0 0 0 0 0 0 0 0 0 0 0 0 0 0 0 0 0 0 0 0 0 0 0 0 0 0 0 0 0 0 0 0 0 0 0 0 0 0 0 0 0 0 0 0 0 0 0 0 0 0 0 0 0 0 0 0 0 0 0 0 0 0 0 0 0 0 0 0 0 0 0 0 0 0 0 0 0 0 0 0 0 0 0 0 0 0 0 0 0 0 
0 0 0 0 0 0 0 0 0 0 0 0 0 0 0 0 0 0 0 0 0 0 0 0 0 0 0 0 0 0 0 0 0 0 0 0 0 0 0 0 0 0 0 0 0 0 0 0 0 0 0 0 0 0 0 0 0 0 0 0 0 0 0 0 0 0 0 0 0 0 0 0 0 0 0 0 0 0 0 0 0 0 0 0 0 0 0 0 0 0 
0 0 0 0 0 0 0 0 0 0 0 0 0 0 0 0 0 0 0 0 0 0 0 0 0 0 0 0 0 0 0 0 0 0 0 0 0 0 0 0 0 0 0 0 0 0 0 0 0 0 0 0 0 0 0 0 0 0 0 0 0 0 0 0 0 0 0 0 0 0 0 0 0 0 0 0 0 0 0 0 0 0 0 0 0 0 0 0 0 0 
0 0 0 0 0 0 0 0 0 0 0 0 0 0 0 0 0 0 0 0 0 0 0 0 0 0 0 0 0 0 0 0 0 0 0 0 0 0 0 0 0 0 0 0 0 0 0 0 0 0 0 0 0 0 0 0 0 0 0 0 0 0 0 0 0 0 0 0 0 0 0 0 0 0 0 0 0 0 0 0 0 0 0 0 0 0 0 0 0 0 
0 0 0 0 0 0 0 0 0 0 0 0 0 0 0 0 0 0 0 0 0 0 0 0 0 0 0 0 0 0 0 0 0 0 0 0 0 0 0 0 0 0 0 0 0 0 0 0 0 0 0 0 0 0 0 0 0 0 0 0 0 0 0 0 0 0 0 0 0 0 0 0 0 0 0 0 0 0 0 0 0 0 0 0 0 0 0 0 0 0 
0 0 0 0 0 0 0 0 0 0 0 0 0 0 0 0 0 0 0 0 0 0 0 0 0 0 0 0 0 0 0 0 0 0 0 0 0 0 0 0 0 0 0 0 0 0 0 0 0 0 0 0 0 0 0 0 0 0 0 0 0 0 0 0 0 0 0 0 0 0 0 0 0 0 0 0 0 0 0 0 0 0 0 0 0 0 0 0 0 0 
0 0 0 0 0 0 0 0 0 0 0 0 0 0 0 0 0 0 0 0 0 0 0 0 0 0 0 0 0 0 0 0 0 0 0 0 0 0 0 0 0 0 0 0 0 0 0 0 0 0 0 0 0 0 0 0 0 0 0 0 0 0 0 0 0 0 0 0 0 0 0 0 0 0 0 0 0 0 0 0 0 0 0 0 0 0 0 0 0 0 
0 0 0 0 0 0 0 0 0 0 0 0 0 0 0 0 0 0 0 0 0 0 0 0 0 0 0 0 0 0 0 0 0 0 0 0 0 0 0 0 0 0 0 0 0 0 0 0 0 0 0 0 0 0 0 0 0 0 0 0 0 0 0 0 0 0 0 0 0 0 0 0 0 0 0 0 0 0 0 0 0 0 0 0 0 0 0 0 0 0 
0 0 0 0 0 0 0 0 0 0 0 0 0 0 0 0 0 0 0 0 0 0 0 0 0 0 0 0 0 0 0 0 0 0 0 0 0 0 0 0 0 0 0 0 0 0 0 0 0 0 0 0 0 0 0 0 0 0 0 0 0 0 0 0 0 0 0 0 0 0 0 0 0 0 0 0 0 0 0 0 0 0 0 0 0 0 0 0 0 0 
0 0 0 0 0 0 0 0 0 0 0 0 0 0 0 0 0 0 0 0 0 0 0 0 0 0 0 0 0 0 0 0 0 0 0 0 0 0 0 0 0 0 0 0 0 0 0 0 0 0 0 0 0 0 0 0 0 0 0 0 0 0 0 0 0 0 0 0 0 0 0 0 0 0 0 0 0 0 0 0 0 0 0 0 0 0 0 0 0 0 
0 0 0 0 0 0 0 0 0 0 0 0 0 0 0 0 0 0 0 0 0 0 0 0 0 0 0 0 0 0 0 0 0 0 0 0 0 0 0 0 0 0 0 0 0 0 0 0 0 0 0 0 0 0 0 0 0 0 0 0 0 0 0 0 0 0 0 0 0 0 0 0 0 0 0 0 0 0 0 0 0 0 0 0 0 0 0 0 0 0 
0 0 0 0 0 0 0 0 0 0 0 0 0 0 0 0 0 0 0 0 0 0 0 0 0 0 0 0 0 0 0 0 0 0 0 0 0 0 0 0 0 0 0 0 0 0 0 0 0 0 0 0 0 0 0 0 0 0 0 0 0 0 0 0 0 0 0 0 0 0 0 0 0 0 0 0 0 0 0 0 0 0 0 0 0 0 0 0 0 0 
0 0 0 0 0 0 0 0 0 0 0 0 0 0 0 0 0 0 0 0 0 0 0 0 0 0 0 0 0 0 0 0 0 0 0 0 0 0 0 0 0 0 0 0 0 0 0 0 0 0 0 0 0 0 0 0 0 0 0 0 0 0 0 0 0 0 0 0 0 0 0 0 0 0 0 0 0 0 0 0 0 0 0 0 0 0 0 0 0 0 
0 0 0 0 0 0 0 0 0 0 0 0 0 0 0 0 0 0 0 0 0 0 0 0 0 0 0 0 0 0 0 0 0 0 0 0 0 0 0 0 0 0 0 0 0 0 0 0 0 0 0 0 0 0 0 0 0 0 0 0 0 0 0 0 0 0 0 0 0 0 0 0 0 0 0 0 0 0 0 0 0 0 0 0 0 0 0 0 0 0 
0 0 0 0 0 0 0 0 0 0 0 0 0 0 0 0 0 0 0 0 0 0 0 0 0 0 0 0 0 0 0 0 0 0 0 0 0 1 0 0 0 0 0 0 1 0 0 1 0 0 0 1 0 0 0 0 0 0 0 0 0 0 0 0 0 0 0 0 0 0 0 0 0 0 0 0 0 0 0 0 0 0 0 0 0 0 0 0 0 0 
0 0 0 0 0 0 0 0 0 0 0 0 0 0 0 0 0 0 0 0 0 0 0 0 0 0 0 0 0 0 0 0 0 0 0 0 0 0 0 0 0 0 0 0 0 0 0 0 0 0 0 0 1 0 1 0 0 0 0 0 0 0 0 0 0 0 0 0 0 0 0 0 0 0 0 0 0 0 0 0 0 0 0 0 0 0 0 0 0 0 
0 0 0 0 0 0 0 0 0 0 0 0 0 0 0 0 0 0 0 0 0 0 0 0 0 0 0 0 0 0 0 0 0 0 0 0 0 0 0 0 0 2 0 1 0 0 0 0 0 0 0 0 0 0 0 0 0 0 0 0 1 0 0 0 0 0 0 0 0 0 0 0 0 0 0 0 0 0 0 0 0 0 0 0 0 0 0 0 0 0 
0 0 0 0 0 0 0 0 0 0 0 0 0 0 0 0 0 0 0 0 0 0 0 0 0 0 0 0 0 0 0 0 1 0 0 1 0 0 1 1 1 2 0 1 2 2 1 1 0 1 1 2 1 0 0 0 1 0 0 0 0 0 1 0 0 0 0 0 0 0 0 0 0 0 0 0 0 0 0 0 0 0 0 0 0 0 0 0 0 0 
0 0 0 0 0 0 0 0 0 0 0 0 0 0 0 0 0 0 0 0 0 0 0 0 0 0 0 0 1 0 1 1 0 1 0 4 1 2 1 2 1 4 2 1 1 0 0 4 2 6 1 1 2 0 2 0 0 1 0 1 0 1 0 0 0 0 0 0 0 0 0 0 0 0 0 0 0 0 0 0 0 0 0 0 0 0 0 0 0 0 
0 0 0 0 0 0 0 0 0 0 0 0 0 0 0 0 0 0 0 0 0 0 0 0 0 0 2 0 0 2 3 2 0 4 2 3 3 4 2 4 8 7 2 6 5 6 4 8 2 4 4 4 1 3 0 2 1 1 5 1 2 2 1 0 1 0 0 0 0 0 0 0 0 0 0 0 0 0 0 0 0 0 0 0 0 0 0 0 0 0 
0 0 0 0 0 0 0 0 0 0 0 0 0 0 0 0 0 0 0 0 0 0 0 1 1 1 0 1 1 0 3 3 0 5 4 10 7 6 3 11 9 15 15 5 11 2 7 7 7 8 5 6 6 8 5 6 5 3 6 2 3 3 2 0 1 1 0 0 0 0 0 0 0 0 0 0 0 0 0 0 0 0 0 0 0 0 0 0 0 0 
0 0 0 0 0 0 0 0 0 0 0 0 0 0 0 1 0 1 1 1 0 1 2 1 1 2 6 2 2 4 9 4 7 7 16 16 12 11 15 13 24 31 27 17 20 31 19 20 21 13 15 10 15 14 9 14 8 4 6 6 4 3 4 1 4 2 2 2 2 2 0 0 1 0 1 0 0 0 0 0 0 0 0 0 0 0 0 0 0 0 
0 0 0 0 0 0 0 0 0 0 0 0 0 0 0 1 1 1 0 1 1 2 2 1 3 7 1 11 3 7 8 16 21 27 16 26 22 29 32 33 34 30 42 44 41 34 41 40 45 31 31 35 29 33 20 26 14 17 19 11 11 10 4 7 5 3 2 4 3 1 2 1 0 0 1 1 1 0 0 1 0 0 0 0 0 0 0 0 0 0 
0 0 0 0 0 0 0 0 0 0 0 0 0 0 0 0 0 1 2 0 0 2 0 2 8 11 9 17 10 20 20 22 32 39 42 53 45 51 57 70 75 77 82 75 66 90 59 61 75 78 67 48 61 47 48 38 26 37 25 24 22 14 14 6 13 4 9 3 3 2 3 0 2 1 0 0 0 0 0 0 0 0 0 0 0 0 0 0 0 0 
0 0 0 0 0 0 0 0 0 0 0 1 0 0 0 1 0 1 0 1 1 5 13 12 6 13 15 24 21 31 49 63 58 64 70 80 106 100 105 127 110 119 141 136 152 134 142 146 129 133 121 130 104 97 75 74 69 62 53 39 26 27 23 18 13 9 7 6 4 3 4 0 2 1 1 0 0 0 0 0 0 0 0 0 0 0 0 0 0 0 
0 0 0 0 0 0 0 0 0 0 0 0 0 0 2 1 2 3 4 4 5 7 12 8 19 18 35 49 41 54 73 77 114 123 141 147 141 200 202 196 217 251 247 226 239 246 263 261 218 236 218 181 182 133 145 124 128 90 73 74 55 47 45 24 34 20 14 8 11 13 6 1 2 0 2 1 3 0 1 0 0 0 0 0 0 0 0 0 0 0 
0 0 0 0 0 0 0 0 0 0 0 0 0 0 0 0 2 3 5 8 12 13 19 28 28 40 51 64 71 91 134 125 163 183 215 232 266 296 318 347 380 408 436 398 393 406 402 395 376 352 405 319 315 284 259 196 193 162 143 128 93 81 72 49 36 36 24 18 9 14 7 3 2 5 1 2 0 2 0 0 0 0 0 0 0 0 0 0 0 0 
0 0 0 0 0 0 0 0 0 0 0 1 0 2 2 1 5 6 9 10 19 16 24 41 51 55 67 90 125 140 181 217 249 322 368 354 384 455 489 535 591 597 644 638 598 633 670 622 621 583 508 475 463 442 361 339 274 258 200 176 165 127 100 80 66 40 49 24 20 20 14 6 4 5 2 4 0 0 0 1 0 0 1 0 0 0 0 0 0 0 
0 0 0 0 0 0 0 0 0 0 0 1 0 3 1 5 8 8 12 22 17 37 44 55 78 74 105 154 178 232 259 329 385 403 487 566 623 653 776 828 838 917 914 985 1030 1016 917 970 963 855 780 785 670 645 564 496 434 371 328 247 226 166 137 108 91 68 56 36 21 18 22 13 5 6 5 4 1 0 1 0 1 0 0 0 0 0 0 0 0 0 
0 0 0 0 0 0 0 0 1 1 1 2 3 3 8 5 10 8 15 16 29 62 65 76 113 129 161 215 236 298 352 417 539 584 682 783 847 954 1084 1160 1225 1303 1382 1393 1400 1412 1430 1337 1341 1169 1121 1040 972 894 844 736 573 506 457 381 304 259 219 158 151 128 60 61 47 28 19 15 18 10 4 2 2 2 3 1 2 0 0 0 0 0 0 0 0 0 
0 0 0 1 0 0 0 0 0 5 0 1 2 3 4 5 10 11 21 35 58 66 69 89 141 176 223 275 344 436 525 581 727 794 949 1066 1215 1314 1452 1597 1650 1713 1752 1802 1882 1846 1850 1789 1694 1657 1494 1424 1273 1122 1056 937 802 758 583 512 403 317 263 214 199 119 118 73 66 38 31 20 10 18 8 8 2 4 4 1 3 0 1 0 0 0 0 0 0 0 
0 0 0 0 0 0 0 0 0 0 1 2 7 2 7 11 16 27 27 42 76 88 121 161 172 218 279 351 450 581 602 784 881 1057 1243 1359 1529 1651 1822 2047 2089 2211 2350 2318 2397 2396 2385 2326 2152 2104 1982 1814 1675 1450 1388 1201 1026 875 755 672 466 418 346 281 215 169 147 104 75 47 42 25 24 21 9 7 7 1 2 1 0 2 0 0 0 0 0 0 0 0 
0 0 0 0 1 2 1 0 2 0 3 2 3 8 5 11 23 32 26 51 67 85 117 177 198 258 340 432 532 689 822 934 1097 1286 1490 1663 1813 2011 2234 2464 2704 2679 2766 2921 2894 2923 2969 2845 2683 2542 2486 2149 2061 1901 1635 1392 1269 1082 981 814 705 512 447 331 259 219 163 137 99 67 53 42 36 14 15 12 6 9 5 1 1 0 0 1 1 0 0 0 0 0 
0 0 0 0 0 1 0 2 1 1 1 6 4 10 10 15 21 36 52 79 77 118 143 199 272 318 377 511 597 760 933 1066 1296 1525 1676 1936 2124 2454 2512 2798 2996 3092 3240 3296 3292 3489 3358 3269 3174 2847 2885 2643 2289 2123 1912 1668 1428 1241 1088 924 787 564 504 378 312 248 185 138 95 60 55 48 19 24 18 5 3 9 4 1 0 1 0 0 0 0 0 0 0 0 
0 0 0 0 0 0 0 0 0 1 0 5 5 8 7 19 23 34 51 55 81 108 146 200 292 339 467 550 675 844 1019 1259 1386 1693 1891 2145 2341 2675 2845 3072 3232 3382 3721 3634 3727 3701 3740 3567 3403 3427 3216 2825 2567 2423 2145 1923 1730 1385 1222 998 798 701 565 454 325 276 220 151 138 111 78 52 40 33 13 9 5 5 1 4 1 1 1 0 0 0 0 0 0 0 
0 0 0 0 0 0 0 1 0 4 2 2 12 11 14 17 25 25 51 75 91 115 168 236 294 404 474 547 753 886 1061 1251 1489 1725 2035 2256 2494 2695 3086 3274 3569 3744 3769 3902 3790 3853 3920 3889 3679 3426 3251 3010 2748 2488 2243 2107 1726 1486 1241 1011 872 683 562 459 404 272 186 154 120 95 60 59 35 30 10 11 12 5 3 3 4 0 3 1 1 0 0 0 0 0 
0 0 0 0 0 0 0 1 0 3 1 3 3 3 17 17 28 39 49 70 88 134 161 251 282 340 460 605 735 874 1051 1286 1572 1767 1933 2160 2503 2785 3016 3267 3489 3688 3713 3893 3983 3923 3967 3778 3683 3381 3454 2970 2703 2407 2336 1976 1743 1554 1315 1063 922 745 583 458 348 296 171 185 130 105 71 51 28 24 19 12 6 3 4 1 1 1 2 0 0 1 0 0 0 0 
0 0 1 0 0 1 0 0 0 3 2 4 3 9 14 22 14 24 53 74 85 127 167 211 281 330 453 585 668 829 999 1224 1444 1658 1861 2126 2408 2585 2818 3040 3299 3449 3565 3673 3650 3742 3735 3666 3557 3285 3112 2895 2627 2451 2162 1929 1656 1403 1192 989 836 686 563 501 347 282 252 142 116 87 62 52 39 40 20 11 13 4 4 4 3 0 1 0 0 0 1 0 0 0 
0 0 0 0 0 0 0 1 3 0 2 4 8 6 14 13 31 26 46 55 97 96 141 199 237 339 397 499 613 775 938 1050 1300 1474 1720 1950 2158 2345 2699 2719 2971 3109 3318 3379 3322 3441 3354 3242 3126 3047 2735 2633 2394 2106 1948 1695 1500 1307 1116 887 747 600 477 374 333 249 184 145 105 68 59 33 29 30 19 7 8 7 1 1 3 2 0 0 0 1 0 0 0 0 
0 0 0 0 2 0 0 1 3 3 2 1 4 5 11 10 24 28 51 39 68 96 122 162 196 271 334 437 569 633 784 932 1081 1221 1535 1666 1825 2044 2286 2433 2712 2756 2866 2952 2806 2861 2916 2774 2674 2571 2504 2250 2112 1858 1663 1504 1235 1037 931 823 645 538 433 347 274 218 147 117 90 71 47 32 27 19 11 9 3 3 8 6 0 0 0 0 0 0 0 0 0 0 
0 0 0 1 0 0 0 1 1 1 0 0 3 8 5 7 15 15 34 43 49 66 121 128 170 208 267 340 474 549 605 753 864 1032 1282 1294 1497 1760 1812 1843 2062 2249 2309 2344 2309 2393 2332 2286 2198 2053 1899 1826 1658 1516 1378 1194 1100 908 808 650 526 414 336 298 220 178 146 112 69 50 41 33 22 21 7 7 6 3 1 4 1 1 0 1 0 0 0 0 0 0 
0 0 0 0 0 0 0 0 0 1 3 3 1 5 3 6 10 24 20 37 45 65 85 101 146 176 234 292 347 415 505 580 709 827 972 1084 1226 1302 1422 1588 1662 1807 1748 1912 1794 1900 1898 1825 1675 1602 1524 1459 1365 1125 1104 956 832 750 574 506 432 350 270 227 172 137 130 85 52 46 30 22 10 15 9 7 4 1 0 2 0 0 0 0 0 0 0 0 0 0 
0 0 0 0 0 0 0 0 0 2 0 0 1 1 7 8 7 12 27 14 34 39 77 79 122 138 172 220 254 291 345 413 508 669 776 778 909 923 1059 1115 1307 1295 1394 1402 1397 1378 1398 1353 1356 1250 1259 1050 940 848 788 689 615 536 466 359 318 268 214 156 160 114 85 52 33 34 24 11 15 3 6 3 3 1 0 2 1 0 0 0 0 0 0 0 0 0 
0 0 0 0 0 0 0 0 0 0 1 1 4 1 4 7 3 6 13 18 27 31 46 48 68 91 114 145 205 191 274 330 377 410 475 576 659 677 765 832 845 922 941 950 979 935 970 923 929 853 807 720 630 619 526 526 405 377 323 238 214 180 146 119 88 79 61 52 38 14 15 8 8 6 6 3 1 2 1 3 0 0 0 0 0 0 0 0 0 0 
0 0 0 0 0 0 0 0 0 0 0 0 3 2 2 6 1 6 8 7 12 20 31 33 52 64 78 83 134 154 182 223 222 286 335 388 439 491 489 543 583 611 589 625 669 634 686 614 589 563 572 443 514 449 366 292 296 238 212 179 131 134 105 67 66 48 38 30 22 24 10 3 5 10 1 3 2 1 1 1 0 0 0 0 0 0 0 0 0 0 
0 0 0 0 0 0 0 0 0 0 0 0 1 0 4 1 4 6 7 7 15 17 19 29 24 33 47 65 95 90 120 122 178 200 220 265 231 301 321 341 360 392 404 430 418 423 431 414 347 384 334 305 302 284 230 203 178 158 133 115 91 70 69 63 32 26 21 21 12 12 10 2 3 2 2 2 1 2 1 0 0 0 0 0 0 0 0 0 0 0 
0 0 0 0 0 0 0 0 0 0 0 0 0 0 2 0 2 2 4 4 2 12 8 15 25 31 22 39 52 67 61 71 88 112 144 154 173 170 206 227 227 248 249 255 274 255 258 252 234 246 229 233 187 154 130 120 98 82 101 58 48 41 37 29 27 12 8 14 9 8 7 4 4 1 0 1 0 0 2 1 0 0 0 0 0 0 0 0 0 0 
0 0 0 0 0 0 0 0 0 0 0 0 0 1 0 1 2 0 0 0 6 5 11 10 17 14 17 20 29 28 33 34 45 72 81 75 100 110 116 123 147 126 126 161 171 145 166 152 149 120 133 119 108 85 80 76 50 40 52 41 25 25 24 22 16 11 2 5 3 6 5 2 0 0 0 0 0 0 0 0 0 0 0 0 0 0 0 0 0 0 
0 0 0 0 0 0 0 0 0 0 0 1 0 0 0 2 2 1 1 3 1 4 5 4 4 11 11 7 19 20 21 27 33 40 40 54 69 65 65 75 70 71 86 66 71 75 78 81 68 66 68 63 63 60 45 51 35 34 28 24 18 15 10 10 4 8 1 3 4 3 2 0 0 1 0 0 0 1 0 0 0 0 0 0 0 0 0 0 0 0 
0 0 0 0 0 0 0 0 0 0 0 0 0 0 0 0 0 0 1 1 3 0 0 3 3 1 4 5 6 11 15 8 20 26 18 32 36 30 31 39 37 42 34 28 46 39 42 42 42 24 41 37 27 30 29 25 16 12 11 9 3 11 5 10 4 4 5 2 0 1 0 0 0 0 0 0 0 0 0 0 0 0 0 0 0 0 0 0 0 0 
0 0 0 0 0 0 0 0 0 0 0 0 0 0 0 0 0 0 0 1 0 1 1 2 3 0 2 4 1 9 4 3 5 8 13 13 13 16 19 12 19 8 25 17 16 22 14 20 22 18 22 15 10 8 11 13 13 9 8 10 2 5 1 2 1 0 0 0 1 1 0 1 1 0 0 0 0 0 0 0 0 0 0 0 0 0 0 0 0 0 
0 0 0 0 0 0 0 0 0 0 1 0 0 0 0 0 0 0 0 0 1 0 0 0 2 1 0 2 2 2 4 5 3 9 4 4 2 5 9 8 14 9 10 13 18 10 10 8 12 10 9 8 8 5 5 2 4 4 3 2 4 2 0 2 1 2 0 0 0 0 0 0 0 0 0 1 0 0 0 0 0 0 0 0 0 0 0 0 0 0 
0 0 0 0 0 0 0 0 0 0 0 0 0 0 0 0 0 0 0 0 0 0 0 0 1 1 1 0 0 2 3 1 1 3 1 0 1 2 2 4 6 5 3 6 6 2 5 5 2 2 4 0 2 4 1 0 2 3 0 1 0 0 0 3 0 1 0 0 0 0 1 0 0 0 0 0 0 0 0 0 0 0 0 0 0 0 0 0 0 0 
0 0 0 0 0 0 0 0 0 0 0 0 0 0 0 0 0 1 0 0 0 0 0 0 1 1 0 0 0 2 0 2 1 0 1 0 2 2 0 0 1 1 1 1 0 3 1 1 1 1 1 3 0 0 2 1 1 0 0 0 0 0 0 1 0 0 0 0 0 0 0 0 0 0 0 0 0 0 0 0 0 0 0 0 0 0 0 0 0 0 
0 0 0 0 0 0 0 0 0 0 0 0 0 0 0 0 0 0 0 0 0 0 0 0 0 0 0 0 0 0 0 0 1 0 0 0 0 0 1 0 1 0 2 0 4 0 1 0 1 0 1 2 0 0 0 0 0 0 0 0 0 0 0 0 0 0 0 0 0 0 0 0 0 0 0 0 0 0 0 0 0 0 0 0 0 0 0 0 0 0 
0 0 0 0 0 0 0 0 0 0 0 0 0 0 0 0 0 0 0 0 0 0 0 0 0 0 0 0 0 0 0 0 0 0 1 0 0 0 0 1 1 0 0 2 1 0 1 1 0 0 0 0 0 1 0 1 0 0 0 0 0 0 0 0 1 0 0 0 0 0 0 0 0 0 0 0 0 0 0 0 0 0 0 0 0 0 0 0 0 0 
0 0 0 0 0 0 0 0 0 0 0 0 0 0 0 0 0 0 0 0 1 0 0 0 0 0 0 0 0 0 0 0 0 0 0 0 0 0 0 0 0 0 0 0 0 0 0 0 0 0 0 0 0 0 0 1 0 0 0 0 0 0 0 0 0 0 0 0 0 0 0 0 0 0 0 0 0 0 0 0 0 0 0 0 0 0 0 0 0 0 
0 0 0 0 0 0 0 0 0 0 0 0 0 0 0 0 0 0 0 0 0 0 0 0 0 0 0 0 0 0 0 0 0 0 0 0 0 0 0 0 0 1 0 0 0 0 0 0 0 0 0 0 0 0 0 0 0 0 0 0 0 0 0 0 0 0 0 0 0 0 0 0 0 0 0 0 0 0 0 0 0 0 0 0 0 0 0 0 0 0 
0 0 0 0 0 0 0 0 0 0 0 0 0 0 0 0 0 0 0 0 0 0 0 0 0 0 0 0 0 0 0 0 0 0 0 0 0 0 0 0 0 0 0 0 0 0 0 0 0 0 0 0 0 0 0 0 0 0 0 0 0 0 0 0 0 0 0 0 0 0 0 0 0 0 0 0 0 0 0 0 0 0 0 0 0 0 0 0 0 0 
0 0 0 0 0 0 0 0 0 0 0 0 0 0 0 0 0 0 0 0 0 0 0 0 0 0 0 0 0 0 0 0 0 0 0 0 0 0 0 0 0 0 0 0 0 0 0 0 0 0 0 0 0 0 0 0 0 0 0 0 0 0 0 0 0 0 0 0 0 0 0 0 0 0 0 0 0 0 0 0 0 0 0 0 0 0 0 0 0 0 
0 0 0 0 0 0 0 0 0 0 0 0 0 0 0 0 0 0 0 0 0 0 0 0 0 0 0 0 0 0 0 0 0 0 0 0 0 0 0 0 0 0 0 0 0 0 0 0 0 0 0 0 0 0 0 0 0 0 0 0 0 0 0 0 0 0 0 0 0 0 0 0 0 0 0 0 0 0 0 0 0 0 0 0 0 0 0 0 0 0 
0 0 0 0 0 0 0 0 0 0 0 0 0 0 0 0 0 0 0 0 0 0 0 0 0 0 0 0 0 0 0 0 0 0 0 0 0 0 0 0 0 0 0 0 0 0 0 0 0 0 0 0 0 0 0 0 0 0 0 0 0 0 0 0 0 0 0 0 0 0 0 0 0 0 0 0 0 0 0 0 0 0 0 0 0 0 0 0 0 0 
0 0 0 0 0 0 0 0 0 0 0 0 0 0 0 0 0 0 0 0 0 0 0 0 0 0 0 0 0 0 0 0 0 0 0 0 0 0 0 0 0 0 0 0 0 0 0 0 0 0 0 0 0 0 0 0 0 0 0 0 0 0 0 0 0 0 0 0 0 0 0 0 0 0 0 0 0 0 0 0 0 0 0 0 0 0 0 0 0 0 
0 0 0 0 0 0 0 0 0 0 0 0 0 0 0 0 0 0 0 0 0 0 0 0 0 0 0 0 0 0 0 0 0 0 0 0 0 0 0 0 0 0 0 0 0 0 0 0 0 0 0 0 0 0 0 0 0 0 0 0 0 0 0 0 0 0 0 0 0 0 0 0 0 0 0 0 0 0 0 0 0 0 0 0 0 0 0 0 0 0 
0 0 0 0 0 0 0 0 0 0 0 0 0 0 0 0 0 0 0 0 0 0 0 0 0 0 0 0 0 0 0 0 0 0 0 0 0 0 0 0 0 0 0 0 0 0 0 0 0 0 0 0 0 0 0 0 0 0 0 0 0 0 0 0 0 0 0 0 0 0 0 0 0 0 0 0 0 0 0 0 0 0 0 0 0 0 0 0 0 0 
0 0 0 0 0 0 0 0 0 0 0 0 0 0 0 0 0 0 0 0 0 0 0 0 0 0 0 0 0 0 0 0 0 0 0 0 0 0 0 0 0 0 0 0 0 0 0 0 0 0 0 0 0 0 0 0 0 0 0 0 0 0 0 0 0 0 0 0 0 0 0 0 0 0 0 0 0 0 0 0 0 0 0 0 0 0 0 0 0 0 
0 0 0 0 0 0 0 0 0 0 0 0 0 0 0 0 0 0 0 0 0 0 0 0 0 0 0 0 0 0 0 0 0 0 0 0 0 0 0 0 0 0 0 0 0 0 0 0 0 0 0 0 0 0 0 0 0 0 0 0 0 0 0 0 0 0 0 0 0 0 0 0 0 0 0 0 0 0 0 0 0 0 0 0 0 0 0 0 0 0 
0 0 0 0 0 0 0 0 0 0 0 0 0 0 0 0 0 0 0 0 0 0 0 0 0 0 0 0 0 0 0 0 0 0 0 0 0 0 0 0 0 0 0 0 0 0 0 0 0 0 0 0 0 0 0 0 0 0 0 0 0 0 0 0 0 0 0 0 0 0 0 0 0 0 0 0 0 0 0 0 0 0 0 0 0 0 0 0 0 0 
0 0 0 0 0 0 0 0 0 0 0 0 0 0 0 0 0 0 0 0 0 0 0 0 0 0 0 0 0 0 0 0 0 0 0 0 0 0 0 0 0 0 0 0 0 0 0 0 0 0 0 0 0 0 0 0 0 0 0 0 0 0 0 0 0 0 0 0 0 0 0 0 0 0 0 0 0 0 0 0 0 0 0 0 0 0 0 0 0 0 
0 0 0 0 0 0 0 0 0 0 0 0 0 0 0 0 0 0 0 0 0 0 0 0 0 0 0 0 0 0 0 0 0 0 0 0 0 0 0 0 0 0 0 0 0 0 0 0 0 0 0 0 0 0 0 0 0 0 0 0 0 0 0 0 0 0 0 0 0 0 0 0 0 0 0 0 0 0 0 0 0 0 0 0 0 0 0 0 0 0 
0 0 0 0 0 0 0 0 0 0 0 0 0 0 0 0 0 0 0 0 0 0 0 0 0 0 0 0 0 0 0 0 0 0 0 0 0 0 0 0 0 0 0 0 0 0 0 0 0 0 0 0 0 0 0 0 0 0 0 0 0 0 0 0 0 0 0 0 0 0 0 0 0 0 0 0 0 0 0 0 0 0 0 0 0 0 0 0 0 0 
0 0 0 0 0 0 0 0 0 0 0 0 0 0 0 0 0 0 0 0 0 0 0 0 0 0 0 0 0 0 0 0 0 0 0 0 0 0 0 0 0 0 0 0 0 0 0 0 0 0 0 0 0 0 0 0 0 0 0 0 0 0 0 0 0 0 0 0 0 0 0 0 0 0 0 0 0 0 0 0 0 0 0 0 0 0 0 0 0 0 
0 0 0 0 0 0 0 0 0 0 0 0 0 0 0 0 0 0 0 0 0 0 0 0 0 0 0 0 0 0 0 0 0 0 0 0 0 0 0 0 0 0 0 0 0 0 0 0 0 0 0 0 0 0 0 0 0 0 0 0 0 0 0 0 0 0 0 0 0 0 0 0 0 0 0 0 0 0 0 0 0 0 0 0 0 0 0 0 0 0 
0 0 0 0 0 0 0 0 0 0 0 0 0 0 0 0 0 0 0 0 0 0 0 0 0 0 0 0 0 0 0 0 0 0 0 0 0 0 0 0 0 0 0 0 0 0 0 0 0 0 0 0 0 0 0 0 0 0 0 0 0 0 0 0 0 0 0 0 0 0 0 0 0 0 0 0 0 0 0 0 0 0 0 0 0 0 0 0 0 0 
0 0 0 0 0 0 0 0 0 0 0 0 0 0 0 0 0 0 0 0 0 0 0 0 0 0 0 0 0 0 0 0 0 0 0 0 0 0 0 0 0 0 0 0 0 0 0 0 0 0 0 0 0 0 0 0 0 0 0 0 0 0 0 0 0 0 0 0 0 0 0 0 0 0 0 0 0 0 0 0 0 0 0 0 0 0 0 0 0 0 
0 0 0 0 0 0 0 0 0 0 0 0 0 0 0 0 0 0 0 0 0 0 0 0 0 0 0 0 0 0 0 0 0 0 0 0 0 0 0 0 0 0 0 0 0 0 0 0 0 0 0 0 0 0 0 0 0 0 0 0 0 0 0 0 0 0 0 0 0 0 0 0 0 0 0 0 0 0 0 0 0 0 0 0 0 0 0 0 0 0 
0 0 0 0 0 0 0 0 0 0 0 0 0 0 0 0 0 0 0 0 0 0 0 0 0 0 0 0 0 0 0 0 0 0 0 0 0 0 0 0 0 0 0 0 0 0 0 0 0 0 0 0 0 0 0 0 0 0 0 0 0 0 0 0 0 0 0 0 0 0 0 0 0 0 0 0 0 0 0 0 0 0 0 0 0 0 0 0 0 0 
0 0 0 0 0 0 0 0 0 0 0 0 0 0 0 0 0 0 0 0 0 0 0 0 0 0 0 0 0 0 0 0 0 0 0 0 0 0 0 0 0 0 0 0 0 0 0 0 0 0 0 0 0 0 0 0 0 0 0 0 0 0 0 0 0 0 0 0 0 0 0 0 0 0 0 0 0 0 0 0 0 0 0 0 0 0 0 0 0 0 
0 0 0 0 0 0 0 0 0 0 0 0 0 0 0 0 0 0 0 0 0 0 0 0 0 0 0 0 0 0 0 0 0 0 0 0 0 0 0 0 0 0 0 0 0 0 0 0 0 0 0 0 0 0 0 0 0 0 0 0 0 0 0 0 0 0 0 0 0 0 0 0 0 0 0 0 0 0 0 0 0 0 0 0 0 0 0 0 0 0 
0 0 0 0 0 0 0 0 0 0 0 0 0 0 0 0 0 0 0 0 0 0 0 0 0 0 0 0 0 0 0 0 0 0 0 0 0 0 0 0 0 0 0 0 0 0 0 0 0 0 0 0 0 0 0 0 0 0 0 0 0 0 0 0 0 0 0 0 0 0 0 0 0 0 0 0 0 0 0 0 0 0 0 0 0 0 0 0 0 0 
0 0 0 0 0 0 0 0 0 0 0 0 0 0 0 0 0 0 0 0 0 0 0 0 0 0 0 0 0 0 0 0 0 0 0 0 0 0 0 0 0 0 0 0 0 0 0 0 0 0 0 0 0 0 0 0 0 0 0 0 0 0 0 0 0 0 0 0 0 0 0 0 0 0 0 0 0 0 0 0 0 0 0 0 0 0 0 0 0 0 
# EndDate:Tue Feb  5 17:48:02 2013
