# Format: McStas with text headers file. Use mcplot/PGPLOT to view.
# URL:    http://www.mccode.org/
# Editor: erkn on localhost
# Creator:Test_src_gaussian (Test_src_gaussian.instr) simulation (McXtrace x.y.z - Jan. 22, 2013)
# Date:   Simulation started (1358950808) Wed Jan 23 15:20:08 2013
# File:   emon1.dat
# Ncount: 250000
# Trace: no
# Gravitation: no
# Seed: 1358950803
# Param: XW=0.01
# Param: YH=0.01
# Param: DIST=10
# Param: SRC=2
# Param: E0=5.1
# type: array_1d(100)
# Source: Test_src_gaussian.instr
# component: emon1
# position: 0 0 9.997
# title: Energy monitor
# Ncount: 250000
# filename: emon1.dat
# format: McStas with text headers
# statistics: X0=6.90717; dX=2.94125;
# signal: Min=0; Max=9.3823e+12; Mean=4.30511e+12;
# values: 4.30511e+14 4.56751e+11 1e+06
# xvar: E
# yvar: (I,I_err)
# xlabel: Energy [keV]
# ylabel: Intensity
# xlimits: 0 20
# variables: E I I_err N
# Data [emon1_dat/emon1.dat] I: 
0.1 161249555387 1477302845.26 16412 
0.3 560851545424 4424010911.74 16854 
0.5 1.00548421538e+12 7811695209.19 16855 
0.7 1.44771890319e+12 11292002675.4 16578 
0.9 1.90719528483e+12 14882609393.2 16505 
1.1 2.41201211478e+12 18662286969.6 16758 
1.3 2.88714442003e+12 22305087840.1 16791 
1.5 3.34154427902e+12 25848994521.7 16737 
1.7 3.80494207656e+12 29378749683.4 16793 
1.9 4.21005599283e+12 32627542137.2 16664 
2.1 4.66386781059e+12 36003964638.3 16791 
2.3 4.98576232941e+12 38813397328.2 16509 
2.5 5.43933690558e+12 42054080686.1 16736 
2.7 5.81608455051e+12 44924706347.7 16766 
2.9 6.10563269426e+12 47396331600.5 16599 
3.1 6.41744458681e+12 49863594573 16567 
3.3 6.76205448757e+12 52385494081.4 16665 
3.5 7.06112096704e+12 54658913342.3 16691 
3.7 7.25530708548e+12 56451243619.1 16520 
3.9 7.48297192337e+12 58297918788.6 16477 
4.1 7.79390392007e+12 60394466933.6 16655 
4.3 7.94948558139e+12 61815251507.3 16539 
4.5 8.17786681969e+12 63447144527.8 16614 
4.7 8.34064556003e+12 64756536669 16590 
4.9 8.55200421233e+12 66186177643.8 16696 
5.1 8.77851227591e+12 67611757477.3 16858 
5.3 8.74964525404e+12 67984680405.6 16564 
5.5 8.94366887263e+12 69163034584.7 16722 
5.7 9.04163650568e+12 69910065694.5 16727 
5.9 9.15711186467e+12 70672000970 16789 
6.1 9.16921860883e+12 70983394151.9 16686 
6.3 9.15161133464e+12 71113947213.8 16561 
6.5 9.24890029305e+12 71649595245.7 16663 
6.7 9.35351952623e+12 72166137839.5 16799 
6.9 9.31489503002e+12 72085143145.7 16698 
7.1 9.27199936622e+12 71943005797.2 16610 
7.3 9.38229979482e+12 72355874986.6 16814 
7.5 9.25847453456e+12 71825104750.4 16616 
7.7 9.36696399845e+12 72156137243.9 16852 
7.9 9.16305176286e+12 71247991914 16540 
8.1 9.14923450276e+12 71044005338.9 16585 
8.3 9.23666316262e+12 71198949264.5 16830 
8.5 8.95918664061e+12 69914864087.4 16421 
8.7 8.944968583e+12 69623972794 16506 
8.9 8.92465996905e+12 69287760165.8 16591 
9.1 8.81168893368e+12 68565882626.1 16516 
9.3 8.94749926455e+12 68788500785.2 16919 
9.5 8.69796953589e+12 67499453767 16605 
9.7 8.60812337711e+12 66810279871.7 16601 
9.9 8.56640384017e+12 66291144127.5 16699 
10.1 8.4330942685e+12 65296604436.6 16681 
10.3 8.31395573434e+12 64490280015.3 16620 
10.5 8.23682094774e+12 63861346369.6 16636 
10.7 8.20148229492e+12 63312077458.3 16781 
10.9 8.06465742612e+12 62365609877.5 16722 
11.1 7.94532946333e+12 61472282369.7 16706 
11.3 7.82212236952e+12 60558953687.4 16684 
11.5 7.73028882144e+12 59760311521.1 16733 
11.7 7.52402654024e+12 58511265853.4 16536 
11.9 7.49988776585e+12 57921019291.5 16767 
12.1 0 0 0 
12.3 0 0 0 
12.5 0 0 0 
12.7 0 0 0 
12.9 0 0 0 
13.1 0 0 0 
13.3 0 0 0 
13.5 0 0 0 
13.7 0 0 0 
13.9 0 0 0 
14.1 0 0 0 
14.3 0 0 0 
14.5 0 0 0 
14.7 0 0 0 
14.9 0 0 0 
15.1 0 0 0 
15.3 0 0 0 
15.5 0 0 0 
15.7 0 0 0 
15.9 0 0 0 
16.1 0 0 0 
16.3 0 0 0 
16.5 0 0 0 
16.7 0 0 0 
16.9 0 0 0 
17.1 0 0 0 
17.3 0 0 0 
17.5 0 0 0 
17.7 0 0 0 
17.9 0 0 0 
18.1 0 0 0 
18.3 0 0 0 
18.5 0 0 0 
18.7 0 0 0 
18.9 0 0 0 
19.1 0 0 0 
19.3 0 0 0 
19.5 0 0 0 
19.7 0 0 0 
19.9 0 0 0 
# EndDate:Wed Jan 23 15:20:08 2013
