# Format: McStas with text headers file. Use mcplot/PGPLOT to view.
# URL:    http://www.mccode.org/
# Editor: erkn on localhost
# Creator:Test_src_gaussian (Test_src_gaussian.instr) simulation (McXtrace x.y.z - Jan. 22, 2013)
# Date:   Simulation started (1359030629) Thu Jan 24 13:30:29 2013
# File:   lmon2.dat
# Ncount: 1e+06
# Trace: no
# Gravitation: no
# Seed: 1359030615
# Param: XW=0
# Param: YH=0
# Param: DIST=10
# Param: SRC=2
# Param: E0=6.1
# type: array_1d(100)
# Source: Test_src_gaussian.instr
# component: lmon2
# position: 0 0 10.002
# title: Wavelength monitor
# Ncount: 1e+06
# filename: lmon2.dat
# format: McStas with text headers
# statistics: X0=1.42922; dX=0.273129;
# signal: Min=0; Max=1.15173e+13; Mean=3.17371e+12;
# values: 3.17371e+14 4.07799e+12 6085
# xvar: L
# yvar: (I,I_err)
# xlabel: Wavelength [AA]
# ylabel: Intensity
# xlimits: 0 2
# variables: L I I_err N
# Data [lmon2_dat/lmon2.dat] I: 
0.01 0 0 0 
0.03 0 0 0 
0.05 0 0 0 
0.07 0 0 0 
0.09 0 0 0 
0.11 0 0 0 
0.13 0 0 0 
0.15 0 0 0 
0.17 0 0 0 
0.19 0 0 0 
0.21 0 0 0 
0.23 0 0 0 
0.25 0 0 0 
0.27 0 0 0 
0.29 0 0 0 
0.31 0 0 0 
0.33 0 0 0 
0.35 0 0 0 
0.37 0 0 0 
0.39 0 0 0 
0.41 0 0 0 
0.43 0 0 0 
0.45 0 0 0 
0.47 0 0 0 
0.49 0 0 0 
0.51 0 0 0 
0.53 0 0 0 
0.55 0 0 0 
0.57 0 0 0 
0.59 0 0 0 
0.61 0 0 0 
0.63 0 0 0 
0.65 0 0 0 
0.67 0 0 0 
0.69 0 0 0 
0.71 0 0 0 
0.73 0 0 0 
0.75 0 0 0 
0.77 0 0 0 
0.79 0 0 0 
0.81 0 0 0 
0.83 0 0 0 
0.85 0 0 0 
0.87 0 0 0 
0.89 0 0 0 
0.91 0 0 0 
0.93 0 0 0 
0.95 0 0 0 
0.97 0 0 0 
0.99 0 0 0 
1.01 0 0 0 
1.03 3.68650817919e+12 404649830614 83 
1.05 1.00559259028e+13 673403100544 223 
1.07 1.09218930734e+13 707969862084 238 
1.09 1.15172738589e+13 732833350594 247 
1.11 9.56325060383e+12 672873507072 202 
1.13 9.79031275816e+12 685464825308 204 
1.15 9.43218895173e+12 677196055870 194 
1.17 9.88916826866e+12 697532216070 201 
1.19 9.40470671845e+12 684095174410 189 
1.21 8.56589292088e+12 655055627153 171 
1.23 9.1677554328e+12 681453440353 181 
1.25 7.27624466366e+12 610610796049 142 
1.27 7.75065887117e+12 632840401301 150 
1.29 8.33397934209e+12 658860249856 160 
1.31 7.29520675657e+12 618772605610 139 
1.33 7.44903323111e+12 627322936721 141 
1.35 7.0169674408e+12 610749520388 132 
1.37 8.23182739904e+12 663340302516 154 
1.39 7.57763965497e+12 638153194279 141 
1.41 7.88522116071e+12 652586119764 146 
1.43 6.72682876524e+12 604087552121 124 
1.45 6.91792159775e+12 613866629362 127 
1.47 6.88835236029e+12 613663490655 126 
1.49 6.36303616095e+12 590793303035 116 
1.51 5.88623999754e+12 569044487220 107 
1.53 5.84716426022e+12 567926962381 106 
1.55 5.30775449593e+12 541720532180 96 
1.57 5.48485652613e+12 551248900312 99 
1.59 4.71722872872e+12 511655350595 85 
1.61 5.66983604381e+12 561397475747 102 
1.63 5.89920921895e+12 572981882361 106 
1.65 6.57420392729e+12 605204556717 118 
1.67 5.2414203894e+12 540611244164 94 
1.69 4.51922762688e+12 502136405517 81 
1.71 5.07905634524e+12 532429778322 91 
1.73 3.85175383134e+12 463696671453 69 
1.75 4.68926357734e+12 511640603426 84 
1.77 4.79984519084e+12 517580618924 86 
1.79 3.79409408638e+12 460101493399 68 
1.81 4.68449545596e+12 511120367919 84 
1.83 4.01248402355e+12 472875787296 72 
1.85 4.90028910986e+12 522372593147 88 
1.87 4.2276655718e+12 484946522657 76 
1.89 3.05614210663e+12 412090142227 55 
1.91 5.3281489982e+12 543801959913 96 
1.93 4.54498075349e+12 501909201216 82 
1.95 3.48677268767e+12 439292110107 63 
1.97 4.9171217417e+12 521213921330 89 
1.99 3.14405143486e+12 416439828922 57 
# EndDate:Thu Jan 24 13:30:29 2013
